{
    "user": {
        "isProlific": true,
        "id": "5731195b070de6000f42c23e",
        "session": "6561abcec542d6297d8895e2",
        "study": "64ef977375f88e4e1174dce0"
    },
    "userAgent": "Mozilla/5.0 (Macintosh; Intel Mac OS X 10_15_7) AppleWebKit/537.36 (KHTML, like Gecko) Chrome/119.0.0.0 Safari/537.36",
    "landingDate": "2023-11-25T08:10:09.743Z",
    "startDate": "2023-11-25T08:18:56.801Z",
    "endDate": "2023-11-25T09:09:01.020Z",
    "reviews": [
        {
            "name": "6845",
            "score": "0.979",
            "index": 0,
            "selectedWords": [
                "autre",
                "autre",
                "autre",
                "autre",
                "ferme",
                "r\u00e9fl\u00e9chie"
            ],
            "freeResponses": [],
            "nbPlayClick": 3,
            "expression": "NEUTRE",
            "csv_id": 6879,
            "video_name": "DIVERS_PARL_AD_03_0003"
        },
        {
            "name": "6420",
            "score": "0.976",
            "index": 1,
            "selectedWords": [
                "d\u00e9sol\u00e9e",
                "en peine"
            ],
            "freeResponses": [],
            "nbPlayClick": 5,
            "expression": "SUPPLIANT",
            "csv_id": 6454,
            "video_name": "DIVERS_BOOK_SUPPLIANT_AD_01_0002"
        },
        {
            "name": "7216",
            "score": "0.981",
            "index": 2,
            "selectedWords": [
                "officielle",
                "s\u00fbre"
            ],
            "freeResponses": [],
            "nbPlayClick": 3,
            "expression": "NEUTRE",
            "csv_id": 7250,
            "video_name": "DIVERS_BOOK_AD_04_0002"
        },
        {
            "name": "1437",
            "score": "0.888",
            "index": 3,
            "selectedWords": [
                "\u00e9tonn\u00e9e",
                "abasourdie"
            ],
            "freeResponses": [],
            "nbPlayClick": 5,
            "expression": "RECONFORTANT",
            "csv_id": 1437,
            "video_name": "DIVERS_PARL_RECONFORTANT_AD_02_0001"
        },
        {
            "name": "4234",
            "score": "0.957",
            "index": 4,
            "selectedWords": [
                "en col\u00e8re",
                "irrit\u00e9e",
                "m\u00e9contente"
            ],
            "freeResponses": [],
            "nbPlayClick": 2,
            "expression": "EVIDENCE",
            "csv_id": 4234,
            "video_name": "DIVERS_PARL_EVIDENCE_AD_02_0002"
        },
        {
            "name": "12413",
            "score": "0.999",
            "index": 5,
            "selectedWords": [
                "officielle",
                "limpide",
                "s\u00fbre"
            ],
            "freeResponses": [],
            "nbPlayClick": 2,
            "expression": "NEUTRE",
            "csv_id": 12450,
            "video_name": "DIVERS_PARL_AD_02_0002"
        },
        {
            "name": "4496",
            "score": "0.961",
            "index": 6,
            "selectedWords": [
                "incr\u00e9dule",
                "abasourdie"
            ],
            "freeResponses": [],
            "nbPlayClick": 3,
            "expression": "ETONNE",
            "csv_id": 4530,
            "video_name": "DIVERS_PARL_ETONNE_AD_01_0001"
        },
        {
            "name": "3993",
            "score": "0.954",
            "index": 7,
            "selectedWords": [
                "neutre",
                "officielle",
                "froide"
            ],
            "freeResponses": [],
            "nbPlayClick": 2,
            "response": "off",
            "expression": "NEUTRE",
            "csv_id": 3993,
            "video_name": "DIVERS_BOOK_AD_03_0002"
        },
        {
            "name": "7107",
            "score": "0.980",
            "index": 8,
            "selectedWords": [
                "officielle",
                "neutre"
            ],
            "freeResponses": [],
            "nbPlayClick": 2,
            "response": "neu",
            "expression": "DETERMINE",
            "csv_id": 7141,
            "video_name": "DIVERS_PARL_DETERMINE_AD_01_0002"
        },
        {
            "name": "4894",
            "score": "0.965",
            "index": 9,
            "selectedWords": [
                "froide",
                "officielle",
                "neutre"
            ],
            "freeResponses": [],
            "nbPlayClick": 4,
            "response": "off",
            "expression": "DESOLE",
            "csv_id": 4928,
            "video_name": "DIVERS_PARL_DESOLE_AD_02_0002"
        },
        {
            "name": "1635",
            "score": "0.898",
            "index": 10,
            "selectedWords": [
                "espi\u00e8gle",
                "irrit\u00e9e",
                "sceptique"
            ],
            "freeResponses": [],
            "nbPlayClick": 2,
            "expression": "PENSIF",
            "csv_id": 1635,
            "video_name": "DIVERS_PARL_PENSIF_AD_01_0002"
        },
        {
            "name": "6854",
            "score": "0.979",
            "index": 11,
            "selectedWords": [
                "d\u00e9termin\u00e9e",
                "neutre",
                "s\u00fbre",
                "prouv\u00e9e"
            ],
            "freeResponses": [],
            "nbPlayClick": 1,
            "response": "neutr",
            "expression": "NEUTRE",
            "csv_id": 6888,
            "video_name": "DIVERS_PARL_AD_05_0001"
        },
        {
            "name": "12139",
            "score": "0.997",
            "index": 12,
            "selectedWords": [
                "officielle",
                "certaine",
                "in\u00e9branlable"
            ],
            "freeResponses": [],
            "nbPlayClick": 1,
            "response": "off",
            "expression": "NEUTRE",
            "csv_id": 12176,
            "video_name": "DIVERS_PARL_AD_01_0006"
        },
        {
            "name": "5370",
            "score": "0.969",
            "index": 13,
            "selectedWords": [
                "espi\u00e8gle",
                "narquoise"
            ],
            "freeResponses": [],
            "nbPlayClick": 5,
            "expression": "RECONFORTANT",
            "csv_id": 5404,
            "video_name": "DIVERS_BOOK_RECONFORTANT_AD_01_0004"
        },
        {
            "name": "11468",
            "score": "0.996",
            "index": 14,
            "selectedWords": [
                "neutre",
                "froide",
                "officielle"
            ],
            "freeResponses": [],
            "nbPlayClick": 1,
            "response": "offi",
            "expression": "NEUTRE",
            "csv_id": 11505,
            "video_name": "DIVERS_PARL_AD_04_0002"
        },
        {
            "name": "2620",
            "score": "0.930",
            "index": 15,
            "selectedWords": [
                "en col\u00e8re",
                "courrouc\u00e9e",
                "m\u00e9contente"
            ],
            "freeResponses": [],
            "nbPlayClick": 1,
            "expression": "COLERE",
            "csv_id": 2620,
            "video_name": "DIVERS_PARL_COLERE_AD_02_0002"
        },
        {
            "name": "5231",
            "score": "0.968",
            "index": 16,
            "selectedWords": [
                "officielle",
                "neutre"
            ],
            "freeResponses": [],
            "nbPlayClick": 1,
            "response": "neu",
            "expression": "NEUTRE",
            "csv_id": 5265,
            "video_name": "DIVERS_PARL_AD_04_0001"
        },
        {
            "name": "4844",
            "score": "0.964",
            "index": 17,
            "selectedWords": [
                "en col\u00e8re",
                "en rogne",
                "f\u00e2ch\u00e9e"
            ],
            "freeResponses": [],
            "nbPlayClick": 1,
            "expression": "COLERE",
            "csv_id": 4878,
            "video_name": "DIVERS_PARL_COLERE_AD_02_0002"
        },
        {
            "name": "890",
            "score": "0.851",
            "index": 18,
            "selectedWords": [
                "neutre",
                "s\u00fbre",
                "nette"
            ],
            "freeResponses": [],
            "nbPlayClick": 1,
            "expression": "NEUTRE",
            "csv_id": 890,
            "video_name": "DIVERS_PARL_AD_06_0003"
        },
        {
            "name": "4436",
            "score": "0.960",
            "index": 19,
            "selectedWords": [
                "incr\u00e9dule",
                "autre",
                "\u00e9berlu\u00e9e",
                "autre",
                "sid\u00e9r\u00e9e"
            ],
            "freeResponses": [],
            "nbPlayClick": 2,
            "expression": "ETONNE",
            "csv_id": 4470,
            "video_name": "DIVERS_BOOK_ETONNE_AD_01_0002"
        },
        {
            "name": "169",
            "score": "0.713",
            "index": 20,
            "selectedWords": [
                "neutre",
                "d\u00e9sol\u00e9e"
            ],
            "freeResponses": [],
            "nbPlayClick": 7,
            "expression": "RECONFORTANT",
            "csv_id": 169,
            "video_name": "DIVERS_BOOK_RECONFORTANT_AD_01_0002"
        },
        {
            "name": "7957",
            "score": "0.984",
            "index": 21,
            "selectedWords": [
                "\u00e9vidente",
                "indubitable",
                "certaine"
            ],
            "freeResponses": [],
            "nbPlayClick": 3,
            "expression": "NEUTRE",
            "csv_id": 7991,
            "video_name": "DIVERS_PARL_AD_05_0002"
        },
        {
            "name": "11621",
            "score": "0.996",
            "index": 22,
            "selectedWords": [
                "s\u00fbre",
                "certaine"
            ],
            "freeResponses": [],
            "nbPlayClick": 1,
            "response": "s\u00fb",
            "expression": "NEUTRE",
            "csv_id": 11658,
            "video_name": "DIVERS_PARL_AD_02_0004"
        },
        {
            "name": "3142",
            "score": "0.941",
            "index": 23,
            "selectedWords": [
                "excit\u00e9e",
                "certaine"
            ],
            "freeResponses": [],
            "nbPlayClick": 2,
            "response": "cert",
            "expression": "NEUTRE",
            "csv_id": 3142,
            "video_name": "DIVERS_BOOK_AD_03_0002"
        },
        {
            "name": "876",
            "score": "0.850",
            "index": 24,
            "selectedWords": [
                "espi\u00e8gle",
                "malicieuse",
                "rus\u00e9e",
                "froide"
            ],
            "freeResponses": [],
            "nbPlayClick": 2,
            "expression": "NEUTRE",
            "csv_id": 876,
            "video_name": "DIVERS_PARL_AD_01_0004"
        },
        {
            "name": "10122",
            "score": "0.992",
            "index": 25,
            "selectedWords": [
                "incr\u00e9dule",
                "autre",
                "autre",
                "\u00e9bahie",
                "h\u00e9b\u00e9t\u00e9e"
            ],
            "freeResponses": [],
            "nbPlayClick": 4,
            "expression": "ETONNE",
            "csv_id": 10156,
            "video_name": "DIVERS_BOOK_ETONNE_AD_03_0001"
        },
        {
            "name": "3745",
            "score": "0.950",
            "index": 26,
            "selectedWords": [
                "en col\u00e8re",
                "irrit\u00e9e",
                "autre",
                "espi\u00e8gle"
            ],
            "freeResponses": [],
            "nbPlayClick": 2,
            "expression": "ENTHOUSIASTE",
            "csv_id": 3745,
            "video_name": "DIVERS_PARL_ENTHOUSIASTE_AD_01_0003"
        },
        {
            "name": "9088",
            "score": "0.989",
            "index": 27,
            "selectedWords": [
                "froide",
                "limpide",
                "officielle"
            ],
            "freeResponses": [],
            "nbPlayClick": 2,
            "response": "fr",
            "expression": "NEUTRE",
            "csv_id": 9122,
            "video_name": "DIVERS_PARL_AD_06_0003"
        },
        {
            "name": "11528",
            "score": "0.996",
            "index": 28,
            "selectedWords": [
                "officielle",
                "autre",
                "s\u00fbre"
            ],
            "freeResponses": [],
            "nbPlayClick": 3,
            "response": "s\u00fb",
            "expression": "NEUTRE",
            "csv_id": 11565,
            "video_name": "DIVERS_PARL_AD_03_0001"
        },
        {
            "name": "8844",
            "score": "0.988",
            "index": 29,
            "selectedWords": [
                "espi\u00e8gle",
                "narquoise",
                "autre",
                "autre",
                "in\u00e9branlable"
            ],
            "freeResponses": [],
            "nbPlayClick": 2,
            "expression": "ENTHOUSIASTE",
            "csv_id": 8878,
            "video_name": "DIVERS_PARL_ENTHOUSIASTE_AD_02_0001"
        },
        {
            "name": "4897",
            "score": "0.965",
            "index": 30,
            "selectedWords": [
                "pensive",
                "r\u00e9fl\u00e9chissante",
                "autre"
            ],
            "freeResponses": [],
            "nbPlayClick": 2,
            "expression": "PENSIF",
            "csv_id": 4931,
            "video_name": "DIVERS_BOOK_PENSIF_AD_03_0002"
        },
        {
            "name": "4805",
            "score": "0.964",
            "index": 31,
            "selectedWords": [
                "incr\u00e9dule",
                "dubitative",
                "perplexe"
            ],
            "freeResponses": [],
            "nbPlayClick": 2,
            "expression": "ETONNE",
            "csv_id": 4839,
            "video_name": "DIVERS_PARL_ETONNE_AD_01_0001"
        },
        {
            "name": "7108",
            "score": "0.980",
            "index": 32,
            "selectedWords": [
                "enthousiaste",
                "euphorique",
                "autre",
                "autre",
                "fac\u00e9tieuse"
            ],
            "freeResponses": [],
            "nbPlayClick": 2,
            "expression": "ESPIEGLE",
            "csv_id": 7142,
            "video_name": "DIVERS_PARL_ESPIEGLE_AD_01_0001"
        },
        {
            "name": "2302",
            "score": "0.921",
            "index": 33,
            "selectedWords": [
                "autre",
                "certaine",
                "s\u00fbre",
                "autre",
                "autre",
                "autre",
                "autre",
                "autre",
                "autre",
                "incontestable"
            ],
            "freeResponses": [],
            "nbPlayClick": 3,
            "expression": "NEUTRE",
            "csv_id": 2302,
            "video_name": "DIVERS_PARL_AD_03_0001"
        },
        {
            "name": "7807",
            "score": "0.983",
            "index": 34,
            "selectedWords": [
                "en col\u00e8re",
                "courrouc\u00e9e",
                "f\u00e2ch\u00e9e"
            ],
            "freeResponses": [],
            "nbPlayClick": 1,
            "expression": "DETERMINE",
            "csv_id": 7841,
            "video_name": "DIVERS_PARL_DETERMINE_AD_01_0004"
        },
        {
            "name": "5681",
            "score": "0.971",
            "index": 35,
            "selectedWords": [
                "neutre",
                "certaine",
                "manifeste"
            ],
            "freeResponses": [],
            "nbPlayClick": 2,
            "expression": "NEUTRE",
            "csv_id": 5715,
            "video_name": "DIVERS_PARL_AD_05_0004"
        },
        {
            "name": "7250",
            "score": "0.981",
            "index": 36,
            "selectedWords": [
                "d\u00e9termin\u00e9e",
                "manifeste",
                "autre",
                "autre",
                "autre"
            ],
            "freeResponses": [],
            "nbPlayClick": 5,
            "expression": "NEUTRE",
            "csv_id": 7284,
            "video_name": "DIVERS_BOOK_AD_03_0001"
        },
        {
            "name": "1823",
            "score": "0.906",
            "index": 37,
            "selectedWords": [
                "autre",
                "suppliante",
                "afflig\u00e9e",
                "pein\u00e9e"
            ],
            "freeResponses": [],
            "nbPlayClick": 3,
            "expression": "RECONFORTANT",
            "csv_id": 1823,
            "video_name": "DIVERS_PARL_RECONFORTANT_AD_02_0001"
        },
        {
            "name": "7155",
            "score": "0.980",
            "index": 38,
            "selectedWords": [
                "d\u00e9termin\u00e9e",
                "autre",
                "autre",
                "autre",
                "autre",
                "autre",
                "autre",
                "autre",
                "autre",
                "s\u00fbre",
                "irr\u00e9cusable"
            ],
            "freeResponses": [],
            "nbPlayClick": 3,
            "response": "s\u00fb",
            "expression": "NEUTRE",
            "csv_id": 7189,
            "video_name": "DIVERS_BOOK_AD_03_0001"
        },
        {
            "name": "7840",
            "score": "0.984",
            "index": 39,
            "selectedWords": [
                "\u00e9vidente",
                "incontestable",
                "certaine"
            ],
            "freeResponses": [],
            "nbPlayClick": 1,
            "expression": "NEUTRE",
            "csv_id": 7874,
            "video_name": "DIVERS_PARL_AD_03_0001"
        },
        {
            "name": "8436",
            "score": "0.986",
            "index": 40,
            "selectedWords": [
                "officielle",
                "neutre"
            ],
            "freeResponses": [],
            "nbPlayClick": 1,
            "response": "neu",
            "expression": "NEUTRE",
            "csv_id": 8470,
            "video_name": "DIVERS_PARL_AD_06_0001"
        },
        {
            "name": "4821",
            "score": "0.964",
            "index": 41,
            "selectedWords": [
                "\u00e9vidente",
                "indubitable"
            ],
            "freeResponses": [],
            "nbPlayClick": 1,
            "expression": "NEUTRE",
            "csv_id": 4855,
            "video_name": "DIVERS_PARL_AD_05_0003"
        },
        {
            "name": "5063",
            "score": "0.966",
            "index": 42,
            "selectedWords": [
                "\u00e9vidente",
                "prouv\u00e9e"
            ],
            "freeResponses": [],
            "nbPlayClick": 5,
            "expression": "EVIDENCE",
            "csv_id": 5097,
            "video_name": "DIVERS_PARL_EVIDENCE_AD_02_0002"
        },
        {
            "name": "11670",
            "score": "0.996",
            "index": 43,
            "selectedWords": [
                "\u00e9vidente",
                "manifeste",
                "r\u00e9fl\u00e9chie",
                "nette"
            ],
            "freeResponses": [],
            "nbPlayClick": 2,
            "expression": "NEUTRE",
            "csv_id": 11707,
            "video_name": "DIVERS_PARL_AD_02_0002"
        },
        {
            "name": "1967",
            "score": "0.911",
            "index": 44,
            "selectedWords": [
                "autre",
                "autre",
                "autre",
                "autre",
                "autre",
                "autre",
                "ind\u00e9niable",
                "autre",
                "autre",
                "s\u00fbre"
            ],
            "freeResponses": [],
            "nbPlayClick": 1,
            "expression": "NEUTRE",
            "csv_id": 1967,
            "video_name": "DIVERS_PARL_AD_04_0003"
        },
        {
            "name": "10114",
            "score": "0.992",
            "index": 45,
            "selectedWords": [
                "officielle",
                "s\u00fbre"
            ],
            "freeResponses": [],
            "nbPlayClick": 1,
            "response": "s\u00fb",
            "expression": "NEUTRE",
            "csv_id": 10148,
            "video_name": "DIVERS_BOOK_AD_04_0002"
        },
        {
            "name": "167",
            "score": "0.712",
            "index": 46,
            "selectedWords": [
                "d\u00e9termin\u00e9e",
                "dubitative",
                "autre"
            ],
            "freeResponses": [],
            "nbPlayClick": 2,
            "response": "dub",
            "expression": "INCREDULE",
            "csv_id": 167,
            "video_name": "DIVERS_PARL_INCREDULE_AD_01_0001"
        },
        {
            "name": "1041",
            "score": "0.864",
            "index": 47,
            "selectedWords": [
                "autre",
                "apaisante",
                "ferme",
                "d\u00e9termin\u00e9e"
            ],
            "freeResponses": [],
            "nbPlayClick": 2,
            "expression": "EVIDENCE",
            "csv_id": 1041,
            "video_name": "DIVERS_PARL_EVIDENCE_AD_02_0002"
        },
        {
            "name": "4787",
            "score": "0.964",
            "index": 48,
            "selectedWords": [
                "espi\u00e8gle",
                "taquine"
            ],
            "freeResponses": [],
            "nbPlayClick": 1,
            "expression": "NEUTRE",
            "csv_id": 4821,
            "video_name": "DIVERS_PARL_AD_03_0003"
        },
        {
            "name": "8208",
            "score": "0.985",
            "index": 49,
            "selectedWords": [
                "\u00e9vidente",
                "prouv\u00e9e",
                "s\u00fbre"
            ],
            "freeResponses": [],
            "nbPlayClick": 2,
            "expression": "NEUTRE",
            "csv_id": 8242,
            "video_name": "DIVERS_BOOK_AD_01_0001"
        },
        {
            "name": "6201",
            "score": "0.975",
            "index": 50,
            "selectedWords": [
                "incr\u00e9dule",
                "m\u00e9fiante"
            ],
            "freeResponses": [],
            "nbPlayClick": 4,
            "expression": "ETONNE",
            "csv_id": 6235,
            "video_name": "DIVERS_BOOK_ETONNE_AD_01_0004"
        },
        {
            "name": "7734",
            "score": "0.983",
            "index": 51,
            "selectedWords": [
                "espi\u00e8gle",
                "m\u00e9fiante",
                "dubitative",
                "sceptique"
            ],
            "freeResponses": [],
            "nbPlayClick": 1,
            "response": "m\u00e9f",
            "expression": "INCREDULE",
            "csv_id": 7768,
            "video_name": "DIVERS_BOOK_INCREDULE_AD_01_0001"
        },
        {
            "name": "8579",
            "score": "0.987",
            "index": 52,
            "selectedWords": [
                "incr\u00e9dule",
                "autre",
                "autre",
                "espi\u00e8gle",
                "indign\u00e9e"
            ],
            "freeResponses": [],
            "nbPlayClick": 2,
            "expression": "ETONNE",
            "csv_id": 8613,
            "video_name": "DIVERS_PARL_ETONNE_AD_01_0001"
        },
        {
            "name": "5162",
            "score": "0.967",
            "index": 53,
            "selectedWords": [
                "r\u00e9confortante",
                "convaincue",
                "rus\u00e9e"
            ],
            "freeResponses": [],
            "nbPlayClick": 1,
            "expression": "EVIDENCE",
            "csv_id": 5196,
            "video_name": "DIVERS_PARL_EVIDENCE_AD_01_0001"
        },
        {
            "name": "10574",
            "score": "0.993",
            "index": 54,
            "selectedWords": [
                "officielle",
                "dubitative"
            ],
            "freeResponses": [],
            "nbPlayClick": 1,
            "response": "off",
            "expression": "NEUTRE",
            "csv_id": 10608,
            "video_name": "DIVERS_PARL_AD_06_0001"
        },
        {
            "name": "9504",
            "score": "0.990",
            "index": 55,
            "selectedWords": [
                "en col\u00e8re",
                "courrouc\u00e9e",
                "d\u00e9cid\u00e9e"
            ],
            "freeResponses": [],
            "nbPlayClick": 2,
            "expression": "COLERE",
            "csv_id": 9538,
            "video_name": "DIVERS_PARL_COLERE_AD_01_0004"
        },
        {
            "name": "3483",
            "score": "0.946",
            "index": 56,
            "selectedWords": [
                "espi\u00e8gle",
                "malicieuse",
                "rus\u00e9e"
            ],
            "freeResponses": [],
            "nbPlayClick": 1,
            "expression": "RECONFORTANT",
            "csv_id": 3483,
            "video_name": "DIVERS_BOOK_RECONFORTANT_AD_03_0002"
        },
        {
            "name": "12393",
            "score": "0.999",
            "index": 57,
            "selectedWords": [
                "officielle",
                "certaine"
            ],
            "freeResponses": [],
            "nbPlayClick": 1,
            "response": "officiel",
            "expression": "NEUTRE",
            "csv_id": 12430,
            "video_name": "DIVERS_BOOK_AD_04_0002"
        },
        {
            "name": "5778",
            "score": "0.972",
            "index": 58,
            "selectedWords": [
                "en col\u00e8re",
                "irrit\u00e9e",
                "f\u00e2ch\u00e9e"
            ],
            "freeResponses": [],
            "nbPlayClick": 1,
            "expression": "EVIDENCE",
            "csv_id": 5812,
            "video_name": "DIVERS_PARL_EVIDENCE_AD_02_0002"
        },
        {
            "name": "2747",
            "score": "0.933",
            "index": 59,
            "selectedWords": [
                "\u00e9vidente",
                "prouv\u00e9e"
            ],
            "freeResponses": [],
            "nbPlayClick": 2,
            "expression": "NEUTRE",
            "csv_id": 2747,
            "video_name": "DIVERS_BOOK_AD_04_0002"
        }
    ],
    "training": [
        {
            "name": "77",
            "score": "0.639",
            "index": 0,
            "selectedWords": [
                "neutre",
                "limpide",
                "officielle",
                "\u00e9nergique"
            ],
            "freeResponses": [],
            "nbPlayClick": 4,
            "expression": "NEUTRE"
        }
    ],
    "filenameDate": "2023-11-25_10-9"
}