{
    "user": {
        "isProlific": true,
        "id": "594168ba3c965e0001165886",
        "session": "657f5eb437981b7186b95b24",
        "study": "64ef977375f88e4e1174dce0"
    },
    "userAgent": "Mozilla/5.0 (Windows NT 10.0; Win64; x64) AppleWebKit/537.36 (KHTML, like Gecko) Chrome/120.0.0.0 Safari/537.36",
    "landingDate": "2023-12-17T20:49:05.483Z",
    "startDate": "2023-12-17T20:50:00.390Z",
    "endDate": "2023-12-17T21:22:26.617Z",
    "reviews": [
        {
            "name": "5847",
            "score": "0.973",
            "index": 0,
            "selectedWords": [
                "en col\u00e8re",
                "\u00e9nerv\u00e9e"
            ],
            "freeResponses": [],
            "nbPlayClick": 3,
            "expression": "SUPPLIANT",
            "csv_id": 5881,
            "video_name": "DIVERS_PARL_SUPPLIANT_AD_02_0002"
        },
        {
            "name": "5431",
            "score": "0.969",
            "index": 1,
            "selectedWords": [
                "d\u00e9termin\u00e9e",
                "agit\u00e9e"
            ],
            "freeResponses": [],
            "nbPlayClick": 2,
            "expression": "DETERMINE",
            "csv_id": 5465,
            "video_name": "DIVERS_BOOK_DETERMINE_AD_03_0001"
        },
        {
            "name": "2059",
            "score": "0.914",
            "index": 2,
            "selectedWords": [
                "\u00e9vidente",
                "incontestable",
                "certaine",
                "ind\u00e9niable"
            ],
            "freeResponses": [],
            "nbPlayClick": 2,
            "expression": "NEUTRE",
            "csv_id": 2059,
            "video_name": "DIVERS_PARL_AD_05_0002"
        },
        {
            "name": "8255",
            "score": "0.985",
            "index": 3,
            "selectedWords": [
                "pensive",
                "r\u00eaveuse"
            ],
            "freeResponses": [],
            "nbPlayClick": 2,
            "expression": "RECONFORTANT",
            "csv_id": 8289,
            "video_name": "DIVERS_BOOK_RECONFORTANT_AD_01_0004"
        },
        {
            "name": "5941",
            "score": "0.973",
            "index": 4,
            "selectedWords": [
                "d\u00e9termin\u00e9e",
                "r\u00e9solue",
                "convaincue"
            ],
            "freeResponses": [],
            "nbPlayClick": 2,
            "expression": "NEUTRE",
            "csv_id": 5975,
            "video_name": "DIVERS_PARL_AD_06_0002"
        },
        {
            "name": "9592",
            "score": "0.990",
            "index": 5,
            "selectedWords": [
                "neutre",
                "s\u00fbre",
                "nette"
            ],
            "freeResponses": [],
            "nbPlayClick": 2,
            "expression": "NEUTRE",
            "csv_id": 9626,
            "video_name": "DIVERS_PARL_AD_05_0003"
        },
        {
            "name": "11837",
            "score": "0.997",
            "index": 6,
            "selectedWords": [
                "neutre",
                "autre",
                "imp\u00e9n\u00e9trable",
                "inexpressive"
            ],
            "freeResponses": [],
            "nbPlayClick": 3,
            "expression": "NEUTRE",
            "csv_id": 11874,
            "video_name": "DIVERS_BOOK_AD_04_0001"
        },
        {
            "name": "4560",
            "score": "0.961",
            "index": 7,
            "selectedWords": [
                "neutre",
                "autre",
                "autre",
                "inexpressive"
            ],
            "freeResponses": [],
            "nbPlayClick": 2,
            "expression": "NEUTRE",
            "csv_id": 4594,
            "video_name": "DIVERS_PARL_AD_03_0003"
        },
        {
            "name": "12156",
            "score": "0.998",
            "index": 8,
            "selectedWords": [
                "\u00e9tonn\u00e9e",
                "autre",
                "\u00e9berlu\u00e9e",
                "abasourdie",
                "sid\u00e9r\u00e9e"
            ],
            "freeResponses": [],
            "nbPlayClick": 2,
            "expression": "ETONNE",
            "csv_id": 12193,
            "video_name": "DIVERS_BOOK_ETONNE_AD_01_0004"
        },
        {
            "name": "5241",
            "score": "0.968",
            "index": 9,
            "selectedWords": [
                "neutre",
                "certaine",
                "nette"
            ],
            "freeResponses": [],
            "nbPlayClick": 2,
            "expression": "DETERMINE",
            "csv_id": 5275,
            "video_name": "DIVERS_PARL_DETERMINE_AD_01_0002"
        },
        {
            "name": "10626",
            "score": "0.993",
            "index": 10,
            "selectedWords": [
                "espi\u00e8gle",
                "taquine",
                "autre",
                "autre"
            ],
            "freeResponses": [],
            "nbPlayClick": 2,
            "expression": "NEUTRE",
            "csv_id": 10660,
            "video_name": "DIVERS_BOOK_AD_04_0002"
        },
        {
            "name": "11615",
            "score": "0.996",
            "index": 11,
            "selectedWords": [
                "suppliante",
                "implorante"
            ],
            "freeResponses": [],
            "nbPlayClick": 2,
            "expression": "SUPPLIANT",
            "csv_id": 11652,
            "video_name": "DIVERS_PARL_SUPPLIANT_AD_02_0002"
        },
        {
            "name": "4429",
            "score": "0.960",
            "index": 12,
            "selectedWords": [
                "neutre",
                "certaine",
                "nette"
            ],
            "freeResponses": [],
            "nbPlayClick": 1,
            "expression": "NEUTRE",
            "csv_id": 4463,
            "video_name": "DIVERS_PARL_AD_03_0001"
        },
        {
            "name": "5319",
            "score": "0.968",
            "index": 13,
            "selectedWords": [
                "autre",
                "autre",
                "autre",
                "autre",
                "ennuy\u00e9e",
                "contrari\u00e9e"
            ],
            "freeResponses": [],
            "nbPlayClick": 3,
            "expression": "EVIDENCE",
            "csv_id": 5353,
            "video_name": "DIVERS_BOOK_EVIDENCE_AD_01_0002"
        },
        {
            "name": "11447",
            "score": "0.996",
            "index": 14,
            "selectedWords": [
                "enthousiaste",
                "euphorique",
                "excit\u00e9e",
                "passionn\u00e9e"
            ],
            "freeResponses": [],
            "nbPlayClick": 2,
            "expression": "ENTHOUSIASTE",
            "csv_id": 11484,
            "video_name": "DIVERS_BOOK_ENTHOUSIASTE_AD_01_0001"
        },
        {
            "name": "11070",
            "score": "0.994",
            "index": 15,
            "selectedWords": [
                "incr\u00e9dule",
                "m\u00e9fiante",
                "sceptique"
            ],
            "freeResponses": [],
            "nbPlayClick": 2,
            "expression": "NEUTRE",
            "csv_id": 11104,
            "video_name": "DIVERS_BOOK_AD_04_0002"
        },
        {
            "name": "8586",
            "score": "0.987",
            "index": 16,
            "selectedWords": [
                "neutre",
                "autre",
                "autre",
                "autre",
                "autre",
                "autre",
                "autre",
                "autre",
                "autre",
                "autre",
                "autre",
                "autre",
                "autre",
                "autre",
                "autre",
                "fade"
            ],
            "freeResponses": [],
            "nbPlayClick": 3,
            "expression": "NEUTRE",
            "csv_id": 8620,
            "video_name": "DIVERS_BOOK_AD_03_0001"
        },
        {
            "name": "8744",
            "score": "0.987",
            "index": 17,
            "selectedWords": [
                "enthousiaste",
                "triomphale",
                "emball\u00e9e",
                "autre"
            ],
            "freeResponses": [],
            "nbPlayClick": 1,
            "expression": "ENTHOUSIASTE",
            "csv_id": 8778,
            "video_name": "DIVERS_BOOK_ENTHOUSIASTE_AD_01_0001"
        },
        {
            "name": "6425",
            "score": "0.976",
            "index": 18,
            "selectedWords": [
                "pensive",
                "autre",
                "autre",
                "autre",
                "attrist\u00e9e",
                "d\u00e9pit\u00e9e"
            ],
            "freeResponses": [],
            "nbPlayClick": 2,
            "expression": "SUPPLIANT",
            "csv_id": 6459,
            "video_name": "DIVERS_PARL_SUPPLIANT_AD_02_0002"
        },
        {
            "name": "4190",
            "score": "0.957",
            "index": 19,
            "selectedWords": [
                "\u00e9vidente",
                "incontestable",
                "certaine",
                "s\u00fbre"
            ],
            "freeResponses": [],
            "nbPlayClick": 1,
            "expression": "NEUTRE",
            "csv_id": 4190,
            "video_name": "DIVERS_PARL_AD_03_0001"
        },
        {
            "name": "5710",
            "score": "0.972",
            "index": 20,
            "selectedWords": [
                "d\u00e9sol\u00e9e",
                "transport\u00e9e",
                "autre",
                "autre"
            ],
            "freeResponses": [],
            "nbPlayClick": 4,
            "expression": "ENTHOUSIASTE",
            "csv_id": 5744,
            "video_name": "DIVERS_PARL_ENTHOUSIASTE_AD_02_0001"
        },
        {
            "name": "1562",
            "score": "0.894",
            "index": 21,
            "selectedWords": [
                "incr\u00e9dule",
                "autre",
                "autre",
                "\u00e9bahie",
                "stup\u00e9faite"
            ],
            "freeResponses": [],
            "nbPlayClick": 2,
            "expression": "INCREDULE",
            "csv_id": 1562,
            "video_name": "DIVERS_PARL_INCREDULE_AD_02_0003"
        },
        {
            "name": "12318",
            "score": "0.998",
            "index": 22,
            "selectedWords": [
                "\u00e9tonn\u00e9e",
                "autre",
                "\u00e9berlu\u00e9e",
                "abasourdie",
                "stup\u00e9faite"
            ],
            "freeResponses": [],
            "nbPlayClick": 1,
            "expression": "ETONNE",
            "csv_id": 12355,
            "video_name": "DIVERS_BOOK_ETONNE_AD_01_0002"
        },
        {
            "name": "10878",
            "score": "0.994",
            "index": 23,
            "selectedWords": [
                "autre",
                "autre",
                "autre",
                "autre",
                "autre",
                "autre",
                "d\u00e9cid\u00e9e",
                "r\u00e9solue"
            ],
            "freeResponses": [],
            "nbPlayClick": 3,
            "expression": "NEUTRE",
            "csv_id": 10912,
            "video_name": "DIVERS_PARL_AD_01_0005"
        },
        {
            "name": "5656",
            "score": "0.971",
            "index": 24,
            "selectedWords": [
                "en col\u00e8re",
                "\u00e9nerv\u00e9e",
                "m\u00e9contente",
                "contrari\u00e9e"
            ],
            "freeResponses": [],
            "nbPlayClick": 1,
            "expression": "COLERE",
            "csv_id": 5690,
            "video_name": "DIVERS_PARL_COLERE_AD_02_0002"
        },
        {
            "name": "10891",
            "score": "0.994",
            "index": 25,
            "selectedWords": [
                "\u00e9vidente",
                "manifeste",
                "convaincue"
            ],
            "freeResponses": [],
            "nbPlayClick": 1,
            "expression": "NEUTRE",
            "csv_id": 10925,
            "video_name": "DIVERS_PARL_AD_06_0003"
        },
        {
            "name": "5162",
            "score": "0.967",
            "index": 26,
            "selectedWords": [
                "r\u00e9confortante",
                "apaisante",
                "autre"
            ],
            "freeResponses": [],
            "nbPlayClick": 2,
            "expression": "EVIDENCE",
            "csv_id": 5196,
            "video_name": "DIVERS_PARL_EVIDENCE_AD_01_0001"
        },
        {
            "name": "11613",
            "score": "0.996",
            "index": 27,
            "selectedWords": [
                "espi\u00e8gle",
                "taquine",
                "autre",
                "autre"
            ],
            "freeResponses": [],
            "nbPlayClick": 1,
            "expression": "ESPIEGLE",
            "csv_id": 11650,
            "video_name": "DIVERS_PARL_ESPIEGLE_AD_01_0001"
        },
        {
            "name": "12283",
            "score": "0.998",
            "index": 28,
            "selectedWords": [
                "neutre",
                "limpide",
                "froide"
            ],
            "freeResponses": [],
            "nbPlayClick": 1,
            "expression": "NEUTRE",
            "csv_id": 12320,
            "video_name": "DIVERS_BOOK_AD_03_0001"
        },
        {
            "name": "6544",
            "score": "0.977",
            "index": 29,
            "selectedWords": [
                "pensive",
                "m\u00e9ditative",
                "pensante"
            ],
            "freeResponses": [],
            "nbPlayClick": 2,
            "expression": "RECONFORTANT",
            "csv_id": 6578,
            "video_name": "DIVERS_BOOK_RECONFORTANT_AD_01_0002"
        },
        {
            "name": "12413",
            "score": "0.999",
            "index": 30,
            "selectedWords": [
                "neutre",
                "autre",
                "autre",
                "autre",
                "autre",
                "autre",
                "autre",
                "autre",
                "autre",
                "autre",
                "autre",
                "autre",
                "autre",
                "autre",
                "autre",
                "fade"
            ],
            "freeResponses": [],
            "nbPlayClick": 2,
            "expression": "NEUTRE",
            "csv_id": 12450,
            "video_name": "DIVERS_PARL_AD_02_0002"
        },
        {
            "name": "6737",
            "score": "0.978",
            "index": 31,
            "selectedWords": [
                "d\u00e9termin\u00e9e",
                "r\u00e9solue"
            ],
            "freeResponses": [],
            "nbPlayClick": 2,
            "expression": "NEUTRE",
            "csv_id": 6771,
            "video_name": "DIVERS_BOOK_AD_04_0001"
        },
        {
            "name": "10658",
            "score": "0.994",
            "index": 32,
            "selectedWords": [
                "\u00e9vidente",
                "incontestable",
                "certaine",
                "ind\u00e9niable"
            ],
            "freeResponses": [],
            "nbPlayClick": 1,
            "expression": "NEUTRE",
            "csv_id": 10692,
            "video_name": "DIVERS_PARL_AD_01_0004"
        },
        {
            "name": "3320",
            "score": "0.944",
            "index": 33,
            "selectedWords": [
                "espi\u00e8gle",
                "malicieuse",
                "autre"
            ],
            "freeResponses": [],
            "nbPlayClick": 2,
            "expression": "ESPIEGLE",
            "csv_id": 3320,
            "video_name": "DIVERS_PARL_ESPIEGLE_AD_01_0001"
        },
        {
            "name": "6947",
            "score": "0.979",
            "index": 34,
            "selectedWords": [
                "neutre",
                "limpide"
            ],
            "freeResponses": [],
            "nbPlayClick": 2,
            "expression": "NEUTRE",
            "csv_id": 6981,
            "video_name": "DIVERS_BOOK_AD_03_0001"
        },
        {
            "name": "4899",
            "score": "0.965",
            "index": 35,
            "selectedWords": [
                "\u00e9vidente",
                "incontestable",
                "certaine"
            ],
            "freeResponses": [],
            "nbPlayClick": 2,
            "expression": "NEUTRE",
            "csv_id": 4933,
            "video_name": "DIVERS_BOOK_AD_04_0001"
        },
        {
            "name": "7624",
            "score": "0.983",
            "index": 36,
            "selectedWords": [
                "\u00e9tonn\u00e9e",
                "autre",
                "\u00e9berlu\u00e9e",
                "\u00e9bahie",
                "stup\u00e9faite"
            ],
            "freeResponses": [],
            "nbPlayClick": 1,
            "expression": "ETONNE",
            "csv_id": 7658,
            "video_name": "DIVERS_BOOK_ETONNE_AD_01_0004"
        },
        {
            "name": "1920",
            "score": "0.909",
            "index": 37,
            "selectedWords": [
                "\u00e9vidente",
                "incontestable",
                "certaine",
                "ind\u00e9niable"
            ],
            "freeResponses": [],
            "nbPlayClick": 2,
            "expression": "EVIDENCE",
            "csv_id": 1920,
            "video_name": "DIVERS_PARL_EVIDENCE_AD_01_0001"
        },
        {
            "name": "1972",
            "score": "0.911",
            "index": 38,
            "selectedWords": [
                "\u00e9vidente",
                "autre",
                "imp\u00e9n\u00e9trable"
            ],
            "freeResponses": [],
            "nbPlayClick": 2,
            "expression": "INCREDULE",
            "csv_id": 1972,
            "video_name": "DIVERS_PARL_INCREDULE_AD_01_0001"
        },
        {
            "name": "727",
            "score": "0.834",
            "index": 39,
            "selectedWords": [
                "navr\u00e9e",
                "contrari\u00e9e"
            ],
            "freeResponses": [],
            "nbPlayClick": 4,
            "expression": "INCREDULE",
            "csv_id": 727,
            "video_name": "DIVERS_PARL_INCREDULE_AD_02_0003"
        },
        {
            "name": "6133",
            "score": "0.975",
            "index": 40,
            "selectedWords": [
                "d\u00e9sol\u00e9e",
                "nette"
            ],
            "freeResponses": [],
            "nbPlayClick": 3,
            "expression": "EVIDENCE",
            "csv_id": 6167,
            "video_name": "DIVERS_PARL_EVIDENCE_AD_01_0001"
        },
        {
            "name": "10747",
            "score": "0.994",
            "index": 41,
            "selectedWords": [
                "neutre",
                "certaine"
            ],
            "freeResponses": [],
            "nbPlayClick": 2,
            "expression": "NEUTRE",
            "csv_id": 10781,
            "video_name": "DIVERS_BOOK_AD_04_0002"
        },
        {
            "name": "1713",
            "score": "0.901",
            "index": 42,
            "selectedWords": [
                "neutre",
                "certaine",
                "in\u00e9branlable"
            ],
            "freeResponses": [],
            "nbPlayClick": 1,
            "expression": "NEUTRE",
            "csv_id": 1713,
            "video_name": "DIVERS_PARL_AD_03_0002"
        },
        {
            "name": "9871",
            "score": "0.991",
            "index": 43,
            "selectedWords": [
                "neutre",
                "s\u00fbre"
            ],
            "freeResponses": [],
            "nbPlayClick": 2,
            "expression": "NEUTRE",
            "csv_id": 9905,
            "video_name": "DIVERS_PARL_AD_06_0002"
        },
        {
            "name": "6525",
            "score": "0.977",
            "index": 44,
            "selectedWords": [
                "enthousiaste",
                "autre",
                "autre",
                "autre",
                "autre",
                "vivifiante",
                "autre"
            ],
            "freeResponses": [],
            "nbPlayClick": 2,
            "expression": "ENTHOUSIASTE",
            "csv_id": 6559,
            "video_name": "DIVERS_PARL_ENTHOUSIASTE_AD_01_0003"
        },
        {
            "name": "6304",
            "score": "0.976",
            "index": 45,
            "selectedWords": [
                "neutre",
                "limpide",
                "froide"
            ],
            "freeResponses": [],
            "nbPlayClick": 1,
            "expression": "NEUTRE",
            "csv_id": 6338,
            "video_name": "DIVERS_BOOK_AD_01_0001"
        },
        {
            "name": "7001",
            "score": "0.980",
            "index": 46,
            "selectedWords": [
                "autre",
                "dubitative",
                "sceptique"
            ],
            "freeResponses": [],
            "nbPlayClick": 2,
            "expression": "INCREDULE",
            "csv_id": 7035,
            "video_name": "DIVERS_BOOK_INCREDULE_AD_01_0001"
        },
        {
            "name": "7730",
            "score": "0.983",
            "index": 47,
            "selectedWords": [
                "d\u00e9termin\u00e9e",
                "r\u00e9fl\u00e9chie"
            ],
            "freeResponses": [],
            "nbPlayClick": 2,
            "expression": "NEUTRE",
            "csv_id": 7764,
            "video_name": "DIVERS_PARL_AD_01_0006"
        },
        {
            "name": "2064",
            "score": "0.914",
            "index": 48,
            "selectedWords": [
                "d\u00e9sol\u00e9e",
                "autre",
                "dubitative"
            ],
            "freeResponses": [],
            "nbPlayClick": 3,
            "expression": "INCREDULE",
            "csv_id": 2064,
            "video_name": "DIVERS_PARL_INCREDULE_AD_02_0003"
        },
        {
            "name": "11294",
            "score": "0.995",
            "index": 49,
            "selectedWords": [
                "\u00e9vidente",
                "autre",
                "imp\u00e9n\u00e9trable"
            ],
            "freeResponses": [],
            "nbPlayClick": 2,
            "expression": "NEUTRE",
            "csv_id": 11328,
            "video_name": "DIVERS_PARL_AD_02_0001"
        },
        {
            "name": "6279",
            "score": "0.976",
            "index": 50,
            "selectedWords": [
                "\u00e9vidente",
                "incontestable",
                "certaine",
                "s\u00fbre",
                "ardente"
            ],
            "freeResponses": [],
            "nbPlayClick": 1,
            "expression": "EVIDENCE",
            "csv_id": 6313,
            "video_name": "DIVERS_PARL_EVIDENCE_AD_02_0002"
        },
        {
            "name": "9037",
            "score": "0.988",
            "index": 51,
            "selectedWords": [
                "pensive",
                "r\u00e9fl\u00e9chissante",
                "pensante"
            ],
            "freeResponses": [],
            "nbPlayClick": 1,
            "expression": "PENSIF",
            "csv_id": 9071,
            "video_name": "DIVERS_BOOK_PENSIF_AD_03_0002"
        },
        {
            "name": "11825",
            "score": "0.997",
            "index": 52,
            "selectedWords": [
                "neutre",
                "s\u00fbre"
            ],
            "freeResponses": [],
            "nbPlayClick": 2,
            "expression": "NEUTRE",
            "csv_id": 11862,
            "video_name": "DIVERS_PARL_AD_02_0004"
        },
        {
            "name": "9053",
            "score": "0.988",
            "index": 53,
            "selectedWords": [
                "pensive",
                "autre",
                "autre",
                "autre",
                "autre",
                "autre",
                "m\u00e9fiante"
            ],
            "freeResponses": [],
            "nbPlayClick": 3,
            "expression": "PENSIF",
            "csv_id": 9087,
            "video_name": "DIVERS_PARL_PENSIF_AD_01_0002"
        },
        {
            "name": "11022",
            "score": "0.994",
            "index": 54,
            "selectedWords": [
                "neutre",
                "certaine"
            ],
            "freeResponses": [],
            "nbPlayClick": 1,
            "expression": "NEUTRE",
            "csv_id": 11056,
            "video_name": "DIVERS_PARL_AD_02_0001"
        },
        {
            "name": "4156",
            "score": "0.956",
            "index": 55,
            "selectedWords": [
                "r\u00e9confortante",
                "encourageante"
            ],
            "freeResponses": [],
            "nbPlayClick": 2,
            "expression": "NEUTRE",
            "csv_id": 4156,
            "video_name": "DIVERS_PARL_AD_01_0006"
        },
        {
            "name": "11814",
            "score": "0.997",
            "index": 56,
            "selectedWords": [
                "neutre",
                "notoire"
            ],
            "freeResponses": [],
            "nbPlayClick": 2,
            "expression": "NEUTRE",
            "csv_id": 11851,
            "video_name": "DIVERS_PARL_AD_02_0002"
        },
        {
            "name": "4257",
            "score": "0.957",
            "index": 57,
            "selectedWords": [
                "incr\u00e9dule",
                "m\u00e9fiante"
            ],
            "freeResponses": [],
            "nbPlayClick": 3,
            "expression": "INCREDULE",
            "csv_id": 4257,
            "video_name": "DIVERS_BOOK_INCREDULE_AD_01_0001"
        },
        {
            "name": "3372",
            "score": "0.945",
            "index": 58,
            "selectedWords": [
                "\u00e9vidente",
                "incontestable",
                "certaine"
            ],
            "freeResponses": [],
            "nbPlayClick": 1,
            "expression": "NEUTRE",
            "csv_id": 3372,
            "video_name": "DIVERS_PARL_AD_04_0002"
        },
        {
            "name": "6186",
            "score": "0.975",
            "index": 59,
            "selectedWords": [
                "d\u00e9sol\u00e9e",
                "autre",
                "autre",
                "autre",
                "autre",
                "attrist\u00e9e"
            ],
            "freeResponses": [],
            "nbPlayClick": 2,
            "expression": "NEUTRE",
            "csv_id": 6220,
            "video_name": "DIVERS_PARL_AD_06_0003"
        }
    ],
    "training": [
        {
            "name": "77",
            "score": "0.639",
            "index": 0,
            "selectedWords": [
                "neutre",
                "notoire"
            ],
            "freeResponses": [],
            "nbPlayClick": 2,
            "expression": "NEUTRE"
        }
    ],
    "filenameDate": "2023-12-17_16-22"
}