{
    "user": {
        "isProlific": true,
        "id": "5aac21406be3fa00013a2a51",
        "session": "64f092b6389d11fda511398c",
        "study": "64ef977375f88e4e1174dce0"
    },
    "userAgent": "Mozilla/5.0 (Macintosh; Intel Mac OS X 10_15_7) AppleWebKit/537.36 (KHTML, like Gecko) Chrome/115.0.0.0 Safari/537.36",
    "landingDate": "2023-08-31T13:19:00.338Z",
    "startDate": "2023-08-31T13:20:58.045Z",
    "endDate": "2023-08-31T14:03:01.949Z",
    "reviews": [
        {
            "name": "8774",
            "score": "0.987",
            "index": 0,
            "selectedWords": [
                "sceptique",
                "r\u00e9fl\u00e9chissante"
            ],
            "freeResponses": [],
            "nbPlayClick": 3,
            "expression": "PENSIF",
            "csv_id": 8808,
            "video_name": "DIVERS_BOOK_PENSIF_AD_03_0002"
        },
        {
            "name": "5121",
            "score": "0.967",
            "index": 1,
            "selectedWords": [
                "d\u00e9termin\u00e9e",
                "ardente",
                "s\u00fbre"
            ],
            "freeResponses": [],
            "nbPlayClick": 1,
            "expression": "NEUTRE",
            "csv_id": 5155,
            "video_name": "DIVERS_PARL_AD_01_0002"
        },
        {
            "name": "9720",
            "score": "0.991",
            "index": 2,
            "selectedWords": [
                "neutre",
                "autre",
                "autre",
                "imp\u00e9n\u00e9trable"
            ],
            "freeResponses": [],
            "nbPlayClick": 2,
            "expression": "NEUTRE",
            "csv_id": 9754,
            "video_name": "DIVERS_BOOK_AD_01_0002"
        },
        {
            "name": "3569",
            "score": "0.948",
            "index": 3,
            "selectedWords": [
                "enthousiaste",
                "tonique",
                "autre",
                "autre",
                "autre",
                "vivifiante",
                "stimulante",
                "autre",
                "opini\u00e2tre",
                "\u00e9nergique"
            ],
            "freeResponses": [],
            "nbPlayClick": 1,
            "expression": "ENTHOUSIASTE",
            "csv_id": 3569,
            "video_name": "DIVERS_PARL_ENTHOUSIASTE_AD_01_0003"
        },
        {
            "name": "10246",
            "score": "0.992",
            "index": 4,
            "selectedWords": [
                "d\u00e9termin\u00e9e",
                "r\u00e9solue",
                "entreprenante",
                "autre",
                "autre",
                "d\u00e9cid\u00e9e",
                "nette"
            ],
            "freeResponses": [],
            "nbPlayClick": 1,
            "expression": "DETERMINE",
            "csv_id": 10280,
            "video_name": "DIVERS_PARL_DETERMINE_AD_01_0002"
        },
        {
            "name": "11466",
            "score": "0.996",
            "index": 5,
            "selectedWords": [
                "ennuy\u00e9e",
                "autre",
                "autre",
                "inexpressive",
                "froide",
                "autre",
                "terne"
            ],
            "freeResponses": [],
            "nbPlayClick": 3,
            "expression": "NEUTRE",
            "csv_id": 11503,
            "video_name": "DIVERS_PARL_AD_02_0003"
        },
        {
            "name": "8372",
            "score": "0.986",
            "index": 6,
            "selectedWords": [
                "incr\u00e9dule",
                "\u00e9tonn\u00e9e"
            ],
            "freeResponses": [],
            "nbPlayClick": 2,
            "expression": "ETONNE",
            "csv_id": 8406,
            "video_name": "DIVERS_PARL_ETONNE_AD_01_0001"
        },
        {
            "name": "2795",
            "score": "0.934",
            "index": 7,
            "selectedWords": [
                "en col\u00e8re",
                "hargneuse",
                "f\u00e2ch\u00e9e",
                "agit\u00e9e",
                "r\u00e9solue"
            ],
            "freeResponses": [],
            "nbPlayClick": 1,
            "expression": "COLERE",
            "csv_id": 2795,
            "video_name": "DIVERS_PARL_COLERE_AD_02_0002"
        },
        {
            "name": "3630",
            "score": "0.949",
            "index": 8,
            "selectedWords": [
                "enthousiaste",
                "tonique",
                "autre",
                "autre",
                "autre",
                "excit\u00e9e",
                "autre",
                "stimulante",
                "encourageante"
            ],
            "freeResponses": [],
            "nbPlayClick": 1,
            "expression": "ESPIEGLE",
            "csv_id": 3630,
            "video_name": "ESTYLE_ESPIEGLE_AD_02_0001"
        },
        {
            "name": "10292",
            "score": "0.992",
            "index": 9,
            "selectedWords": [
                "pensive",
                "r\u00e9fl\u00e9chissante",
                "autre",
                "occup\u00e9e",
                "autre",
                "autre",
                "ennuy\u00e9e"
            ],
            "freeResponses": [],
            "nbPlayClick": 1,
            "expression": "PENSIF",
            "csv_id": 10326,
            "video_name": "DIVERS_PARL_PENSIF_AD_01_0002"
        },
        {
            "name": "11847",
            "score": "0.997",
            "index": 10,
            "selectedWords": [
                "autre",
                "d\u00e9cid\u00e9e",
                "nette",
                "s\u00fbre",
                "certaine"
            ],
            "freeResponses": [],
            "nbPlayClick": 1,
            "expression": "NEUTRE",
            "csv_id": 11884,
            "video_name": "DIVERS_PARL_AD_05_0003"
        },
        {
            "name": "8953",
            "score": "0.988",
            "index": 11,
            "selectedWords": [
                "autre",
                "froide",
                "autre",
                "d\u00e9cid\u00e9e"
            ],
            "freeResponses": [],
            "nbPlayClick": 1,
            "expression": "NEUTRE",
            "csv_id": 8987,
            "video_name": "DIVERS_PARL_AD_06_0003"
        },
        {
            "name": "10741",
            "score": "0.994",
            "index": 12,
            "selectedWords": [
                "sinc\u00e8re",
                "autre",
                "dubitative"
            ],
            "freeResponses": [],
            "nbPlayClick": 2,
            "expression": "NEUTRE",
            "csv_id": 10775,
            "video_name": "DIVERS_BOOK_AD_04_0002"
        },
        {
            "name": "10623",
            "score": "0.993",
            "index": 13,
            "selectedWords": [
                "enthousiaste",
                "tonique",
                "transport\u00e9e",
                "passionn\u00e9e",
                "emball\u00e9e"
            ],
            "freeResponses": [],
            "nbPlayClick": 1,
            "expression": "ENTHOUSIASTE",
            "csv_id": 10657,
            "video_name": "DIVERS_BOOK_ENTHOUSIASTE_AD_01_0001"
        },
        {
            "name": "10936",
            "score": "0.994",
            "index": 14,
            "selectedWords": [
                "agressive",
                "froide"
            ],
            "freeResponses": [],
            "nbPlayClick": 1,
            "expression": "NEUTRE",
            "csv_id": 10970,
            "video_name": "DIVERS_BOOK_AD_03_0002"
        },
        {
            "name": "5691",
            "score": "0.972",
            "index": 15,
            "selectedWords": [
                "\u00e9tonn\u00e9e",
                "autre",
                "\u00e9berlu\u00e9e",
                "abasourdie",
                "effar\u00e9e"
            ],
            "freeResponses": [],
            "nbPlayClick": 1,
            "expression": "ETONNE",
            "csv_id": 5725,
            "video_name": "DIVERS_BOOK_ETONNE_AD_01_0002"
        },
        {
            "name": "11880",
            "score": "0.997",
            "index": 16,
            "selectedWords": [
                "d\u00e9termin\u00e9e",
                "r\u00e9solue",
                "convaincue",
                "s\u00fbre"
            ],
            "freeResponses": [],
            "nbPlayClick": 2,
            "expression": "NEUTRE",
            "csv_id": 11917,
            "video_name": "DIVERS_PARL_AD_02_0004"
        },
        {
            "name": "3408",
            "score": "0.945",
            "index": 17,
            "selectedWords": [
                "autre",
                "fac\u00e9tieuse",
                "autre",
                "autre",
                "f\u00e2ch\u00e9e",
                "autre"
            ],
            "freeResponses": [],
            "nbPlayClick": 1,
            "expression": "NEUTRE",
            "csv_id": 3408,
            "video_name": "DIVERS_PARL_AD_05_0001"
        },
        {
            "name": "10890",
            "score": "0.994",
            "index": 18,
            "selectedWords": [
                "neutre",
                "autre",
                "certaine"
            ],
            "freeResponses": [],
            "nbPlayClick": 2,
            "expression": "NEUTRE",
            "csv_id": 10924,
            "video_name": "DIVERS_PARL_AD_03_0002"
        },
        {
            "name": "11459",
            "score": "0.996",
            "index": 19,
            "selectedWords": [
                "implorante",
                "mendiante",
                "malheureuse",
                "accabl\u00e9e"
            ],
            "freeResponses": [],
            "nbPlayClick": 2,
            "expression": "SUPPLIANT",
            "csv_id": 11496,
            "video_name": "DIVERS_PARL_SUPPLIANT_AD_02_0001"
        },
        {
            "name": "5906",
            "score": "0.973",
            "index": 20,
            "selectedWords": [
                "en col\u00e8re",
                "irrit\u00e9e",
                "m\u00e9contente"
            ],
            "freeResponses": [],
            "nbPlayClick": 1,
            "expression": "PENSIF",
            "csv_id": 5940,
            "video_name": "DIVERS_PARL_PENSIF_AD_01_0002"
        },
        {
            "name": "4345",
            "score": "0.958",
            "index": 21,
            "selectedWords": [
                "suppliante",
                "implorante",
                "sinc\u00e8re"
            ],
            "freeResponses": [],
            "nbPlayClick": 1,
            "expression": "SUPPLIANT",
            "csv_id": 4345,
            "video_name": "DIVERS_PARL_SUPPLIANT_AD_02_0001"
        },
        {
            "name": "10724",
            "score": "0.994",
            "index": 22,
            "selectedWords": [
                "incr\u00e9dule",
                "autre",
                "agit\u00e9e",
                "rageuse"
            ],
            "freeResponses": [],
            "nbPlayClick": 2,
            "expression": "ETONNE",
            "csv_id": 10758,
            "video_name": "DIVERS_BOOK_ETONNE_AD_01_0004"
        },
        {
            "name": "2819",
            "score": "0.934",
            "index": 23,
            "selectedWords": [
                "en col\u00e8re",
                "en rage",
                "enrag\u00e9e",
                "indign\u00e9e",
                "autre",
                "imp\u00e9n\u00e9trable",
                "agressive"
            ],
            "freeResponses": [],
            "nbPlayClick": 1,
            "expression": "COLERE",
            "csv_id": 2819,
            "video_name": "DIVERS_PARL_COLERE_AD_01_0003"
        },
        {
            "name": "7187",
            "score": "0.980",
            "index": 24,
            "selectedWords": [
                "d\u00e9sol\u00e9e",
                "navr\u00e9e",
                "d\u00e9courag\u00e9e"
            ],
            "freeResponses": [],
            "nbPlayClick": 1,
            "expression": "NEUTRE",
            "csv_id": 7221,
            "video_name": "DIVERS_PARL_AD_02_0004"
        },
        {
            "name": "9017",
            "score": "0.988",
            "index": 25,
            "selectedWords": [
                "d\u00e9termin\u00e9e",
                "r\u00e9solue",
                "convaincue",
                "indiscutable"
            ],
            "freeResponses": [],
            "nbPlayClick": 1,
            "expression": "NEUTRE",
            "csv_id": 9051,
            "video_name": "DIVERS_PARL_AD_01_0000"
        },
        {
            "name": "10310",
            "score": "0.993",
            "index": 26,
            "selectedWords": [
                "s\u00fbre",
                "certaine",
                "autre"
            ],
            "freeResponses": [],
            "nbPlayClick": 1,
            "expression": "NEUTRE",
            "csv_id": 10344,
            "video_name": "DIVERS_PARL_AD_02_0004"
        },
        {
            "name": "6869",
            "score": "0.979",
            "index": 27,
            "selectedWords": [
                "sinc\u00e8re",
                "autre",
                "apaisante",
                "encourageante"
            ],
            "freeResponses": [],
            "nbPlayClick": 1,
            "expression": "DESOLE",
            "csv_id": 6903,
            "video_name": "DIVERS_PARL_DESOLE_AD_02_0002"
        },
        {
            "name": "8034",
            "score": "0.984",
            "index": 28,
            "selectedWords": [
                "d\u00e9sol\u00e9e",
                "absente",
                "afflig\u00e9e",
                "attrist\u00e9e"
            ],
            "freeResponses": [],
            "nbPlayClick": 1,
            "expression": "DESOLE",
            "csv_id": 8068,
            "video_name": "DIVERS_BOOK_DESOLE_AD_03_0002"
        },
        {
            "name": "10306",
            "score": "0.993",
            "index": 29,
            "selectedWords": [
                "d\u00e9termin\u00e9e",
                "manifeste",
                "convaincue",
                "s\u00fbre",
                "\u00e9nergique"
            ],
            "freeResponses": [],
            "nbPlayClick": 2,
            "expression": "DETERMINE",
            "csv_id": 10340,
            "video_name": "DIVERS_BOOK_DETERMINE_AD_03_0001"
        },
        {
            "name": "7356",
            "score": "0.981",
            "index": 30,
            "selectedWords": [
                "suppliante",
                "implorante",
                "sinc\u00e8re"
            ],
            "freeResponses": [],
            "nbPlayClick": 1,
            "expression": "RECONFORTANT",
            "csv_id": 7390,
            "video_name": "DIVERS_PARL_RECONFORTANT_AD_02_0001"
        },
        {
            "name": "6985",
            "score": "0.979",
            "index": 31,
            "selectedWords": [
                "en col\u00e8re",
                "irrit\u00e9e"
            ],
            "freeResponses": [],
            "nbPlayClick": 1,
            "expression": "NEUTRE",
            "csv_id": 7019,
            "video_name": "DIVERS_PARL_AD_02_0004"
        },
        {
            "name": "242",
            "score": "0.743",
            "index": 32,
            "selectedWords": [
                "r\u00e9confortante",
                "encourageante"
            ],
            "freeResponses": [],
            "nbPlayClick": 2,
            "expression": "RECONFORTANT",
            "csv_id": 242,
            "video_name": "DIVERS_BOOK_RECONFORTANT_AD_01_0002"
        },
        {
            "name": "5663",
            "score": "0.971",
            "index": 33,
            "selectedWords": [
                "r\u00e9confortante",
                "encourageante"
            ],
            "freeResponses": [],
            "nbPlayClick": 1,
            "expression": "NEUTRE",
            "csv_id": 5697,
            "video_name": "DIVERS_PARL_AD_01_0004"
        },
        {
            "name": "11291",
            "score": "0.995",
            "index": 34,
            "selectedWords": [
                "d\u00e9termin\u00e9e",
                "autre",
                "imp\u00e9n\u00e9trable",
                "agressive",
                "froide"
            ],
            "freeResponses": [],
            "nbPlayClick": 2,
            "expression": "COLERE",
            "csv_id": 11325,
            "video_name": "DIVERS_PARL_COLERE_AD_01_0004"
        },
        {
            "name": "7654",
            "score": "0.983",
            "index": 35,
            "selectedWords": [
                "convaincue",
                "attrist\u00e9e"
            ],
            "freeResponses": [],
            "nbPlayClick": 1,
            "expression": "NEUTRE",
            "csv_id": 7688,
            "video_name": "DIVERS_PARL_AD_01_0004"
        },
        {
            "name": "10461",
            "score": "0.993",
            "index": 36,
            "selectedWords": [
                "suppliante",
                "priante",
                "sinc\u00e8re",
                "ardente"
            ],
            "freeResponses": [],
            "nbPlayClick": 1,
            "expression": "SUPPLIANT",
            "csv_id": 10495,
            "video_name": "DIVERS_BOOK_SUPPLIANT_AD_01_0004"
        },
        {
            "name": "5827",
            "score": "0.973",
            "index": 37,
            "selectedWords": [
                "en col\u00e8re",
                "en rage",
                "m\u00e9contente",
                "indign\u00e9e"
            ],
            "freeResponses": [],
            "nbPlayClick": 1,
            "expression": "COLERE",
            "csv_id": 5861,
            "video_name": "DIVERS_PARL_COLERE_AD_01_0003"
        },
        {
            "name": "11601",
            "score": "0.996",
            "index": 38,
            "selectedWords": [
                "\u00e9tonn\u00e9e",
                "autre",
                "\u00e9berlu\u00e9e",
                "abasourdie"
            ],
            "freeResponses": [],
            "nbPlayClick": 1,
            "expression": "ETONNE",
            "csv_id": 11638,
            "video_name": "DIVERS_BOOK_ETONNE_AD_01_0002"
        },
        {
            "name": "12089",
            "score": "0.997",
            "index": 39,
            "selectedWords": [
                "absente",
                "autre",
                "autre",
                "dubitative"
            ],
            "freeResponses": [],
            "nbPlayClick": 1,
            "expression": "PENSIF",
            "csv_id": 12126,
            "video_name": "DIVERS_BOOK_PENSIF_AD_01_0003"
        },
        {
            "name": "6255",
            "score": "0.975",
            "index": 40,
            "selectedWords": [
                "d\u00e9termin\u00e9e",
                "autre",
                "entreprenante",
                "d\u00e9cid\u00e9e",
                "ferme"
            ],
            "freeResponses": [],
            "nbPlayClick": 2,
            "expression": "NEUTRE",
            "csv_id": 6289,
            "video_name": "DIVERS_PARL_AD_04_0004"
        },
        {
            "name": "7604",
            "score": "0.983",
            "index": 41,
            "selectedWords": [
                "espi\u00e8gle",
                "malicieuse",
                "autre",
                "dubitative"
            ],
            "freeResponses": [],
            "nbPlayClick": 1,
            "expression": "NEUTRE",
            "csv_id": 7638,
            "video_name": "DIVERS_PARL_AD_05_0003"
        },
        {
            "name": "5178",
            "score": "0.967",
            "index": 42,
            "selectedWords": [
                "r\u00e9confortante",
                "apaisante"
            ],
            "freeResponses": [],
            "nbPlayClick": 1,
            "expression": "NEUTRE",
            "csv_id": 5212,
            "video_name": "DIVERS_PARL_AD_04_0001"
        },
        {
            "name": "10643",
            "score": "0.993",
            "index": 43,
            "selectedWords": [
                "emb\u00eat\u00e9e",
                "irrit\u00e9e"
            ],
            "freeResponses": [],
            "nbPlayClick": 2,
            "expression": "NEUTRE",
            "csv_id": 10677,
            "video_name": "DIVERS_PARL_AD_01_0005"
        },
        {
            "name": "8641",
            "score": "0.987",
            "index": 44,
            "selectedWords": [
                "d\u00e9cid\u00e9e",
                "autre",
                "imp\u00e9n\u00e9trable",
                "fade"
            ],
            "freeResponses": [],
            "nbPlayClick": 2,
            "expression": "NEUTRE",
            "csv_id": 8675,
            "video_name": "DIVERS_BOOK_AD_04_0001"
        },
        {
            "name": "4814",
            "score": "0.964",
            "index": 45,
            "selectedWords": [
                "d\u00e9termin\u00e9e",
                "agit\u00e9e",
                "autre",
                "s\u00fbre"
            ],
            "freeResponses": [],
            "nbPlayClick": 1,
            "expression": "DETERMINE",
            "csv_id": 4848,
            "video_name": "DIVERS_PARL_DETERMINE_AD_01_0004"
        },
        {
            "name": "776",
            "score": "0.840",
            "index": 46,
            "selectedWords": [
                "enthousiaste",
                "autre",
                "certaine"
            ],
            "freeResponses": [],
            "nbPlayClick": 2,
            "expression": "NEUTRE",
            "csv_id": 776,
            "video_name": "DIVERS_PARL_AD_03_0003"
        },
        {
            "name": "480",
            "score": "0.802",
            "index": 47,
            "selectedWords": [
                "suppliante",
                "convaincue",
                "r\u00e9fl\u00e9chie"
            ],
            "freeResponses": [],
            "nbPlayClick": 1,
            "expression": "EVIDENCE",
            "csv_id": 480,
            "video_name": "DIVERS_PARL_EVIDENCE_AD_02_0002"
        },
        {
            "name": "5161",
            "score": "0.967",
            "index": 48,
            "selectedWords": [
                "enthousiaste",
                "coquine"
            ],
            "freeResponses": [],
            "nbPlayClick": 3,
            "expression": "ESPIEGLE",
            "csv_id": 5195,
            "video_name": "DIVERS_PARL_ESPIEGLE_AD_01_0001"
        },
        {
            "name": "8225",
            "score": "0.985",
            "index": 49,
            "selectedWords": [
                "neutre",
                "autre",
                "sinc\u00e8re"
            ],
            "freeResponses": [],
            "nbPlayClick": 1,
            "expression": "NEUTRE",
            "csv_id": 8259,
            "video_name": "DIVERS_BOOK_AD_01_0001"
        },
        {
            "name": "2743",
            "score": "0.933",
            "index": 50,
            "selectedWords": [
                "en col\u00e8re",
                "en rogne",
                "f\u00e2ch\u00e9e"
            ],
            "freeResponses": [],
            "nbPlayClick": 1,
            "expression": "COLERE",
            "csv_id": 2743,
            "video_name": "DIVERS_PARL_COLERE_AD_01_0004"
        },
        {
            "name": "5462",
            "score": "0.970",
            "index": 51,
            "selectedWords": [
                "en col\u00e8re",
                "hargneuse",
                "enrag\u00e9e"
            ],
            "freeResponses": [],
            "nbPlayClick": 1,
            "expression": "COLERE",
            "csv_id": 5496,
            "video_name": "DIVERS_PARL_COLERE_AD_02_0002"
        },
        {
            "name": "4554",
            "score": "0.961",
            "index": 52,
            "selectedWords": [
                "enthousiaste",
                "tonique",
                "autre",
                "autre"
            ],
            "freeResponses": [],
            "nbPlayClick": 1,
            "expression": "ESPIEGLE",
            "csv_id": 4588,
            "video_name": "DIVERS_BOOK_ESPIEGLE_AD_03_0001"
        },
        {
            "name": "10176",
            "score": "0.992",
            "index": 53,
            "selectedWords": [
                "d\u00e9sol\u00e9e",
                "autre",
                "d\u00e9courag\u00e9e"
            ],
            "freeResponses": [],
            "nbPlayClick": 1,
            "expression": "EVIDENCE",
            "csv_id": 10210,
            "video_name": "DIVERS_PARL_EVIDENCE_AD_02_0002"
        },
        {
            "name": "6279",
            "score": "0.976",
            "index": 54,
            "selectedWords": [
                "d\u00e9sol\u00e9e",
                "implorante"
            ],
            "freeResponses": [],
            "nbPlayClick": 1,
            "expression": "EVIDENCE",
            "csv_id": 6313,
            "video_name": "DIVERS_PARL_EVIDENCE_AD_02_0002"
        },
        {
            "name": "3938",
            "score": "0.953",
            "index": 55,
            "selectedWords": [
                "\u00e9tonn\u00e9e",
                "perplexe"
            ],
            "freeResponses": [],
            "nbPlayClick": 2,
            "expression": "ETONNE",
            "csv_id": 3938,
            "video_name": "DIVERS_BOOK_ETONNE_AD_01_0002"
        },
        {
            "name": "10543",
            "score": "0.993",
            "index": 56,
            "selectedWords": [
                "\u00e9vidente",
                "incontestable",
                "certaine"
            ],
            "freeResponses": [],
            "nbPlayClick": 1,
            "expression": "NEUTRE",
            "csv_id": 10577,
            "video_name": "DIVERS_PARL_AD_03_0004"
        },
        {
            "name": "5231",
            "score": "0.968",
            "index": 57,
            "selectedWords": [
                "neutre",
                "s\u00fbre"
            ],
            "freeResponses": [],
            "nbPlayClick": 1,
            "expression": "NEUTRE",
            "csv_id": 5265,
            "video_name": "DIVERS_PARL_AD_04_0001"
        },
        {
            "name": "6807",
            "score": "0.979",
            "index": 58,
            "selectedWords": [
                "\u00e9vidente",
                "manifeste"
            ],
            "freeResponses": [],
            "nbPlayClick": 1,
            "expression": "ETONNE",
            "csv_id": 6841,
            "video_name": "DIVERS_PARL_ETONNE_AD_01_0001"
        },
        {
            "name": "7035",
            "score": "0.980",
            "index": 59,
            "selectedWords": [
                "neutre",
                "autre",
                "s\u00fbre"
            ],
            "freeResponses": [],
            "nbPlayClick": 9,
            "expression": "NEUTRE",
            "csv_id": 7069,
            "video_name": "DIVERS_BOOK_AD_04_0002"
        }
    ],
    "training": [
        {
            "name": "77",
            "score": "0.639",
            "index": 0,
            "selectedWords": [
                "d\u00e9termin\u00e9e",
                "r\u00e9solue",
                "autre",
                "autre"
            ],
            "freeResponses": [],
            "nbPlayClick": 3,
            "expression": "NEUTRE"
        }
    ],
    "filenameDate": "2023-08-31_15-3"
}