{
    "user": {
        "isProlific": true,
        "id": "5c5736fad3cc6b0001d9da41",
        "session": "6508730c1f5625c9dfd4f129",
        "study": "64ef977375f88e4e1174dce0"
    },
    "userAgent": "Mozilla/5.0 (Windows NT 10.0; Win64; x64) AppleWebKit/537.36 (KHTML, like Gecko) Chrome/116.0.0.0 Safari/537.36",
    "landingDate": "2023-09-18T15:56:09.516Z",
    "startDate": "2023-09-18T15:59:39.129Z",
    "endDate": "2023-09-18T16:31:54.031Z",
    "reviews": [
        {
            "name": "3208",
            "score": "0.942",
            "index": 0,
            "selectedWords": [
                "en col\u00e8re",
                "en rogne",
                "f\u00e2ch\u00e9e",
                "emb\u00eat\u00e9e",
                "afflig\u00e9e",
                "accabl\u00e9e",
                "sid\u00e9r\u00e9e",
                "h\u00e9b\u00e9t\u00e9e",
                "\u00e9loquente",
                "bouillonnante",
                "ardente"
            ],
            "freeResponses": [],
            "nbPlayClick": 2,
            "expression": "COLERE",
            "csv_id": 3208,
            "video_name": "DIVERS_PARL_COLERE_AD_01_0003"
        },
        {
            "name": "2009",
            "score": "0.912",
            "index": 1,
            "selectedWords": [
                "\u00e9vidente",
                "patente",
                "certaine",
                "officielle",
                "intuitive",
                "autre",
                "songeuse",
                "autre",
                "vivifiante",
                "consolante",
                "entreprenante",
                "d\u00e9cid\u00e9e"
            ],
            "freeResponses": [],
            "nbPlayClick": 1,
            "expression": "DETERMINE",
            "csv_id": 2009,
            "video_name": "DIVERS_PARL_DETERMINE_AD_01_0002"
        },
        {
            "name": "2749",
            "score": "0.933",
            "index": 2,
            "selectedWords": [
                "incr\u00e9dule",
                "convaincue",
                "sceptique",
                "froide",
                "tonique",
                "notoire",
                "irr\u00e9cusable",
                "incontestable",
                "reconstituante"
            ],
            "freeResponses": [],
            "nbPlayClick": 2,
            "expression": "COLERE",
            "csv_id": 2749,
            "video_name": "DIVERS_PARL_COLERE_AD_01_0003"
        },
        {
            "name": "4803",
            "score": "0.964",
            "index": 3,
            "selectedWords": [
                "d\u00e9termin\u00e9e",
                "manifeste",
                "autre",
                "\u00e9berlu\u00e9e",
                "autre",
                "songeuse",
                "pr\u00e9occup\u00e9e"
            ],
            "freeResponses": [],
            "nbPlayClick": 2,
            "expression": "COLERE",
            "csv_id": 4837,
            "video_name": "DIVERS_PARL_COLERE_AD_01_0003"
        },
        {
            "name": "4892",
            "score": "0.965",
            "index": 4,
            "selectedWords": [
                "\u00e9vidente",
                "prouv\u00e9e",
                "tonique",
                "\u00e9loquente",
                "triomphale",
                "passionn\u00e9e"
            ],
            "freeResponses": [],
            "nbPlayClick": 2,
            "expression": "DETERMINE",
            "csv_id": 4926,
            "video_name": "DIVERS_PARL_DETERMINE_AD_01_0004"
        },
        {
            "name": "5377",
            "score": "0.969",
            "index": 5,
            "selectedWords": [
                "enthousiaste",
                "coquine",
                "sinc\u00e8re",
                "ardente",
                "excit\u00e9e",
                "exalt\u00e9e",
                "autre",
                "\u00e9berlu\u00e9e"
            ],
            "freeResponses": [],
            "nbPlayClick": 2,
            "expression": "ENTHOUSIASTE",
            "csv_id": 5411,
            "video_name": "DIVERS_BOOK_ENTHOUSIASTE_AD_01_0004"
        },
        {
            "name": "2612",
            "score": "0.929",
            "index": 6,
            "selectedWords": [
                "pensive",
                "r\u00eaveuse",
                "occup\u00e9e",
                "limpide",
                "notoire",
                "terne"
            ],
            "freeResponses": [],
            "nbPlayClick": 3,
            "expression": "NEUTRE",
            "csv_id": 2612,
            "video_name": "DIVERS_PARL_AD_05_0003"
        },
        {
            "name": "3633",
            "score": "0.949",
            "index": 7,
            "selectedWords": [
                "r\u00e9confortante",
                "encourageante",
                "consolante"
            ],
            "freeResponses": [],
            "nbPlayClick": 4,
            "expression": "EVIDENCE",
            "csv_id": 3633,
            "video_name": "DIVERS_BOOK_EVIDENCE_AD_01_0002"
        },
        {
            "name": "6942",
            "score": "0.979",
            "index": 8,
            "selectedWords": [
                "\u00e9vidente",
                "prouv\u00e9e",
                "certaine",
                "officielle",
                "\u00e9loquente"
            ],
            "freeResponses": [],
            "nbPlayClick": 2,
            "expression": "NEUTRE",
            "csv_id": 6976,
            "video_name": "DIVERS_PARL_AD_06_0003"
        },
        {
            "name": "2043",
            "score": "0.913",
            "index": 9,
            "selectedWords": [
                "incr\u00e9dule",
                "intuitive",
                "limpide",
                "froide"
            ],
            "freeResponses": [],
            "nbPlayClick": 2,
            "expression": "COLERE",
            "csv_id": 2043,
            "video_name": "DIVERS_PARL_COLERE_AD_01_0004"
        },
        {
            "name": "10276",
            "score": "0.992",
            "index": 10,
            "selectedWords": [
                "neutre",
                "notoire",
                "manifeste",
                "r\u00e9fl\u00e9chie",
                "nette",
                "ind\u00e9niable"
            ],
            "freeResponses": [],
            "nbPlayClick": 2,
            "expression": "NEUTRE",
            "csv_id": 10310,
            "video_name": "DIVERS_PARL_AD_03_0001"
        },
        {
            "name": "8129",
            "score": "0.985",
            "index": 11,
            "selectedWords": [
                "d\u00e9termin\u00e9e",
                "agit\u00e9e",
                "coquine",
                "autre",
                "dubitative",
                "intuitive",
                "s\u00fbre",
                "autre",
                "vivifiante"
            ],
            "freeResponses": [],
            "nbPlayClick": 1,
            "expression": "ENTHOUSIASTE",
            "csv_id": 8163,
            "video_name": "DIVERS_BOOK_ENTHOUSIASTE_AD_01_0001"
        },
        {
            "name": "11354",
            "score": "0.995",
            "index": 12,
            "selectedWords": [
                "espi\u00e8gle",
                "narquoise",
                "notoire",
                "limpide"
            ],
            "freeResponses": [],
            "nbPlayClick": 3,
            "expression": "NEUTRE",
            "csv_id": 11388,
            "video_name": "DIVERS_PARL_AD_01_0006"
        },
        {
            "name": "6919",
            "score": "0.979",
            "index": 13,
            "selectedWords": [
                "r\u00e9confortante",
                "reconstituante",
                "consolante",
                "larmoyante",
                "m\u00e9ditative"
            ],
            "freeResponses": [],
            "nbPlayClick": 1,
            "expression": "NEUTRE",
            "csv_id": 6953,
            "video_name": "DIVERS_PARL_AD_06_0001"
        },
        {
            "name": "9716",
            "score": "0.991",
            "index": 14,
            "selectedWords": [
                "enthousiaste",
                "euphorique",
                "exalt\u00e9e",
                "autre",
                "fac\u00e9tieuse",
                "narquoise",
                "taquine"
            ],
            "freeResponses": [],
            "nbPlayClick": 1,
            "expression": "RECONFORTANT",
            "csv_id": 9750,
            "video_name": "DIVERS_BOOK_RECONFORTANT_AD_01_0002"
        },
        {
            "name": "3080",
            "score": "0.940",
            "index": 15,
            "selectedWords": [
                "suppliante",
                "d\u00e9termin\u00e9e",
                "manifeste",
                "patente",
                "ind\u00e9niable"
            ],
            "freeResponses": [],
            "nbPlayClick": 1,
            "expression": "NEUTRE",
            "csv_id": 3080,
            "video_name": "DIVERS_PARL_AD_01_0006"
        },
        {
            "name": "7539",
            "score": "0.982",
            "index": 16,
            "selectedWords": [
                "priante",
                "larmoyante",
                "notoire",
                "terne",
                "autre",
                "apaisante"
            ],
            "freeResponses": [],
            "nbPlayClick": 4,
            "expression": "NEUTRE",
            "csv_id": 7573,
            "video_name": "DIVERS_BOOK_AD_03_0002"
        },
        {
            "name": "4728",
            "score": "0.963",
            "index": 17,
            "selectedWords": [
                "nette",
                "s\u00fbre",
                "prouv\u00e9e",
                "notoire"
            ],
            "freeResponses": [],
            "nbPlayClick": 4,
            "expression": "NEUTRE",
            "csv_id": 4762,
            "video_name": "DIVERS_PARL_AD_04_0004"
        },
        {
            "name": "4435",
            "score": "0.960",
            "index": 18,
            "selectedWords": [
                "incr\u00e9dule",
                "indiscutable",
                "patente",
                "limpide"
            ],
            "freeResponses": [],
            "nbPlayClick": 2,
            "expression": "NEUTRE",
            "csv_id": 4469,
            "video_name": "DIVERS_PARL_AD_05_0003"
        },
        {
            "name": "2302",
            "score": "0.921",
            "index": 19,
            "selectedWords": [
                "enthousiaste",
                "coquine",
                "r\u00e9fl\u00e9chie",
                "transport\u00e9e",
                "passionn\u00e9e",
                "emball\u00e9e"
            ],
            "freeResponses": [],
            "nbPlayClick": 1,
            "expression": "NEUTRE",
            "csv_id": 2302,
            "video_name": "DIVERS_PARL_AD_03_0001"
        },
        {
            "name": "2147",
            "score": "0.916",
            "index": 20,
            "selectedWords": [
                "\u00e9tonn\u00e9e",
                "r\u00e9fl\u00e9chie",
                "manifeste",
                "patente",
                "in\u00e9branlable"
            ],
            "freeResponses": [],
            "nbPlayClick": 1,
            "expression": "INCREDULE",
            "csv_id": 2147,
            "video_name": "DIVERS_PARL_INCREDULE_AD_02_0003"
        },
        {
            "name": "10473",
            "score": "0.993",
            "index": 21,
            "selectedWords": [
                "\u00e9vidente",
                "indubitable",
                "en rogne",
                "m\u00e9contente",
                "irrit\u00e9e",
                "exalt\u00e9e"
            ],
            "freeResponses": [],
            "nbPlayClick": 1,
            "expression": "NEUTRE",
            "csv_id": 10507,
            "video_name": "DIVERS_PARL_AD_01_0002"
        },
        {
            "name": "1999",
            "score": "0.912",
            "index": 22,
            "selectedWords": [
                "pensive",
                "r\u00e9fl\u00e9chissante",
                "agressive",
                "terne",
                "patente"
            ],
            "freeResponses": [],
            "nbPlayClick": 4,
            "expression": "NEUTRE",
            "csv_id": 1999,
            "video_name": "DIVERS_BOOK_AD_04_0002"
        },
        {
            "name": "10978",
            "score": "0.994",
            "index": 23,
            "selectedWords": [
                "en col\u00e8re",
                "hargneuse",
                "m\u00e9contente",
                "autre",
                "in\u00e9branlable"
            ],
            "freeResponses": [],
            "nbPlayClick": 1,
            "expression": "COLERE",
            "csv_id": 11012,
            "video_name": "DIVERS_PARL_COLERE_AD_01_0004"
        },
        {
            "name": "12169",
            "score": "0.998",
            "index": 24,
            "selectedWords": [
                "d\u00e9sol\u00e9e",
                "transport\u00e9e"
            ],
            "freeResponses": [],
            "nbPlayClick": 1,
            "expression": "ETONNE",
            "csv_id": 12206,
            "video_name": "DIVERS_BOOK_ETONNE_AD_03_0001"
        },
        {
            "name": "9845",
            "score": "0.991",
            "index": 25,
            "selectedWords": [
                "enthousiaste",
                "\u00e9loquente"
            ],
            "freeResponses": [],
            "nbPlayClick": 2,
            "expression": "NEUTRE",
            "csv_id": 9879,
            "video_name": "DIVERS_BOOK_AD_03_0002"
        },
        {
            "name": "2055",
            "score": "0.914",
            "index": 26,
            "selectedWords": [
                "d\u00e9termin\u00e9e",
                "r\u00e9solue",
                "autre",
                "apaisante",
                "consolante",
                "larmoyante"
            ],
            "freeResponses": [],
            "nbPlayClick": 1,
            "expression": "SUPPLIANT",
            "csv_id": 2055,
            "video_name": "DIVERS_PARL_SUPPLIANT_AD_02_0001"
        },
        {
            "name": "10975",
            "score": "0.994",
            "index": 27,
            "selectedWords": [
                "\u00e9vidente",
                "prouv\u00e9e",
                "s\u00fbre",
                "nette"
            ],
            "freeResponses": [],
            "nbPlayClick": 1,
            "expression": "NEUTRE",
            "csv_id": 11009,
            "video_name": "DIVERS_PARL_AD_04_0004"
        },
        {
            "name": "2428",
            "score": "0.925",
            "index": 28,
            "selectedWords": [
                "enthousiaste",
                "tonique",
                "autre",
                "autre",
                "autre",
                "vivifiante",
                "stimulante"
            ],
            "freeResponses": [],
            "nbPlayClick": 2,
            "expression": "ESPIEGLE",
            "csv_id": 2428,
            "video_name": "ESTYLE_ESPIEGLE_AD_01_0001"
        },
        {
            "name": "10822",
            "score": "0.994",
            "index": 29,
            "selectedWords": [
                "r\u00e9confortante",
                "reconstituante",
                "consolante",
                "prostern\u00e9e"
            ],
            "freeResponses": [],
            "nbPlayClick": 1,
            "expression": "NEUTRE",
            "csv_id": 10856,
            "video_name": "DIVERS_PARL_AD_04_0001"
        },
        {
            "name": "10012",
            "score": "0.992",
            "index": 30,
            "selectedWords": [
                "neutre",
                "limpide",
                "intuitive",
                "pr\u00e9occup\u00e9e"
            ],
            "freeResponses": [],
            "nbPlayClick": 2,
            "expression": "NEUTRE",
            "csv_id": 10046,
            "video_name": "DIVERS_BOOK_AD_03_0001"
        },
        {
            "name": "4954",
            "score": "0.965",
            "index": 31,
            "selectedWords": [
                "d\u00e9sol\u00e9e",
                "r\u00e9fl\u00e9chie",
                "infaillible",
                "prouv\u00e9e"
            ],
            "freeResponses": [],
            "nbPlayClick": 1,
            "expression": "NEUTRE",
            "csv_id": 4988,
            "video_name": "DIVERS_PARL_AD_02_0004"
        },
        {
            "name": "6357",
            "score": "0.976",
            "index": 32,
            "selectedWords": [
                "pensive",
                "r\u00eaveuse",
                "autre",
                "autre",
                "m\u00e9fiante"
            ],
            "freeResponses": [],
            "nbPlayClick": 2,
            "expression": "DESOLE",
            "csv_id": 6391,
            "video_name": "DIVERS_PARL_DESOLE_AD_02_0002"
        },
        {
            "name": "8218",
            "score": "0.985",
            "index": 33,
            "selectedWords": [
                "en col\u00e8re",
                "en rogne",
                "m\u00e9contente",
                "contrari\u00e9e",
                "emb\u00eat\u00e9e"
            ],
            "freeResponses": [],
            "nbPlayClick": 2,
            "expression": "COLERE",
            "csv_id": 8252,
            "video_name": "DIVERS_PARL_COLERE_AD_02_0002"
        },
        {
            "name": "12063",
            "score": "0.997",
            "index": 34,
            "selectedWords": [
                "espi\u00e8gle",
                "mutine",
                "autre",
                "apaisante"
            ],
            "freeResponses": [],
            "nbPlayClick": 1,
            "expression": "NEUTRE",
            "csv_id": 12100,
            "video_name": "DIVERS_BOOK_AD_04_0002"
        },
        {
            "name": "4149",
            "score": "0.956",
            "index": 35,
            "selectedWords": [
                "enthousiaste",
                "\u00e9loquente",
                "exalt\u00e9e"
            ],
            "freeResponses": [],
            "nbPlayClick": 1,
            "expression": "NEUTRE",
            "csv_id": 4149,
            "video_name": "DIVERS_PARL_AD_01_0004"
        },
        {
            "name": "4416",
            "score": "0.959",
            "index": 36,
            "selectedWords": [
                "enthousiaste",
                "euphorique",
                "excit\u00e9e",
                "passionn\u00e9e",
                "r\u00e9solue",
                "d\u00e9cid\u00e9e"
            ],
            "freeResponses": [],
            "nbPlayClick": 2,
            "expression": "ESPIEGLE",
            "csv_id": 4416,
            "video_name": "DIVERS_BOOK_ESPIEGLE_AD_03_0001"
        },
        {
            "name": "4368",
            "score": "0.959",
            "index": 37,
            "selectedWords": [
                "\u00e9vidente",
                "patente",
                "officielle",
                "certaine"
            ],
            "freeResponses": [],
            "nbPlayClick": 1,
            "expression": "RECONFORTANT",
            "csv_id": 4368,
            "video_name": "DIVERS_PARL_RECONFORTANT_AD_02_0001"
        },
        {
            "name": "4696",
            "score": "0.963",
            "index": 38,
            "selectedWords": [
                "r\u00e9confortante",
                "vivifiante",
                "pr\u00e9occup\u00e9e"
            ],
            "freeResponses": [],
            "nbPlayClick": 4,
            "expression": "NEUTRE",
            "csv_id": 4730,
            "video_name": "DIVERS_PARL_AD_04_0002"
        },
        {
            "name": "12242",
            "score": "0.998",
            "index": 39,
            "selectedWords": [
                "pensive",
                "r\u00e9fl\u00e9chie",
                "nette",
                "ferme"
            ],
            "freeResponses": [],
            "nbPlayClick": 1,
            "expression": "NEUTRE",
            "csv_id": 12279,
            "video_name": "DIVERS_BOOK_AD_01_0001"
        },
        {
            "name": "2565",
            "score": "0.928",
            "index": 40,
            "selectedWords": [
                "incr\u00e9dule",
                "sinc\u00e8re",
                "perplexe",
                "autre",
                "autre",
                "autre",
                "stimulante"
            ],
            "freeResponses": [],
            "nbPlayClick": 1,
            "expression": "EVIDENCE",
            "csv_id": 2565,
            "video_name": "DIVERS_PARL_EVIDENCE_AD_01_0001"
        },
        {
            "name": "8754",
            "score": "0.987",
            "index": 41,
            "selectedWords": [
                "\u00e9vidente",
                "patente",
                "officielle",
                "s\u00fbre"
            ],
            "freeResponses": [],
            "nbPlayClick": 1,
            "expression": "NEUTRE",
            "csv_id": 8788,
            "video_name": "DIVERS_PARL_AD_01_0001"
        },
        {
            "name": "1997",
            "score": "0.912",
            "index": 42,
            "selectedWords": [
                "r\u00e9confortante",
                "reconstituante",
                "consolante",
                "prostern\u00e9e",
                "sinc\u00e8re"
            ],
            "freeResponses": [],
            "nbPlayClick": 1,
            "expression": "NEUTRE",
            "csv_id": 1997,
            "video_name": "DIVERS_PARL_AD_05_0003"
        },
        {
            "name": "6228",
            "score": "0.975",
            "index": 43,
            "selectedWords": [
                "autre",
                "certaine",
                "autre",
                "ennuy\u00e9e",
                "autre",
                "songeuse",
                "autre",
                "encourageante"
            ],
            "freeResponses": [],
            "nbPlayClick": 2,
            "expression": "NEUTRE",
            "csv_id": 6262,
            "video_name": "DIVERS_PARL_AD_01_0004"
        },
        {
            "name": "11624",
            "score": "0.996",
            "index": 44,
            "selectedWords": [
                "reconstituante",
                "apaisante",
                "autre",
                "autre",
                "autre",
                "autre",
                "d\u00e9cid\u00e9e",
                "\u00e9nergique"
            ],
            "freeResponses": [],
            "nbPlayClick": 2,
            "expression": "NEUTRE",
            "csv_id": 11661,
            "video_name": "DIVERS_PARL_AD_01_0005"
        },
        {
            "name": "5802",
            "score": "0.972",
            "index": 45,
            "selectedWords": [
                "espi\u00e8gle",
                "narquoise",
                "d\u00e9cid\u00e9e",
                "r\u00e9solue"
            ],
            "freeResponses": [],
            "nbPlayClick": 2,
            "expression": "NEUTRE",
            "csv_id": 5836,
            "video_name": "DIVERS_PARL_AD_03_0002"
        },
        {
            "name": "11617",
            "score": "0.996",
            "index": 46,
            "selectedWords": [
                "r\u00e9confortante",
                "stimulante",
                "notoire",
                "patente",
                "prouv\u00e9e"
            ],
            "freeResponses": [],
            "nbPlayClick": 1,
            "expression": "NEUTRE",
            "csv_id": 11654,
            "video_name": "DIVERS_BOOK_AD_03_0002"
        },
        {
            "name": "5829",
            "score": "0.973",
            "index": 47,
            "selectedWords": [
                "\u00e9tonn\u00e9e",
                "r\u00e9fl\u00e9chie",
                "manifeste",
                "prouv\u00e9e"
            ],
            "freeResponses": [],
            "nbPlayClick": 1,
            "expression": "NEUTRE",
            "csv_id": 5863,
            "video_name": "DIVERS_BOOK_AD_03_0001"
        },
        {
            "name": "9324",
            "score": "0.989",
            "index": 48,
            "selectedWords": [
                "d\u00e9termin\u00e9e",
                "manifeste",
                "prouv\u00e9e",
                "ind\u00e9niable",
                "ferme"
            ],
            "freeResponses": [],
            "nbPlayClick": 3,
            "expression": "NEUTRE",
            "csv_id": 9358,
            "video_name": "DIVERS_BOOK_AD_03_0002"
        },
        {
            "name": "5995",
            "score": "0.974",
            "index": 49,
            "selectedWords": [
                "neutre",
                "tonique",
                "terne",
                "fade",
                "ennuy\u00e9e"
            ],
            "freeResponses": [],
            "nbPlayClick": 2,
            "expression": "NEUTRE",
            "csv_id": 6029,
            "video_name": "DIVERS_BOOK_AD_03_0001"
        },
        {
            "name": "10954",
            "score": "0.994",
            "index": 50,
            "selectedWords": [
                "incr\u00e9dule",
                "convaincue",
                "autre",
                "imp\u00e9n\u00e9trable",
                "inexpressive"
            ],
            "freeResponses": [],
            "nbPlayClick": 3,
            "expression": "NEUTRE",
            "csv_id": 10988,
            "video_name": "DIVERS_PARL_AD_02_0003"
        },
        {
            "name": "5213",
            "score": "0.968",
            "index": 51,
            "selectedWords": [
                "apaisante",
                "reconstituante",
                "effar\u00e9e",
                "ferme"
            ],
            "freeResponses": [],
            "nbPlayClick": 2,
            "expression": "NEUTRE",
            "csv_id": 5247,
            "video_name": "DIVERS_PARL_AD_06_0003"
        },
        {
            "name": "9711",
            "score": "0.991",
            "index": 52,
            "selectedWords": [
                "r\u00e9confortante",
                "consolatrice",
                "triomphale",
                "\u00e9loquente"
            ],
            "freeResponses": [],
            "nbPlayClick": 2,
            "expression": "NEUTRE",
            "csv_id": 9745,
            "video_name": "DIVERS_PARL_AD_01_0004"
        },
        {
            "name": "8347",
            "score": "0.986",
            "index": 53,
            "selectedWords": [
                "pensive",
                "r\u00e9fl\u00e9chissante",
                "mendiante",
                "autre",
                "vivifiante",
                "apaisante"
            ],
            "freeResponses": [],
            "nbPlayClick": 2,
            "expression": "NEUTRE",
            "csv_id": 8381,
            "video_name": "DIVERS_PARL_AD_03_0003"
        },
        {
            "name": "1038",
            "score": "0.864",
            "index": 54,
            "selectedWords": [
                "d\u00e9termin\u00e9e",
                "excit\u00e9e",
                "euphorique",
                "z\u00e9l\u00e9e",
                "infaillible",
                "prouv\u00e9e",
                "certaine"
            ],
            "freeResponses": [],
            "nbPlayClick": 3,
            "expression": "ENTHOUSIASTE",
            "csv_id": 1038,
            "video_name": "DIVERS_BOOK_ENTHOUSIASTE_AD_01_0004"
        },
        {
            "name": "6760",
            "score": "0.978",
            "index": 55,
            "selectedWords": [
                "pensive",
                "songeuse",
                "mendiante",
                "tonique"
            ],
            "freeResponses": [],
            "nbPlayClick": 2,
            "expression": "NEUTRE",
            "csv_id": 6794,
            "video_name": "DIVERS_PARL_AD_03_0001"
        },
        {
            "name": "8271",
            "score": "0.985",
            "index": 56,
            "selectedWords": [
                "pensive",
                "r\u00e9fl\u00e9chissante",
                "pensante",
                "reconstituante",
                "vivifiante"
            ],
            "freeResponses": [],
            "nbPlayClick": 1,
            "expression": "NEUTRE",
            "csv_id": 8305,
            "video_name": "DIVERS_PARL_AD_03_0003"
        },
        {
            "name": "1105",
            "score": "0.869",
            "index": 57,
            "selectedWords": [
                "suppliante",
                "mendiante",
                "sinc\u00e8re",
                "terne",
                "nette"
            ],
            "freeResponses": [],
            "nbPlayClick": 1,
            "expression": "SUPPLIANT",
            "csv_id": 1105,
            "video_name": "DIVERS_PARL_SUPPLIANT_AD_02_0001"
        },
        {
            "name": "5100",
            "score": "0.967",
            "index": 58,
            "selectedWords": [
                "\u00e9vidente",
                "patente",
                "certaine"
            ],
            "freeResponses": [],
            "nbPlayClick": 1,
            "expression": "NEUTRE",
            "csv_id": 5134,
            "video_name": "DIVERS_PARL_AD_05_0003"
        },
        {
            "name": "11870",
            "score": "0.997",
            "index": 59,
            "selectedWords": [
                "r\u00e9confortante",
                "encourageante",
                "consolante",
                "enthousiaste",
                "ardente",
                "infaillible"
            ],
            "freeResponses": [],
            "nbPlayClick": 1,
            "expression": "ENTHOUSIASTE",
            "csv_id": 11907,
            "video_name": "DIVERS_BOOK_ENTHOUSIASTE_AD_01_0001"
        }
    ],
    "training": [
        {
            "name": "77",
            "score": "0.639",
            "index": 0,
            "selectedWords": [
                "r\u00e9confortante",
                "encourageante",
                "consolante",
                "autre",
                "autre",
                "d\u00e9cid\u00e9e",
                "\u00e9nergique",
                "autre",
                "songeuse",
                "r\u00e9fl\u00e9chie",
                "autre",
                "autre",
                "autre",
                "autre",
                "autre",
                "autre",
                "autre",
                "d\u00e9concert\u00e9e",
                "\u00e9loquente",
                "officielle",
                "sinc\u00e8re"
            ],
            "freeResponses": [],
            "nbPlayClick": 4,
            "expression": "NEUTRE"
        }
    ],
    "filenameDate": "2023-09-18_19-31"
}