{
    "user": {
        "isProlific": true,
        "id": "5cc319416dd042000148019e",
        "session": "65e9bd551ad4e4add7b184f6",
        "study": "64ef977375f88e4e1174dce0"
    },
    "userAgent": "Mozilla/5.0 (Windows NT 10.0; Win64; x64; rv:123.0) Gecko/20100101 Firefox/123.0",
    "landingDate": "2024-03-07T13:13:34.710Z",
    "startDate": "2024-03-07T13:15:35.310Z",
    "endDate": "2024-03-07T13:46:45.833Z",
    "reviews": [
        {
            "name": "1568",
            "score": "0.895",
            "index": 0,
            "selectedWords": [
                "autre",
                "imp\u00e9n\u00e9trable",
                "terne"
            ],
            "freeResponses": [],
            "nbPlayClick": 2,
            "expression": "NEUTRE",
            "csv_id": 1568,
            "video_name": "DIVERS_PARL_AD_05_0001"
        },
        {
            "name": "11716",
            "score": "0.996",
            "index": 1,
            "selectedWords": [
                "enthousiaste",
                "autre",
                "autre",
                "malicieuse"
            ],
            "freeResponses": [],
            "nbPlayClick": 1,
            "expression": "ESPIEGLE",
            "csv_id": 11753,
            "video_name": "DIVERS_PARL_ESPIEGLE_AD_01_0001"
        },
        {
            "name": "9354",
            "score": "0.989",
            "index": 2,
            "selectedWords": [
                "neutre",
                "autre",
                "autre",
                "ennuy\u00e9e"
            ],
            "freeResponses": [],
            "nbPlayClick": 2,
            "expression": "NEUTRE",
            "csv_id": 9388,
            "video_name": "DIVERS_BOOK_AD_01_0002"
        },
        {
            "name": "8476",
            "score": "0.986",
            "index": 3,
            "selectedWords": [
                "autre",
                "autre",
                "autre",
                "autre",
                "autre",
                "autre",
                "d\u00e9cid\u00e9e",
                "nette"
            ],
            "freeResponses": [],
            "nbPlayClick": 1,
            "expression": "NEUTRE",
            "csv_id": 8510,
            "video_name": "DIVERS_PARL_AD_04_0004"
        },
        {
            "name": "7800",
            "score": "0.983",
            "index": 4,
            "selectedWords": [
                "autre",
                "autre",
                "autre",
                "autre",
                "autre",
                "autre",
                "ind\u00e9niable",
                "autre",
                "autre",
                "autre",
                "autre",
                "autre",
                "r\u00e9solue"
            ],
            "freeResponses": [],
            "nbPlayClick": 1,
            "expression": "EVIDENCE",
            "csv_id": 7834,
            "video_name": "DIVERS_BOOK_EVIDENCE_AD_01_0002"
        },
        {
            "name": "4529",
            "score": "0.961",
            "index": 5,
            "selectedWords": [
                "autre",
                "autre",
                "autre",
                "autre",
                "autre",
                "opini\u00e2tre",
                "autre",
                "narquoise"
            ],
            "freeResponses": [],
            "nbPlayClick": 2,
            "expression": "EVIDENCE",
            "csv_id": 4563,
            "video_name": "DIVERS_PARL_EVIDENCE_AD_01_0001"
        },
        {
            "name": "12175",
            "score": "0.998",
            "index": 6,
            "selectedWords": [
                "neutre",
                "autre",
                "autre",
                "ennuy\u00e9e"
            ],
            "freeResponses": [],
            "nbPlayClick": 1,
            "expression": "PENSIF",
            "csv_id": 12212,
            "video_name": "DIVERS_PARL_PENSIF_AD_01_0002"
        },
        {
            "name": "10302",
            "score": "0.993",
            "index": 7,
            "selectedWords": [
                "neutre",
                "autre",
                "autre",
                "autre",
                "autre",
                "autre",
                "autre",
                "autre",
                "autre",
                "pensante"
            ],
            "freeResponses": [],
            "nbPlayClick": 1,
            "expression": "NEUTRE",
            "csv_id": 10336,
            "video_name": "DIVERS_PARL_AD_04_0001"
        },
        {
            "name": "11509",
            "score": "0.996",
            "index": 8,
            "selectedWords": [
                "neutre"
            ],
            "freeResponses": [
                "factuelle"
            ],
            "nbPlayClick": 1,
            "response": "factuelle",
            "expression": "NEUTRE",
            "csv_id": 11546,
            "video_name": "DIVERS_PARL_AD_02_0002"
        },
        {
            "name": "11881",
            "score": "0.997",
            "index": 9,
            "selectedWords": [
                "dubitative",
                "sceptique"
            ],
            "freeResponses": [],
            "nbPlayClick": 1,
            "response": "dubi",
            "expression": "NEUTRE",
            "csv_id": 11918,
            "video_name": "DIVERS_PARL_AD_03_0003"
        },
        {
            "name": "6474",
            "score": "0.977",
            "index": 10,
            "selectedWords": [],
            "freeResponses": [
                "moqueuse",
                "boudeuse"
            ],
            "nbPlayClick": 2,
            "response": "boudeuse",
            "expression": "INCREDULE",
            "csv_id": 6508,
            "video_name": "DIVERS_BOOK_INCREDULE_AD_01_0001"
        },
        {
            "name": "6459",
            "score": "0.977",
            "index": 11,
            "selectedWords": [
                "autre",
                "autre",
                "autre",
                "autre",
                "autre",
                "autre",
                "m\u00e9fiante",
                "autre",
                "autre",
                "autre",
                "m\u00e9contente"
            ],
            "freeResponses": [],
            "nbPlayClick": 1,
            "expression": "INCREDULE",
            "csv_id": 6493,
            "video_name": "DIVERS_PARL_INCREDULE_AD_02_0003"
        },
        {
            "name": "7792",
            "score": "0.983",
            "index": 12,
            "selectedWords": [
                "interloqu\u00e9e",
                "ennuy\u00e9e"
            ],
            "freeResponses": [],
            "nbPlayClick": 2,
            "response": "ennu",
            "expression": "INCREDULE",
            "csv_id": 7826,
            "video_name": "DIVERS_BOOK_INCREDULE_AD_01_0001"
        },
        {
            "name": "7817",
            "score": "0.983",
            "index": 13,
            "selectedWords": [
                "autre",
                "fac\u00e9tieuse",
                "maligne"
            ],
            "freeResponses": [],
            "nbPlayClick": 1,
            "expression": "RECONFORTANT",
            "csv_id": 7851,
            "video_name": "DIVERS_BOOK_RECONFORTANT_AD_01_0002"
        },
        {
            "name": "7631",
            "score": "0.983",
            "index": 14,
            "selectedWords": [
                "neutre",
                "s\u00fbre"
            ],
            "freeResponses": [],
            "nbPlayClick": 1,
            "expression": "NEUTRE",
            "csv_id": 7665,
            "video_name": "DIVERS_PARL_AD_02_0002"
        },
        {
            "name": "7983",
            "score": "0.984",
            "index": 15,
            "selectedWords": [
                "neutre"
            ],
            "freeResponses": [
                "factuelle"
            ],
            "nbPlayClick": 1,
            "response": "factuelle",
            "expression": "NEUTRE",
            "csv_id": 8017,
            "video_name": "DIVERS_PARL_AD_03_0002"
        },
        {
            "name": "4860",
            "score": "0.964",
            "index": 16,
            "selectedWords": [
                "dubitative",
                "autre",
                "autre",
                "atone",
                "froide"
            ],
            "freeResponses": [],
            "nbPlayClick": 2,
            "response": "dubi",
            "expression": "INCREDULE",
            "csv_id": 4894,
            "video_name": "DIVERS_PARL_INCREDULE_AD_02_0003"
        },
        {
            "name": "8030",
            "score": "0.984",
            "index": 17,
            "selectedWords": [
                "autre",
                "autre",
                "autre"
            ],
            "freeResponses": [
                "autoritaire",
                "agac\u00e9e"
            ],
            "nbPlayClick": 1,
            "response": "agac\u00e9e",
            "expression": "INCREDULE",
            "csv_id": 8064,
            "video_name": "DIVERS_PARL_INCREDULE_AD_02_0003"
        },
        {
            "name": "9173",
            "score": "0.989",
            "index": 18,
            "selectedWords": [
                "neutre",
                "autre",
                "imp\u00e9n\u00e9trable"
            ],
            "freeResponses": [],
            "nbPlayClick": 1,
            "expression": "NEUTRE",
            "csv_id": 9207,
            "video_name": "DIVERS_BOOK_AD_03_0001"
        },
        {
            "name": "9969",
            "score": "0.992",
            "index": 19,
            "selectedWords": [
                "neutre",
                "tonique"
            ],
            "freeResponses": [],
            "nbPlayClick": 1,
            "expression": "NEUTRE",
            "csv_id": 10003,
            "video_name": "DIVERS_BOOK_AD_01_0002"
        },
        {
            "name": "10503",
            "score": "0.993",
            "index": 20,
            "selectedWords": [
                "d\u00e9termin\u00e9e",
                "r\u00e9solue",
                "convaincue"
            ],
            "freeResponses": [],
            "nbPlayClick": 1,
            "expression": "NEUTRE",
            "csv_id": 10537,
            "video_name": "DIVERS_PARL_AD_03_0003"
        },
        {
            "name": "6517",
            "score": "0.977",
            "index": 21,
            "selectedWords": [
                "narquoise",
                "autre",
                "imp\u00e9n\u00e9trable"
            ],
            "freeResponses": [],
            "nbPlayClick": 1,
            "response": "nar",
            "expression": "PENSIF",
            "csv_id": 6551,
            "video_name": "DIVERS_BOOK_PENSIF_AD_01_0003"
        },
        {
            "name": "7323",
            "score": "0.981",
            "index": 22,
            "selectedWords": [
                "neutre",
                "certaine",
                "nette"
            ],
            "freeResponses": [],
            "nbPlayClick": 1,
            "expression": "SUPPLIANT",
            "csv_id": 7357,
            "video_name": "DIVERS_PARL_SUPPLIANT_AD_02_0002"
        },
        {
            "name": "2732",
            "score": "0.932",
            "index": 23,
            "selectedWords": [
                "d\u00e9termin\u00e9e",
                "r\u00e9fl\u00e9chie",
                "nette"
            ],
            "freeResponses": [],
            "nbPlayClick": 1,
            "expression": "NEUTRE",
            "csv_id": 2732,
            "video_name": "DIVERS_PARL_AD_06_0002"
        },
        {
            "name": "6360",
            "score": "0.976",
            "index": 24,
            "selectedWords": [
                "ennuy\u00e9e",
                "contrari\u00e9e"
            ],
            "freeResponses": [],
            "nbPlayClick": 1,
            "expression": "NEUTRE",
            "csv_id": 6394,
            "video_name": "DIVERS_PARL_AD_02_0002"
        },
        {
            "name": "10169",
            "score": "0.992",
            "index": 25,
            "selectedWords": [
                "suppliante",
                "autre",
                "d\u00e9cid\u00e9e",
                "r\u00e9solue"
            ],
            "freeResponses": [],
            "nbPlayClick": 1,
            "expression": "SUPPLIANT",
            "csv_id": 10203,
            "video_name": "DIVERS_PARL_SUPPLIANT_AD_02_0002"
        },
        {
            "name": "6315",
            "score": "0.976",
            "index": 26,
            "selectedWords": [
                "d\u00e9sol\u00e9e",
                "autre",
                "autre",
                "autre"
            ],
            "freeResponses": [
                "fausse"
            ],
            "nbPlayClick": 1,
            "response": "fausse",
            "expression": "SUPPLIANT",
            "csv_id": 6349,
            "video_name": "DIVERS_PARL_SUPPLIANT_AD_02_0001"
        },
        {
            "name": "7351",
            "score": "0.981",
            "index": 27,
            "selectedWords": [
                "neutre",
                "s\u00fbre"
            ],
            "freeResponses": [],
            "nbPlayClick": 1,
            "expression": "SUPPLIANT",
            "csv_id": 7385,
            "video_name": "DIVERS_BOOK_SUPPLIANT_AD_01_0002"
        },
        {
            "name": "10657",
            "score": "0.994",
            "index": 28,
            "selectedWords": [
                "neutre",
                "certaine",
                "nette"
            ],
            "freeResponses": [],
            "nbPlayClick": 1,
            "expression": "NEUTRE",
            "csv_id": 10691,
            "video_name": "DIVERS_BOOK_AD_04_0001"
        },
        {
            "name": "8697",
            "score": "0.987",
            "index": 29,
            "selectedWords": [
                "ennuy\u00e9e",
                "autre",
                "autre",
                "inexpressive"
            ],
            "freeResponses": [],
            "nbPlayClick": 1,
            "response": "ennu",
            "expression": "NEUTRE",
            "csv_id": 8731,
            "video_name": "DIVERS_PARL_AD_03_0001"
        },
        {
            "name": "7574",
            "score": "0.982",
            "index": 30,
            "selectedWords": [
                "autre",
                "autre",
                "autre",
                "autre",
                "autre",
                "autre",
                "autre",
                "autre",
                "narquoise"
            ],
            "freeResponses": [
                "accusatrice"
            ],
            "nbPlayClick": 1,
            "response": "accusatrice",
            "expression": "NEUTRE",
            "csv_id": 7608,
            "video_name": "DIVERS_PARL_AD_06_0001"
        },
        {
            "name": "11521",
            "score": "0.996",
            "index": 31,
            "selectedWords": [
                "absente",
                "autre",
                "autre",
                "atone",
                "fade"
            ],
            "freeResponses": [],
            "nbPlayClick": 1,
            "expression": "PENSIF",
            "csv_id": 11558,
            "video_name": "DIVERS_PARL_PENSIF_AD_01_0002"
        },
        {
            "name": "2418",
            "score": "0.924",
            "index": 32,
            "selectedWords": [
                "neutre",
                "autre",
                "ennuy\u00e9e"
            ],
            "freeResponses": [],
            "nbPlayClick": 1,
            "response": "enn",
            "expression": "NEUTRE",
            "csv_id": 2418,
            "video_name": "DIVERS_PARL_AD_04_0003"
        },
        {
            "name": "10471",
            "score": "0.993",
            "index": 33,
            "selectedWords": [
                "neutre",
                "nette"
            ],
            "freeResponses": [],
            "nbPlayClick": 1,
            "response": "nett",
            "expression": "NEUTRE",
            "csv_id": 10505,
            "video_name": "DIVERS_BOOK_AD_04_0001"
        },
        {
            "name": "4468",
            "score": "0.960",
            "index": 34,
            "selectedWords": [
                "autre",
                "autre",
                "autre",
                "autre",
                "autre",
                "songeuse"
            ],
            "freeResponses": [
                "expressive"
            ],
            "nbPlayClick": 1,
            "response": "expressive",
            "expression": "EVIDENCE",
            "csv_id": 4502,
            "video_name": "DIVERS_BOOK_EVIDENCE_AD_01_0002"
        },
        {
            "name": "6406",
            "score": "0.976",
            "index": 35,
            "selectedWords": [
                "neutre",
                "ennuy\u00e9e"
            ],
            "freeResponses": [],
            "nbPlayClick": 1,
            "response": "ennu",
            "expression": "NEUTRE",
            "csv_id": 6440,
            "video_name": "DIVERS_BOOK_AD_03_0001"
        },
        {
            "name": "8883",
            "score": "0.988",
            "index": 36,
            "selectedWords": [
                "narquoise",
                "autre",
                "autre",
                "autre",
                "autre",
                "autre",
                "autre",
                "autre",
                "autre",
                "autre",
                "autre",
                "autre",
                "autre",
                "irrit\u00e9e"
            ],
            "freeResponses": [],
            "nbPlayClick": 1,
            "response": "narquois",
            "expression": "NEUTRE",
            "csv_id": 8917,
            "video_name": "DIVERS_PARL_AD_06_0003"
        },
        {
            "name": "8335",
            "score": "0.986",
            "index": 37,
            "selectedWords": [
                "neutre"
            ],
            "freeResponses": [
                "factuelle"
            ],
            "nbPlayClick": 1,
            "response": "factuelle",
            "expression": "NEUTRE",
            "csv_id": 8369,
            "video_name": "DIVERS_PARL_AD_04_0001"
        },
        {
            "name": "5347",
            "score": "0.969",
            "index": 38,
            "selectedWords": [
                "enthousiaste",
                "triomphale"
            ],
            "freeResponses": [],
            "nbPlayClick": 1,
            "expression": "ENTHOUSIASTE",
            "csv_id": 5381,
            "video_name": "DIVERS_PARL_ENTHOUSIASTE_AD_01_0003"
        },
        {
            "name": "4282",
            "score": "0.958",
            "index": 39,
            "selectedWords": [
                "suppliante",
                "implorante"
            ],
            "freeResponses": [],
            "nbPlayClick": 1,
            "expression": "SUPPLIANT",
            "csv_id": 4282,
            "video_name": "DIVERS_PARL_SUPPLIANT_AD_02_0002"
        },
        {
            "name": "11367",
            "score": "0.995",
            "index": 40,
            "selectedWords": [
                "neutre",
                "absente"
            ],
            "freeResponses": [],
            "nbPlayClick": 1,
            "expression": "PENSIF",
            "csv_id": 11401,
            "video_name": "DIVERS_PARL_PENSIF_AD_01_0002"
        },
        {
            "name": "7834",
            "score": "0.984",
            "index": 41,
            "selectedWords": [
                "\u00e9tonn\u00e9e",
                "absente"
            ],
            "freeResponses": [],
            "nbPlayClick": 1,
            "expression": "PENSIF",
            "csv_id": 7868,
            "video_name": "DIVERS_PARL_PENSIF_AD_01_0002"
        },
        {
            "name": "1897",
            "score": "0.908",
            "index": 42,
            "selectedWords": [
                "enthousiaste",
                "tonique"
            ],
            "freeResponses": [],
            "nbPlayClick": 1,
            "expression": "DETERMINE",
            "csv_id": 1897,
            "video_name": "DIVERS_PARL_DETERMINE_AD_01_0004"
        },
        {
            "name": "9840",
            "score": "0.991",
            "index": 43,
            "selectedWords": [
                "neutre",
                "certaine",
                "in\u00e9branlable"
            ],
            "freeResponses": [],
            "nbPlayClick": 1,
            "expression": "NEUTRE",
            "csv_id": 9874,
            "video_name": "DIVERS_PARL_AD_06_0003"
        },
        {
            "name": "3561",
            "score": "0.948",
            "index": 44,
            "selectedWords": [
                "autre",
                "autre",
                "autre",
                "attrist\u00e9e",
                "accabl\u00e9e"
            ],
            "freeResponses": [],
            "nbPlayClick": 1,
            "expression": "DESOLE",
            "csv_id": 3561,
            "video_name": "DIVERS_PARL_DESOLE_AD_02_0002"
        },
        {
            "name": "1934",
            "score": "0.909",
            "index": 45,
            "selectedWords": [
                "d\u00e9termin\u00e9e",
                "manifeste",
                "convaincue"
            ],
            "freeResponses": [],
            "nbPlayClick": 1,
            "response": "d\u00e9ter",
            "expression": "NEUTRE",
            "csv_id": 1934,
            "video_name": "DIVERS_PARL_AD_02_0004"
        },
        {
            "name": "5812",
            "score": "0.973",
            "index": 46,
            "selectedWords": [
                "ennuy\u00e9e",
                "d\u00e9pit\u00e9e"
            ],
            "freeResponses": [],
            "nbPlayClick": 2,
            "response": "ennu",
            "expression": "EVIDENCE",
            "csv_id": 5846,
            "video_name": "DIVERS_BOOK_EVIDENCE_AD_01_0002"
        },
        {
            "name": "5109",
            "score": "0.967",
            "index": 47,
            "selectedWords": [
                "d\u00e9termin\u00e9e",
                "autre",
                "autre",
                "autre",
                "stimulante"
            ],
            "freeResponses": [],
            "nbPlayClick": 1,
            "expression": "DETERMINE",
            "csv_id": 5143,
            "video_name": "DIVERS_BOOK_DETERMINE_AD_03_0001"
        },
        {
            "name": "7814",
            "score": "0.983",
            "index": 48,
            "selectedWords": [
                "fade",
                "autre",
                "autre",
                "indiscutable",
                "convaincue"
            ],
            "freeResponses": [],
            "nbPlayClick": 1,
            "expression": "INCREDULE",
            "csv_id": 7848,
            "video_name": "DIVERS_PARL_INCREDULE_AD_02_0003"
        },
        {
            "name": "8108",
            "score": "0.985",
            "index": 49,
            "selectedWords": [
                "en col\u00e8re",
                "courrouc\u00e9e"
            ],
            "freeResponses": [
                "aigrie"
            ],
            "nbPlayClick": 1,
            "response": "aigrie",
            "expression": "NEUTRE",
            "csv_id": 8142,
            "video_name": "DIVERS_PARL_AD_03_0001"
        },
        {
            "name": "9708",
            "score": "0.991",
            "index": 50,
            "selectedWords": [
                "neutre",
                "certaine"
            ],
            "freeResponses": [],
            "nbPlayClick": 1,
            "expression": "NEUTRE",
            "csv_id": 9742,
            "video_name": "DIVERS_PARL_AD_04_0004"
        },
        {
            "name": "10638",
            "score": "0.993",
            "index": 51,
            "selectedWords": [
                "autre",
                "autre"
            ],
            "freeResponses": [
                "hypocrite",
                "fausse"
            ],
            "nbPlayClick": 1,
            "response": "fausse",
            "expression": "ENTHOUSIASTE",
            "csv_id": 10672,
            "video_name": "DIVERS_PARL_ENTHOUSIASTE_AD_02_0001"
        },
        {
            "name": "10362",
            "score": "0.993",
            "index": 52,
            "selectedWords": [
                "neutre",
                "limpide",
                "officielle"
            ],
            "freeResponses": [],
            "nbPlayClick": 1,
            "expression": "NEUTRE",
            "csv_id": 10396,
            "video_name": "DIVERS_PARL_AD_06_0001"
        },
        {
            "name": "4208",
            "score": "0.957",
            "index": 53,
            "selectedWords": [
                "neutre"
            ],
            "freeResponses": [
                "factuelle"
            ],
            "nbPlayClick": 1,
            "response": "factuelle",
            "expression": "NEUTRE",
            "csv_id": 4208,
            "video_name": "DIVERS_PARL_AD_06_0001"
        },
        {
            "name": "11161",
            "score": "0.995",
            "index": 54,
            "selectedWords": [
                "pensive"
            ],
            "freeResponses": [
                "h\u00e9sitante"
            ],
            "nbPlayClick": 1,
            "response": "h\u00e9sitante",
            "expression": "PENSIF",
            "csv_id": 11195,
            "video_name": "DIVERS_PARL_PENSIF_AD_01_0002"
        },
        {
            "name": "11411",
            "score": "0.995",
            "index": 55,
            "selectedWords": [
                "officielle",
                "certaine"
            ],
            "freeResponses": [],
            "nbPlayClick": 1,
            "response": "offic",
            "expression": "NEUTRE",
            "csv_id": 11448,
            "video_name": "DIVERS_PARL_AD_02_0002"
        },
        {
            "name": "10196",
            "score": "0.992",
            "index": 56,
            "selectedWords": [
                "d\u00e9sol\u00e9e",
                "autre",
                "implorante"
            ],
            "freeResponses": [],
            "nbPlayClick": 1,
            "expression": "SUPPLIANT",
            "csv_id": 10230,
            "video_name": "DIVERS_BOOK_SUPPLIANT_AD_01_0002"
        },
        {
            "name": "5429",
            "score": "0.969",
            "index": 57,
            "selectedWords": [
                "neutre",
                "s\u00fbre"
            ],
            "freeResponses": [],
            "nbPlayClick": 1,
            "expression": "EVIDENCE",
            "csv_id": 5463,
            "video_name": "DIVERS_PARL_EVIDENCE_AD_01_0001"
        },
        {
            "name": "5607",
            "score": "0.971",
            "index": 58,
            "selectedWords": [
                "d\u00e9termin\u00e9e",
                "manifeste",
                "convaincue"
            ],
            "freeResponses": [],
            "nbPlayClick": 1,
            "expression": "DETERMINE",
            "csv_id": 5641,
            "video_name": "DIVERS_PARL_DETERMINE_AD_01_0004"
        },
        {
            "name": "6443",
            "score": "0.976",
            "index": 59,
            "selectedWords": [
                "neutre",
                "patente"
            ],
            "freeResponses": [],
            "nbPlayClick": 1,
            "expression": "NEUTRE",
            "csv_id": 6477,
            "video_name": "DIVERS_PARL_AD_04_0003"
        }
    ],
    "training": [
        {
            "name": "77",
            "score": "0.639",
            "index": 0,
            "selectedWords": [
                "neutre",
                "autre",
                "autre",
                "autre",
                "autre",
                "autre",
                "autre",
                "stimulante"
            ],
            "freeResponses": [],
            "nbPlayClick": 2,
            "expression": "NEUTRE"
        }
    ],
    "filenameDate": "2024-03-07_14-46"
}