{
    "user": {
        "isProlific": true,
        "id": "5d16693671c14b0016611eab",
        "session": "653ff4af5bb042a5ea94979f",
        "study": "64ef977375f88e4e1174dce0"
    },
    "userAgent": "Mozilla/5.0 (Windows NT 10.0; Win64; x64) AppleWebKit/537.36 (KHTML, like Gecko) Chrome/117.0.0.0 Safari/537.36",
    "landingDate": "2023-10-30T18:23:53.640Z",
    "startDate": "2023-10-30T18:25:31.405Z",
    "endDate": "2023-10-30T18:57:55.998Z",
    "reviews": [
        {
            "name": "3095",
            "score": "0.940",
            "index": 0,
            "selectedWords": [
                "d\u00e9cid\u00e9e",
                "ferme",
                "hargneuse"
            ],
            "freeResponses": [
                "condescendante"
            ],
            "nbPlayClick": 2,
            "response": "condescendante",
            "expression": "NEUTRE",
            "csv_id": 3095,
            "video_name": "DIVERS_PARL_AD_04_0002"
        },
        {
            "name": "11293",
            "score": "0.995",
            "index": 1,
            "selectedWords": [
                "d\u00e9courag\u00e9e",
                "pensive",
                "navr\u00e9e",
                "terne"
            ],
            "freeResponses": [],
            "nbPlayClick": 1,
            "expression": "PENSIF",
            "csv_id": 11327,
            "video_name": "DIVERS_PARL_PENSIF_AD_01_0002"
        },
        {
            "name": "10214",
            "score": "0.992",
            "index": 2,
            "selectedWords": [
                "neutre",
                "autre",
                "autre",
                "autre",
                "autre",
                "autre",
                "autre",
                "autre"
            ],
            "freeResponses": [
                "pr\u00e9cise",
                "assur\u00e9e"
            ],
            "nbPlayClick": 1,
            "response": "assur\u00e9e",
            "expression": "NEUTRE",
            "csv_id": 10248,
            "video_name": "DIVERS_BOOK_AD_04_0002"
        },
        {
            "name": "4510",
            "score": "0.961",
            "index": 3,
            "selectedWords": [
                "suppliante",
                "abasourdie",
                "emb\u00eat\u00e9e",
                "contrari\u00e9e"
            ],
            "freeResponses": [],
            "nbPlayClick": 1,
            "expression": "EVIDENCE",
            "csv_id": 4544,
            "video_name": "DIVERS_PARL_EVIDENCE_AD_02_0002"
        },
        {
            "name": "11678",
            "score": "0.996",
            "index": 4,
            "selectedWords": [],
            "freeResponses": [
                "professionnelle",
                "d\u00e9termin\u00e9e",
                "Press\u00e9e",
                "insistante"
            ],
            "nbPlayClick": 1,
            "response": "insistante",
            "expression": "COLERE",
            "csv_id": 11715,
            "video_name": "DIVERS_PARL_COLERE_AD_01_0004"
        },
        {
            "name": "4867",
            "score": "0.964",
            "index": 5,
            "selectedWords": [
                "d\u00e9courag\u00e9e",
                "r\u00e9solue"
            ],
            "freeResponses": [
                "blas\u00e9e",
                "d\u00e9cue"
            ],
            "nbPlayClick": 1,
            "response": "d\u00e9cue",
            "expression": "DESOLE",
            "csv_id": 4901,
            "video_name": "DIVERS_PARL_DESOLE_AD_02_0002"
        },
        {
            "name": "3275",
            "score": "0.943",
            "index": 6,
            "selectedWords": [
                "d\u00e9termin\u00e9e",
                "encourageante",
                "d\u00e9cid\u00e9e"
            ],
            "freeResponses": [
                "positive"
            ],
            "nbPlayClick": 2,
            "response": "positive",
            "expression": "ENTHOUSIASTE",
            "csv_id": 3275,
            "video_name": "DIVERS_PARL_ENTHOUSIASTE_AD_02_0001"
        },
        {
            "name": "7637",
            "score": "0.983",
            "index": 7,
            "selectedWords": [
                "en col\u00e8re",
                "irrit\u00e9e",
                "f\u00e2ch\u00e9e",
                "contrari\u00e9e",
                "autre",
                "implorante"
            ],
            "freeResponses": [],
            "nbPlayClick": 1,
            "expression": "COLERE",
            "csv_id": 7671,
            "video_name": "DIVERS_PARL_COLERE_AD_01_0003"
        },
        {
            "name": "8339",
            "score": "0.986",
            "index": 8,
            "selectedWords": [
                "neutre",
                "certaine",
                "in\u00e9branlable",
                "officielle",
                "\u00e9loquente"
            ],
            "freeResponses": [],
            "nbPlayClick": 1,
            "expression": "NEUTRE",
            "csv_id": 8373,
            "video_name": "DIVERS_PARL_AD_04_0002"
        },
        {
            "name": "4249",
            "score": "0.957",
            "index": 9,
            "selectedWords": [
                "d\u00e9termin\u00e9e",
                "manifeste",
                "r\u00e9fl\u00e9chie",
                "s\u00fbre"
            ],
            "freeResponses": [],
            "nbPlayClick": 1,
            "response": "r\u00e9f",
            "expression": "DESOLE",
            "csv_id": 4249,
            "video_name": "DIVERS_PARL_DESOLE_AD_02_0002"
        },
        {
            "name": "9328",
            "score": "0.989",
            "index": 10,
            "selectedWords": [
                "neutre",
                "s\u00fbre",
                "autre",
                "vivifiante"
            ],
            "freeResponses": [],
            "nbPlayClick": 1,
            "expression": "NEUTRE",
            "csv_id": 9362,
            "video_name": "DIVERS_PARL_AD_01_0004"
        },
        {
            "name": "4595",
            "score": "0.962",
            "index": 11,
            "selectedWords": [
                "r\u00e9confortante",
                "encourageante",
                "autre",
                "entreprenante",
                "r\u00e9fl\u00e9chie"
            ],
            "freeResponses": [],
            "nbPlayClick": 1,
            "expression": "DETERMINE",
            "csv_id": 4629,
            "video_name": "DIVERS_PARL_DETERMINE_AD_01_0002"
        },
        {
            "name": "11474",
            "score": "0.996",
            "index": 12,
            "selectedWords": [
                "perplexe"
            ],
            "freeResponses": [
                "douteuse",
                "Sardonique"
            ],
            "nbPlayClick": 1,
            "response": "Sardonique",
            "expression": "NEUTRE",
            "csv_id": 11511,
            "video_name": "DIVERS_PARL_AD_03_0002"
        },
        {
            "name": "12116",
            "score": "0.997",
            "index": 13,
            "selectedWords": [
                "confuse",
                "pensive"
            ],
            "freeResponses": [
                "incertaine"
            ],
            "nbPlayClick": 1,
            "response": "pens",
            "expression": "PENSIF",
            "csv_id": 12153,
            "video_name": "DIVERS_PARL_PENSIF_AD_01_0002"
        },
        {
            "name": "11160",
            "score": "0.995",
            "index": 14,
            "selectedWords": [
                "d\u00e9termin\u00e9e",
                "vivifiante"
            ],
            "freeResponses": [
                "assur\u00e9e"
            ],
            "nbPlayClick": 1,
            "response": "viv",
            "expression": "NEUTRE",
            "csv_id": 11194,
            "video_name": "DIVERS_PARL_AD_02_0001"
        },
        {
            "name": "4058",
            "score": "0.955",
            "index": 15,
            "selectedWords": [
                "encourageante",
                "exalt\u00e9e"
            ],
            "freeResponses": [
                "surprise"
            ],
            "nbPlayClick": 1,
            "response": "surprise",
            "expression": "EVIDENCE",
            "csv_id": 4058,
            "video_name": "DIVERS_PARL_EVIDENCE_AD_02_0002"
        },
        {
            "name": "1537",
            "score": "0.893",
            "index": 16,
            "selectedWords": [
                "d\u00e9termin\u00e9e",
                "convaincue",
                "s\u00fbre",
                "infaillible"
            ],
            "freeResponses": [],
            "nbPlayClick": 1,
            "response": "conv",
            "expression": "NEUTRE",
            "csv_id": 1537,
            "video_name": "DIVERS_PARL_AD_06_0002"
        },
        {
            "name": "9860",
            "score": "0.991",
            "index": 17,
            "selectedWords": [
                "pensive",
                "songeuse",
                "pr\u00e9occup\u00e9e",
                "fade",
                "navr\u00e9e"
            ],
            "freeResponses": [],
            "nbPlayClick": 1,
            "response": "pens",
            "expression": "DESOLE",
            "csv_id": 9894,
            "video_name": "DIVERS_BOOK_DESOLE_AD_03_0002"
        },
        {
            "name": "4964",
            "score": "0.965",
            "index": 18,
            "selectedWords": [
                "incr\u00e9dule",
                "dubitative",
                "confuse",
                "perplexe"
            ],
            "freeResponses": [],
            "nbPlayClick": 2,
            "response": "perp",
            "expression": "INCREDULE",
            "csv_id": 4998,
            "video_name": "DIVERS_BOOK_INCREDULE_AD_01_0001"
        },
        {
            "name": "4948",
            "score": "0.965",
            "index": 19,
            "selectedWords": [
                "r\u00e9confortante",
                "encourageante",
                "autre",
                "autre",
                "autre",
                "autre",
                "autre",
                "autre",
                "autre",
                "autre",
                "r\u00e9solue"
            ],
            "freeResponses": [],
            "nbPlayClick": 1,
            "expression": "RECONFORTANT",
            "csv_id": 4982,
            "video_name": "DIVERS_PARL_RECONFORTANT_AD_02_0001"
        },
        {
            "name": "8724",
            "score": "0.987",
            "index": 20,
            "selectedWords": [
                "suppliante",
                "priante",
                "sinc\u00e8re",
                "ardente",
                "r\u00e9fl\u00e9chie"
            ],
            "freeResponses": [],
            "nbPlayClick": 1,
            "expression": "EVIDENCE",
            "csv_id": 8758,
            "video_name": "DIVERS_PARL_EVIDENCE_AD_02_0002"
        },
        {
            "name": "8535",
            "score": "0.987",
            "index": 21,
            "selectedWords": [
                "neutre",
                "s\u00fbre",
                "r\u00e9fl\u00e9chie"
            ],
            "freeResponses": [],
            "nbPlayClick": 1,
            "expression": "NEUTRE",
            "csv_id": 8569,
            "video_name": "DIVERS_PARL_AD_05_0001"
        },
        {
            "name": "6506",
            "score": "0.977",
            "index": 22,
            "selectedWords": [
                "\u00e9tonn\u00e9e",
                "emb\u00eat\u00e9e"
            ],
            "freeResponses": [],
            "nbPlayClick": 4,
            "expression": "NEUTRE",
            "csv_id": 6540,
            "video_name": "DIVERS_BOOK_AD_04_0001"
        },
        {
            "name": "11344",
            "score": "0.995",
            "index": 23,
            "selectedWords": [
                "suppliante",
                "implorante",
                "accabl\u00e9e",
                "indign\u00e9e"
            ],
            "freeResponses": [],
            "nbPlayClick": 1,
            "expression": "SUPPLIANT",
            "csv_id": 11378,
            "video_name": "DIVERS_BOOK_SUPPLIANT_AD_01_0004"
        },
        {
            "name": "9043",
            "score": "0.988",
            "index": 24,
            "selectedWords": [
                "d\u00e9termin\u00e9e",
                "r\u00e9solue"
            ],
            "freeResponses": [
                "juste"
            ],
            "nbPlayClick": 1,
            "response": "juste",
            "expression": "NEUTRE",
            "csv_id": 9077,
            "video_name": "DIVERS_PARL_AD_01_0005"
        },
        {
            "name": "6440",
            "score": "0.976",
            "index": 25,
            "selectedWords": [
                "afflig\u00e9e",
                "pensive",
                "terne"
            ],
            "freeResponses": [
                "morne"
            ],
            "nbPlayClick": 1,
            "response": "morne",
            "expression": "DESOLE",
            "csv_id": 6474,
            "video_name": "DIVERS_PARL_DESOLE_AD_01_0004"
        },
        {
            "name": "12139",
            "score": "0.997",
            "index": 26,
            "selectedWords": [
                "d\u00e9termin\u00e9e",
                "r\u00e9fl\u00e9chie",
                "s\u00fbre",
                "irr\u00e9cusable"
            ],
            "freeResponses": [],
            "nbPlayClick": 1,
            "expression": "NEUTRE",
            "csv_id": 12176,
            "video_name": "DIVERS_PARL_AD_01_0006"
        },
        {
            "name": "4508",
            "score": "0.961",
            "index": 27,
            "selectedWords": [
                "incr\u00e9dule",
                "m\u00e9fiante",
                "coquine",
                "tonique",
                "confuse"
            ],
            "freeResponses": [],
            "nbPlayClick": 2,
            "expression": "ETONNE",
            "csv_id": 4542,
            "video_name": "DIVERS_PARL_ETONNE_AD_01_0001"
        },
        {
            "name": "2137",
            "score": "0.916",
            "index": 28,
            "selectedWords": [
                "d\u00e9termin\u00e9e",
                "r\u00e9solue",
                "passionn\u00e9e",
                "\u00e9loquente",
                "tonique"
            ],
            "freeResponses": [],
            "nbPlayClick": 1,
            "expression": "RECONFORTANT",
            "csv_id": 2137,
            "video_name": "DIVERS_PARL_RECONFORTANT_AD_02_0001"
        },
        {
            "name": "4718",
            "score": "0.963",
            "index": 29,
            "selectedWords": [
                "enthousiaste",
                "\u00e9loquente",
                "exalt\u00e9e",
                "passionn\u00e9e"
            ],
            "freeResponses": [],
            "nbPlayClick": 1,
            "expression": "DETERMINE",
            "csv_id": 4752,
            "video_name": "DIVERS_PARL_DETERMINE_AD_01_0004"
        },
        {
            "name": "11386",
            "score": "0.995",
            "index": 30,
            "selectedWords": [
                "autre",
                "inexpressive",
                "terne",
                "autre",
                "autre",
                "froide"
            ],
            "freeResponses": [],
            "nbPlayClick": 1,
            "response": "froide",
            "expression": "NEUTRE",
            "csv_id": 11420,
            "video_name": "DIVERS_PARL_AD_04_0001"
        },
        {
            "name": "4846",
            "score": "0.964",
            "index": 31,
            "selectedWords": [
                "abasourdie",
                "ennuy\u00e9e",
                "indign\u00e9e"
            ],
            "freeResponses": [
                "d\u00e9\u00e7ue"
            ],
            "nbPlayClick": 1,
            "response": "d\u00e9\u00e7ue",
            "expression": "EVIDENCE",
            "csv_id": 4880,
            "video_name": "DIVERS_PARL_EVIDENCE_AD_02_0002"
        },
        {
            "name": "3845",
            "score": "0.952",
            "index": 32,
            "selectedWords": [
                "afflig\u00e9e",
                "navr\u00e9e",
                "ennuy\u00e9e",
                "ferme"
            ],
            "freeResponses": [],
            "nbPlayClick": 2,
            "expression": "DESOLE",
            "csv_id": 3845,
            "video_name": "DIVERS_PARL_DESOLE_AD_02_0002"
        },
        {
            "name": "3392",
            "score": "0.945",
            "index": 33,
            "selectedWords": [
                "incr\u00e9dule",
                "autre",
                "\u00e9berlu\u00e9e",
                "h\u00e9b\u00e9t\u00e9e",
                "stup\u00e9faite"
            ],
            "freeResponses": [],
            "nbPlayClick": 2,
            "expression": "EVIDENCE",
            "csv_id": 3392,
            "video_name": "DIVERS_BOOK_EVIDENCE_AD_01_0002"
        },
        {
            "name": "3253",
            "score": "0.943",
            "index": 34,
            "selectedWords": [
                "suppliante",
                "afflig\u00e9e",
                "contrari\u00e9e",
                "attrist\u00e9e"
            ],
            "freeResponses": [],
            "nbPlayClick": 2,
            "response": "at",
            "expression": "RECONFORTANT",
            "csv_id": 3253,
            "video_name": "DIVERS_PARL_RECONFORTANT_AD_02_0001"
        },
        {
            "name": "7523",
            "score": "0.982",
            "index": 35,
            "selectedWords": [
                "pensive",
                "r\u00e9fl\u00e9chissante",
                "pensante"
            ],
            "freeResponses": [],
            "nbPlayClick": 1,
            "expression": "PENSIF",
            "csv_id": 7557,
            "video_name": "DIVERS_PARL_PENSIF_AD_01_0002"
        },
        {
            "name": "11277",
            "score": "0.995",
            "index": 36,
            "selectedWords": [
                "d\u00e9termin\u00e9e",
                "manifeste",
                "infaillible",
                "ind\u00e9niable",
                "officielle"
            ],
            "freeResponses": [],
            "nbPlayClick": 1,
            "expression": "NEUTRE",
            "csv_id": 11311,
            "video_name": "DIVERS_PARL_AD_02_0002"
        },
        {
            "name": "9052",
            "score": "0.988",
            "index": 37,
            "selectedWords": [
                "bouillonnante",
                "en col\u00e8re",
                "contrari\u00e9e"
            ],
            "freeResponses": [
                "vex\u00e9e"
            ],
            "nbPlayClick": 1,
            "response": "vex\u00e9e",
            "expression": "COLERE",
            "csv_id": 9086,
            "video_name": "DIVERS_PARL_COLERE_AD_02_0002"
        },
        {
            "name": "6114",
            "score": "0.975",
            "index": 38,
            "selectedWords": [
                "espi\u00e8gle",
                "narquoise",
                "rus\u00e9e",
                "autre",
                "vivifiante",
                "triomphale"
            ],
            "freeResponses": [],
            "nbPlayClick": 1,
            "expression": "ESPIEGLE",
            "csv_id": 6148,
            "video_name": "DIVERS_PARL_ESPIEGLE_AD_01_0001"
        },
        {
            "name": "358",
            "score": "0.779",
            "index": 39,
            "selectedWords": [
                "d\u00e9termin\u00e9e",
                "r\u00e9solue",
                "d\u00e9cid\u00e9e",
                "opini\u00e2tre"
            ],
            "freeResponses": [],
            "nbPlayClick": 1,
            "expression": "NEUTRE",
            "csv_id": 358,
            "video_name": "DIVERS_PARL_AD_06_0004"
        },
        {
            "name": "7976",
            "score": "0.984",
            "index": 40,
            "selectedWords": [
                "d\u00e9termin\u00e9e",
                "r\u00e9solue",
                "irrit\u00e9e",
                "occup\u00e9e"
            ],
            "freeResponses": [],
            "nbPlayClick": 2,
            "expression": "NEUTRE",
            "csv_id": 8010,
            "video_name": "DIVERS_PARL_AD_05_0004"
        },
        {
            "name": "6704",
            "score": "0.978",
            "index": 41,
            "selectedWords": [
                "d\u00e9termin\u00e9e",
                "autre",
                "autre",
                "autre",
                "ennuy\u00e9e",
                "contrari\u00e9e",
                "autre",
                "in\u00e9branlable",
                "irr\u00e9cusable"
            ],
            "freeResponses": [],
            "nbPlayClick": 1,
            "expression": "DETERMINE",
            "csv_id": 6738,
            "video_name": "DIVERS_PARL_DETERMINE_AD_01_0004"
        },
        {
            "name": "4645",
            "score": "0.962",
            "index": 42,
            "selectedWords": [
                "\u00e9vidente",
                "prouv\u00e9e",
                "certaine",
                "nette",
                "indiscutable"
            ],
            "freeResponses": [],
            "nbPlayClick": 1,
            "expression": "NEUTRE",
            "csv_id": 4679,
            "video_name": "DIVERS_PARL_AD_05_0004"
        },
        {
            "name": "4710",
            "score": "0.963",
            "index": 43,
            "selectedWords": [
                "d\u00e9termin\u00e9e",
                "r\u00e9fl\u00e9chie",
                "autre",
                "autre",
                "inexpressive"
            ],
            "freeResponses": [],
            "nbPlayClick": 1,
            "expression": "NEUTRE",
            "csv_id": 4744,
            "video_name": "DIVERS_PARL_AD_05_0001"
        },
        {
            "name": "11433",
            "score": "0.995",
            "index": 44,
            "selectedWords": [
                "\u00e9vidente",
                "sinc\u00e8re",
                "pensive",
                "convaincue"
            ],
            "freeResponses": [],
            "nbPlayClick": 1,
            "expression": "NEUTRE",
            "csv_id": 11470,
            "video_name": "DIVERS_PARL_AD_04_0001"
        },
        {
            "name": "1698",
            "score": "0.900",
            "index": 45,
            "selectedWords": [],
            "freeResponses": [
                "perplexe",
                "incertaine",
                "sardonique"
            ],
            "nbPlayClick": 1,
            "response": "sardonique",
            "expression": "PENSIF",
            "csv_id": 1698,
            "video_name": "DIVERS_BOOK_PENSIF_AD_03_0002"
        },
        {
            "name": "10430",
            "score": "0.993",
            "index": 46,
            "selectedWords": [
                "neutre",
                "tonique",
                "\u00e9loquente"
            ],
            "freeResponses": [],
            "nbPlayClick": 1,
            "expression": "NEUTRE",
            "csv_id": 10464,
            "video_name": "DIVERS_BOOK_AD_03_0002"
        },
        {
            "name": "5726",
            "score": "0.972",
            "index": 47,
            "selectedWords": [
                "d\u00e9termin\u00e9e",
                "r\u00e9solue",
                "occup\u00e9e",
                "froide"
            ],
            "freeResponses": [],
            "nbPlayClick": 1,
            "expression": "NEUTRE",
            "csv_id": 5760,
            "video_name": "DIVERS_BOOK_AD_01_0002"
        },
        {
            "name": "5989",
            "score": "0.974",
            "index": 48,
            "selectedWords": [
                "en col\u00e8re",
                "irrit\u00e9e",
                "en rogne",
                "emb\u00eat\u00e9e"
            ],
            "freeResponses": [],
            "nbPlayClick": 1,
            "expression": "ESPIEGLE",
            "csv_id": 6023,
            "video_name": "DIVERS_PARL_ESPIEGLE_AD_01_0001"
        },
        {
            "name": "9672",
            "score": "0.991",
            "index": 49,
            "selectedWords": [
                "\u00e9tonn\u00e9e",
                "sinc\u00e8re",
                "perplexe",
                "m\u00e9dus\u00e9e"
            ],
            "freeResponses": [],
            "nbPlayClick": 1,
            "expression": "ETONNE",
            "csv_id": 9706,
            "video_name": "DIVERS_PARL_ETONNE_AD_01_0001"
        },
        {
            "name": "10744",
            "score": "0.994",
            "index": 50,
            "selectedWords": [
                "neutre",
                "certaine",
                "prouv\u00e9e",
                "officielle"
            ],
            "freeResponses": [],
            "nbPlayClick": 2,
            "expression": "ETONNE",
            "csv_id": 10778,
            "video_name": "DIVERS_PARL_ETONNE_AD_01_0001"
        },
        {
            "name": "5277",
            "score": "0.968",
            "index": 51,
            "selectedWords": [
                "d\u00e9termin\u00e9e",
                "r\u00e9fl\u00e9chie",
                "attrist\u00e9e",
                "contrari\u00e9e",
                "pr\u00e9occup\u00e9e"
            ],
            "freeResponses": [],
            "nbPlayClick": 1,
            "expression": "NEUTRE",
            "csv_id": 5311,
            "video_name": "DIVERS_BOOK_AD_01_0002"
        },
        {
            "name": "4335",
            "score": "0.958",
            "index": 52,
            "selectedWords": [
                "d\u00e9termin\u00e9e",
                "suppliante",
                "priante",
                "sinc\u00e8re",
                "ardente"
            ],
            "freeResponses": [],
            "nbPlayClick": 1,
            "response": "sup",
            "expression": "EVIDENCE",
            "csv_id": 4335,
            "video_name": "DIVERS_PARL_EVIDENCE_AD_02_0002"
        },
        {
            "name": "4740",
            "score": "0.963",
            "index": 53,
            "selectedWords": [
                "ardente",
                "enflamm\u00e9e",
                "triomphale",
                "transport\u00e9e"
            ],
            "freeResponses": [],
            "nbPlayClick": 1,
            "expression": "ENTHOUSIASTE",
            "csv_id": 4774,
            "video_name": "ESTYLE_ENTHOUSIASTE_AD_02_0001"
        },
        {
            "name": "4402",
            "score": "0.959",
            "index": 54,
            "selectedWords": [
                "d\u00e9sol\u00e9e",
                "manifeste",
                "autre",
                "\u00e9berlu\u00e9e"
            ],
            "freeResponses": [],
            "nbPlayClick": 1,
            "expression": "NEUTRE",
            "csv_id": 4402,
            "video_name": "DIVERS_PARL_AD_02_0004"
        },
        {
            "name": "4544",
            "score": "0.961",
            "index": 55,
            "selectedWords": [
                "\u00e9vidente",
                "prouv\u00e9e",
                "s\u00fbre",
                "nette"
            ],
            "freeResponses": [],
            "nbPlayClick": 1,
            "expression": "DETERMINE",
            "csv_id": 4578,
            "video_name": "DIVERS_PARL_DETERMINE_AD_01_0002"
        },
        {
            "name": "9676",
            "score": "0.991",
            "index": 56,
            "selectedWords": [
                "neutre",
                "officielle",
                "prouv\u00e9e"
            ],
            "freeResponses": [],
            "nbPlayClick": 1,
            "response": "offi",
            "expression": "NEUTRE",
            "csv_id": 9710,
            "video_name": "DIVERS_PARL_AD_06_0004"
        },
        {
            "name": "8704",
            "score": "0.987",
            "index": 57,
            "selectedWords": [
                "suppliante",
                "mendiante",
                "m\u00e9ditative",
                "afflig\u00e9e"
            ],
            "freeResponses": [],
            "nbPlayClick": 1,
            "expression": "SUPPLIANT",
            "csv_id": 8738,
            "video_name": "DIVERS_PARL_SUPPLIANT_AD_02_0001"
        },
        {
            "name": "5738",
            "score": "0.972",
            "index": 58,
            "selectedWords": [
                "d\u00e9termin\u00e9e",
                "r\u00e9solue",
                "passionn\u00e9e",
                "emball\u00e9e"
            ],
            "freeResponses": [],
            "nbPlayClick": 1,
            "expression": "ENTHOUSIASTE",
            "csv_id": 5772,
            "video_name": "DIVERS_PARL_ENTHOUSIASTE_AD_02_0001"
        },
        {
            "name": "2409",
            "score": "0.924",
            "index": 59,
            "selectedWords": [
                "confuse",
                "pensive"
            ],
            "freeResponses": [
                "incertaine"
            ],
            "nbPlayClick": 1,
            "response": "incertaine",
            "expression": "PENSIF",
            "csv_id": 2409,
            "video_name": "DIVERS_PARL_PENSIF_AD_01_0002"
        }
    ],
    "training": [
        {
            "name": "77",
            "score": "0.639",
            "index": 0,
            "selectedWords": [
                "in\u00e9branlable"
            ],
            "freeResponses": [
                "blas\u00e9e",
                "pr\u00e9cise"
            ],
            "nbPlayClick": 2,
            "response": "pr\u00e9cise",
            "expression": "NEUTRE"
        }
    ],
    "filenameDate": "2023-10-30_14-57"
}