{
    "user": {
        "isProlific": true,
        "id": "5d4c7949caa916001865f5b2",
        "session": "65284569786fe069e54a13bb",
        "study": "64ef977375f88e4e1174dce0"
    },
    "userAgent": "Mozilla/5.0 (Macintosh; Intel Mac OS X 10.15; rv:109.0) Gecko/20100101 Firefox/118.0",
    "landingDate": "2023-10-12T19:14:21.632Z",
    "startDate": "2023-10-12T19:16:50.593Z",
    "endDate": "2023-10-12T19:36:07.046Z",
    "reviews": [
        {
            "name": "5465",
            "score": "0.970",
            "index": 0,
            "selectedWords": [
                "\u00e9vidente",
                "incontestable"
            ],
            "freeResponses": [],
            "nbPlayClick": 2,
            "expression": "NEUTRE",
            "csv_id": 5499,
            "video_name": "DIVERS_PARL_AD_05_0002"
        },
        {
            "name": "4327",
            "score": "0.958",
            "index": 1,
            "selectedWords": [
                "\u00e9vidente",
                "incontestable"
            ],
            "freeResponses": [],
            "nbPlayClick": 1,
            "expression": "NEUTRE",
            "csv_id": 4327,
            "video_name": "DIVERS_PARL_AD_04_0002"
        },
        {
            "name": "11809",
            "score": "0.997",
            "index": 2,
            "selectedWords": [
                "ennuy\u00e9e",
                "autre",
                "in\u00e9branlable"
            ],
            "freeResponses": [],
            "nbPlayClick": 3,
            "response": "enn",
            "expression": "NEUTRE",
            "csv_id": 11846,
            "video_name": "DIVERS_PARL_AD_03_0002"
        },
        {
            "name": "685",
            "score": "0.830",
            "index": 3,
            "selectedWords": [
                "en col\u00e8re",
                "irrit\u00e9e",
                "autre",
                "dubitative"
            ],
            "freeResponses": [],
            "nbPlayClick": 1,
            "expression": "EVIDENCE",
            "csv_id": 685,
            "video_name": "DIVERS_PARL_EVIDENCE_AD_01_0001"
        },
        {
            "name": "4248",
            "score": "0.957",
            "index": 4,
            "selectedWords": [
                "en col\u00e8re",
                "courrouc\u00e9e",
                "f\u00e2ch\u00e9e"
            ],
            "freeResponses": [],
            "nbPlayClick": 1,
            "expression": "COLERE",
            "csv_id": 4248,
            "video_name": "DIVERS_PARL_COLERE_AD_01_0003"
        },
        {
            "name": "2948",
            "score": "0.937",
            "index": 5,
            "selectedWords": [
                "enthousiaste",
                "euphorique",
                "exalt\u00e9e",
                "excit\u00e9e"
            ],
            "freeResponses": [],
            "nbPlayClick": 2,
            "expression": "ENTHOUSIASTE",
            "csv_id": 2948,
            "video_name": "DIVERS_BOOK_ENTHOUSIASTE_AD_01_0001"
        },
        {
            "name": "2989",
            "score": "0.938",
            "index": 6,
            "selectedWords": [
                "irrit\u00e9e",
                "autre",
                "implorante",
                "mendiante"
            ],
            "freeResponses": [],
            "nbPlayClick": 2,
            "expression": "SUPPLIANT",
            "csv_id": 2989,
            "video_name": "DIVERS_PARL_SUPPLIANT_AD_02_0002"
        },
        {
            "name": "9247",
            "score": "0.989",
            "index": 7,
            "selectedWords": [
                "\u00e9tonn\u00e9e",
                "autre",
                "\u00e9berlu\u00e9e"
            ],
            "freeResponses": [],
            "nbPlayClick": 1,
            "expression": "ETONNE",
            "csv_id": 9281,
            "video_name": "DIVERS_BOOK_ETONNE_AD_01_0002"
        },
        {
            "name": "6518",
            "score": "0.977",
            "index": 8,
            "selectedWords": [
                "r\u00e9confortante",
                "encourageante"
            ],
            "freeResponses": [],
            "nbPlayClick": 1,
            "expression": "RECONFORTANT",
            "csv_id": 6552,
            "video_name": "DIVERS_PARL_RECONFORTANT_AD_02_0001"
        },
        {
            "name": "9590",
            "score": "0.990",
            "index": 9,
            "selectedWords": [
                "neutre",
                "autre",
                "autre",
                "inexpressive"
            ],
            "freeResponses": [],
            "nbPlayClick": 2,
            "expression": "NEUTRE",
            "csv_id": 9624,
            "video_name": "DIVERS_PARL_AD_05_0004"
        },
        {
            "name": "11592",
            "score": "0.996",
            "index": 10,
            "selectedWords": [
                "autre",
                "autre",
                "autre",
                "autre",
                "autre",
                "songeuse",
                "autre",
                "autre",
                "autre",
                "autre",
                "autre",
                "autre",
                "autre",
                "autre",
                "autre",
                "autre",
                "confuse"
            ],
            "freeResponses": [],
            "nbPlayClick": 2,
            "expression": "PENSIF",
            "csv_id": 11629,
            "video_name": "DIVERS_BOOK_PENSIF_AD_01_0003"
        },
        {
            "name": "3206",
            "score": "0.942",
            "index": 11,
            "selectedWords": [
                "d\u00e9termin\u00e9e",
                "neutre"
            ],
            "freeResponses": [],
            "nbPlayClick": 1,
            "response": "neut",
            "expression": "NEUTRE",
            "csv_id": 3206,
            "video_name": "DIVERS_PARL_AD_03_0004"
        },
        {
            "name": "6912",
            "score": "0.979",
            "index": 12,
            "selectedWords": [
                "enthousiaste",
                "euphorique",
                "excit\u00e9e"
            ],
            "freeResponses": [],
            "nbPlayClick": 1,
            "expression": "ENTHOUSIASTE",
            "csv_id": 6946,
            "video_name": "DIVERS_PARL_ENTHOUSIASTE_AD_02_0001"
        },
        {
            "name": "6642",
            "score": "0.978",
            "index": 13,
            "selectedWords": [
                "espi\u00e8gle",
                "malicieuse",
                "maligne"
            ],
            "freeResponses": [],
            "nbPlayClick": 2,
            "expression": "RECONFORTANT",
            "csv_id": 6676,
            "video_name": "DIVERS_BOOK_RECONFORTANT_AD_01_0004"
        },
        {
            "name": "8586",
            "score": "0.987",
            "index": 14,
            "selectedWords": [
                "neutre",
                "certaine"
            ],
            "freeResponses": [],
            "nbPlayClick": 1,
            "expression": "NEUTRE",
            "csv_id": 8620,
            "video_name": "DIVERS_BOOK_AD_03_0001"
        },
        {
            "name": "12149",
            "score": "0.997",
            "index": 15,
            "selectedWords": [
                "\u00e9vidente",
                "manifeste"
            ],
            "freeResponses": [],
            "nbPlayClick": 1,
            "expression": "NEUTRE",
            "csv_id": 12186,
            "video_name": "DIVERS_PARL_AD_01_0004"
        },
        {
            "name": "8878",
            "score": "0.988",
            "index": 16,
            "selectedWords": [
                "d\u00e9termin\u00e9e",
                "manifeste"
            ],
            "freeResponses": [],
            "nbPlayClick": 1,
            "expression": "DETERMINE",
            "csv_id": 8912,
            "video_name": "DIVERS_PARL_DETERMINE_AD_01_0002"
        },
        {
            "name": "9640",
            "score": "0.990",
            "index": 17,
            "selectedWords": [
                "enthousiaste",
                "tonique",
                "transport\u00e9e"
            ],
            "freeResponses": [],
            "nbPlayClick": 1,
            "expression": "ENTHOUSIASTE",
            "csv_id": 9674,
            "video_name": "DIVERS_BOOK_ENTHOUSIASTE_AD_01_0004"
        },
        {
            "name": "2853",
            "score": "0.935",
            "index": 18,
            "selectedWords": [
                "suppliante",
                "mendiante"
            ],
            "freeResponses": [],
            "nbPlayClick": 1,
            "expression": "SUPPLIANT",
            "csv_id": 2853,
            "video_name": "DIVERS_PARL_SUPPLIANT_AD_02_0001"
        },
        {
            "name": "10772",
            "score": "0.994",
            "index": 19,
            "selectedWords": [
                "\u00e9vidente",
                "manifeste"
            ],
            "freeResponses": [],
            "nbPlayClick": 1,
            "expression": "NEUTRE",
            "csv_id": 10806,
            "video_name": "DIVERS_PARL_AD_04_0001"
        },
        {
            "name": "3964",
            "score": "0.954",
            "index": 20,
            "selectedWords": [
                "neutre",
                "s\u00fbre"
            ],
            "freeResponses": [],
            "nbPlayClick": 2,
            "expression": "NEUTRE",
            "csv_id": 3964,
            "video_name": "DIVERS_BOOK_AD_04_0002"
        },
        {
            "name": "7050",
            "score": "0.980",
            "index": 21,
            "selectedWords": [
                "\u00e9vidente",
                "incontestable"
            ],
            "freeResponses": [],
            "nbPlayClick": 2,
            "expression": "DESOLE",
            "csv_id": 7084,
            "video_name": "DIVERS_PARL_DESOLE_AD_02_0002"
        },
        {
            "name": "11574",
            "score": "0.996",
            "index": 22,
            "selectedWords": [
                "neutre",
                "limpide"
            ],
            "freeResponses": [],
            "nbPlayClick": 1,
            "expression": "NEUTRE",
            "csv_id": 11611,
            "video_name": "DIVERS_BOOK_AD_01_0002"
        },
        {
            "name": "12370",
            "score": "0.999",
            "index": 23,
            "selectedWords": [
                "pensive",
                "r\u00e9fl\u00e9chissante",
                "occup\u00e9e"
            ],
            "freeResponses": [],
            "nbPlayClick": 1,
            "expression": "PENSIF",
            "csv_id": 12407,
            "video_name": "DIVERS_BOOK_PENSIF_AD_01_0003"
        },
        {
            "name": "4750",
            "score": "0.963",
            "index": 24,
            "selectedWords": [
                "suppliante",
                "autre",
                "autre",
                "autre",
                "autre",
                "ennuy\u00e9e"
            ],
            "freeResponses": [],
            "nbPlayClick": 3,
            "expression": "SUPPLIANT",
            "csv_id": 4784,
            "video_name": "DIVERS_PARL_SUPPLIANT_AD_02_0002"
        },
        {
            "name": "7543",
            "score": "0.982",
            "index": 25,
            "selectedWords": [
                "d\u00e9termin\u00e9e",
                "r\u00e9solue"
            ],
            "freeResponses": [],
            "nbPlayClick": 1,
            "expression": "NEUTRE",
            "csv_id": 7577,
            "video_name": "DIVERS_PARL_AD_04_0003"
        },
        {
            "name": "1724",
            "score": "0.901",
            "index": 26,
            "selectedWords": [
                "enthousiaste",
                "tonique"
            ],
            "freeResponses": [],
            "nbPlayClick": 1,
            "expression": "DETERMINE",
            "csv_id": 1724,
            "video_name": "DIVERS_BOOK_DETERMINE_AD_03_0001"
        },
        {
            "name": "4606",
            "score": "0.962",
            "index": 27,
            "selectedWords": [
                "pensive",
                "r\u00e9fl\u00e9chissante",
                "pensante"
            ],
            "freeResponses": [],
            "nbPlayClick": 2,
            "expression": "PENSIF",
            "csv_id": 4640,
            "video_name": "DIVERS_BOOK_PENSIF_AD_03_0002"
        },
        {
            "name": "9386",
            "score": "0.990",
            "index": 28,
            "selectedWords": [
                "r\u00e9confortante",
                "encourageante"
            ],
            "freeResponses": [],
            "nbPlayClick": 1,
            "expression": "ETONNE",
            "csv_id": 9420,
            "video_name": "DIVERS_PARL_ETONNE_AD_01_0001"
        },
        {
            "name": "1943",
            "score": "0.910",
            "index": 29,
            "selectedWords": [
                "\u00e9vidente",
                "irr\u00e9cusable",
                "autre",
                "imp\u00e9n\u00e9trable"
            ],
            "freeResponses": [],
            "nbPlayClick": 1,
            "expression": "NEUTRE",
            "csv_id": 1943,
            "video_name": "DIVERS_BOOK_AD_01_0001"
        },
        {
            "name": "8995",
            "score": "0.988",
            "index": 30,
            "selectedWords": [
                "d\u00e9sol\u00e9e",
                "absente"
            ],
            "freeResponses": [],
            "nbPlayClick": 1,
            "expression": "SUPPLIANT",
            "csv_id": 9029,
            "video_name": "DIVERS_BOOK_SUPPLIANT_AD_01_0002"
        },
        {
            "name": "10594",
            "score": "0.993",
            "index": 31,
            "selectedWords": [
                "ennuy\u00e9e",
                "autre",
                "dubitative"
            ],
            "freeResponses": [],
            "nbPlayClick": 1,
            "response": "ennuy",
            "expression": "PENSIF",
            "csv_id": 10628,
            "video_name": "DIVERS_PARL_PENSIF_AD_01_0002"
        },
        {
            "name": "11771",
            "score": "0.996",
            "index": 32,
            "selectedWords": [
                "neutre",
                "certaine",
                "nette"
            ],
            "freeResponses": [],
            "nbPlayClick": 1,
            "expression": "NEUTRE",
            "csv_id": 11808,
            "video_name": "DIVERS_PARL_AD_02_0004"
        },
        {
            "name": "2221",
            "score": "0.919",
            "index": 33,
            "selectedWords": [
                "d\u00e9sol\u00e9e",
                "manifeste",
                "prouv\u00e9e"
            ],
            "freeResponses": [],
            "nbPlayClick": 1,
            "expression": "DESOLE",
            "csv_id": 2221,
            "video_name": "DIVERS_PARL_DESOLE_AD_02_0002"
        },
        {
            "name": "8821",
            "score": "0.988",
            "index": 34,
            "selectedWords": [
                "\u00e9vidente",
                "neutre"
            ],
            "freeResponses": [],
            "nbPlayClick": 1,
            "response": "neutre",
            "expression": "NEUTRE",
            "csv_id": 8855,
            "video_name": "DIVERS_PARL_AD_06_0001"
        },
        {
            "name": "8478",
            "score": "0.986",
            "index": 35,
            "selectedWords": [
                "enthousiaste",
                "\u00e9loquente"
            ],
            "freeResponses": [],
            "nbPlayClick": 1,
            "expression": "SUPPLIANT",
            "csv_id": 8512,
            "video_name": "DIVERS_PARL_SUPPLIANT_AD_02_0002"
        },
        {
            "name": "2870",
            "score": "0.935",
            "index": 36,
            "selectedWords": [
                "\u00e9vidente",
                "manifeste",
                "coquine"
            ],
            "freeResponses": [],
            "nbPlayClick": 2,
            "expression": "INCREDULE",
            "csv_id": 2870,
            "video_name": "DIVERS_PARL_INCREDULE_AD_01_0001"
        },
        {
            "name": "1573",
            "score": "0.895",
            "index": 37,
            "selectedWords": [
                "\u00e9vidente",
                "prouv\u00e9e"
            ],
            "freeResponses": [],
            "nbPlayClick": 2,
            "expression": "EVIDENCE",
            "csv_id": 1573,
            "video_name": "DIVERS_BOOK_EVIDENCE_AD_01_0002"
        },
        {
            "name": "8680",
            "score": "0.987",
            "index": 38,
            "selectedWords": [
                "\u00e9vidente",
                "autre",
                "autre",
                "autre",
                "atone"
            ],
            "freeResponses": [],
            "nbPlayClick": 2,
            "expression": "NEUTRE",
            "csv_id": 8714,
            "video_name": "DIVERS_PARL_AD_04_0004"
        },
        {
            "name": "5944",
            "score": "0.973",
            "index": 39,
            "selectedWords": [
                "\u00e9tonn\u00e9e",
                "absente"
            ],
            "freeResponses": [],
            "nbPlayClick": 1,
            "expression": "ETONNE",
            "csv_id": 5978,
            "video_name": "DIVERS_BOOK_ETONNE_AD_01_0002"
        },
        {
            "name": "11278",
            "score": "0.995",
            "index": 40,
            "selectedWords": [
                "neutre",
                "certaine"
            ],
            "freeResponses": [],
            "nbPlayClick": 2,
            "expression": "NEUTRE",
            "csv_id": 11312,
            "video_name": "DIVERS_PARL_AD_03_0003"
        },
        {
            "name": "1267",
            "score": "0.879",
            "index": 41,
            "selectedWords": [
                "pensive",
                "autre",
                "autre",
                "autre",
                "maligne"
            ],
            "freeResponses": [],
            "nbPlayClick": 2,
            "expression": "NEUTRE",
            "csv_id": 1267,
            "video_name": "DIVERS_PARL_AD_03_0002"
        },
        {
            "name": "3519",
            "score": "0.947",
            "index": 42,
            "selectedWords": [
                "neutre",
                "limpide",
                "froide"
            ],
            "freeResponses": [],
            "nbPlayClick": 1,
            "expression": "DESOLE",
            "csv_id": 3519,
            "video_name": "DIVERS_PARL_DESOLE_AD_02_0002"
        },
        {
            "name": "11196",
            "score": "0.995",
            "index": 43,
            "selectedWords": [
                "neutre",
                "autre",
                "autre",
                "ennuy\u00e9e",
                "autre"
            ],
            "freeResponses": [],
            "nbPlayClick": 1,
            "expression": "PENSIF",
            "csv_id": 11230,
            "video_name": "DIVERS_PARL_PENSIF_AD_01_0002"
        },
        {
            "name": "5788",
            "score": "0.972",
            "index": 44,
            "selectedWords": [
                "d\u00e9termin\u00e9e",
                "manifeste"
            ],
            "freeResponses": [],
            "nbPlayClick": 1,
            "expression": "DETERMINE",
            "csv_id": 5822,
            "video_name": "DIVERS_PARL_DETERMINE_AD_01_0002"
        },
        {
            "name": "5813",
            "score": "0.973",
            "index": 45,
            "selectedWords": [
                "\u00e9tonn\u00e9e",
                "sinc\u00e8re",
                "\u00e9loquente"
            ],
            "freeResponses": [],
            "nbPlayClick": 1,
            "expression": "ETONNE",
            "csv_id": 5847,
            "video_name": "DIVERS_BOOK_ETONNE_AD_01_0002"
        },
        {
            "name": "8879",
            "score": "0.988",
            "index": 46,
            "selectedWords": [
                "d\u00e9termin\u00e9e",
                "r\u00e9solue",
                "passionn\u00e9e"
            ],
            "freeResponses": [],
            "nbPlayClick": 1,
            "expression": "NEUTRE",
            "csv_id": 8913,
            "video_name": "DIVERS_PARL_AD_03_0001"
        },
        {
            "name": "8610",
            "score": "0.987",
            "index": 47,
            "selectedWords": [
                "d\u00e9termin\u00e9e",
                "manifeste"
            ],
            "freeResponses": [],
            "nbPlayClick": 1,
            "expression": "NEUTRE",
            "csv_id": 8644,
            "video_name": "DIVERS_PARL_AD_04_0004"
        },
        {
            "name": "4828",
            "score": "0.964",
            "index": 48,
            "selectedWords": [
                "en col\u00e8re",
                "en rogne"
            ],
            "freeResponses": [],
            "nbPlayClick": 1,
            "expression": "COLERE",
            "csv_id": 4862,
            "video_name": "DIVERS_PARL_COLERE_AD_02_0002"
        },
        {
            "name": "3501",
            "score": "0.947",
            "index": 49,
            "selectedWords": [
                "neutre",
                "s\u00fbre"
            ],
            "freeResponses": [],
            "nbPlayClick": 2,
            "expression": "NEUTRE",
            "csv_id": 3501,
            "video_name": "DIVERS_PARL_AD_05_0003"
        },
        {
            "name": "11270",
            "score": "0.995",
            "index": 50,
            "selectedWords": [
                "neutre",
                "certaine"
            ],
            "freeResponses": [],
            "nbPlayClick": 1,
            "expression": "NEUTRE",
            "csv_id": 11304,
            "video_name": "DIVERS_PARL_AD_03_0001"
        },
        {
            "name": "8166",
            "score": "0.985",
            "index": 51,
            "selectedWords": [
                "neutre",
                "s\u00fbre"
            ],
            "freeResponses": [],
            "nbPlayClick": 2,
            "expression": "NEUTRE",
            "csv_id": 8200,
            "video_name": "DIVERS_PARL_AD_01_0005"
        },
        {
            "name": "4419",
            "score": "0.959",
            "index": 52,
            "selectedWords": [
                "enthousiaste",
                "tonique",
                "transport\u00e9e"
            ],
            "freeResponses": [],
            "nbPlayClick": 2,
            "expression": "SUPPLIANT",
            "csv_id": 4419,
            "video_name": "DIVERS_BOOK_SUPPLIANT_AD_01_0004"
        },
        {
            "name": "5255",
            "score": "0.968",
            "index": 53,
            "selectedWords": [
                "\u00e9vidente",
                "manifeste",
                "infaillible"
            ],
            "freeResponses": [],
            "nbPlayClick": 1,
            "expression": "NEUTRE",
            "csv_id": 5289,
            "video_name": "DIVERS_BOOK_AD_01_0002"
        },
        {
            "name": "10353",
            "score": "0.993",
            "index": 54,
            "selectedWords": [
                "neutre",
                "s\u00fbre"
            ],
            "freeResponses": [],
            "nbPlayClick": 1,
            "expression": "NEUTRE",
            "csv_id": 10387,
            "video_name": "DIVERS_PARL_AD_02_0004"
        },
        {
            "name": "6873",
            "score": "0.979",
            "index": 55,
            "selectedWords": [
                "neutre",
                "certaine"
            ],
            "freeResponses": [],
            "nbPlayClick": 2,
            "expression": "NEUTRE",
            "csv_id": 6907,
            "video_name": "DIVERS_PARL_AD_03_0003"
        },
        {
            "name": "7029",
            "score": "0.980",
            "index": 56,
            "selectedWords": [
                "pensive",
                "r\u00eaveuse",
                "occup\u00e9e"
            ],
            "freeResponses": [],
            "nbPlayClick": 1,
            "expression": "PENSIF",
            "csv_id": 7063,
            "video_name": "DIVERS_PARL_PENSIF_AD_01_0002"
        },
        {
            "name": "12015",
            "score": "0.997",
            "index": 57,
            "selectedWords": [
                "\u00e9vidente",
                "autre",
                "attrist\u00e9e"
            ],
            "freeResponses": [],
            "nbPlayClick": 2,
            "expression": "NEUTRE",
            "csv_id": 12052,
            "video_name": "DIVERS_PARL_AD_02_0002"
        },
        {
            "name": "10355",
            "score": "0.993",
            "index": 58,
            "selectedWords": [
                "neutre",
                "s\u00fbre"
            ],
            "freeResponses": [],
            "nbPlayClick": 2,
            "expression": "NEUTRE",
            "csv_id": 10389,
            "video_name": "DIVERS_BOOK_AD_03_0001"
        },
        {
            "name": "661",
            "score": "0.828",
            "index": 59,
            "selectedWords": [
                "enthousiaste",
                "tonique"
            ],
            "freeResponses": [],
            "nbPlayClick": 1,
            "expression": "EVIDENCE",
            "csv_id": 661,
            "video_name": "DIVERS_PARL_EVIDENCE_AD_02_0002"
        }
    ],
    "training": [
        {
            "name": "77",
            "score": "0.639",
            "index": 0,
            "selectedWords": [
                "autre",
                "autre",
                "autre",
                "autre",
                "ennuy\u00e9e",
                "autre",
                "autre",
                "sceptique"
            ],
            "freeResponses": [],
            "nbPlayClick": 7,
            "expression": "NEUTRE"
        }
    ],
    "filenameDate": "2023-10-12_21-36"
}