{
    "user": {
        "isProlific": true,
        "id": "5d9b58288625d20b17e48528",
        "session": "64f0df91daaee021a7c1cbc4",
        "study": "64ef977375f88e4e1174dce0"
    },
    "userAgent": "Mozilla/5.0 (Windows NT 10.0; Win64; x64) AppleWebKit/537.36 (KHTML, like Gecko) Chrome/116.0.0.0 Safari/537.36",
    "landingDate": "2023-08-31T18:44:41.706Z",
    "startDate": "2023-08-31T18:45:55.682Z",
    "endDate": "2023-08-31T19:23:43.982Z",
    "reviews": [
        {
            "name": "8311",
            "score": "0.986",
            "index": 0,
            "selectedWords": [
                "dubitative",
                "sceptique"
            ],
            "freeResponses": [],
            "nbPlayClick": 2,
            "response": "",
            "expression": "RECONFORTANT",
            "csv_id": 8345,
            "video_name": "DIVERS_BOOK_RECONFORTANT_AD_01_0004"
        },
        {
            "name": "7951",
            "score": "0.984",
            "index": 1,
            "selectedWords": [
                "confuse"
            ],
            "freeResponses": [
                "incertain"
            ],
            "nbPlayClick": 2,
            "response": "incertain",
            "expression": "INCREDULE",
            "csv_id": 7985,
            "video_name": "DIVERS_BOOK_INCREDULE_AD_01_0001"
        },
        {
            "name": "2739",
            "score": "0.933",
            "index": 2,
            "selectedWords": [
                "autre",
                "certaine",
                "autre",
                "autre",
                "autre"
            ],
            "freeResponses": [
                "s\u00fbre"
            ],
            "nbPlayClick": 4,
            "response": "s\u00fbre",
            "expression": "NEUTRE",
            "csv_id": 2739,
            "video_name": "DIVERS_PARL_AD_05_0002"
        },
        {
            "name": "7617",
            "score": "0.983",
            "index": 3,
            "selectedWords": [
                "autre",
                "autre",
                "autre",
                "s\u00fbre",
                "autre",
                "autre",
                "autre",
                "autre",
                "autre",
                "d\u00e9cid\u00e9e"
            ],
            "freeResponses": [],
            "nbPlayClick": 5,
            "response": "s\u00fb",
            "expression": "NEUTRE",
            "csv_id": 7651,
            "video_name": "DIVERS_PARL_AD_05_0002"
        },
        {
            "name": "7375",
            "score": "0.981",
            "index": 4,
            "selectedWords": [
                "neutre",
                "autre",
                "dubitative"
            ],
            "freeResponses": [],
            "nbPlayClick": 4,
            "expression": "NEUTRE",
            "csv_id": 7409,
            "video_name": "DIVERS_BOOK_AD_04_0001"
        },
        {
            "name": "147",
            "score": "0.700",
            "index": 5,
            "selectedWords": [
                "\u00e9tonn\u00e9e",
                "autre",
                "autre"
            ],
            "freeResponses": [
                "surprise"
            ],
            "nbPlayClick": 3,
            "response": "surprise",
            "expression": "PENSIF",
            "csv_id": 147,
            "video_name": "ESTYLE_PENSIF_AD_02_0001"
        },
        {
            "name": "11586",
            "score": "0.996",
            "index": 6,
            "selectedWords": [
                "pensive",
                "neutre"
            ],
            "freeResponses": [],
            "nbPlayClick": 3,
            "response": "neu",
            "expression": "NEUTRE",
            "csv_id": 11623,
            "video_name": "DIVERS_PARL_AD_01_0005"
        },
        {
            "name": "6970",
            "score": "0.979",
            "index": 7,
            "selectedWords": [
                "\u00e9vidente",
                "autre",
                "autre",
                "autre",
                "autre",
                "autre",
                "certaine"
            ],
            "freeResponses": [],
            "nbPlayClick": 4,
            "expression": "NEUTRE",
            "csv_id": 7004,
            "video_name": "DIVERS_PARL_AD_03_0004"
        },
        {
            "name": "2565",
            "score": "0.928",
            "index": 8,
            "selectedWords": [
                "autre",
                "certaine",
                "convaincue",
                "navr\u00e9e"
            ],
            "freeResponses": [],
            "nbPlayClick": 5,
            "expression": "EVIDENCE",
            "csv_id": 2565,
            "video_name": "DIVERS_PARL_EVIDENCE_AD_01_0001"
        },
        {
            "name": "6460",
            "score": "0.977",
            "index": 9,
            "selectedWords": [
                "d\u00e9sol\u00e9e",
                "attrist\u00e9e",
                "contrari\u00e9e"
            ],
            "freeResponses": [],
            "nbPlayClick": 3,
            "expression": "SUPPLIANT",
            "csv_id": 6494,
            "video_name": "DIVERS_PARL_SUPPLIANT_AD_02_0001"
        },
        {
            "name": "11442",
            "score": "0.995",
            "index": 10,
            "selectedWords": [
                "d\u00e9termin\u00e9e",
                "r\u00e9fl\u00e9chie",
                "r\u00e9solue"
            ],
            "freeResponses": [],
            "nbPlayClick": 1,
            "response": "r\u00e9s",
            "expression": "NEUTRE",
            "csv_id": 11479,
            "video_name": "DIVERS_PARL_AD_02_0001"
        },
        {
            "name": "5827",
            "score": "0.973",
            "index": 11,
            "selectedWords": [
                "en col\u00e8re",
                "irrit\u00e9e",
                "d\u00e9termin\u00e9e",
                "s\u00fbre"
            ],
            "freeResponses": [],
            "nbPlayClick": 2,
            "response": "s\u00fb",
            "expression": "COLERE",
            "csv_id": 5861,
            "video_name": "DIVERS_PARL_COLERE_AD_01_0003"
        },
        {
            "name": "9579",
            "score": "0.990",
            "index": 12,
            "selectedWords": [
                "incr\u00e9dule",
                "dubitative",
                "perplexe",
                "perplexe"
            ],
            "freeResponses": [],
            "nbPlayClick": 2,
            "response": "perp",
            "expression": "INCREDULE",
            "csv_id": 9613,
            "video_name": "DIVERS_BOOK_INCREDULE_AD_01_0001"
        },
        {
            "name": "9669",
            "score": "0.991",
            "index": 13,
            "selectedWords": [
                "pensive",
                "songeuse",
                "confuse",
                "emb\u00eat\u00e9e"
            ],
            "freeResponses": [],
            "nbPlayClick": 2,
            "expression": "PENSIF",
            "csv_id": 9703,
            "video_name": "DIVERS_PARL_PENSIF_AD_01_0002"
        },
        {
            "name": "4108",
            "score": "0.956",
            "index": 14,
            "selectedWords": [
                "incr\u00e9dule",
                "autre",
                "inexpressive"
            ],
            "freeResponses": [],
            "nbPlayClick": 4,
            "expression": "SUPPLIANT",
            "csv_id": 4108,
            "video_name": "DIVERS_PARL_SUPPLIANT_AD_02_0002"
        },
        {
            "name": "10450",
            "score": "0.993",
            "index": 15,
            "selectedWords": [
                "neutre",
                "inexpressive"
            ],
            "freeResponses": [],
            "nbPlayClick": 2,
            "response": "in",
            "expression": "NEUTRE",
            "csv_id": 10484,
            "video_name": "DIVERS_BOOK_AD_03_0002"
        },
        {
            "name": "815",
            "score": "0.844",
            "index": 16,
            "selectedWords": [
                "autre",
                "autre",
                "autre",
                "s\u00fbre",
                "certaine"
            ],
            "freeResponses": [],
            "nbPlayClick": 3,
            "response": "s\u00fb",
            "expression": "NEUTRE",
            "csv_id": 815,
            "video_name": "ESTYLE_NEUTRE_AD_02_0001"
        },
        {
            "name": "7176",
            "score": "0.980",
            "index": 17,
            "selectedWords": [
                "\u00e9vidente",
                "autre",
                "s\u00fbre",
                "apaisante"
            ],
            "freeResponses": [],
            "nbPlayClick": 2,
            "response": "",
            "expression": "NEUTRE",
            "csv_id": 7210,
            "video_name": "DIVERS_PARL_AD_04_0004"
        },
        {
            "name": "4131",
            "score": "0.956",
            "index": 18,
            "selectedWords": [
                "neutre",
                "certaine",
                "in\u00e9branlable"
            ],
            "freeResponses": [],
            "nbPlayClick": 2,
            "expression": "DESOLE",
            "csv_id": 4131,
            "video_name": "DIVERS_BOOK_DESOLE_AD_03_0002"
        },
        {
            "name": "665",
            "score": "0.828",
            "index": 19,
            "selectedWords": [
                "incr\u00e9dule",
                "dubitative",
                "perplexe"
            ],
            "freeResponses": [],
            "nbPlayClick": 1,
            "expression": "INCREDULE",
            "csv_id": 665,
            "video_name": "DIVERS_PARL_INCREDULE_AD_01_0001"
        },
        {
            "name": "11951",
            "score": "0.997",
            "index": 20,
            "selectedWords": [
                "neutre",
                "inexpressive"
            ],
            "freeResponses": [],
            "nbPlayClick": 2,
            "response": "ine",
            "expression": "NEUTRE",
            "csv_id": 11988,
            "video_name": "DIVERS_BOOK_AD_01_0002"
        },
        {
            "name": "7612",
            "score": "0.983",
            "index": 21,
            "selectedWords": [
                "d\u00e9termin\u00e9e",
                "\u00e9vidente",
                "certaine",
                "s\u00fbre",
                "tonique"
            ],
            "freeResponses": [],
            "nbPlayClick": 2,
            "expression": "DETERMINE",
            "csv_id": 7646,
            "video_name": "DIVERS_PARL_DETERMINE_AD_01_0002"
        },
        {
            "name": "8723",
            "score": "0.987",
            "index": 22,
            "selectedWords": [
                "\u00e9vidente",
                "manifeste",
                "convaincue"
            ],
            "freeResponses": [],
            "nbPlayClick": 2,
            "expression": "NEUTRE",
            "csv_id": 8757,
            "video_name": "DIVERS_PARL_AD_05_0003"
        },
        {
            "name": "9692",
            "score": "0.991",
            "index": 23,
            "selectedWords": [
                "neutre",
                "s\u00fbre",
                "autre",
                "dubitative"
            ],
            "freeResponses": [],
            "nbPlayClick": 2,
            "expression": "NEUTRE",
            "csv_id": 9726,
            "video_name": "DIVERS_PARL_AD_02_0003"
        },
        {
            "name": "2538",
            "score": "0.928",
            "index": 24,
            "selectedWords": [
                "dubitative",
                "taquine"
            ],
            "freeResponses": [
                "Sarcastique"
            ],
            "nbPlayClick": 2,
            "response": "taq",
            "expression": "EVIDENCE",
            "csv_id": 2538,
            "video_name": "DIVERS_PARL_EVIDENCE_AD_01_0001"
        },
        {
            "name": "10090",
            "score": "0.992",
            "index": 25,
            "selectedWords": [
                "en col\u00e8re",
                "irrit\u00e9e",
                "f\u00e2ch\u00e9e",
                "autre",
                "autre",
                "autre",
                "autre",
                "autre"
            ],
            "freeResponses": [],
            "nbPlayClick": 2,
            "expression": "COLERE",
            "csv_id": 10124,
            "video_name": "DIVERS_PARL_COLERE_AD_02_0002"
        },
        {
            "name": "11510",
            "score": "0.996",
            "index": 26,
            "selectedWords": [
                "pensive",
                "songeuse",
                "neutre"
            ],
            "freeResponses": [],
            "nbPlayClick": 2,
            "response": "neu",
            "expression": "NEUTRE",
            "csv_id": 11547,
            "video_name": "DIVERS_BOOK_AD_04_0001"
        },
        {
            "name": "11299",
            "score": "0.995",
            "index": 27,
            "selectedWords": [
                "s\u00fbre",
                "r\u00e9fl\u00e9chie",
                "certaine"
            ],
            "freeResponses": [],
            "nbPlayClick": 2,
            "expression": "NEUTRE",
            "csv_id": 11333,
            "video_name": "DIVERS_PARL_AD_02_0003"
        },
        {
            "name": "8738",
            "score": "0.987",
            "index": 28,
            "selectedWords": [
                "\u00e9vidente",
                "autre",
                "autre",
                "neutre"
            ],
            "freeResponses": [],
            "nbPlayClick": 2,
            "response": "neut",
            "expression": "NEUTRE",
            "csv_id": 8772,
            "video_name": "DIVERS_PARL_AD_06_0003"
        },
        {
            "name": "1055",
            "score": "0.865",
            "index": 29,
            "selectedWords": [
                "\u00e9tonn\u00e9e",
                "autre",
                "dubitative",
                "sceptique"
            ],
            "freeResponses": [],
            "nbPlayClick": 3,
            "expression": "INCREDULE",
            "csv_id": 1055,
            "video_name": "DIVERS_BOOK_INCREDULE_AD_01_0001"
        },
        {
            "name": "11233",
            "score": "0.995",
            "index": 30,
            "selectedWords": [
                "s\u00fbre",
                "autre",
                "dubitative",
                "sceptique",
                "\u00e9tonn\u00e9e"
            ],
            "freeResponses": [],
            "nbPlayClick": 2,
            "response": "\u00e9to",
            "expression": "PENSIF",
            "csv_id": 11267,
            "video_name": "DIVERS_BOOK_PENSIF_AD_01_0003"
        },
        {
            "name": "3042",
            "score": "0.939",
            "index": 31,
            "selectedWords": [
                "incr\u00e9dule",
                "autre",
                "autre",
                "autre",
                "songeuse",
                "pensante"
            ],
            "freeResponses": [],
            "nbPlayClick": 2,
            "expression": "NEUTRE",
            "csv_id": 3042,
            "video_name": "DIVERS_PARL_AD_01_0004"
        },
        {
            "name": "11634",
            "score": "0.996",
            "index": 32,
            "selectedWords": [
                "espi\u00e8gle",
                "malicieuse",
                "fac\u00e9tieuse"
            ],
            "freeResponses": [],
            "nbPlayClick": 3,
            "expression": "ESPIEGLE",
            "csv_id": 11671,
            "video_name": "DIVERS_BOOK_ESPIEGLE_AD_03_0001"
        },
        {
            "name": "11024",
            "score": "0.994",
            "index": 33,
            "selectedWords": [
                "neutre",
                "certaine",
                "inexpressive"
            ],
            "freeResponses": [],
            "nbPlayClick": 2,
            "response": "ine",
            "expression": "NEUTRE",
            "csv_id": 11058,
            "video_name": "DIVERS_BOOK_AD_04_0001"
        },
        {
            "name": "4472",
            "score": "0.960",
            "index": 34,
            "selectedWords": [
                "d\u00e9termin\u00e9e",
                "autre",
                "autre",
                "s\u00fbre",
                "neutre"
            ],
            "freeResponses": [],
            "nbPlayClick": 2,
            "response": "neu",
            "expression": "NEUTRE",
            "csv_id": 4506,
            "video_name": "DIVERS_PARL_AD_06_0003"
        },
        {
            "name": "8812",
            "score": "0.988",
            "index": 35,
            "selectedWords": [
                "d\u00e9termin\u00e9e",
                "r\u00e9fl\u00e9chie",
                "s\u00fbre",
                "certaine"
            ],
            "freeResponses": [],
            "nbPlayClick": 2,
            "expression": "NEUTRE",
            "csv_id": 8846,
            "video_name": "DIVERS_PARL_AD_05_0002"
        },
        {
            "name": "8265",
            "score": "0.985",
            "index": 36,
            "selectedWords": [
                "\u00e9vidente",
                "incontestable",
                "certaine",
                "s\u00fbre"
            ],
            "freeResponses": [],
            "nbPlayClick": 1,
            "expression": "NEUTRE",
            "csv_id": 8299,
            "video_name": "DIVERS_PARL_AD_04_0003"
        },
        {
            "name": "1256",
            "score": "0.879",
            "index": 37,
            "selectedWords": [
                "enthousiaste",
                "euphorique",
                "excit\u00e9e",
                "passionn\u00e9e"
            ],
            "freeResponses": [],
            "nbPlayClick": 2,
            "expression": "ENTHOUSIASTE",
            "csv_id": 1256,
            "video_name": "DIVERS_BOOK_ENTHOUSIASTE_AD_01_0001"
        },
        {
            "name": "4482",
            "score": "0.960",
            "index": 38,
            "selectedWords": [
                "neutre",
                "certaine",
                "s\u00fbre"
            ],
            "freeResponses": [],
            "nbPlayClick": 1,
            "response": "s\u00fb",
            "expression": "NEUTRE",
            "csv_id": 4516,
            "video_name": "DIVERS_PARL_AD_06_0002"
        },
        {
            "name": "4136",
            "score": "0.956",
            "index": 39,
            "selectedWords": [
                "\u00e9vidente",
                "autre",
                "autre",
                "s\u00fbre",
                "certaine"
            ],
            "freeResponses": [],
            "nbPlayClick": 1,
            "response": "s\u00fb",
            "expression": "EVIDENCE",
            "csv_id": 4136,
            "video_name": "DIVERS_PARL_EVIDENCE_AD_02_0002"
        },
        {
            "name": "4851",
            "score": "0.964",
            "index": 40,
            "selectedWords": [
                "enthousiaste",
                "tonique",
                "autre",
                "autre"
            ],
            "freeResponses": [],
            "nbPlayClick": 1,
            "expression": "ENTHOUSIASTE",
            "csv_id": 4885,
            "video_name": "DIVERS_BOOK_ENTHOUSIASTE_AD_01_0001"
        },
        {
            "name": "7144",
            "score": "0.980",
            "index": 41,
            "selectedWords": [
                "neutre",
                "absente"
            ],
            "freeResponses": [],
            "nbPlayClick": 1,
            "expression": "NEUTRE",
            "csv_id": 7178,
            "video_name": "DIVERS_BOOK_AD_03_0001"
        },
        {
            "name": "10349",
            "score": "0.993",
            "index": 42,
            "selectedWords": [
                "enthousiaste",
                "tonique",
                "autre",
                "autre",
                "autre"
            ],
            "freeResponses": [],
            "nbPlayClick": 1,
            "expression": "ENTHOUSIASTE",
            "csv_id": 10383,
            "video_name": "DIVERS_PARL_ENTHOUSIASTE_AD_02_0001"
        },
        {
            "name": "3488",
            "score": "0.946",
            "index": 43,
            "selectedWords": [
                "enthousiaste",
                "coquine",
                "sinc\u00e8re"
            ],
            "freeResponses": [],
            "nbPlayClick": 1,
            "expression": "ESPIEGLE",
            "csv_id": 3488,
            "video_name": "DIVERS_PARL_ESPIEGLE_AD_01_0001"
        },
        {
            "name": "4598",
            "score": "0.962",
            "index": 44,
            "selectedWords": [
                "neutre",
                "certaine"
            ],
            "freeResponses": [],
            "nbPlayClick": 1,
            "expression": "NEUTRE",
            "csv_id": 4632,
            "video_name": "DIVERS_PARL_AD_06_0001"
        },
        {
            "name": "10690",
            "score": "0.994",
            "index": 45,
            "selectedWords": [
                "s\u00fbre",
                "certaine"
            ],
            "freeResponses": [],
            "nbPlayClick": 1,
            "response": "s\u00fb",
            "expression": "NEUTRE",
            "csv_id": 10724,
            "video_name": "DIVERS_PARL_AD_02_0004"
        },
        {
            "name": "4436",
            "score": "0.960",
            "index": 46,
            "selectedWords": [
                "incr\u00e9dule"
            ],
            "freeResponses": [
                "surprise"
            ],
            "nbPlayClick": 2,
            "response": "surprise",
            "expression": "ETONNE",
            "csv_id": 4470,
            "video_name": "DIVERS_BOOK_ETONNE_AD_01_0002"
        },
        {
            "name": "7983",
            "score": "0.984",
            "index": 47,
            "selectedWords": [
                "\u00e9vidente",
                "autre",
                "autre",
                "s\u00fbre",
                "certaine"
            ],
            "freeResponses": [],
            "nbPlayClick": 3,
            "response": "",
            "expression": "NEUTRE",
            "csv_id": 8017,
            "video_name": "DIVERS_PARL_AD_03_0002"
        },
        {
            "name": "8875",
            "score": "0.988",
            "index": 48,
            "selectedWords": [
                "s\u00fbre",
                "certaine"
            ],
            "freeResponses": [],
            "nbPlayClick": 1,
            "response": "s\u00fb",
            "expression": "NEUTRE",
            "csv_id": 8909,
            "video_name": "DIVERS_PARL_AD_05_0002"
        },
        {
            "name": "10960",
            "score": "0.994",
            "index": 49,
            "selectedWords": [
                "\u00e9vidente",
                "autre",
                "dubitative"
            ],
            "freeResponses": [],
            "nbPlayClick": 2,
            "response": "dub",
            "expression": "NEUTRE",
            "csv_id": 10994,
            "video_name": "DIVERS_PARL_AD_02_0004"
        },
        {
            "name": "8266",
            "score": "0.985",
            "index": 50,
            "selectedWords": [
                "taquine",
                "fac\u00e9tieuse",
                "malicieuse"
            ],
            "freeResponses": [
                "sarcastique"
            ],
            "nbPlayClick": 1,
            "response": "taq",
            "expression": "ESPIEGLE",
            "csv_id": 8300,
            "video_name": "DIVERS_PARL_ESPIEGLE_AD_01_0001"
        },
        {
            "name": "3928",
            "score": "0.953",
            "index": 51,
            "selectedWords": [
                "\u00e9vidente",
                "s\u00fbre"
            ],
            "freeResponses": [],
            "nbPlayClick": 1,
            "response": "s\u00fb",
            "expression": "SUPPLIANT",
            "csv_id": 3928,
            "video_name": "DIVERS_PARL_SUPPLIANT_AD_02_0002"
        },
        {
            "name": "11036",
            "score": "0.994",
            "index": 52,
            "selectedWords": [
                "neutre",
                "inexpressive"
            ],
            "freeResponses": [],
            "nbPlayClick": 1,
            "response": "ine",
            "expression": "NEUTRE",
            "csv_id": 11070,
            "video_name": "DIVERS_BOOK_AD_03_0001"
        },
        {
            "name": "5481",
            "score": "0.970",
            "index": 53,
            "selectedWords": [
                "enthousiaste",
                "\u00e9loquente"
            ],
            "freeResponses": [],
            "nbPlayClick": 1,
            "expression": "RECONFORTANT",
            "csv_id": 5515,
            "video_name": "DIVERS_BOOK_RECONFORTANT_AD_03_0002"
        },
        {
            "name": "11530",
            "score": "0.996",
            "index": 54,
            "selectedWords": [
                "neutre",
                "certaine"
            ],
            "freeResponses": [],
            "nbPlayClick": 1,
            "expression": "NEUTRE",
            "csv_id": 11567,
            "video_name": "DIVERS_PARL_AD_03_0003"
        },
        {
            "name": "10956",
            "score": "0.994",
            "index": 55,
            "selectedWords": [
                "enthousiaste",
                "tonique",
                "autre"
            ],
            "freeResponses": [],
            "nbPlayClick": 1,
            "expression": "ESPIEGLE",
            "csv_id": 10990,
            "video_name": "DIVERS_PARL_ESPIEGLE_AD_01_0001"
        },
        {
            "name": "10083",
            "score": "0.992",
            "index": 56,
            "selectedWords": [
                "enthousiaste",
                "euphorique",
                "excit\u00e9e",
                "emball\u00e9e"
            ],
            "freeResponses": [],
            "nbPlayClick": 1,
            "expression": "ENTHOUSIASTE",
            "csv_id": 10117,
            "video_name": "DIVERS_BOOK_ENTHOUSIASTE_AD_01_0001"
        },
        {
            "name": "7796",
            "score": "0.983",
            "index": 57,
            "selectedWords": [
                "neutre",
                "s\u00fbre"
            ],
            "freeResponses": [],
            "nbPlayClick": 1,
            "expression": "NEUTRE",
            "csv_id": 7830,
            "video_name": "DIVERS_PARL_AD_05_0001"
        },
        {
            "name": "8802",
            "score": "0.987",
            "index": 58,
            "selectedWords": [
                "\u00e9vidente",
                "neutre",
                "inexpressive"
            ],
            "freeResponses": [],
            "nbPlayClick": 1,
            "response": "ine",
            "expression": "NEUTRE",
            "csv_id": 8836,
            "video_name": "DIVERS_PARL_AD_02_0002"
        },
        {
            "name": "6221",
            "score": "0.975",
            "index": 59,
            "selectedWords": [
                "\u00e9vidente",
                "incontestable",
                "s\u00fbre"
            ],
            "freeResponses": [],
            "nbPlayClick": 1,
            "response": "s\u00fb",
            "expression": "NEUTRE",
            "csv_id": 6255,
            "video_name": "DIVERS_PARL_AD_01_0004"
        }
    ],
    "training": [
        {
            "name": "77",
            "score": "0.639",
            "index": 0,
            "selectedWords": [
                "neutre",
                "autre",
                "dubitative"
            ],
            "freeResponses": [],
            "nbPlayClick": 2,
            "expression": "NEUTRE"
        }
    ],
    "filenameDate": "2023-08-31_21-23"
}