{
    "user": {
        "isProlific": true,
        "id": "5e29fd5f2bec3b065e9a729e",
        "session": "656f9b86016ed4fb58068cbc",
        "study": "64ef977375f88e4e1174dce0"
    },
    "userAgent": "Mozilla/5.0 (Windows NT 10.0; Win64; x64) AppleWebKit/537.36 (KHTML, like Gecko) Chrome/119.0.0.0 Safari/537.36 AVG/119.0.0.0",
    "landingDate": "2023-12-05T21:52:35.162Z",
    "startDate": "2023-12-05T21:55:59.888Z",
    "endDate": "2023-12-05T22:30:23.307Z",
    "reviews": [
        {
            "name": "454",
            "score": "0.797",
            "index": 0,
            "selectedWords": [
                "d\u00e9termin\u00e9e",
                "r\u00e9solue"
            ],
            "freeResponses": [],
            "nbPlayClick": 3,
            "expression": "INCREDULE",
            "csv_id": 454,
            "video_name": "DIVERS_BOOK_INCREDULE_AD_01_0001"
        },
        {
            "name": "8371",
            "score": "0.986",
            "index": 1,
            "selectedWords": [
                "\u00e9vidente",
                "incontestable"
            ],
            "freeResponses": [],
            "nbPlayClick": 1,
            "expression": "NEUTRE",
            "csv_id": 8405,
            "video_name": "DIVERS_PARL_AD_02_0002"
        },
        {
            "name": "5235",
            "score": "0.968",
            "index": 2,
            "selectedWords": [
                "d\u00e9termin\u00e9e",
                "r\u00e9solue"
            ],
            "freeResponses": [],
            "nbPlayClick": 1,
            "expression": "NEUTRE",
            "csv_id": 5269,
            "video_name": "DIVERS_PARL_AD_06_0004"
        },
        {
            "name": "4356",
            "score": "0.958",
            "index": 3,
            "selectedWords": [
                "d\u00e9sol\u00e9e",
                "autre",
                "implorante"
            ],
            "freeResponses": [],
            "nbPlayClick": 2,
            "expression": "SUPPLIANT",
            "csv_id": 4356,
            "video_name": "DIVERS_PARL_SUPPLIANT_AD_02_0002"
        },
        {
            "name": "7940",
            "score": "0.984",
            "index": 4,
            "selectedWords": [
                "pensive",
                "transport\u00e9e"
            ],
            "freeResponses": [],
            "nbPlayClick": 3,
            "expression": "ETONNE",
            "csv_id": 7974,
            "video_name": "DIVERS_BOOK_ETONNE_AD_01_0004"
        },
        {
            "name": "5496",
            "score": "0.970",
            "index": 5,
            "selectedWords": [
                "d\u00e9sol\u00e9e",
                "autre",
                "autre",
                "atone"
            ],
            "freeResponses": [],
            "nbPlayClick": 2,
            "expression": "DESOLE",
            "csv_id": 5530,
            "video_name": "DIVERS_PARL_DESOLE_AD_02_0002"
        },
        {
            "name": "10135",
            "score": "0.992",
            "index": 6,
            "selectedWords": [
                "pensive",
                "r\u00e9fl\u00e9chie"
            ],
            "freeResponses": [],
            "nbPlayClick": 1,
            "expression": "NEUTRE",
            "csv_id": 10169,
            "video_name": "DIVERS_PARL_AD_04_0004"
        },
        {
            "name": "8583",
            "score": "0.987",
            "index": 7,
            "selectedWords": [
                "en col\u00e8re",
                "en rogne"
            ],
            "freeResponses": [],
            "nbPlayClick": 1,
            "expression": "NEUTRE",
            "csv_id": 8617,
            "video_name": "DIVERS_PARL_AD_06_0001"
        },
        {
            "name": "8646",
            "score": "0.987",
            "index": 8,
            "selectedWords": [
                "suppliante",
                "larmoyante"
            ],
            "freeResponses": [],
            "nbPlayClick": 1,
            "expression": "SUPPLIANT",
            "csv_id": 8680,
            "video_name": "DIVERS_PARL_SUPPLIANT_AD_02_0001"
        },
        {
            "name": "8797",
            "score": "0.987",
            "index": 9,
            "selectedWords": [
                "d\u00e9termin\u00e9e",
                "manifeste"
            ],
            "freeResponses": [],
            "nbPlayClick": 1,
            "expression": "DETERMINE",
            "csv_id": 8831,
            "video_name": "DIVERS_PARL_DETERMINE_AD_01_0004"
        },
        {
            "name": "1875",
            "score": "0.907",
            "index": 10,
            "selectedWords": [
                "espi\u00e8gle",
                "autre",
                "dubitative"
            ],
            "freeResponses": [],
            "nbPlayClick": 2,
            "expression": "INCREDULE",
            "csv_id": 1875,
            "video_name": "DIVERS_PARL_INCREDULE_AD_02_0003"
        },
        {
            "name": "10338",
            "score": "0.993",
            "index": 11,
            "selectedWords": [
                "neutre",
                "notoire"
            ],
            "freeResponses": [],
            "nbPlayClick": 2,
            "expression": "PENSIF",
            "csv_id": 10372,
            "video_name": "DIVERS_BOOK_PENSIF_AD_03_0002"
        },
        {
            "name": "2639",
            "score": "0.930",
            "index": 12,
            "selectedWords": [
                "espi\u00e8gle",
                "fac\u00e9tieuse"
            ],
            "freeResponses": [],
            "nbPlayClick": 1,
            "expression": "ESPIEGLE",
            "csv_id": 2639,
            "video_name": "DIVERS_PARL_ESPIEGLE_AD_01_0001"
        },
        {
            "name": "4042",
            "score": "0.955",
            "index": 13,
            "selectedWords": [
                "r\u00e9confortante",
                "autre",
                "dubitative"
            ],
            "freeResponses": [],
            "nbPlayClick": 1,
            "expression": "NEUTRE",
            "csv_id": 4042,
            "video_name": "DIVERS_PARL_AD_05_0002"
        },
        {
            "name": "4960",
            "score": "0.965",
            "index": 14,
            "selectedWords": [
                "suppliante",
                "priante"
            ],
            "freeResponses": [],
            "nbPlayClick": 1,
            "expression": "SUPPLIANT",
            "csv_id": 4994,
            "video_name": "DIVERS_PARL_SUPPLIANT_AD_02_0001"
        },
        {
            "name": "11544",
            "score": "0.996",
            "index": 15,
            "selectedWords": [
                "pensive",
                "r\u00e9fl\u00e9chissante"
            ],
            "freeResponses": [],
            "nbPlayClick": 1,
            "expression": "PENSIF",
            "csv_id": 11581,
            "video_name": "DIVERS_BOOK_PENSIF_AD_03_0002"
        },
        {
            "name": "12374",
            "score": "0.999",
            "index": 16,
            "selectedWords": [
                "incr\u00e9dule",
                "dubitative"
            ],
            "freeResponses": [],
            "nbPlayClick": 1,
            "expression": "ETONNE",
            "csv_id": 12411,
            "video_name": "DIVERS_BOOK_ETONNE_AD_01_0004"
        },
        {
            "name": "9159",
            "score": "0.989",
            "index": 17,
            "selectedWords": [
                "en col\u00e8re",
                "irrit\u00e9e"
            ],
            "freeResponses": [],
            "nbPlayClick": 1,
            "expression": "NEUTRE",
            "csv_id": 9193,
            "video_name": "DIVERS_PARL_AD_06_0001"
        },
        {
            "name": "6266",
            "score": "0.975",
            "index": 18,
            "selectedWords": [
                "neutre",
                "tonique"
            ],
            "freeResponses": [],
            "nbPlayClick": 1,
            "expression": "NEUTRE",
            "csv_id": 6300,
            "video_name": "DIVERS_PARL_AD_04_0003"
        },
        {
            "name": "5589",
            "score": "0.971",
            "index": 19,
            "selectedWords": [
                "\u00e9vidente",
                "manifeste"
            ],
            "freeResponses": [],
            "nbPlayClick": 1,
            "expression": "NEUTRE",
            "csv_id": 5623,
            "video_name": "DIVERS_PARL_AD_06_0002"
        },
        {
            "name": "5129",
            "score": "0.967",
            "index": 20,
            "selectedWords": [
                "d\u00e9termin\u00e9e",
                "agit\u00e9e"
            ],
            "freeResponses": [],
            "nbPlayClick": 1,
            "expression": "DETERMINE",
            "csv_id": 5163,
            "video_name": "DIVERS_BOOK_DETERMINE_AD_03_0001"
        },
        {
            "name": "4613",
            "score": "0.962",
            "index": 21,
            "selectedWords": [
                "incr\u00e9dule",
                "m\u00e9fiante"
            ],
            "freeResponses": [],
            "nbPlayClick": 1,
            "expression": "COLERE",
            "csv_id": 4647,
            "video_name": "DIVERS_PARL_COLERE_AD_01_0004"
        },
        {
            "name": "10759",
            "score": "0.994",
            "index": 22,
            "selectedWords": [
                "\u00e9vidente",
                "incontestable"
            ],
            "freeResponses": [],
            "nbPlayClick": 1,
            "expression": "NEUTRE",
            "csv_id": 10793,
            "video_name": "DIVERS_PARL_AD_04_0001"
        },
        {
            "name": "7728",
            "score": "0.983",
            "index": 23,
            "selectedWords": [
                "r\u00e9confortante",
                "autre",
                "autre",
                "inexpressive"
            ],
            "freeResponses": [],
            "nbPlayClick": 1,
            "expression": "NEUTRE",
            "csv_id": 7762,
            "video_name": "DIVERS_PARL_AD_06_0002"
        },
        {
            "name": "10287",
            "score": "0.992",
            "index": 24,
            "selectedWords": [
                "d\u00e9termin\u00e9e",
                "r\u00e9solue"
            ],
            "freeResponses": [],
            "nbPlayClick": 1,
            "expression": "NEUTRE",
            "csv_id": 10321,
            "video_name": "DIVERS_PARL_AD_01_0005"
        },
        {
            "name": "8271",
            "score": "0.985",
            "index": 25,
            "selectedWords": [
                "pensive",
                "r\u00e9fl\u00e9chissante"
            ],
            "freeResponses": [],
            "nbPlayClick": 1,
            "expression": "NEUTRE",
            "csv_id": 8305,
            "video_name": "DIVERS_PARL_AD_03_0003"
        },
        {
            "name": "10897",
            "score": "0.994",
            "index": 26,
            "selectedWords": [
                "suppliante",
                "implorante"
            ],
            "freeResponses": [],
            "nbPlayClick": 1,
            "expression": "SUPPLIANT",
            "csv_id": 10931,
            "video_name": "DIVERS_PARL_SUPPLIANT_AD_02_0001"
        },
        {
            "name": "7634",
            "score": "0.983",
            "index": 27,
            "selectedWords": [
                "en col\u00e8re",
                "irrit\u00e9e"
            ],
            "freeResponses": [],
            "nbPlayClick": 1,
            "expression": "COLERE",
            "csv_id": 7668,
            "video_name": "DIVERS_PARL_COLERE_AD_01_0004"
        },
        {
            "name": "5701",
            "score": "0.972",
            "index": 28,
            "selectedWords": [
                "enthousiaste",
                "euphorique"
            ],
            "freeResponses": [],
            "nbPlayClick": 3,
            "expression": "ENTHOUSIASTE",
            "csv_id": 5735,
            "video_name": "DIVERS_BOOK_ENTHOUSIASTE_AD_01_0001"
        },
        {
            "name": "362",
            "score": "0.780",
            "index": 29,
            "selectedWords": [
                "d\u00e9termin\u00e9e",
                "r\u00e9solue"
            ],
            "freeResponses": [],
            "nbPlayClick": 2,
            "expression": "ENTHOUSIASTE",
            "csv_id": 362,
            "video_name": "DIVERS_PARL_ENTHOUSIASTE_AD_01_0003"
        },
        {
            "name": "8906",
            "score": "0.988",
            "index": 30,
            "selectedWords": [
                "incr\u00e9dule",
                "dubitative"
            ],
            "freeResponses": [],
            "nbPlayClick": 1,
            "expression": "NEUTRE",
            "csv_id": 8940,
            "video_name": "DIVERS_PARL_AD_04_0002"
        },
        {
            "name": "11593",
            "score": "0.996",
            "index": 31,
            "selectedWords": [
                "\u00e9vidente",
                "manifeste"
            ],
            "freeResponses": [],
            "nbPlayClick": 1,
            "expression": "NEUTRE",
            "csv_id": 11630,
            "video_name": "DIVERS_BOOK_AD_01_0002"
        },
        {
            "name": "11879",
            "score": "0.997",
            "index": 32,
            "selectedWords": [
                "autre",
                "autre",
                "autre",
                "autre",
                "autre",
                "autre",
                "ind\u00e9niable",
                "notoire"
            ],
            "freeResponses": [],
            "nbPlayClick": 2,
            "expression": "NEUTRE",
            "csv_id": 11916,
            "video_name": "DIVERS_PARL_AD_01_0005"
        },
        {
            "name": "1960",
            "score": "0.910",
            "index": 33,
            "selectedWords": [
                "espi\u00e8gle",
                "fac\u00e9tieuse"
            ],
            "freeResponses": [],
            "nbPlayClick": 1,
            "expression": "ESPIEGLE",
            "csv_id": 1960,
            "video_name": "DIVERS_PARL_ESPIEGLE_AD_01_0001"
        },
        {
            "name": "10245",
            "score": "0.992",
            "index": 34,
            "selectedWords": [
                "neutre",
                "autre",
                "imp\u00e9n\u00e9trable"
            ],
            "freeResponses": [],
            "nbPlayClick": 1,
            "expression": "NEUTRE",
            "csv_id": 10279,
            "video_name": "DIVERS_PARL_AD_01_0000"
        },
        {
            "name": "2404",
            "score": "0.924",
            "index": 35,
            "selectedWords": [
                "\u00e9vidente",
                "manifeste"
            ],
            "freeResponses": [],
            "nbPlayClick": 1,
            "expression": "EVIDENCE",
            "csv_id": 2404,
            "video_name": "DIVERS_PARL_EVIDENCE_AD_02_0002"
        },
        {
            "name": "11591",
            "score": "0.996",
            "index": 36,
            "selectedWords": [
                "en col\u00e8re",
                "\u00e9nerv\u00e9e"
            ],
            "freeResponses": [],
            "nbPlayClick": 2,
            "expression": "NEUTRE",
            "csv_id": 11628,
            "video_name": "DIVERS_PARL_AD_03_0003"
        },
        {
            "name": "6948",
            "score": "0.979",
            "index": 37,
            "selectedWords": [
                "en col\u00e8re",
                "irrit\u00e9e"
            ],
            "freeResponses": [],
            "nbPlayClick": 1,
            "expression": "NEUTRE",
            "csv_id": 6982,
            "video_name": "DIVERS_PARL_AD_06_0003"
        },
        {
            "name": "10401",
            "score": "0.993",
            "index": 38,
            "selectedWords": [
                "enthousiaste",
                "triomphale"
            ],
            "freeResponses": [],
            "nbPlayClick": 1,
            "expression": "ENTHOUSIASTE",
            "csv_id": 10435,
            "video_name": "DIVERS_PARL_ENTHOUSIASTE_AD_01_0003"
        },
        {
            "name": "9482",
            "score": "0.990",
            "index": 39,
            "selectedWords": [
                "neutre",
                "s\u00fbre"
            ],
            "freeResponses": [],
            "nbPlayClick": 2,
            "expression": "NEUTRE",
            "csv_id": 9516,
            "video_name": "DIVERS_PARL_AD_05_0002"
        },
        {
            "name": "6852",
            "score": "0.979",
            "index": 40,
            "selectedWords": [
                "autre",
                "\u00e9berlu\u00e9e",
                "autre",
                "autre",
                "autre",
                "hargneuse"
            ],
            "freeResponses": [],
            "nbPlayClick": 1,
            "expression": "NEUTRE",
            "csv_id": 6886,
            "video_name": "DIVERS_BOOK_AD_01_0002"
        },
        {
            "name": "7614",
            "score": "0.983",
            "index": 41,
            "selectedWords": [
                "en col\u00e8re",
                "en rogne"
            ],
            "freeResponses": [],
            "nbPlayClick": 1,
            "expression": "COLERE",
            "csv_id": 7648,
            "video_name": "DIVERS_PARL_COLERE_AD_01_0003"
        },
        {
            "name": "5815",
            "score": "0.973",
            "index": 42,
            "selectedWords": [
                "autre",
                "autre",
                "autre",
                "priante",
                "mendiante"
            ],
            "freeResponses": [],
            "nbPlayClick": 1,
            "expression": "EVIDENCE",
            "csv_id": 5849,
            "video_name": "DIVERS_BOOK_EVIDENCE_AD_01_0002"
        },
        {
            "name": "2151",
            "score": "0.916",
            "index": 43,
            "selectedWords": [
                "espi\u00e8gle",
                "narquoise"
            ],
            "freeResponses": [],
            "nbPlayClick": 2,
            "expression": "NEUTRE",
            "csv_id": 2151,
            "video_name": "DIVERS_BOOK_AD_04_0002"
        },
        {
            "name": "9857",
            "score": "0.991",
            "index": 44,
            "selectedWords": [
                "autre",
                "inexpressive",
                "froide"
            ],
            "freeResponses": [],
            "nbPlayClick": 1,
            "expression": "NEUTRE",
            "csv_id": 9891,
            "video_name": "DIVERS_PARL_AD_03_0003"
        },
        {
            "name": "11696",
            "score": "0.996",
            "index": 45,
            "selectedWords": [
                "neutre",
                "certaine"
            ],
            "freeResponses": [],
            "nbPlayClick": 1,
            "expression": "NEUTRE",
            "csv_id": 11733,
            "video_name": "DIVERS_BOOK_AD_03_0002"
        },
        {
            "name": "6342",
            "score": "0.976",
            "index": 46,
            "selectedWords": [
                "\u00e9vidente",
                "manifeste"
            ],
            "freeResponses": [],
            "nbPlayClick": 1,
            "expression": "NEUTRE",
            "csv_id": 6376,
            "video_name": "DIVERS_PARL_AD_01_0005"
        },
        {
            "name": "7740",
            "score": "0.983",
            "index": 47,
            "selectedWords": [
                "neutre",
                "s\u00fbre"
            ],
            "freeResponses": [],
            "nbPlayClick": 1,
            "expression": "NEUTRE",
            "csv_id": 7774,
            "video_name": "DIVERS_PARL_AD_03_0004"
        },
        {
            "name": "9008",
            "score": "0.988",
            "index": 48,
            "selectedWords": [
                "en col\u00e8re",
                "courrouc\u00e9e"
            ],
            "freeResponses": [],
            "nbPlayClick": 1,
            "expression": "COLERE",
            "csv_id": 9042,
            "video_name": "DIVERS_PARL_COLERE_AD_02_0002"
        },
        {
            "name": "10116",
            "score": "0.992",
            "index": 49,
            "selectedWords": [
                "neutre",
                "notoire"
            ],
            "freeResponses": [],
            "nbPlayClick": 1,
            "expression": "NEUTRE",
            "csv_id": 10150,
            "video_name": "DIVERS_PARL_AD_02_0002"
        },
        {
            "name": "9948",
            "score": "0.991",
            "index": 50,
            "selectedWords": [
                "d\u00e9sol\u00e9e",
                "autre",
                "autre",
                "consolante"
            ],
            "freeResponses": [],
            "nbPlayClick": 1,
            "expression": "NEUTRE",
            "csv_id": 9982,
            "video_name": "DIVERS_PARL_AD_04_0004"
        },
        {
            "name": "7602",
            "score": "0.983",
            "index": 51,
            "selectedWords": [
                "d\u00e9termin\u00e9e",
                "r\u00e9solue"
            ],
            "freeResponses": [],
            "nbPlayClick": 1,
            "expression": "NEUTRE",
            "csv_id": 7636,
            "video_name": "DIVERS_PARL_AD_01_0004"
        },
        {
            "name": "10918",
            "score": "0.994",
            "index": 52,
            "selectedWords": [
                "suppliante",
                "larmoyante"
            ],
            "freeResponses": [],
            "nbPlayClick": 1,
            "expression": "SUPPLIANT",
            "csv_id": 10952,
            "video_name": "DIVERS_BOOK_SUPPLIANT_AD_01_0002"
        },
        {
            "name": "5910",
            "score": "0.973",
            "index": 53,
            "selectedWords": [
                "pensive",
                "songeuse"
            ],
            "freeResponses": [],
            "nbPlayClick": 1,
            "expression": "PENSIF",
            "csv_id": 5944,
            "video_name": "DIVERS_PARL_PENSIF_AD_01_0002"
        },
        {
            "name": "2023",
            "score": "0.912",
            "index": 54,
            "selectedWords": [
                "enthousiaste",
                "autre",
                "fac\u00e9tieuse"
            ],
            "freeResponses": [],
            "nbPlayClick": 1,
            "expression": "ENTHOUSIASTE",
            "csv_id": 2023,
            "video_name": "DIVERS_BOOK_ENTHOUSIASTE_AD_01_0004"
        },
        {
            "name": "5726",
            "score": "0.972",
            "index": 55,
            "selectedWords": [
                "neutre",
                "limpide"
            ],
            "freeResponses": [],
            "nbPlayClick": 1,
            "expression": "NEUTRE",
            "csv_id": 5760,
            "video_name": "DIVERS_BOOK_AD_01_0002"
        },
        {
            "name": "4959",
            "score": "0.965",
            "index": 56,
            "selectedWords": [
                "espi\u00e8gle",
                "autre",
                "apaisante"
            ],
            "freeResponses": [],
            "nbPlayClick": 1,
            "expression": "RECONFORTANT",
            "csv_id": 4993,
            "video_name": "DIVERS_BOOK_RECONFORTANT_AD_01_0004"
        },
        {
            "name": "831",
            "score": "0.846",
            "index": 57,
            "selectedWords": [
                "incr\u00e9dule",
                "sceptique"
            ],
            "freeResponses": [],
            "nbPlayClick": 1,
            "expression": "INCREDULE",
            "csv_id": 831,
            "video_name": "DIVERS_BOOK_INCREDULE_AD_01_0001"
        },
        {
            "name": "5770",
            "score": "0.972",
            "index": 58,
            "selectedWords": [
                "en col\u00e8re",
                "en rogne",
                "f\u00e2ch\u00e9e"
            ],
            "freeResponses": [],
            "nbPlayClick": 1,
            "expression": "COLERE",
            "csv_id": 5804,
            "video_name": "DIVERS_PARL_COLERE_AD_02_0002"
        },
        {
            "name": "7625",
            "score": "0.983",
            "index": 59,
            "selectedWords": [
                "enthousiaste",
                "\u00e9loquente"
            ],
            "freeResponses": [],
            "nbPlayClick": 1,
            "expression": "ENTHOUSIASTE",
            "csv_id": 7659,
            "video_name": "DIVERS_PARL_ENTHOUSIASTE_AD_01_0003"
        }
    ],
    "training": [
        {
            "name": "77",
            "score": "0.639",
            "index": 0,
            "selectedWords": [
                "neutre",
                "certaine"
            ],
            "freeResponses": [],
            "nbPlayClick": 2,
            "expression": "NEUTRE"
        }
    ],
    "filenameDate": "2023-12-05_17-30"
}