{
    "user": {
        "isProlific": true,
        "id": "5e3581994de28951bca349ed",
        "session": "652b307fd96abb74680d7f06",
        "study": "64ef977375f88e4e1174dce0"
    },
    "userAgent": "Mozilla/5.0 (Windows NT 10.0; Win64; x64) AppleWebKit/537.36 (KHTML, like Gecko) Chrome/116.0.0.0 Safari/537.36",
    "landingDate": "2023-10-15T00:23:27.209Z",
    "startDate": "2023-10-15T00:25:16.085Z",
    "endDate": "2023-10-15T01:27:29.329Z",
    "reviews": [
        {
            "name": "9754",
            "score": "0.991",
            "index": 0,
            "selectedWords": [
                "d\u00e9termin\u00e9e",
                "r\u00e9solue",
                "autre",
                "autre",
                "autre",
                "stimulante",
                "encourageante"
            ],
            "freeResponses": [],
            "nbPlayClick": 2,
            "expression": "NEUTRE",
            "csv_id": 9788,
            "video_name": "DIVERS_PARL_AD_01_0004"
        },
        {
            "name": "6591",
            "score": "0.977",
            "index": 1,
            "selectedWords": [
                "enthousiaste",
                "autre",
                "autre",
                "autre",
                "autre",
                "autre",
                "autre",
                "autre",
                "autre",
                "autre",
                "autre",
                "autre",
                "autre",
                "autre",
                "autre",
                "autre",
                "r\u00e9confortante",
                "officielle"
            ],
            "freeResponses": [],
            "nbPlayClick": 3,
            "response": "",
            "expression": "RECONFORTANT",
            "csv_id": 6625,
            "video_name": "DIVERS_PARL_RECONFORTANT_AD_02_0001"
        },
        {
            "name": "8500",
            "score": "0.986",
            "index": 2,
            "selectedWords": [
                "neutre",
                "absente",
                "froide"
            ],
            "freeResponses": [],
            "nbPlayClick": 1,
            "response": "",
            "expression": "NEUTRE",
            "csv_id": 8534,
            "video_name": "DIVERS_BOOK_AD_03_0001"
        },
        {
            "name": "12402",
            "score": "0.999",
            "index": 3,
            "selectedWords": [
                "pensive",
                "ennuy\u00e9e",
                "r\u00e9fl\u00e9chie",
                "dubitative",
                "sceptique"
            ],
            "freeResponses": [],
            "nbPlayClick": 2,
            "response": "pe",
            "expression": "PENSIF",
            "csv_id": 12439,
            "video_name": "DIVERS_PARL_PENSIF_AD_01_0002"
        },
        {
            "name": "10948",
            "score": "0.994",
            "index": 4,
            "selectedWords": [
                "\u00e9tonn\u00e9e",
                "agit\u00e9e",
                "abasourdie",
                "confuse"
            ],
            "freeResponses": [],
            "nbPlayClick": 2,
            "expression": "ETONNE",
            "csv_id": 10982,
            "video_name": "DIVERS_BOOK_ETONNE_AD_01_0004"
        },
        {
            "name": "10021",
            "score": "0.992",
            "index": 5,
            "selectedWords": [
                "en col\u00e8re",
                "hargneuse",
                "m\u00e9contente",
                "agressive",
                "d\u00e9cid\u00e9e",
                "r\u00e9solue"
            ],
            "freeResponses": [],
            "nbPlayClick": 1,
            "expression": "COLERE",
            "csv_id": 10055,
            "video_name": "DIVERS_PARL_COLERE_AD_01_0004"
        },
        {
            "name": "3731",
            "score": "0.950",
            "index": 6,
            "selectedWords": [
                "incr\u00e9dule",
                "neutre",
                "terne"
            ],
            "freeResponses": [],
            "nbPlayClick": 3,
            "response": "terne",
            "expression": "NEUTRE",
            "csv_id": 3731,
            "video_name": "DIVERS_PARL_AD_03_0004"
        },
        {
            "name": "7043",
            "score": "0.980",
            "index": 7,
            "selectedWords": [
                "absente",
                "inexpressive",
                "dubitative",
                "sceptique",
                "pensive"
            ],
            "freeResponses": [],
            "nbPlayClick": 4,
            "response": "pens",
            "expression": "PENSIF",
            "csv_id": 7077,
            "video_name": "DIVERS_PARL_PENSIF_AD_01_0002"
        },
        {
            "name": "11620",
            "score": "0.996",
            "index": 8,
            "selectedWords": [
                "atone",
                "fade",
                "certaine"
            ],
            "freeResponses": [],
            "nbPlayClick": 2,
            "response": "cert",
            "expression": "NEUTRE",
            "csv_id": 11657,
            "video_name": "DIVERS_BOOK_AD_01_0002"
        },
        {
            "name": "2601",
            "score": "0.929",
            "index": 9,
            "selectedWords": [
                "d\u00e9termin\u00e9e",
                "r\u00e9solue",
                "entreprenante",
                "opini\u00e2tre",
                "s\u00fbre",
                "certaine",
                "in\u00e9branlable",
                "sinc\u00e8re"
            ],
            "freeResponses": [],
            "nbPlayClick": 1,
            "expression": "NEUTRE",
            "csv_id": 2601,
            "video_name": "DIVERS_PARL_AD_06_0004"
        },
        {
            "name": "10268",
            "score": "0.992",
            "index": 10,
            "selectedWords": [
                "espi\u00e8gle",
                "apaisante",
                "d\u00e9cid\u00e9e"
            ],
            "freeResponses": [],
            "nbPlayClick": 1,
            "response": "sa",
            "expression": "NEUTRE",
            "csv_id": 10302,
            "video_name": "DIVERS_PARL_AD_03_0001"
        },
        {
            "name": "4742",
            "score": "0.963",
            "index": 11,
            "selectedWords": [
                "emb\u00eat\u00e9e",
                "contrari\u00e9e",
                "froide"
            ],
            "freeResponses": [],
            "nbPlayClick": 3,
            "expression": "NEUTRE",
            "csv_id": 4776,
            "video_name": "DIVERS_PARL_AD_03_0003"
        },
        {
            "name": "8111",
            "score": "0.985",
            "index": 12,
            "selectedWords": [
                "d\u00e9termin\u00e9e",
                "r\u00e9fl\u00e9chie",
                "m\u00e9contente",
                "\u00e9nerv\u00e9e",
                "irrit\u00e9e"
            ],
            "freeResponses": [],
            "nbPlayClick": 2,
            "expression": "NEUTRE",
            "csv_id": 8145,
            "video_name": "DIVERS_PARL_AD_01_0002"
        },
        {
            "name": "6824",
            "score": "0.979",
            "index": 13,
            "selectedWords": [
                "incr\u00e9dule",
                "m\u00e9fiante",
                "coquine",
                "r\u00e9fl\u00e9chie",
                "agit\u00e9e",
                "f\u00e2ch\u00e9e"
            ],
            "freeResponses": [],
            "nbPlayClick": 2,
            "expression": "INCREDULE",
            "csv_id": 6858,
            "video_name": "DIVERS_BOOK_INCREDULE_AD_01_0001"
        },
        {
            "name": "12243",
            "score": "0.998",
            "index": 14,
            "selectedWords": [
                "\u00e9tonn\u00e9e",
                "confuse",
                "abasourdie"
            ],
            "freeResponses": [],
            "nbPlayClick": 1,
            "expression": "ETONNE",
            "csv_id": 12280,
            "video_name": "DIVERS_BOOK_ETONNE_AD_01_0002"
        },
        {
            "name": "6469",
            "score": "0.977",
            "index": 15,
            "selectedWords": [
                "neutre",
                "d\u00e9termin\u00e9e",
                "froide"
            ],
            "freeResponses": [],
            "nbPlayClick": 1,
            "expression": "NEUTRE",
            "csv_id": 6503,
            "video_name": "DIVERS_PARL_AD_01_0002"
        },
        {
            "name": "10030",
            "score": "0.992",
            "index": 16,
            "selectedWords": [
                "d\u00e9sol\u00e9e",
                "en peine",
                "attrist\u00e9e"
            ],
            "freeResponses": [],
            "nbPlayClick": 1,
            "expression": "SUPPLIANT",
            "csv_id": 10064,
            "video_name": "DIVERS_PARL_SUPPLIANT_AD_02_0001"
        },
        {
            "name": "7113",
            "score": "0.980",
            "index": 17,
            "selectedWords": [
                "\u00e9vidente",
                "indubitable",
                "certaine",
                "terne",
                "s\u00fbre",
                "ferme"
            ],
            "freeResponses": [],
            "nbPlayClick": 2,
            "response": "fer",
            "expression": "NEUTRE",
            "csv_id": 7147,
            "video_name": "DIVERS_PARL_AD_05_0001"
        },
        {
            "name": "12257",
            "score": "0.998",
            "index": 18,
            "selectedWords": [
                "incr\u00e9dule",
                "m\u00e9fiante",
                "sceptique"
            ],
            "freeResponses": [],
            "nbPlayClick": 2,
            "expression": "NEUTRE",
            "csv_id": 12294,
            "video_name": "DIVERS_BOOK_AD_03_0002"
        },
        {
            "name": "10899",
            "score": "0.994",
            "index": 19,
            "selectedWords": [
                "neutre",
                "autre",
                "imp\u00e9n\u00e9trable",
                "autre",
                "autre",
                "autre",
                "autre",
                "autre",
                "autre"
            ],
            "freeResponses": [],
            "nbPlayClick": 1,
            "expression": "NEUTRE",
            "csv_id": 10933,
            "video_name": "DIVERS_PARL_AD_05_0001"
        },
        {
            "name": "10346",
            "score": "0.993",
            "index": 20,
            "selectedWords": [
                "d\u00e9termin\u00e9e",
                "r\u00e9solue",
                "d\u00e9cid\u00e9e",
                "autre",
                "autre",
                "autre",
                "autre",
                "autre",
                "in\u00e9branlable"
            ],
            "freeResponses": [],
            "nbPlayClick": 1,
            "expression": "NEUTRE",
            "csv_id": 10380,
            "video_name": "DIVERS_PARL_AD_03_0002"
        },
        {
            "name": "4718",
            "score": "0.963",
            "index": 21,
            "selectedWords": [
                "enthousiaste",
                "tonique",
                "transport\u00e9e"
            ],
            "freeResponses": [],
            "nbPlayClick": 1,
            "expression": "DETERMINE",
            "csv_id": 4752,
            "video_name": "DIVERS_PARL_DETERMINE_AD_01_0004"
        },
        {
            "name": "9595",
            "score": "0.990",
            "index": 22,
            "selectedWords": [
                "suppliante",
                "consolante",
                "encourageante",
                "vivifiante",
                "entreprenante",
                "r\u00e9solue",
                "manifeste",
                "s\u00fbre"
            ],
            "freeResponses": [],
            "nbPlayClick": 2,
            "expression": "NEUTRE",
            "csv_id": 9629,
            "video_name": "DIVERS_PARL_AD_05_0004"
        },
        {
            "name": "4874",
            "score": "0.964",
            "index": 23,
            "selectedWords": [
                "d\u00e9termin\u00e9e",
                "emb\u00eat\u00e9e",
                "sceptique"
            ],
            "freeResponses": [],
            "nbPlayClick": 2,
            "expression": "NEUTRE",
            "csv_id": 4908,
            "video_name": "DIVERS_PARL_AD_06_0002"
        },
        {
            "name": "9898",
            "score": "0.991",
            "index": 24,
            "selectedWords": [
                "\u00e9vidente",
                "incontestable",
                "officielle"
            ],
            "freeResponses": [],
            "nbPlayClick": 1,
            "expression": "NEUTRE",
            "csv_id": 9932,
            "video_name": "DIVERS_PARL_AD_02_0004"
        },
        {
            "name": "9367",
            "score": "0.990",
            "index": 25,
            "selectedWords": [
                "coquine",
                "autre",
                "autre",
                "fac\u00e9tieuse",
                "taquine"
            ],
            "freeResponses": [],
            "nbPlayClick": 2,
            "response": "fac",
            "expression": "ESPIEGLE",
            "csv_id": 9401,
            "video_name": "DIVERS_BOOK_ESPIEGLE_AD_03_0001"
        },
        {
            "name": "8059",
            "score": "0.984",
            "index": 26,
            "selectedWords": [
                "\u00e9vidente",
                "prouv\u00e9e",
                "s\u00fbre"
            ],
            "freeResponses": [],
            "nbPlayClick": 2,
            "expression": "NEUTRE",
            "csv_id": 8093,
            "video_name": "DIVERS_PARL_AD_01_0004"
        },
        {
            "name": "11016",
            "score": "0.994",
            "index": 27,
            "selectedWords": [
                "d\u00e9termin\u00e9e",
                "r\u00e9fl\u00e9chie",
                "nette",
                "officielle"
            ],
            "freeResponses": [],
            "nbPlayClick": 1,
            "response": "off",
            "expression": "NEUTRE",
            "csv_id": 11050,
            "video_name": "DIVERS_PARL_AD_03_0003"
        },
        {
            "name": "886",
            "score": "0.851",
            "index": 28,
            "selectedWords": [
                "suppliante",
                "implorante",
                "accabl\u00e9e"
            ],
            "freeResponses": [],
            "nbPlayClick": 1,
            "expression": "SUPPLIANT",
            "csv_id": 886,
            "video_name": "DIVERS_PARL_SUPPLIANT_AD_02_0001"
        },
        {
            "name": "8633",
            "score": "0.987",
            "index": 29,
            "selectedWords": [
                "neutre",
                "autre",
                "imp\u00e9n\u00e9trable",
                "autre",
                "autre",
                "autre",
                "autre",
                "autre",
                "autre",
                "autre",
                "autre",
                "autre",
                "autre",
                "autre",
                "autre",
                "autre",
                "autre",
                "autre",
                "autre",
                "autre",
                "\u00e9loquente"
            ],
            "freeResponses": [],
            "nbPlayClick": 4,
            "expression": "NEUTRE",
            "csv_id": 8667,
            "video_name": "DIVERS_BOOK_AD_03_0001"
        },
        {
            "name": "7500",
            "score": "0.982",
            "index": 30,
            "selectedWords": [
                "enthousiaste",
                "agit\u00e9e",
                "emball\u00e9e"
            ],
            "freeResponses": [],
            "nbPlayClick": 1,
            "expression": "ENTHOUSIASTE",
            "csv_id": 7534,
            "video_name": "DIVERS_BOOK_ENTHOUSIASTE_AD_01_0004"
        },
        {
            "name": "10692",
            "score": "0.994",
            "index": 31,
            "selectedWords": [
                "enthousiaste",
                "exalt\u00e9e",
                "bouillonnante"
            ],
            "freeResponses": [],
            "nbPlayClick": 1,
            "expression": "ENTHOUSIASTE",
            "csv_id": 10726,
            "video_name": "DIVERS_PARL_ENTHOUSIASTE_AD_02_0001"
        },
        {
            "name": "10329",
            "score": "0.993",
            "index": 32,
            "selectedWords": [
                "en col\u00e8re",
                "\u00e9nerv\u00e9e",
                "m\u00e9contente",
                "indign\u00e9e",
                "m\u00e9dus\u00e9e"
            ],
            "freeResponses": [],
            "nbPlayClick": 1,
            "expression": "COLERE",
            "csv_id": 10363,
            "video_name": "DIVERS_PARL_COLERE_AD_01_0003"
        },
        {
            "name": "6758",
            "score": "0.978",
            "index": 33,
            "selectedWords": [
                "neutre",
                "notoire"
            ],
            "freeResponses": [],
            "nbPlayClick": 1,
            "expression": "NEUTRE",
            "csv_id": 6792,
            "video_name": "DIVERS_PARL_AD_02_0002"
        },
        {
            "name": "682",
            "score": "0.830",
            "index": 34,
            "selectedWords": [
                "enthousiaste",
                "tonique"
            ],
            "freeResponses": [],
            "nbPlayClick": 1,
            "expression": "ENTHOUSIASTE",
            "csv_id": 682,
            "video_name": "DIVERS_PARL_ENTHOUSIASTE_AD_02_0001"
        },
        {
            "name": "6515",
            "score": "0.977",
            "index": 35,
            "selectedWords": [
                "\u00e9vidente",
                "incontestable",
                "certaine",
                "s\u00fbre"
            ],
            "freeResponses": [],
            "nbPlayClick": 1,
            "expression": "NEUTRE",
            "csv_id": 6549,
            "video_name": "DIVERS_PARL_AD_04_0002"
        },
        {
            "name": "10823",
            "score": "0.994",
            "index": 36,
            "selectedWords": [
                "enthousiaste",
                "neutre"
            ],
            "freeResponses": [],
            "nbPlayClick": 2,
            "response": "neutr",
            "expression": "NEUTRE",
            "csv_id": 10857,
            "video_name": "DIVERS_BOOK_AD_04_0001"
        },
        {
            "name": "7946",
            "score": "0.984",
            "index": 37,
            "selectedWords": [
                "d\u00e9termin\u00e9e",
                "hargneuse",
                "m\u00e9contente",
                "ferme",
                "sinc\u00e8re",
                "agressive"
            ],
            "freeResponses": [],
            "nbPlayClick": 3,
            "expression": "COLERE",
            "csv_id": 7980,
            "video_name": "DIVERS_PARL_COLERE_AD_01_0003"
        },
        {
            "name": "12393",
            "score": "0.999",
            "index": 38,
            "selectedWords": [
                "\u00e9vidente",
                "incontestable"
            ],
            "freeResponses": [],
            "nbPlayClick": 1,
            "expression": "NEUTRE",
            "csv_id": 12430,
            "video_name": "DIVERS_BOOK_AD_04_0002"
        },
        {
            "name": "8800",
            "score": "0.987",
            "index": 39,
            "selectedWords": [
                "\u00e9tonn\u00e9e",
                "coquine"
            ],
            "freeResponses": [],
            "nbPlayClick": 3,
            "expression": "INCREDULE",
            "csv_id": 8834,
            "video_name": "DIVERS_BOOK_INCREDULE_AD_01_0001"
        },
        {
            "name": "10401",
            "score": "0.993",
            "index": 40,
            "selectedWords": [
                "d\u00e9termin\u00e9e",
                "r\u00e9solue",
                "passionn\u00e9e",
                "emball\u00e9e",
                "encourageante",
                "stimulante"
            ],
            "freeResponses": [],
            "nbPlayClick": 1,
            "expression": "ENTHOUSIASTE",
            "csv_id": 10435,
            "video_name": "DIVERS_PARL_ENTHOUSIASTE_AD_01_0003"
        },
        {
            "name": "2784",
            "score": "0.934",
            "index": 41,
            "selectedWords": [
                "espi\u00e8gle",
                "ferme",
                "d\u00e9concert\u00e9e"
            ],
            "freeResponses": [],
            "nbPlayClick": 2,
            "response": "d",
            "expression": "DETERMINE",
            "csv_id": 2784,
            "video_name": "DIVERS_BOOK_DETERMINE_AD_03_0001"
        },
        {
            "name": "7841",
            "score": "0.984",
            "index": 42,
            "selectedWords": [
                "apaisante",
                "reconstituante"
            ],
            "freeResponses": [],
            "nbPlayClick": 2,
            "expression": "NEUTRE",
            "csv_id": 7875,
            "video_name": "DIVERS_BOOK_AD_01_0002"
        },
        {
            "name": "11609",
            "score": "0.996",
            "index": 43,
            "selectedWords": [
                "r\u00e9fl\u00e9chie",
                "infaillible",
                "irr\u00e9cusable"
            ],
            "freeResponses": [],
            "nbPlayClick": 2,
            "response": "r",
            "expression": "SUPPLIANT",
            "csv_id": 11646,
            "video_name": "DIVERS_PARL_SUPPLIANT_AD_02_0002"
        },
        {
            "name": "11474",
            "score": "0.996",
            "index": 44,
            "selectedWords": [
                "incr\u00e9dule",
                "dubitative",
                "sceptique",
                "r\u00e9fl\u00e9chie"
            ],
            "freeResponses": [],
            "nbPlayClick": 3,
            "expression": "NEUTRE",
            "csv_id": 11511,
            "video_name": "DIVERS_PARL_AD_03_0002"
        },
        {
            "name": "6817",
            "score": "0.979",
            "index": 45,
            "selectedWords": [
                "suppliante",
                "implorante"
            ],
            "freeResponses": [],
            "nbPlayClick": 2,
            "expression": "SUPPLIANT",
            "csv_id": 6851,
            "video_name": "DIVERS_PARL_SUPPLIANT_AD_02_0002"
        },
        {
            "name": "12250",
            "score": "0.998",
            "index": 46,
            "selectedWords": [
                "neutre",
                "s\u00fbre",
                "prouv\u00e9e",
                "ind\u00e9niable"
            ],
            "freeResponses": [],
            "nbPlayClick": 2,
            "expression": "NEUTRE",
            "csv_id": 12287,
            "video_name": "DIVERS_PARL_AD_02_0004"
        },
        {
            "name": "2127",
            "score": "0.916",
            "index": 47,
            "selectedWords": [
                "incr\u00e9dule",
                "m\u00e9fiante"
            ],
            "freeResponses": [],
            "nbPlayClick": 1,
            "expression": "INCREDULE",
            "csv_id": 2127,
            "video_name": "DIVERS_BOOK_INCREDULE_AD_01_0001"
        },
        {
            "name": "567",
            "score": "0.816",
            "index": 48,
            "selectedWords": [
                "pensive",
                "songeuse",
                "pensante"
            ],
            "freeResponses": [],
            "nbPlayClick": 6,
            "expression": "PENSIF",
            "csv_id": 567,
            "video_name": "DIVERS_BOOK_PENSIF_AD_03_0002"
        },
        {
            "name": "4713",
            "score": "0.963",
            "index": 49,
            "selectedWords": [
                "accabl\u00e9e",
                "attrist\u00e9e",
                "pein\u00e9e",
                "nette",
                "certaine",
                "in\u00e9branlable"
            ],
            "freeResponses": [],
            "nbPlayClick": 1,
            "expression": "SUPPLIANT",
            "csv_id": 4747,
            "video_name": "DIVERS_PARL_SUPPLIANT_AD_02_0002"
        },
        {
            "name": "6953",
            "score": "0.979",
            "index": 50,
            "selectedWords": [
                "enthousiaste",
                "autre",
                "autre",
                "autre",
                "autre",
                "autre",
                "stimulante",
                "encourageante",
                "entreprenante",
                "opini\u00e2tre"
            ],
            "freeResponses": [],
            "nbPlayClick": 2,
            "expression": "NEUTRE",
            "csv_id": 6987,
            "video_name": "DIVERS_PARL_AD_05_0003"
        },
        {
            "name": "7049",
            "score": "0.980",
            "index": 51,
            "selectedWords": [
                "attrist\u00e9e",
                "contrari\u00e9e",
                "d\u00e9courag\u00e9e",
                "perplexe"
            ],
            "freeResponses": [],
            "nbPlayClick": 1,
            "expression": "RECONFORTANT",
            "csv_id": 7083,
            "video_name": "DIVERS_PARL_RECONFORTANT_AD_02_0001"
        },
        {
            "name": "12362",
            "score": "0.999",
            "index": 52,
            "selectedWords": [
                "enthousiaste",
                "autre",
                "implorante"
            ],
            "freeResponses": [],
            "nbPlayClick": 1,
            "expression": "ETONNE",
            "csv_id": 12399,
            "video_name": "DIVERS_PARL_ETONNE_AD_01_0001"
        },
        {
            "name": "7079",
            "score": "0.980",
            "index": 53,
            "selectedWords": [
                "neutre",
                "certaine",
                "autre",
                "autre",
                "inexpressive",
                "autre",
                "autre",
                "autre",
                "incontestable"
            ],
            "freeResponses": [],
            "nbPlayClick": 2,
            "expression": "NEUTRE",
            "csv_id": 7113,
            "video_name": "DIVERS_PARL_AD_06_0002"
        },
        {
            "name": "8620",
            "score": "0.987",
            "index": 54,
            "selectedWords": [
                "certaine",
                "notoire",
                "ferme",
                "r\u00e9fl\u00e9chie"
            ],
            "freeResponses": [],
            "nbPlayClick": 2,
            "expression": "NEUTRE",
            "csv_id": 8654,
            "video_name": "DIVERS_PARL_AD_05_0004"
        },
        {
            "name": "12395",
            "score": "0.999",
            "index": 55,
            "selectedWords": [
                "\u00e9tonn\u00e9e",
                "abasourdie",
                "h\u00e9b\u00e9t\u00e9e",
                "stup\u00e9faite",
                "confuse"
            ],
            "freeResponses": [],
            "nbPlayClick": 1,
            "expression": "ETONNE",
            "csv_id": 12432,
            "video_name": "DIVERS_BOOK_ETONNE_AD_01_0002"
        },
        {
            "name": "9986",
            "score": "0.992",
            "index": 56,
            "selectedWords": [
                "enthousiaste",
                "tonique",
                "euphorique"
            ],
            "freeResponses": [],
            "nbPlayClick": 3,
            "response": "eup",
            "expression": "ETONNE",
            "csv_id": 10020,
            "video_name": "DIVERS_BOOK_ETONNE_AD_03_0001"
        },
        {
            "name": "11329",
            "score": "0.995",
            "index": 57,
            "selectedWords": [
                "d\u00e9termin\u00e9e",
                "r\u00e9fl\u00e9chie",
                "certaine"
            ],
            "freeResponses": [],
            "nbPlayClick": 1,
            "expression": "NEUTRE",
            "csv_id": 11363,
            "video_name": "DIVERS_PARL_AD_03_0003"
        },
        {
            "name": "4010",
            "score": "0.954",
            "index": 58,
            "selectedWords": [
                "en col\u00e8re",
                "irrit\u00e9e",
                "d\u00e9cid\u00e9e",
                "entreprenante",
                "passionn\u00e9e"
            ],
            "freeResponses": [],
            "nbPlayClick": 1,
            "expression": "COLERE",
            "csv_id": 4010,
            "video_name": "DIVERS_PARL_COLERE_AD_01_0003"
        },
        {
            "name": "10913",
            "score": "0.994",
            "index": 59,
            "selectedWords": [
                "neutre",
                "ferme",
                "nette",
                "indubitable",
                "infaillible"
            ],
            "freeResponses": [],
            "nbPlayClick": 2,
            "expression": "NEUTRE",
            "csv_id": 10947,
            "video_name": "DIVERS_PARL_AD_03_0003"
        }
    ],
    "training": [
        {
            "name": "77",
            "score": "0.639",
            "index": 0,
            "selectedWords": [
                "neutre",
                "\u00e9vidente",
                "autre",
                "autre",
                "inexpressive"
            ],
            "freeResponses": [],
            "nbPlayClick": 3,
            "expression": "NEUTRE"
        }
    ],
    "filenameDate": "2023-10-15_2-27"
}