{
    "user": {
        "isProlific": true,
        "id": "5e39d6b9679e67200018c3a7",
        "session": "6573213baac3f65adc9e1ab1",
        "study": "64ef977375f88e4e1174dce0"
    },
    "userAgent": "Mozilla/5.0 (Windows NT 10.0; Win64; x64) AppleWebKit/537.36 (KHTML, like Gecko) Chrome/120.0.0.0 Safari/537.36",
    "landingDate": "2023-12-08T13:59:31.698Z",
    "startDate": "2023-12-08T14:01:01.237Z",
    "endDate": "2023-12-08T14:13:46.008Z",
    "reviews": [
        {
            "name": "5464",
            "score": "0.970",
            "index": 0,
            "selectedWords": [
                "\u00e9vidente",
                "indubitable"
            ],
            "freeResponses": [],
            "nbPlayClick": 1,
            "expression": "COLERE",
            "csv_id": 5498,
            "video_name": "DIVERS_PARL_COLERE_AD_01_0003"
        },
        {
            "name": "2335",
            "score": "0.922",
            "index": 1,
            "selectedWords": [
                "en col\u00e8re",
                "hargneuse"
            ],
            "freeResponses": [],
            "nbPlayClick": 1,
            "expression": "COLERE",
            "csv_id": 2335,
            "video_name": "DIVERS_PARL_COLERE_AD_01_0003"
        },
        {
            "name": "4026",
            "score": "0.954",
            "index": 2,
            "selectedWords": [
                "espi\u00e8gle",
                "fac\u00e9tieuse"
            ],
            "freeResponses": [],
            "nbPlayClick": 1,
            "expression": "ENTHOUSIASTE",
            "csv_id": 4026,
            "video_name": "DIVERS_PARL_ENTHOUSIASTE_AD_02_0001"
        },
        {
            "name": "4340",
            "score": "0.958",
            "index": 3,
            "selectedWords": [
                "\u00e9vidente",
                "manifeste"
            ],
            "freeResponses": [],
            "nbPlayClick": 2,
            "expression": "NEUTRE",
            "csv_id": 4340,
            "video_name": "DIVERS_PARL_AD_03_0002"
        },
        {
            "name": "3021",
            "score": "0.939",
            "index": 4,
            "selectedWords": [
                "autre",
                "autre",
                "autre",
                "priante",
                "m\u00e9ditative"
            ],
            "freeResponses": [],
            "nbPlayClick": 1,
            "expression": "RECONFORTANT",
            "csv_id": 3021,
            "video_name": "DIVERS_BOOK_RECONFORTANT_AD_03_0002"
        },
        {
            "name": "8959",
            "score": "0.988",
            "index": 5,
            "selectedWords": [
                "d\u00e9sol\u00e9e",
                "nette"
            ],
            "freeResponses": [],
            "nbPlayClick": 3,
            "expression": "NEUTRE",
            "csv_id": 8993,
            "video_name": "DIVERS_PARL_AD_02_0001"
        },
        {
            "name": "3012",
            "score": "0.939",
            "index": 6,
            "selectedWords": [
                "neutre",
                "limpide"
            ],
            "freeResponses": [],
            "nbPlayClick": 1,
            "expression": "NEUTRE",
            "csv_id": 3012,
            "video_name": "DIVERS_PARL_AD_06_0002"
        },
        {
            "name": "4701",
            "score": "0.963",
            "index": 7,
            "selectedWords": [
                "incr\u00e9dule",
                "convaincue"
            ],
            "freeResponses": [],
            "nbPlayClick": 1,
            "expression": "DETERMINE",
            "csv_id": 4735,
            "video_name": "DIVERS_PARL_DETERMINE_AD_01_0002"
        },
        {
            "name": "9407",
            "score": "0.990",
            "index": 8,
            "selectedWords": [
                "\u00e9vidente",
                "irr\u00e9cusable"
            ],
            "freeResponses": [],
            "nbPlayClick": 1,
            "expression": "NEUTRE",
            "csv_id": 9441,
            "video_name": "DIVERS_BOOK_AD_04_0002"
        },
        {
            "name": "997",
            "score": "0.861",
            "index": 9,
            "selectedWords": [
                "enthousiaste",
                "confuse"
            ],
            "freeResponses": [],
            "nbPlayClick": 1,
            "expression": "ETONNE",
            "csv_id": 997,
            "video_name": "ESTYLE_ETONNE_AD_02_0001"
        },
        {
            "name": "12381",
            "score": "0.999",
            "index": 10,
            "selectedWords": [
                "pensive",
                "m\u00e9ditative"
            ],
            "freeResponses": [],
            "nbPlayClick": 1,
            "expression": "NEUTRE",
            "csv_id": 12418,
            "video_name": "DIVERS_BOOK_AD_03_0001"
        },
        {
            "name": "7102",
            "score": "0.980",
            "index": 11,
            "selectedWords": [
                "neutre",
                "limpide"
            ],
            "freeResponses": [],
            "nbPlayClick": 2,
            "expression": "COLERE",
            "csv_id": 7136,
            "video_name": "DIVERS_PARL_COLERE_AD_01_0003"
        },
        {
            "name": "11630",
            "score": "0.996",
            "index": 12,
            "selectedWords": [
                "\u00e9vidente",
                "patente"
            ],
            "freeResponses": [],
            "nbPlayClick": 1,
            "expression": "NEUTRE",
            "csv_id": 11667,
            "video_name": "DIVERS_BOOK_AD_04_0001"
        },
        {
            "name": "11332",
            "score": "0.995",
            "index": 13,
            "selectedWords": [
                "neutre",
                "notoire"
            ],
            "freeResponses": [],
            "nbPlayClick": 1,
            "expression": "NEUTRE",
            "csv_id": 11366,
            "video_name": "DIVERS_PARL_AD_01_0006"
        },
        {
            "name": "1976",
            "score": "0.911",
            "index": 14,
            "selectedWords": [
                "enthousiaste",
                "tonique"
            ],
            "freeResponses": [],
            "nbPlayClick": 1,
            "expression": "DETERMINE",
            "csv_id": 1976,
            "video_name": "DIVERS_PARL_DETERMINE_AD_01_0004"
        },
        {
            "name": "11853",
            "score": "0.997",
            "index": 15,
            "selectedWords": [
                "incr\u00e9dule",
                "sinc\u00e8re"
            ],
            "freeResponses": [],
            "nbPlayClick": 1,
            "expression": "NEUTRE",
            "csv_id": 11890,
            "video_name": "DIVERS_BOOK_AD_01_0001"
        },
        {
            "name": "9586",
            "score": "0.990",
            "index": 16,
            "selectedWords": [
                "pensive",
                "songeuse"
            ],
            "freeResponses": [],
            "nbPlayClick": 1,
            "expression": "SUPPLIANT",
            "csv_id": 9620,
            "video_name": "DIVERS_PARL_SUPPLIANT_AD_02_0001"
        },
        {
            "name": "2071",
            "score": "0.914",
            "index": 17,
            "selectedWords": [
                "neutre",
                "s\u00fbre"
            ],
            "freeResponses": [],
            "nbPlayClick": 1,
            "expression": "DESOLE",
            "csv_id": 2071,
            "video_name": "DIVERS_PARL_DESOLE_AD_01_0004"
        },
        {
            "name": "8107",
            "score": "0.985",
            "index": 18,
            "selectedWords": [
                "enthousiaste",
                "\u00e9loquente"
            ],
            "freeResponses": [],
            "nbPlayClick": 1,
            "expression": "NEUTRE",
            "csv_id": 8141,
            "video_name": "DIVERS_PARL_AD_03_0001"
        },
        {
            "name": "3262",
            "score": "0.943",
            "index": 19,
            "selectedWords": [
                "neutre",
                "notoire"
            ],
            "freeResponses": [],
            "nbPlayClick": 1,
            "expression": "NEUTRE",
            "csv_id": 3262,
            "video_name": "DIVERS_PARL_AD_06_0004"
        },
        {
            "name": "9334",
            "score": "0.989",
            "index": 20,
            "selectedWords": [
                "pensive",
                "r\u00e9fl\u00e9chie"
            ],
            "freeResponses": [],
            "nbPlayClick": 1,
            "expression": "DESOLE",
            "csv_id": 9368,
            "video_name": "DIVERS_PARL_DESOLE_AD_01_0004"
        },
        {
            "name": "7556",
            "score": "0.982",
            "index": 21,
            "selectedWords": [
                "suppliante",
                "implorante"
            ],
            "freeResponses": [],
            "nbPlayClick": 1,
            "expression": "SUPPLIANT",
            "csv_id": 7590,
            "video_name": "DIVERS_PARL_SUPPLIANT_AD_02_0001"
        },
        {
            "name": "11169",
            "score": "0.995",
            "index": 22,
            "selectedWords": [
                "neutre",
                "limpide"
            ],
            "freeResponses": [],
            "nbPlayClick": 1,
            "expression": "NEUTRE",
            "csv_id": 11203,
            "video_name": "DIVERS_PARL_AD_01_0004"
        },
        {
            "name": "11118",
            "score": "0.995",
            "index": 23,
            "selectedWords": [
                "suppliante",
                "larmoyante"
            ],
            "freeResponses": [],
            "nbPlayClick": 1,
            "expression": "SUPPLIANT",
            "csv_id": 11152,
            "video_name": "DIVERS_BOOK_SUPPLIANT_AD_01_0002"
        },
        {
            "name": "579",
            "score": "0.817",
            "index": 24,
            "selectedWords": [
                "espi\u00e8gle",
                "malicieuse"
            ],
            "freeResponses": [],
            "nbPlayClick": 1,
            "expression": "EVIDENCE",
            "csv_id": 579,
            "video_name": "DIVERS_PARL_EVIDENCE_AD_01_0001"
        },
        {
            "name": "12274",
            "score": "0.998",
            "index": 25,
            "selectedWords": [
                "pensive",
                "songeuse"
            ],
            "freeResponses": [],
            "nbPlayClick": 1,
            "expression": "PENSIF",
            "csv_id": 12311,
            "video_name": "DIVERS_BOOK_PENSIF_AD_03_0002"
        },
        {
            "name": "11961",
            "score": "0.997",
            "index": 26,
            "selectedWords": [
                "neutre",
                "patente"
            ],
            "freeResponses": [],
            "nbPlayClick": 1,
            "expression": "NEUTRE",
            "csv_id": 11998,
            "video_name": "DIVERS_PARL_AD_02_0002"
        },
        {
            "name": "10195",
            "score": "0.992",
            "index": 27,
            "selectedWords": [
                "neutre",
                "notoire"
            ],
            "freeResponses": [],
            "nbPlayClick": 1,
            "expression": "NEUTRE",
            "csv_id": 10229,
            "video_name": "DIVERS_BOOK_AD_01_0001"
        },
        {
            "name": "3405",
            "score": "0.945",
            "index": 28,
            "selectedWords": [
                "r\u00e9confortante",
                "apaisante"
            ],
            "freeResponses": [],
            "nbPlayClick": 1,
            "expression": "RECONFORTANT",
            "csv_id": 3405,
            "video_name": "DIVERS_BOOK_RECONFORTANT_AD_01_0004"
        },
        {
            "name": "11342",
            "score": "0.995",
            "index": 29,
            "selectedWords": [
                "en col\u00e8re",
                "autre",
                "imp\u00e9n\u00e9trable"
            ],
            "freeResponses": [],
            "nbPlayClick": 1,
            "expression": "DETERMINE",
            "csv_id": 11376,
            "video_name": "DIVERS_PARL_DETERMINE_AD_01_0004"
        },
        {
            "name": "9007",
            "score": "0.988",
            "index": 30,
            "selectedWords": [
                "neutre",
                "s\u00fbre"
            ],
            "freeResponses": [],
            "nbPlayClick": 1,
            "expression": "NEUTRE",
            "csv_id": 9041,
            "video_name": "DIVERS_PARL_AD_04_0001"
        },
        {
            "name": "270",
            "score": "0.753",
            "index": 31,
            "selectedWords": [
                "espi\u00e8gle",
                "mutine"
            ],
            "freeResponses": [],
            "nbPlayClick": 1,
            "expression": "DETERMINE",
            "csv_id": 270,
            "video_name": "ESTYLE_DETERMINE_AD_02_0001"
        },
        {
            "name": "1505",
            "score": "0.891",
            "index": 32,
            "selectedWords": [
                "espi\u00e8gle",
                "autre",
                "autre",
                "vivifiante"
            ],
            "freeResponses": [],
            "nbPlayClick": 1,
            "expression": "ENTHOUSIASTE",
            "csv_id": 1505,
            "video_name": "DIVERS_PARL_ENTHOUSIASTE_AD_01_0003"
        },
        {
            "name": "12382",
            "score": "0.999",
            "index": 33,
            "selectedWords": [
                "neutre",
                "patente"
            ],
            "freeResponses": [],
            "nbPlayClick": 1,
            "expression": "NEUTRE",
            "csv_id": 12419,
            "video_name": "DIVERS_BOOK_AD_04_0001"
        },
        {
            "name": "3634",
            "score": "0.949",
            "index": 34,
            "selectedWords": [
                "neutre",
                "certaine"
            ],
            "freeResponses": [],
            "nbPlayClick": 1,
            "expression": "NEUTRE",
            "csv_id": 3634,
            "video_name": "DIVERS_PARL_AD_03_0003"
        },
        {
            "name": "6137",
            "score": "0.975",
            "index": 35,
            "selectedWords": [
                "pensive",
                "transport\u00e9e"
            ],
            "freeResponses": [],
            "nbPlayClick": 1,
            "expression": "NEUTRE",
            "csv_id": 6171,
            "video_name": "DIVERS_PARL_AD_02_0002"
        },
        {
            "name": "2987",
            "score": "0.938",
            "index": 36,
            "selectedWords": [
                "en col\u00e8re",
                "autre",
                "autre",
                "autre",
                "autre",
                "incontestable"
            ],
            "freeResponses": [],
            "nbPlayClick": 1,
            "expression": "NEUTRE",
            "csv_id": 2987,
            "video_name": "DIVERS_PARL_AD_04_0002"
        },
        {
            "name": "8194",
            "score": "0.985",
            "index": 37,
            "selectedWords": [
                "en col\u00e8re",
                "hargneuse"
            ],
            "freeResponses": [],
            "nbPlayClick": 1,
            "expression": "COLERE",
            "csv_id": 8228,
            "video_name": "DIVERS_PARL_COLERE_AD_01_0003"
        },
        {
            "name": "11515",
            "score": "0.996",
            "index": 38,
            "selectedWords": [
                "d\u00e9sol\u00e9e",
                "absente"
            ],
            "freeResponses": [],
            "nbPlayClick": 2,
            "expression": "NEUTRE",
            "csv_id": 11552,
            "video_name": "DIVERS_PARL_AD_02_0001"
        },
        {
            "name": "9652",
            "score": "0.990",
            "index": 39,
            "selectedWords": [
                "neutre",
                "limpide"
            ],
            "freeResponses": [],
            "nbPlayClick": 1,
            "expression": "NEUTRE",
            "csv_id": 9686,
            "video_name": "DIVERS_PARL_AD_03_0002"
        },
        {
            "name": "11783",
            "score": "0.996",
            "index": 40,
            "selectedWords": [
                "pensive",
                "r\u00eaveuse"
            ],
            "freeResponses": [],
            "nbPlayClick": 1,
            "expression": "PENSIF",
            "csv_id": 11820,
            "video_name": "DIVERS_PARL_PENSIF_AD_01_0002"
        },
        {
            "name": "4780",
            "score": "0.964",
            "index": 41,
            "selectedWords": [
                "neutre",
                "patente"
            ],
            "freeResponses": [],
            "nbPlayClick": 1,
            "expression": "NEUTRE",
            "csv_id": 4814,
            "video_name": "DIVERS_PARL_AD_04_0004"
        },
        {
            "name": "5089",
            "score": "0.967",
            "index": 42,
            "selectedWords": [
                "\u00e9vidente",
                "prouv\u00e9e"
            ],
            "freeResponses": [],
            "nbPlayClick": 1,
            "expression": "NEUTRE",
            "csv_id": 5123,
            "video_name": "DIVERS_PARL_AD_03_0004"
        },
        {
            "name": "5291",
            "score": "0.968",
            "index": 43,
            "selectedWords": [
                "neutre",
                "s\u00fbre"
            ],
            "freeResponses": [],
            "nbPlayClick": 1,
            "expression": "DESOLE",
            "csv_id": 5325,
            "video_name": "DIVERS_PARL_DESOLE_AD_02_0002"
        },
        {
            "name": "10896",
            "score": "0.994",
            "index": 44,
            "selectedWords": [
                "espi\u00e8gle",
                "fac\u00e9tieuse"
            ],
            "freeResponses": [],
            "nbPlayClick": 1,
            "expression": "ETONNE",
            "csv_id": 10930,
            "video_name": "DIVERS_BOOK_ETONNE_AD_03_0001"
        },
        {
            "name": "5357",
            "score": "0.969",
            "index": 45,
            "selectedWords": [
                "suppliante",
                "mendiante"
            ],
            "freeResponses": [],
            "nbPlayClick": 1,
            "expression": "SUPPLIANT",
            "csv_id": 5391,
            "video_name": "DIVERS_BOOK_SUPPLIANT_AD_01_0002"
        },
        {
            "name": "5966",
            "score": "0.974",
            "index": 46,
            "selectedWords": [
                "neutre",
                "notoire"
            ],
            "freeResponses": [],
            "nbPlayClick": 1,
            "expression": "NEUTRE",
            "csv_id": 6000,
            "video_name": "DIVERS_PARL_AD_06_0002"
        },
        {
            "name": "8960",
            "score": "0.988",
            "index": 47,
            "selectedWords": [
                "neutre",
                "certaine"
            ],
            "freeResponses": [],
            "nbPlayClick": 3,
            "expression": "NEUTRE",
            "csv_id": 8994,
            "video_name": "DIVERS_PARL_AD_03_0001"
        },
        {
            "name": "10006",
            "score": "0.992",
            "index": 48,
            "selectedWords": [
                "neutre",
                "limpide"
            ],
            "freeResponses": [],
            "nbPlayClick": 1,
            "expression": "NEUTRE",
            "csv_id": 10040,
            "video_name": "DIVERS_PARL_AD_01_0002"
        },
        {
            "name": "5248",
            "score": "0.968",
            "index": 49,
            "selectedWords": [
                "neutre",
                "limpide"
            ],
            "freeResponses": [],
            "nbPlayClick": 1,
            "expression": "NEUTRE",
            "csv_id": 5282,
            "video_name": "DIVERS_PARL_AD_01_0000"
        },
        {
            "name": "2920",
            "score": "0.937",
            "index": 50,
            "selectedWords": [
                "suppliante",
                "prostern\u00e9e"
            ],
            "freeResponses": [],
            "nbPlayClick": 2,
            "expression": "SUPPLIANT",
            "csv_id": 2920,
            "video_name": "DIVERS_PARL_SUPPLIANT_AD_02_0001"
        },
        {
            "name": "5496",
            "score": "0.970",
            "index": 51,
            "selectedWords": [
                "neutre",
                "patente"
            ],
            "freeResponses": [],
            "nbPlayClick": 1,
            "expression": "DESOLE",
            "csv_id": 5530,
            "video_name": "DIVERS_PARL_DESOLE_AD_02_0002"
        },
        {
            "name": "977",
            "score": "0.859",
            "index": 52,
            "selectedWords": [
                "espi\u00e8gle",
                "narquoise"
            ],
            "freeResponses": [],
            "nbPlayClick": 1,
            "expression": "EVIDENCE",
            "csv_id": 977,
            "video_name": "DIVERS_PARL_EVIDENCE_AD_01_0001"
        },
        {
            "name": "6142",
            "score": "0.975",
            "index": 53,
            "selectedWords": [
                "en col\u00e8re",
                "irrit\u00e9e"
            ],
            "freeResponses": [],
            "nbPlayClick": 2,
            "expression": "COLERE",
            "csv_id": 6176,
            "video_name": "DIVERS_PARL_COLERE_AD_01_0003"
        },
        {
            "name": "2432",
            "score": "0.925",
            "index": 54,
            "selectedWords": [
                "pensive",
                "r\u00e9fl\u00e9chissante"
            ],
            "freeResponses": [],
            "nbPlayClick": 1,
            "expression": "PENSIF",
            "csv_id": 2432,
            "video_name": "DIVERS_PARL_PENSIF_AD_01_0002"
        },
        {
            "name": "11360",
            "score": "0.995",
            "index": 55,
            "selectedWords": [
                "enthousiaste",
                "triomphale"
            ],
            "freeResponses": [],
            "nbPlayClick": 1,
            "expression": "ESPIEGLE",
            "csv_id": 11394,
            "video_name": "DIVERS_BOOK_ESPIEGLE_AD_03_0001"
        },
        {
            "name": "3230",
            "score": "0.942",
            "index": 56,
            "selectedWords": [
                "neutre",
                "notoire"
            ],
            "freeResponses": [],
            "nbPlayClick": 1,
            "expression": "NEUTRE",
            "csv_id": 3230,
            "video_name": "DIVERS_PARL_AD_01_0001"
        },
        {
            "name": "10076",
            "score": "0.992",
            "index": 57,
            "selectedWords": [
                "neutre",
                "certaine"
            ],
            "freeResponses": [],
            "nbPlayClick": 1,
            "expression": "NEUTRE",
            "csv_id": 10110,
            "video_name": "DIVERS_PARL_AD_04_0001"
        },
        {
            "name": "9605",
            "score": "0.990",
            "index": 58,
            "selectedWords": [
                "neutre",
                "certaine"
            ],
            "freeResponses": [],
            "nbPlayClick": 1,
            "expression": "NEUTRE",
            "csv_id": 9639,
            "video_name": "DIVERS_PARL_AD_03_0001"
        },
        {
            "name": "8819",
            "score": "0.988",
            "index": 59,
            "selectedWords": [
                "en col\u00e8re",
                "en rogne"
            ],
            "freeResponses": [],
            "nbPlayClick": 1,
            "expression": "COLERE",
            "csv_id": 8853,
            "video_name": "DIVERS_PARL_COLERE_AD_01_0004"
        }
    ],
    "training": [
        {
            "name": "77",
            "score": "0.639",
            "index": 0,
            "selectedWords": [
                "d\u00e9termin\u00e9e",
                "r\u00e9fl\u00e9chie",
                "infaillible"
            ],
            "freeResponses": [],
            "nbPlayClick": 3,
            "expression": "NEUTRE"
        }
    ],
    "filenameDate": "2023-12-08_15-13"
}