{
    "user": {
        "isProlific": true,
        "id": "5e655c05fb6cbb2e3381428a",
        "session": "65db8a85ef0fc1b46e723c1a",
        "study": "64ef977375f88e4e1174dce0"
    },
    "userAgent": "Mozilla/5.0 (Windows NT 10.0; Win64; x64; rv:123.0) Gecko/20100101 Firefox/123.0",
    "landingDate": "2024-02-25T18:44:38.844Z",
    "startDate": "2024-02-25T18:48:23.231Z",
    "endDate": "2024-02-25T19:12:59.926Z",
    "reviews": [
        {
            "name": "11037",
            "score": "0.994",
            "index": 0,
            "selectedWords": [
                "neutre",
                "nette"
            ],
            "freeResponses": [],
            "nbPlayClick": 2,
            "expression": "NEUTRE",
            "csv_id": 11071,
            "video_name": "DIVERS_PARL_AD_03_0002"
        },
        {
            "name": "7369",
            "score": "0.981",
            "index": 1,
            "selectedWords": [
                "\u00e9tonn\u00e9e",
                "autre",
                "dubitative",
                "m\u00e9fiante"
            ],
            "freeResponses": [],
            "nbPlayClick": 1,
            "expression": "PENSIF",
            "csv_id": 7403,
            "video_name": "DIVERS_PARL_PENSIF_AD_01_0002"
        },
        {
            "name": "12156",
            "score": "0.998",
            "index": 2,
            "selectedWords": [
                "\u00e9tonn\u00e9e",
                "autre",
                "\u00e9berlu\u00e9e",
                "abasourdie",
                "stup\u00e9faite",
                "autre",
                "autre",
                "autre",
                "autre"
            ],
            "freeResponses": [],
            "nbPlayClick": 1,
            "expression": "ETONNE",
            "csv_id": 12193,
            "video_name": "DIVERS_BOOK_ETONNE_AD_01_0004"
        },
        {
            "name": "9719",
            "score": "0.991",
            "index": 3,
            "selectedWords": [
                "en col\u00e8re",
                "\u00e9nerv\u00e9e",
                "m\u00e9contente",
                "autre",
                "autre",
                "autre",
                "autre",
                "autre"
            ],
            "freeResponses": [],
            "nbPlayClick": 1,
            "expression": "COLERE",
            "csv_id": 9753,
            "video_name": "DIVERS_PARL_COLERE_AD_02_0002"
        },
        {
            "name": "11309",
            "score": "0.995",
            "index": 4,
            "selectedWords": [
                "d\u00e9termin\u00e9e",
                "r\u00e9solue",
                "convaincue",
                "s\u00fbre",
                "certaine"
            ],
            "freeResponses": [],
            "nbPlayClick": 1,
            "expression": "DETERMINE",
            "csv_id": 11343,
            "video_name": "DIVERS_PARL_DETERMINE_AD_01_0004"
        },
        {
            "name": "8775",
            "score": "0.987",
            "index": 5,
            "selectedWords": [
                "neutre",
                "autre",
                "autre",
                "autre",
                "autre",
                "autre",
                "apaisante"
            ],
            "freeResponses": [],
            "nbPlayClick": 1,
            "expression": "NEUTRE",
            "csv_id": 8809,
            "video_name": "DIVERS_BOOK_AD_03_0001"
        },
        {
            "name": "7245",
            "score": "0.981",
            "index": 6,
            "selectedWords": [
                "enthousiaste",
                "autre",
                "autre",
                "autre",
                "autre",
                "d\u00e9cid\u00e9e"
            ],
            "freeResponses": [],
            "nbPlayClick": 1,
            "expression": "NEUTRE",
            "csv_id": 7279,
            "video_name": "DIVERS_PARL_AD_02_0003"
        },
        {
            "name": "7461",
            "score": "0.982",
            "index": 7,
            "selectedWords": [
                "d\u00e9termin\u00e9e",
                "r\u00e9solue",
                "autre",
                "autre",
                "autre"
            ],
            "freeResponses": [],
            "nbPlayClick": 1,
            "expression": "NEUTRE",
            "csv_id": 7495,
            "video_name": "DIVERS_PARL_AD_06_0001"
        },
        {
            "name": "3988",
            "score": "0.954",
            "index": 8,
            "selectedWords": [
                "autre",
                "fac\u00e9tieuse",
                "autre",
                "opini\u00e2tre",
                "sceptique",
                "froide"
            ],
            "freeResponses": [],
            "nbPlayClick": 1,
            "expression": "INCREDULE",
            "csv_id": 3988,
            "video_name": "DIVERS_PARL_INCREDULE_AD_02_0003"
        },
        {
            "name": "6382",
            "score": "0.976",
            "index": 9,
            "selectedWords": [
                "pensive",
                "r\u00eaveuse",
                "autre",
                "autre",
                "apaisante"
            ],
            "freeResponses": [],
            "nbPlayClick": 1,
            "expression": "RECONFORTANT",
            "csv_id": 6416,
            "video_name": "DIVERS_BOOK_RECONFORTANT_AD_01_0002"
        },
        {
            "name": "5664",
            "score": "0.971",
            "index": 10,
            "selectedWords": [
                "neutre",
                "autre",
                "autre",
                "inexpressive"
            ],
            "freeResponses": [],
            "nbPlayClick": 1,
            "expression": "NEUTRE",
            "csv_id": 5698,
            "video_name": "DIVERS_PARL_AD_04_0004"
        },
        {
            "name": "9339",
            "score": "0.989",
            "index": 11,
            "selectedWords": [
                "neutre",
                "autre",
                "autre",
                "inexpressive"
            ],
            "freeResponses": [],
            "nbPlayClick": 1,
            "expression": "NEUTRE",
            "csv_id": 9373,
            "video_name": "DIVERS_BOOK_AD_04_0002"
        },
        {
            "name": "9860",
            "score": "0.991",
            "index": 12,
            "selectedWords": [
                "autre",
                "autre",
                "autre",
                "attrist\u00e9e",
                "en peine",
                "malheureuse",
                "autre",
                "autre",
                "autre"
            ],
            "freeResponses": [],
            "nbPlayClick": 1,
            "expression": "DESOLE",
            "csv_id": 9894,
            "video_name": "DIVERS_BOOK_DESOLE_AD_03_0002"
        },
        {
            "name": "11856",
            "score": "0.997",
            "index": 13,
            "selectedWords": [
                "d\u00e9termin\u00e9e",
                "r\u00e9solue",
                "passionn\u00e9e",
                "autre",
                "autre",
                "autre"
            ],
            "freeResponses": [],
            "nbPlayClick": 1,
            "expression": "SUPPLIANT",
            "csv_id": 11893,
            "video_name": "DIVERS_PARL_SUPPLIANT_AD_02_0002"
        },
        {
            "name": "10835",
            "score": "0.994",
            "index": 14,
            "selectedWords": [
                "enthousiaste",
                "autre",
                "autre",
                "autre",
                "autre",
                "d\u00e9cid\u00e9e",
                "autre"
            ],
            "freeResponses": [],
            "nbPlayClick": 1,
            "expression": "NEUTRE",
            "csv_id": 10869,
            "video_name": "DIVERS_PARL_AD_01_0005"
        },
        {
            "name": "3454",
            "score": "0.946",
            "index": 15,
            "selectedWords": [
                "enthousiaste",
                "coquine",
                "autre",
                "vivifiante",
                "autre",
                "autre"
            ],
            "freeResponses": [],
            "nbPlayClick": 1,
            "expression": "ENTHOUSIASTE",
            "csv_id": 3454,
            "video_name": "DIVERS_PARL_ENTHOUSIASTE_AD_01_0003"
        },
        {
            "name": "3633",
            "score": "0.949",
            "index": 16,
            "selectedWords": [
                "incr\u00e9dule",
                "m\u00e9fiante",
                "autre",
                "implorante"
            ],
            "freeResponses": [],
            "nbPlayClick": 2,
            "expression": "EVIDENCE",
            "csv_id": 3633,
            "video_name": "DIVERS_BOOK_EVIDENCE_AD_01_0002"
        },
        {
            "name": "8408",
            "score": "0.986",
            "index": 17,
            "selectedWords": [
                "neutre",
                "certaine"
            ],
            "freeResponses": [],
            "nbPlayClick": 1,
            "expression": "NEUTRE",
            "csv_id": 8442,
            "video_name": "DIVERS_PARL_AD_05_0002"
        },
        {
            "name": "12369",
            "score": "0.999",
            "index": 18,
            "selectedWords": [
                "pensive",
                "r\u00e9fl\u00e9chissante"
            ],
            "freeResponses": [],
            "nbPlayClick": 1,
            "expression": "PENSIF",
            "csv_id": 12406,
            "video_name": "DIVERS_PARL_PENSIF_AD_01_0002"
        },
        {
            "name": "4607",
            "score": "0.962",
            "index": 19,
            "selectedWords": [
                "r\u00e9confortante",
                "consolatrice"
            ],
            "freeResponses": [],
            "nbPlayClick": 1,
            "expression": "RECONFORTANT",
            "csv_id": 4641,
            "video_name": "DIVERS_BOOK_RECONFORTANT_AD_03_0002"
        },
        {
            "name": "5246",
            "score": "0.968",
            "index": 20,
            "selectedWords": [
                "neutre",
                "certaine"
            ],
            "freeResponses": [],
            "nbPlayClick": 1,
            "expression": "NEUTRE",
            "csv_id": 5280,
            "video_name": "DIVERS_PARL_AD_02_0004"
        },
        {
            "name": "10006",
            "score": "0.992",
            "index": 21,
            "selectedWords": [
                "enthousiaste",
                "autre",
                "autre",
                "autre",
                "apaisante"
            ],
            "freeResponses": [],
            "nbPlayClick": 1,
            "expression": "NEUTRE",
            "csv_id": 10040,
            "video_name": "DIVERS_PARL_AD_01_0002"
        },
        {
            "name": "10182",
            "score": "0.992",
            "index": 22,
            "selectedWords": [
                "\u00e9tonn\u00e9e",
                "autre",
                "autre",
                "\u00e9bahie",
                "abasourdie",
                "perplexe"
            ],
            "freeResponses": [],
            "nbPlayClick": 1,
            "expression": "ETONNE",
            "csv_id": 10216,
            "video_name": "DIVERS_BOOK_ETONNE_AD_01_0002"
        },
        {
            "name": "10821",
            "score": "0.994",
            "index": 23,
            "selectedWords": [
                "neutre",
                "certaine"
            ],
            "freeResponses": [],
            "nbPlayClick": 1,
            "expression": "NEUTRE",
            "csv_id": 10855,
            "video_name": "DIVERS_BOOK_AD_03_0001"
        },
        {
            "name": "2127",
            "score": "0.916",
            "index": 24,
            "selectedWords": [
                "incr\u00e9dule",
                "m\u00e9fiante"
            ],
            "freeResponses": [],
            "nbPlayClick": 1,
            "expression": "INCREDULE",
            "csv_id": 2127,
            "video_name": "DIVERS_BOOK_INCREDULE_AD_01_0001"
        },
        {
            "name": "8760",
            "score": "0.987",
            "index": 25,
            "selectedWords": [
                "d\u00e9termin\u00e9e",
                "r\u00e9solue",
                "d\u00e9cid\u00e9e",
                "s\u00fbre",
                "certaine"
            ],
            "freeResponses": [],
            "nbPlayClick": 1,
            "expression": "NEUTRE",
            "csv_id": 8794,
            "video_name": "DIVERS_PARL_AD_03_0001"
        },
        {
            "name": "10373",
            "score": "0.993",
            "index": 26,
            "selectedWords": [
                "neutre",
                "certaine"
            ],
            "freeResponses": [],
            "nbPlayClick": 1,
            "expression": "NEUTRE",
            "csv_id": 10407,
            "video_name": "DIVERS_BOOK_AD_04_0002"
        },
        {
            "name": "7128",
            "score": "0.980",
            "index": 27,
            "selectedWords": [
                "\u00e9vidente",
                "incontestable"
            ],
            "freeResponses": [],
            "nbPlayClick": 1,
            "expression": "NEUTRE",
            "csv_id": 7162,
            "video_name": "DIVERS_PARL_AD_06_0001"
        },
        {
            "name": "10620",
            "score": "0.993",
            "index": 28,
            "selectedWords": [
                "neutre",
                "certaine"
            ],
            "freeResponses": [],
            "nbPlayClick": 1,
            "expression": "NEUTRE",
            "csv_id": 10654,
            "video_name": "DIVERS_PARL_AD_05_0002"
        },
        {
            "name": "8709",
            "score": "0.987",
            "index": 29,
            "selectedWords": [
                "en col\u00e8re",
                "\u00e9nerv\u00e9e",
                "f\u00e2ch\u00e9e",
                "indign\u00e9e"
            ],
            "freeResponses": [],
            "nbPlayClick": 1,
            "expression": "COLERE",
            "csv_id": 8743,
            "video_name": "DIVERS_PARL_COLERE_AD_01_0003"
        },
        {
            "name": "11426",
            "score": "0.995",
            "index": 30,
            "selectedWords": [
                "neutre",
                "limpide"
            ],
            "freeResponses": [],
            "nbPlayClick": 1,
            "expression": "NEUTRE",
            "csv_id": 11463,
            "video_name": "DIVERS_PARL_AD_02_0004"
        },
        {
            "name": "12288",
            "score": "0.998",
            "index": 31,
            "selectedWords": [
                "pensive",
                "r\u00e9fl\u00e9chissante",
                "pensante",
                "autre"
            ],
            "freeResponses": [],
            "nbPlayClick": 1,
            "expression": "PENSIF",
            "csv_id": 12325,
            "video_name": "DIVERS_BOOK_PENSIF_AD_03_0002"
        },
        {
            "name": "7256",
            "score": "0.981",
            "index": 32,
            "selectedWords": [
                "d\u00e9termin\u00e9e",
                "r\u00e9solue"
            ],
            "freeResponses": [],
            "nbPlayClick": 1,
            "expression": "NEUTRE",
            "csv_id": 7290,
            "video_name": "DIVERS_PARL_AD_03_0002"
        },
        {
            "name": "7097",
            "score": "0.980",
            "index": 33,
            "selectedWords": [
                "suppliante",
                "prostern\u00e9e",
                "autre",
                "autre"
            ],
            "freeResponses": [],
            "nbPlayClick": 1,
            "expression": "EVIDENCE",
            "csv_id": 7131,
            "video_name": "DIVERS_BOOK_EVIDENCE_AD_01_0002"
        },
        {
            "name": "5156",
            "score": "0.967",
            "index": 34,
            "selectedWords": [
                "enthousiaste",
                "euphorique",
                "excit\u00e9e",
                "ardente",
                "s\u00fbre",
                "certaine"
            ],
            "freeResponses": [],
            "nbPlayClick": 1,
            "expression": "ENTHOUSIASTE",
            "csv_id": 5190,
            "video_name": "DIVERS_PARL_ENTHOUSIASTE_AD_01_0003"
        },
        {
            "name": "12220",
            "score": "0.998",
            "index": 35,
            "selectedWords": [
                "neutre",
                "s\u00fbre"
            ],
            "freeResponses": [],
            "nbPlayClick": 1,
            "expression": "NEUTRE",
            "csv_id": 12257,
            "video_name": "DIVERS_PARL_AD_04_0001"
        },
        {
            "name": "7614",
            "score": "0.983",
            "index": 36,
            "selectedWords": [
                "en col\u00e8re",
                "irrit\u00e9e",
                "m\u00e9contente",
                "indign\u00e9e"
            ],
            "freeResponses": [],
            "nbPlayClick": 1,
            "expression": "COLERE",
            "csv_id": 7648,
            "video_name": "DIVERS_PARL_COLERE_AD_01_0003"
        },
        {
            "name": "7929",
            "score": "0.984",
            "index": 37,
            "selectedWords": [
                "suppliante",
                "implorante",
                "sinc\u00e8re"
            ],
            "freeResponses": [],
            "nbPlayClick": 1,
            "expression": "EVIDENCE",
            "csv_id": 7963,
            "video_name": "DIVERS_PARL_EVIDENCE_AD_01_0001"
        },
        {
            "name": "7124",
            "score": "0.980",
            "index": 38,
            "selectedWords": [
                "neutre",
                "certaine"
            ],
            "freeResponses": [],
            "nbPlayClick": 1,
            "expression": "DETERMINE",
            "csv_id": 7158,
            "video_name": "DIVERS_PARL_DETERMINE_AD_01_0002"
        },
        {
            "name": "9154",
            "score": "0.989",
            "index": 39,
            "selectedWords": [
                "neutre",
                "certaine"
            ],
            "freeResponses": [],
            "nbPlayClick": 1,
            "expression": "NEUTRE",
            "csv_id": 9188,
            "video_name": "DIVERS_BOOK_AD_01_0001"
        },
        {
            "name": "10879",
            "score": "0.994",
            "index": 40,
            "selectedWords": [
                "neutre",
                "autre",
                "autre",
                "inexpressive"
            ],
            "freeResponses": [],
            "nbPlayClick": 1,
            "expression": "NEUTRE",
            "csv_id": 10913,
            "video_name": "DIVERS_PARL_AD_04_0003"
        },
        {
            "name": "10897",
            "score": "0.994",
            "index": 41,
            "selectedWords": [
                "suppliante",
                "implorante",
                "\u00e9loquente",
                "autre"
            ],
            "freeResponses": [],
            "nbPlayClick": 1,
            "expression": "SUPPLIANT",
            "csv_id": 10931,
            "video_name": "DIVERS_PARL_SUPPLIANT_AD_02_0001"
        },
        {
            "name": "7626",
            "score": "0.983",
            "index": 42,
            "selectedWords": [
                "suppliante",
                "priante",
                "sinc\u00e8re"
            ],
            "freeResponses": [],
            "nbPlayClick": 1,
            "expression": "SUPPLIANT",
            "csv_id": 7660,
            "video_name": "DIVERS_BOOK_SUPPLIANT_AD_01_0002"
        },
        {
            "name": "8084",
            "score": "0.985",
            "index": 43,
            "selectedWords": [
                "neutre",
                "certaine"
            ],
            "freeResponses": [],
            "nbPlayClick": 1,
            "expression": "NEUTRE",
            "csv_id": 8118,
            "video_name": "DIVERS_BOOK_AD_03_0002"
        },
        {
            "name": "7677",
            "score": "0.983",
            "index": 44,
            "selectedWords": [
                "neutre",
                "certaine"
            ],
            "freeResponses": [],
            "nbPlayClick": 1,
            "expression": "NEUTRE",
            "csv_id": 7711,
            "video_name": "DIVERS_PARL_AD_03_0001"
        },
        {
            "name": "3284",
            "score": "0.943",
            "index": 45,
            "selectedWords": [
                "d\u00e9termin\u00e9e",
                "manifeste",
                "convaincue"
            ],
            "freeResponses": [],
            "nbPlayClick": 1,
            "expression": "INCREDULE",
            "csv_id": 3284,
            "video_name": "DIVERS_PARL_INCREDULE_AD_02_0003"
        },
        {
            "name": "9304",
            "score": "0.989",
            "index": 46,
            "selectedWords": [
                "\u00e9vidente",
                "indubitable",
                "certaine",
                "officielle",
                "\u00e9loquente"
            ],
            "freeResponses": [],
            "nbPlayClick": 2,
            "expression": "NEUTRE",
            "csv_id": 9338,
            "video_name": "DIVERS_PARL_AD_01_0001"
        },
        {
            "name": "10839",
            "score": "0.994",
            "index": 47,
            "selectedWords": [
                "neutre",
                "certaine"
            ],
            "freeResponses": [],
            "nbPlayClick": 1,
            "expression": "NEUTRE",
            "csv_id": 10873,
            "video_name": "DIVERS_PARL_AD_02_0002"
        },
        {
            "name": "9458",
            "score": "0.990",
            "index": 48,
            "selectedWords": [
                "neutre",
                "certaine"
            ],
            "freeResponses": [],
            "nbPlayClick": 1,
            "expression": "NEUTRE",
            "csv_id": 9492,
            "video_name": "DIVERS_PARL_AD_05_0003"
        },
        {
            "name": "7933",
            "score": "0.984",
            "index": 49,
            "selectedWords": [
                "enthousiaste",
                "euphorique",
                "excit\u00e9e",
                "passionn\u00e9e",
                "agit\u00e9e"
            ],
            "freeResponses": [],
            "nbPlayClick": 1,
            "expression": "ENTHOUSIASTE",
            "csv_id": 7967,
            "video_name": "DIVERS_BOOK_ENTHOUSIASTE_AD_01_0004"
        },
        {
            "name": "10273",
            "score": "0.992",
            "index": 50,
            "selectedWords": [
                "neutre",
                "certaine"
            ],
            "freeResponses": [],
            "nbPlayClick": 1,
            "expression": "NEUTRE",
            "csv_id": 10307,
            "video_name": "DIVERS_PARL_AD_05_0003"
        },
        {
            "name": "9355",
            "score": "0.989",
            "index": 51,
            "selectedWords": [
                "neutre",
                "certaine"
            ],
            "freeResponses": [],
            "nbPlayClick": 1,
            "expression": "NEUTRE",
            "csv_id": 9389,
            "video_name": "DIVERS_PARL_AD_02_0004"
        },
        {
            "name": "10634",
            "score": "0.993",
            "index": 52,
            "selectedWords": [
                "en col\u00e8re",
                "en rage",
                "enrag\u00e9e",
                "autre",
                "autre",
                "autre",
                "autre"
            ],
            "freeResponses": [],
            "nbPlayClick": 1,
            "expression": "COLERE",
            "csv_id": 10668,
            "video_name": "DIVERS_PARL_COLERE_AD_02_0002"
        },
        {
            "name": "1999",
            "score": "0.912",
            "index": 53,
            "selectedWords": [
                "neutre",
                "certaine"
            ],
            "freeResponses": [],
            "nbPlayClick": 1,
            "expression": "NEUTRE",
            "csv_id": 1999,
            "video_name": "DIVERS_BOOK_AD_04_0002"
        },
        {
            "name": "3560",
            "score": "0.948",
            "index": 54,
            "selectedWords": [
                "neutre",
                "certaine"
            ],
            "freeResponses": [],
            "nbPlayClick": 1,
            "expression": "NEUTRE",
            "csv_id": 3560,
            "video_name": "DIVERS_BOOK_AD_03_0002"
        },
        {
            "name": "8041",
            "score": "0.984",
            "index": 55,
            "selectedWords": [
                "pensive",
                "r\u00e9fl\u00e9chie",
                "autre"
            ],
            "freeResponses": [],
            "nbPlayClick": 1,
            "expression": "NEUTRE",
            "csv_id": 8075,
            "video_name": "DIVERS_PARL_AD_04_0001"
        },
        {
            "name": "10025",
            "score": "0.992",
            "index": 56,
            "selectedWords": [
                "neutre",
                "certaine"
            ],
            "freeResponses": [],
            "nbPlayClick": 1,
            "expression": "NEUTRE",
            "csv_id": 10059,
            "video_name": "DIVERS_BOOK_AD_01_0002"
        },
        {
            "name": "4471",
            "score": "0.960",
            "index": 57,
            "selectedWords": [
                "autre",
                "autre",
                "autre",
                "attrist\u00e9e",
                "en peine",
                "malheureuse"
            ],
            "freeResponses": [],
            "nbPlayClick": 1,
            "expression": "DESOLE",
            "csv_id": 4505,
            "video_name": "DIVERS_BOOK_DESOLE_AD_03_0002"
        },
        {
            "name": "8480",
            "score": "0.986",
            "index": 58,
            "selectedWords": [
                "neutre",
                "certaine"
            ],
            "freeResponses": [],
            "nbPlayClick": 1,
            "expression": "NEUTRE",
            "csv_id": 8514,
            "video_name": "DIVERS_PARL_AD_06_0002"
        },
        {
            "name": "11318",
            "score": "0.995",
            "index": 59,
            "selectedWords": [
                "neutre",
                "certaine"
            ],
            "freeResponses": [],
            "nbPlayClick": 1,
            "expression": "NEUTRE",
            "csv_id": 11352,
            "video_name": "DIVERS_PARL_AD_04_0004"
        }
    ],
    "training": [
        {
            "name": "77",
            "score": "0.639",
            "index": 0,
            "selectedWords": [
                "neutre",
                "certaine"
            ],
            "freeResponses": [],
            "nbPlayClick": 2,
            "expression": "NEUTRE"
        }
    ],
    "filenameDate": "2024-02-25_13-12"
}