{
    "user": {
        "isProlific": true,
        "id": "5e6617541d7e1a3885c45e85",
        "session": "64f10ca4a275ec9642b0ab79",
        "study": "64ef977375f88e4e1174dce0"
    },
    "userAgent": "Mozilla/5.0 (Windows NT 10.0; Win64; x64) AppleWebKit/537.36 (KHTML, like Gecko) Chrome/116.0.0.0 Safari/537.36",
    "landingDate": "2023-08-31T21:57:13.884Z",
    "startDate": "2023-08-31T22:00:32.606Z",
    "endDate": "2023-08-31T22:11:44.053Z",
    "reviews": [
        {
            "name": "10637",
            "score": "0.993",
            "index": 0,
            "selectedWords": [
                "d\u00e9termin\u00e9e",
                "r\u00e9solue"
            ],
            "freeResponses": [],
            "nbPlayClick": 1,
            "expression": "NEUTRE",
            "csv_id": 10671,
            "video_name": "DIVERS_BOOK_AD_04_0001"
        },
        {
            "name": "10709",
            "score": "0.994",
            "index": 1,
            "selectedWords": [
                "d\u00e9termin\u00e9e",
                "r\u00e9solue"
            ],
            "freeResponses": [],
            "nbPlayClick": 1,
            "expression": "NEUTRE",
            "csv_id": 10743,
            "video_name": "DIVERS_PARL_AD_04_0003"
        },
        {
            "name": "4588",
            "score": "0.962",
            "index": 2,
            "selectedWords": [
                "\u00e9vidente",
                "incontestable"
            ],
            "freeResponses": [],
            "nbPlayClick": 1,
            "expression": "NEUTRE",
            "csv_id": 4622,
            "video_name": "DIVERS_PARL_AD_02_0002"
        },
        {
            "name": "4904",
            "score": "0.965",
            "index": 3,
            "selectedWords": [
                "espi\u00e8gle",
                "malicieuse"
            ],
            "freeResponses": [],
            "nbPlayClick": 1,
            "expression": "RECONFORTANT",
            "csv_id": 4938,
            "video_name": "DIVERS_BOOK_RECONFORTANT_AD_01_0002"
        },
        {
            "name": "7589",
            "score": "0.982",
            "index": 4,
            "selectedWords": [
                "d\u00e9termin\u00e9e",
                "r\u00e9solue"
            ],
            "freeResponses": [],
            "nbPlayClick": 1,
            "expression": "NEUTRE",
            "csv_id": 7623,
            "video_name": "DIVERS_BOOK_AD_01_0001"
        },
        {
            "name": "11616",
            "score": "0.996",
            "index": 5,
            "selectedWords": [
                "suppliante",
                "larmoyante"
            ],
            "freeResponses": [],
            "nbPlayClick": 1,
            "expression": "SUPPLIANT",
            "csv_id": 11653,
            "video_name": "DIVERS_BOOK_SUPPLIANT_AD_01_0004"
        },
        {
            "name": "11202",
            "score": "0.995",
            "index": 6,
            "selectedWords": [
                "d\u00e9termin\u00e9e",
                "r\u00e9fl\u00e9chie"
            ],
            "freeResponses": [],
            "nbPlayClick": 1,
            "expression": "NEUTRE",
            "csv_id": 11236,
            "video_name": "DIVERS_BOOK_AD_03_0002"
        },
        {
            "name": "4285",
            "score": "0.958",
            "index": 7,
            "selectedWords": [
                "suppliante",
                "implorante"
            ],
            "freeResponses": [],
            "nbPlayClick": 1,
            "expression": "NEUTRE",
            "csv_id": 4285,
            "video_name": "DIVERS_PARL_AD_04_0001"
        },
        {
            "name": "1622",
            "score": "0.897",
            "index": 8,
            "selectedWords": [
                "\u00e9vidente",
                "manifeste"
            ],
            "freeResponses": [],
            "nbPlayClick": 1,
            "expression": "NEUTRE",
            "csv_id": 1622,
            "video_name": "DIVERS_BOOK_AD_01_0001"
        },
        {
            "name": "6042",
            "score": "0.974",
            "index": 9,
            "selectedWords": [
                "d\u00e9termin\u00e9e",
                "agit\u00e9e"
            ],
            "freeResponses": [],
            "nbPlayClick": 1,
            "expression": "EVIDENCE",
            "csv_id": 6076,
            "video_name": "DIVERS_BOOK_EVIDENCE_AD_01_0002"
        },
        {
            "name": "6438",
            "score": "0.976",
            "index": 10,
            "selectedWords": [
                "\u00e9vidente",
                "prouv\u00e9e"
            ],
            "freeResponses": [],
            "nbPlayClick": 1,
            "expression": "NEUTRE",
            "csv_id": 6472,
            "video_name": "DIVERS_BOOK_AD_04_0001"
        },
        {
            "name": "3798",
            "score": "0.951",
            "index": 11,
            "selectedWords": [
                "d\u00e9termin\u00e9e",
                "r\u00e9solue"
            ],
            "freeResponses": [],
            "nbPlayClick": 1,
            "expression": "NEUTRE",
            "csv_id": 3798,
            "video_name": "DIVERS_PARL_AD_03_0003"
        },
        {
            "name": "3897",
            "score": "0.953",
            "index": 12,
            "selectedWords": [
                "espi\u00e8gle",
                "narquoise"
            ],
            "freeResponses": [],
            "nbPlayClick": 1,
            "expression": "NEUTRE",
            "csv_id": 3897,
            "video_name": "DIVERS_PARL_AD_04_0004"
        },
        {
            "name": "7122",
            "score": "0.980",
            "index": 13,
            "selectedWords": [
                "espi\u00e8gle",
                "malicieuse"
            ],
            "freeResponses": [],
            "nbPlayClick": 1,
            "expression": "INCREDULE",
            "csv_id": 7156,
            "video_name": "DIVERS_PARL_INCREDULE_AD_02_0003"
        },
        {
            "name": "11056",
            "score": "0.994",
            "index": 14,
            "selectedWords": [
                "\u00e9tonn\u00e9e",
                "nette"
            ],
            "freeResponses": [],
            "nbPlayClick": 1,
            "expression": "ETONNE",
            "csv_id": 11090,
            "video_name": "DIVERS_BOOK_ETONNE_AD_03_0001"
        },
        {
            "name": "5420",
            "score": "0.969",
            "index": 15,
            "selectedWords": [
                "\u00e9tonn\u00e9e",
                "sinc\u00e8re"
            ],
            "freeResponses": [],
            "nbPlayClick": 1,
            "expression": "NEUTRE",
            "csv_id": 5454,
            "video_name": "DIVERS_PARL_AD_02_0001"
        },
        {
            "name": "4987",
            "score": "0.966",
            "index": 16,
            "selectedWords": [
                "d\u00e9termin\u00e9e",
                "r\u00e9solue"
            ],
            "freeResponses": [],
            "nbPlayClick": 1,
            "expression": "NEUTRE",
            "csv_id": 5021,
            "video_name": "DIVERS_PARL_AD_03_0002"
        },
        {
            "name": "459",
            "score": "0.797",
            "index": 17,
            "selectedWords": [
                "espi\u00e8gle",
                "narquoise"
            ],
            "freeResponses": [],
            "nbPlayClick": 1,
            "expression": "RECONFORTANT",
            "csv_id": 459,
            "video_name": "DIVERS_BOOK_RECONFORTANT_AD_01_0002"
        },
        {
            "name": "11519",
            "score": "0.996",
            "index": 18,
            "selectedWords": [
                "pensive",
                "m\u00e9ditative"
            ],
            "freeResponses": [],
            "nbPlayClick": 1,
            "expression": "NEUTRE",
            "csv_id": 11556,
            "video_name": "DIVERS_PARL_AD_04_0001"
        },
        {
            "name": "7393",
            "score": "0.981",
            "index": 19,
            "selectedWords": [
                "neutre",
                "limpide"
            ],
            "freeResponses": [],
            "nbPlayClick": 1,
            "expression": "NEUTRE",
            "csv_id": 7427,
            "video_name": "DIVERS_BOOK_AD_04_0001"
        },
        {
            "name": "11457",
            "score": "0.996",
            "index": 20,
            "selectedWords": [
                "incr\u00e9dule",
                "convaincue"
            ],
            "freeResponses": [],
            "nbPlayClick": 1,
            "expression": "NEUTRE",
            "csv_id": 11494,
            "video_name": "DIVERS_PARL_AD_06_0003"
        },
        {
            "name": "9267",
            "score": "0.989",
            "index": 21,
            "selectedWords": [
                "neutre",
                "limpide"
            ],
            "freeResponses": [],
            "nbPlayClick": 1,
            "expression": "NEUTRE",
            "csv_id": 9301,
            "video_name": "DIVERS_BOOK_AD_03_0002"
        },
        {
            "name": "3913",
            "score": "0.953",
            "index": 22,
            "selectedWords": [
                "\u00e9vidente",
                "incontestable"
            ],
            "freeResponses": [],
            "nbPlayClick": 2,
            "expression": "NEUTRE",
            "csv_id": 3913,
            "video_name": "DIVERS_BOOK_AD_01_0002"
        },
        {
            "name": "9643",
            "score": "0.990",
            "index": 23,
            "selectedWords": [
                "\u00e9vidente",
                "indubitable"
            ],
            "freeResponses": [],
            "nbPlayClick": 1,
            "expression": "ENTHOUSIASTE",
            "csv_id": 9677,
            "video_name": "DIVERS_PARL_ENTHOUSIASTE_AD_02_0001"
        },
        {
            "name": "10662",
            "score": "0.994",
            "index": 24,
            "selectedWords": [
                "incr\u00e9dule",
                "indiscutable"
            ],
            "freeResponses": [],
            "nbPlayClick": 1,
            "expression": "NEUTRE",
            "csv_id": 10696,
            "video_name": "DIVERS_PARL_AD_02_0004"
        },
        {
            "name": "5179",
            "score": "0.967",
            "index": 25,
            "selectedWords": [
                "\u00e9vidente",
                "incontestable"
            ],
            "freeResponses": [],
            "nbPlayClick": 1,
            "expression": "NEUTRE",
            "csv_id": 5213,
            "video_name": "DIVERS_PARL_AD_01_0004"
        },
        {
            "name": "11472",
            "score": "0.996",
            "index": 26,
            "selectedWords": [
                "espi\u00e8gle",
                "malicieuse"
            ],
            "freeResponses": [],
            "nbPlayClick": 1,
            "expression": "ESPIEGLE",
            "csv_id": 11509,
            "video_name": "DIVERS_PARL_ESPIEGLE_AD_01_0001"
        },
        {
            "name": "1469",
            "score": "0.889",
            "index": 27,
            "selectedWords": [
                "\u00e9vidente",
                "prouv\u00e9e"
            ],
            "freeResponses": [],
            "nbPlayClick": 1,
            "expression": "NEUTRE",
            "csv_id": 1469,
            "video_name": "DIVERS_BOOK_AD_01_0002"
        },
        {
            "name": "9180",
            "score": "0.989",
            "index": 28,
            "selectedWords": [
                "neutre",
                "s\u00fbre"
            ],
            "freeResponses": [],
            "nbPlayClick": 1,
            "expression": "NEUTRE",
            "csv_id": 9214,
            "video_name": "DIVERS_BOOK_AD_03_0001"
        },
        {
            "name": "8874",
            "score": "0.988",
            "index": 29,
            "selectedWords": [
                "\u00e9vidente",
                "incontestable"
            ],
            "freeResponses": [],
            "nbPlayClick": 1,
            "expression": "NEUTRE",
            "csv_id": 8908,
            "video_name": "DIVERS_PARL_AD_06_0004"
        },
        {
            "name": "10905",
            "score": "0.994",
            "index": 30,
            "selectedWords": [
                "en col\u00e8re",
                "irrit\u00e9e"
            ],
            "freeResponses": [],
            "nbPlayClick": 1,
            "expression": "NEUTRE",
            "csv_id": 10939,
            "video_name": "DIVERS_PARL_AD_01_0005"
        },
        {
            "name": "5703",
            "score": "0.972",
            "index": 31,
            "selectedWords": [
                "d\u00e9sol\u00e9e",
                "r\u00e9fl\u00e9chie"
            ],
            "freeResponses": [],
            "nbPlayClick": 1,
            "expression": "SUPPLIANT",
            "csv_id": 5737,
            "video_name": "DIVERS_BOOK_SUPPLIANT_AD_01_0002"
        },
        {
            "name": "3208",
            "score": "0.942",
            "index": 32,
            "selectedWords": [
                "en col\u00e8re",
                "en rage"
            ],
            "freeResponses": [],
            "nbPlayClick": 1,
            "expression": "COLERE",
            "csv_id": 3208,
            "video_name": "DIVERS_PARL_COLERE_AD_01_0003"
        },
        {
            "name": "9736",
            "score": "0.991",
            "index": 33,
            "selectedWords": [
                "en col\u00e8re",
                "courrouc\u00e9e"
            ],
            "freeResponses": [],
            "nbPlayClick": 1,
            "expression": "COLERE",
            "csv_id": 9770,
            "video_name": "DIVERS_PARL_COLERE_AD_02_0002"
        },
        {
            "name": "12135",
            "score": "0.997",
            "index": 34,
            "selectedWords": [
                "neutre",
                "certaine"
            ],
            "freeResponses": [],
            "nbPlayClick": 1,
            "expression": "NEUTRE",
            "csv_id": 12172,
            "video_name": "DIVERS_BOOK_AD_03_0002"
        },
        {
            "name": "12167",
            "score": "0.998",
            "index": 35,
            "selectedWords": [
                "pensive",
                "r\u00eaveuse"
            ],
            "freeResponses": [],
            "nbPlayClick": 1,
            "expression": "PENSIF",
            "csv_id": 12204,
            "video_name": "DIVERS_PARL_PENSIF_AD_01_0002"
        },
        {
            "name": "6246",
            "score": "0.975",
            "index": 36,
            "selectedWords": [
                "incr\u00e9dule",
                "convaincue"
            ],
            "freeResponses": [],
            "nbPlayClick": 1,
            "expression": "EVIDENCE",
            "csv_id": 6280,
            "video_name": "DIVERS_BOOK_EVIDENCE_AD_01_0002"
        },
        {
            "name": "7124",
            "score": "0.980",
            "index": 37,
            "selectedWords": [
                "\u00e9vidente",
                "incontestable"
            ],
            "freeResponses": [],
            "nbPlayClick": 1,
            "expression": "DETERMINE",
            "csv_id": 7158,
            "video_name": "DIVERS_PARL_DETERMINE_AD_01_0002"
        },
        {
            "name": "6257",
            "score": "0.975",
            "index": 38,
            "selectedWords": [
                "neutre",
                "limpide"
            ],
            "freeResponses": [],
            "nbPlayClick": 1,
            "expression": "DESOLE",
            "csv_id": 6291,
            "video_name": "DIVERS_BOOK_DESOLE_AD_03_0002"
        },
        {
            "name": "8633",
            "score": "0.987",
            "index": 39,
            "selectedWords": [
                "\u00e9vidente",
                "irr\u00e9cusable"
            ],
            "freeResponses": [],
            "nbPlayClick": 1,
            "expression": "NEUTRE",
            "csv_id": 8667,
            "video_name": "DIVERS_BOOK_AD_03_0001"
        },
        {
            "name": "8457",
            "score": "0.986",
            "index": 40,
            "selectedWords": [
                "d\u00e9sol\u00e9e",
                "transport\u00e9e"
            ],
            "freeResponses": [],
            "nbPlayClick": 1,
            "expression": "DESOLE",
            "csv_id": 8491,
            "video_name": "DIVERS_PARL_DESOLE_AD_02_0002"
        },
        {
            "name": "9203",
            "score": "0.989",
            "index": 41,
            "selectedWords": [
                "\u00e9vidente",
                "incontestable"
            ],
            "freeResponses": [],
            "nbPlayClick": 1,
            "expression": "DETERMINE",
            "csv_id": 9237,
            "video_name": "DIVERS_PARL_DETERMINE_AD_01_0002"
        },
        {
            "name": "6112",
            "score": "0.975",
            "index": 42,
            "selectedWords": [
                "\u00e9vidente",
                "incontestable"
            ],
            "freeResponses": [],
            "nbPlayClick": 1,
            "expression": "DETERMINE",
            "csv_id": 6146,
            "video_name": "DIVERS_PARL_DETERMINE_AD_01_0002"
        },
        {
            "name": "6974",
            "score": "0.979",
            "index": 43,
            "selectedWords": [
                "\u00e9vidente",
                "incontestable"
            ],
            "freeResponses": [],
            "nbPlayClick": 1,
            "expression": "NEUTRE",
            "csv_id": 7008,
            "video_name": "DIVERS_PARL_AD_06_0001"
        },
        {
            "name": "11763",
            "score": "0.996",
            "index": 44,
            "selectedWords": [
                "\u00e9tonn\u00e9e",
                "r\u00e9fl\u00e9chie"
            ],
            "freeResponses": [],
            "nbPlayClick": 1,
            "expression": "NEUTRE",
            "csv_id": 11800,
            "video_name": "DIVERS_PARL_AD_02_0001"
        },
        {
            "name": "3889",
            "score": "0.953",
            "index": 45,
            "selectedWords": [
                "\u00e9tonn\u00e9e",
                "absente"
            ],
            "freeResponses": [],
            "nbPlayClick": 1,
            "expression": "ENTHOUSIASTE",
            "csv_id": 3889,
            "video_name": "ESTYLE_ENTHOUSIASTE_AD_02_0001"
        },
        {
            "name": "7335",
            "score": "0.981",
            "index": 46,
            "selectedWords": [
                "r\u00e9confortante",
                "reconstituante"
            ],
            "freeResponses": [],
            "nbPlayClick": 1,
            "expression": "NEUTRE",
            "csv_id": 7369,
            "video_name": "DIVERS_PARL_AD_06_0003"
        },
        {
            "name": "1086",
            "score": "0.867",
            "index": 47,
            "selectedWords": [
                "espi\u00e8gle",
                "malicieuse"
            ],
            "freeResponses": [],
            "nbPlayClick": 1,
            "expression": "EVIDENCE",
            "csv_id": 1086,
            "video_name": "DIVERS_PARL_EVIDENCE_AD_01_0001"
        },
        {
            "name": "7812",
            "score": "0.983",
            "index": 48,
            "selectedWords": [
                "\u00e9vidente",
                "prouv\u00e9e"
            ],
            "freeResponses": [],
            "nbPlayClick": 1,
            "expression": "NEUTRE",
            "csv_id": 7846,
            "video_name": "DIVERS_PARL_AD_04_0002"
        },
        {
            "name": "3271",
            "score": "0.943",
            "index": 49,
            "selectedWords": [
                "neutre",
                "limpide"
            ],
            "freeResponses": [],
            "nbPlayClick": 1,
            "expression": "NEUTRE",
            "csv_id": 3271,
            "video_name": "DIVERS_PARL_AD_06_0001"
        },
        {
            "name": "8179",
            "score": "0.985",
            "index": 50,
            "selectedWords": [
                "\u00e9tonn\u00e9e",
                "r\u00e9fl\u00e9chie"
            ],
            "freeResponses": [],
            "nbPlayClick": 1,
            "expression": "NEUTRE",
            "csv_id": 8213,
            "video_name": "DIVERS_PARL_AD_02_0001"
        },
        {
            "name": "11266",
            "score": "0.995",
            "index": 51,
            "selectedWords": [
                "neutre",
                "s\u00fbre"
            ],
            "freeResponses": [],
            "nbPlayClick": 1,
            "expression": "NEUTRE",
            "csv_id": 11300,
            "video_name": "DIVERS_PARL_AD_01_0005"
        },
        {
            "name": "10103",
            "score": "0.992",
            "index": 52,
            "selectedWords": [
                "neutre",
                "s\u00fbre"
            ],
            "freeResponses": [],
            "nbPlayClick": 1,
            "expression": "RECONFORTANT",
            "csv_id": 10137,
            "video_name": "DIVERS_BOOK_RECONFORTANT_AD_01_0004"
        },
        {
            "name": "11782",
            "score": "0.996",
            "index": 53,
            "selectedWords": [
                "\u00e9tonn\u00e9e",
                "absente"
            ],
            "freeResponses": [],
            "nbPlayClick": 1,
            "expression": "NEUTRE",
            "csv_id": 11819,
            "video_name": "DIVERS_PARL_AD_02_0002"
        },
        {
            "name": "7394",
            "score": "0.981",
            "index": 54,
            "selectedWords": [
                "en col\u00e8re",
                "\u00e9nerv\u00e9e"
            ],
            "freeResponses": [],
            "nbPlayClick": 1,
            "expression": "NEUTRE",
            "csv_id": 7428,
            "video_name": "DIVERS_PARL_AD_01_0003"
        },
        {
            "name": "11073",
            "score": "0.995",
            "index": 55,
            "selectedWords": [
                "\u00e9vidente",
                "incontestable"
            ],
            "freeResponses": [],
            "nbPlayClick": 1,
            "expression": "NEUTRE",
            "csv_id": 11107,
            "video_name": "DIVERS_BOOK_AD_01_0002"
        },
        {
            "name": "11172",
            "score": "0.995",
            "index": 56,
            "selectedWords": [
                "neutre",
                "s\u00fbre"
            ],
            "freeResponses": [],
            "nbPlayClick": 1,
            "expression": "NEUTRE",
            "csv_id": 11206,
            "video_name": "DIVERS_BOOK_AD_03_0001"
        },
        {
            "name": "9468",
            "score": "0.990",
            "index": 57,
            "selectedWords": [
                "neutre",
                "s\u00fbre"
            ],
            "freeResponses": [],
            "nbPlayClick": 1,
            "expression": "NEUTRE",
            "csv_id": 9502,
            "video_name": "DIVERS_PARL_AD_05_0004"
        },
        {
            "name": "3728",
            "score": "0.950",
            "index": 58,
            "selectedWords": [
                "\u00e9tonn\u00e9e",
                "nette"
            ],
            "freeResponses": [],
            "nbPlayClick": 1,
            "expression": "ETONNE",
            "csv_id": 3728,
            "video_name": "DIVERS_PARL_ETONNE_AD_01_0001"
        },
        {
            "name": "11098",
            "score": "0.995",
            "index": 59,
            "selectedWords": [
                "neutre",
                "certaine"
            ],
            "freeResponses": [],
            "nbPlayClick": 1,
            "expression": "NEUTRE",
            "csv_id": 11132,
            "video_name": "DIVERS_PARL_AD_04_0003"
        }
    ],
    "training": [
        {
            "name": "77",
            "score": "0.639",
            "index": 0,
            "selectedWords": [
                "d\u00e9termin\u00e9e",
                "r\u00e9solue"
            ],
            "freeResponses": [],
            "nbPlayClick": 1,
            "expression": "NEUTRE"
        }
    ],
    "filenameDate": "2023-08-31_0-11"
}