{
    "user": {
        "isProlific": true,
        "id": "5e695c82cec9062104b5c432",
        "session": "65074da11d3304d66e59f2ee",
        "study": "64ef977375f88e4e1174dce0"
    },
    "userAgent": "Mozilla/5.0 (Windows NT 10.0; Win64; x64) AppleWebKit/537.36 (KHTML, like Gecko) Chrome/116.0.0.0 Safari/537.36",
    "landingDate": "2023-09-17T19:17:44.123Z",
    "startDate": "2023-09-17T20:30:24.118Z",
    "endDate": "2023-09-17T20:48:24.872Z",
    "reviews": [
        {
            "name": "5679",
            "score": "0.971",
            "index": 0,
            "selectedWords": [
                "pensive",
                "r\u00e9fl\u00e9chissante"
            ],
            "freeResponses": [],
            "nbPlayClick": 1,
            "expression": "NEUTRE",
            "csv_id": 5713,
            "video_name": "DIVERS_PARL_AD_04_0004"
        },
        {
            "name": "9275",
            "score": "0.989",
            "index": 1,
            "selectedWords": [
                "pensive",
                "songeuse"
            ],
            "freeResponses": [],
            "nbPlayClick": 1,
            "expression": "NEUTRE",
            "csv_id": 9309,
            "video_name": "DIVERS_BOOK_AD_01_0001"
        },
        {
            "name": "2355",
            "score": "0.923",
            "index": 2,
            "selectedWords": [
                "d\u00e9sol\u00e9e",
                "autre",
                "fac\u00e9tieuse"
            ],
            "freeResponses": [],
            "nbPlayClick": 1,
            "expression": "RECONFORTANT",
            "csv_id": 2355,
            "video_name": "DIVERS_BOOK_RECONFORTANT_AD_03_0002"
        },
        {
            "name": "9986",
            "score": "0.992",
            "index": 3,
            "selectedWords": [
                "\u00e9vidente",
                "incontestable"
            ],
            "freeResponses": [],
            "nbPlayClick": 1,
            "expression": "ETONNE",
            "csv_id": 10020,
            "video_name": "DIVERS_BOOK_ETONNE_AD_03_0001"
        },
        {
            "name": "3112",
            "score": "0.941",
            "index": 4,
            "selectedWords": [
                "enthousiaste",
                "euphorique"
            ],
            "freeResponses": [],
            "nbPlayClick": 1,
            "expression": "ENTHOUSIASTE",
            "csv_id": 3112,
            "video_name": "DIVERS_BOOK_ENTHOUSIASTE_AD_01_0004"
        },
        {
            "name": "7755",
            "score": "0.983",
            "index": 5,
            "selectedWords": [
                "d\u00e9termin\u00e9e",
                "r\u00e9solue"
            ],
            "freeResponses": [],
            "nbPlayClick": 1,
            "expression": "NEUTRE",
            "csv_id": 7789,
            "video_name": "DIVERS_PARL_AD_05_0004"
        },
        {
            "name": "10818",
            "score": "0.994",
            "index": 6,
            "selectedWords": [
                "neutre",
                "tonique"
            ],
            "freeResponses": [],
            "nbPlayClick": 1,
            "expression": "NEUTRE",
            "csv_id": 10852,
            "video_name": "DIVERS_BOOK_AD_03_0002"
        },
        {
            "name": "7000",
            "score": "0.980",
            "index": 7,
            "selectedWords": [
                "incr\u00e9dule",
                "convaincue",
                "r\u00e9fl\u00e9chie"
            ],
            "freeResponses": [],
            "nbPlayClick": 1,
            "expression": "NEUTRE",
            "csv_id": 7034,
            "video_name": "DIVERS_PARL_AD_05_0001"
        },
        {
            "name": "2447",
            "score": "0.925",
            "index": 8,
            "selectedWords": [
                "autre",
                "autre",
                "autre",
                "autre",
                "autre",
                "autre",
                "autre",
                "autre",
                "narquoise",
                "taquine"
            ],
            "freeResponses": [],
            "nbPlayClick": 3,
            "expression": "INCREDULE",
            "csv_id": 2447,
            "video_name": "DIVERS_BOOK_INCREDULE_AD_01_0001"
        },
        {
            "name": "7734",
            "score": "0.983",
            "index": 9,
            "selectedWords": [
                "espi\u00e8gle",
                "malicieuse"
            ],
            "freeResponses": [],
            "nbPlayClick": 1,
            "expression": "INCREDULE",
            "csv_id": 7768,
            "video_name": "DIVERS_BOOK_INCREDULE_AD_01_0001"
        },
        {
            "name": "3131",
            "score": "0.941",
            "index": 10,
            "selectedWords": [
                "d\u00e9sol\u00e9e",
                "autre",
                "autre",
                "consolante"
            ],
            "freeResponses": [],
            "nbPlayClick": 2,
            "expression": "SUPPLIANT",
            "csv_id": 3131,
            "video_name": "ESTYLE_SUPPLIANT_AD_02_0001"
        },
        {
            "name": "11332",
            "score": "0.995",
            "index": 11,
            "selectedWords": [
                "neutre",
                "certaine"
            ],
            "freeResponses": [],
            "nbPlayClick": 1,
            "expression": "NEUTRE",
            "csv_id": 11366,
            "video_name": "DIVERS_PARL_AD_01_0006"
        },
        {
            "name": "7494",
            "score": "0.982",
            "index": 12,
            "selectedWords": [
                "neutre",
                "certaine"
            ],
            "freeResponses": [],
            "nbPlayClick": 1,
            "expression": "NEUTRE",
            "csv_id": 7528,
            "video_name": "DIVERS_PARL_AD_04_0001"
        },
        {
            "name": "5494",
            "score": "0.970",
            "index": 13,
            "selectedWords": [
                "pensive",
                "r\u00e9fl\u00e9chissante"
            ],
            "freeResponses": [],
            "nbPlayClick": 1,
            "expression": "NEUTRE",
            "csv_id": 5528,
            "video_name": "DIVERS_PARL_AD_04_0001"
        },
        {
            "name": "6495",
            "score": "0.977",
            "index": 14,
            "selectedWords": [
                "en col\u00e8re",
                "irrit\u00e9e"
            ],
            "freeResponses": [],
            "nbPlayClick": 1,
            "expression": "SUPPLIANT",
            "csv_id": 6529,
            "video_name": "DIVERS_PARL_SUPPLIANT_AD_02_0001"
        },
        {
            "name": "4054",
            "score": "0.955",
            "index": 15,
            "selectedWords": [
                "neutre",
                "certaine"
            ],
            "freeResponses": [],
            "nbPlayClick": 1,
            "expression": "NEUTRE",
            "csv_id": 4054,
            "video_name": "DIVERS_PARL_AD_06_0001"
        },
        {
            "name": "11206",
            "score": "0.995",
            "index": 16,
            "selectedWords": [
                "neutre",
                "limpide"
            ],
            "freeResponses": [],
            "nbPlayClick": 1,
            "expression": "NEUTRE",
            "csv_id": 11240,
            "video_name": "DIVERS_BOOK_AD_04_0001"
        },
        {
            "name": "6914",
            "score": "0.979",
            "index": 17,
            "selectedWords": [
                "neutre",
                "certaine"
            ],
            "freeResponses": [],
            "nbPlayClick": 1,
            "expression": "NEUTRE",
            "csv_id": 6948,
            "video_name": "DIVERS_PARL_AD_05_0004"
        },
        {
            "name": "7665",
            "score": "0.983",
            "index": 18,
            "selectedWords": [
                "\u00e9tonn\u00e9e",
                "autre",
                "dubitative"
            ],
            "freeResponses": [],
            "nbPlayClick": 1,
            "expression": "NEUTRE",
            "csv_id": 7699,
            "video_name": "DIVERS_PARL_AD_06_0002"
        },
        {
            "name": "7556",
            "score": "0.982",
            "index": 19,
            "selectedWords": [
                "enthousiaste",
                "\u00e9loquente"
            ],
            "freeResponses": [],
            "nbPlayClick": 1,
            "expression": "SUPPLIANT",
            "csv_id": 7590,
            "video_name": "DIVERS_PARL_SUPPLIANT_AD_02_0001"
        },
        {
            "name": "2601",
            "score": "0.929",
            "index": 20,
            "selectedWords": [
                "\u00e9vidente",
                "indubitable"
            ],
            "freeResponses": [],
            "nbPlayClick": 1,
            "expression": "NEUTRE",
            "csv_id": 2601,
            "video_name": "DIVERS_PARL_AD_06_0004"
        },
        {
            "name": "9453",
            "score": "0.990",
            "index": 21,
            "selectedWords": [
                "autre",
                "autre",
                "autre",
                "h\u00e9b\u00e9t\u00e9e",
                "autre",
                "m\u00e9fiante"
            ],
            "freeResponses": [],
            "nbPlayClick": 1,
            "expression": "PENSIF",
            "csv_id": 9487,
            "video_name": "DIVERS_BOOK_PENSIF_AD_01_0003"
        },
        {
            "name": "7527",
            "score": "0.982",
            "index": 22,
            "selectedWords": [
                "\u00e9vidente",
                "prouv\u00e9e"
            ],
            "freeResponses": [],
            "nbPlayClick": 1,
            "expression": "NEUTRE",
            "csv_id": 7561,
            "video_name": "DIVERS_PARL_AD_04_0002"
        },
        {
            "name": "5303",
            "score": "0.968",
            "index": 23,
            "selectedWords": [
                "en col\u00e8re",
                "en rogne"
            ],
            "freeResponses": [],
            "nbPlayClick": 1,
            "expression": "COLERE",
            "csv_id": 5337,
            "video_name": "DIVERS_PARL_COLERE_AD_02_0002"
        },
        {
            "name": "5300",
            "score": "0.968",
            "index": 24,
            "selectedWords": [
                "r\u00e9confortante",
                "consolatrice"
            ],
            "freeResponses": [],
            "nbPlayClick": 1,
            "expression": "RECONFORTANT",
            "csv_id": 5334,
            "video_name": "DIVERS_PARL_RECONFORTANT_AD_02_0001"
        },
        {
            "name": "5021",
            "score": "0.966",
            "index": 25,
            "selectedWords": [
                "espi\u00e8gle",
                "taquine"
            ],
            "freeResponses": [],
            "nbPlayClick": 1,
            "expression": "ESPIEGLE",
            "csv_id": 5055,
            "video_name": "DIVERS_BOOK_ESPIEGLE_AD_03_0001"
        },
        {
            "name": "11146",
            "score": "0.995",
            "index": 26,
            "selectedWords": [
                "d\u00e9termin\u00e9e",
                "manifeste"
            ],
            "freeResponses": [],
            "nbPlayClick": 1,
            "expression": "NEUTRE",
            "csv_id": 11180,
            "video_name": "DIVERS_PARL_AD_02_0002"
        },
        {
            "name": "5566",
            "score": "0.970",
            "index": 27,
            "selectedWords": [
                "pensive",
                "m\u00e9ditative"
            ],
            "freeResponses": [],
            "nbPlayClick": 2,
            "expression": "DESOLE",
            "csv_id": 5600,
            "video_name": "DIVERS_PARL_DESOLE_AD_02_0002"
        },
        {
            "name": "9831",
            "score": "0.991",
            "index": 28,
            "selectedWords": [
                "autre",
                "autre",
                "autre",
                "autre",
                "autre",
                "autre",
                "autre",
                "incontestable",
                "limpide"
            ],
            "freeResponses": [],
            "nbPlayClick": 1,
            "expression": "DETERMINE",
            "csv_id": 9865,
            "video_name": "DIVERS_PARL_DETERMINE_AD_01_0002"
        },
        {
            "name": "8766",
            "score": "0.987",
            "index": 29,
            "selectedWords": [
                "d\u00e9termin\u00e9e",
                "r\u00e9solue"
            ],
            "freeResponses": [],
            "nbPlayClick": 2,
            "expression": "NEUTRE",
            "csv_id": 8800,
            "video_name": "DIVERS_PARL_AD_03_0003"
        },
        {
            "name": "8366",
            "score": "0.986",
            "index": 30,
            "selectedWords": [
                "pensive",
                "songeuse"
            ],
            "freeResponses": [],
            "nbPlayClick": 1,
            "expression": "NEUTRE",
            "csv_id": 8400,
            "video_name": "DIVERS_BOOK_AD_01_0002"
        },
        {
            "name": "2834",
            "score": "0.935",
            "index": 31,
            "selectedWords": [
                "indign\u00e9e",
                "autre",
                "autre",
                "autre",
                "malicieuse"
            ],
            "freeResponses": [],
            "nbPlayClick": 1,
            "expression": "ENTHOUSIASTE",
            "csv_id": 2834,
            "video_name": "DIVERS_PARL_ENTHOUSIASTE_AD_01_0003"
        },
        {
            "name": "5248",
            "score": "0.968",
            "index": 32,
            "selectedWords": [
                "neutre",
                "s\u00fbre"
            ],
            "freeResponses": [],
            "nbPlayClick": 1,
            "expression": "NEUTRE",
            "csv_id": 5282,
            "video_name": "DIVERS_PARL_AD_01_0000"
        },
        {
            "name": "2041",
            "score": "0.913",
            "index": 33,
            "selectedWords": [
                "\u00e9vidente",
                "patente"
            ],
            "freeResponses": [],
            "nbPlayClick": 1,
            "expression": "NEUTRE",
            "csv_id": 2041,
            "video_name": "DIVERS_BOOK_AD_04_0002"
        },
        {
            "name": "9580",
            "score": "0.990",
            "index": 34,
            "selectedWords": [
                "enthousiaste",
                "tonique"
            ],
            "freeResponses": [],
            "nbPlayClick": 1,
            "expression": "ENTHOUSIASTE",
            "csv_id": 9614,
            "video_name": "DIVERS_PARL_ENTHOUSIASTE_AD_02_0001"
        },
        {
            "name": "3795",
            "score": "0.951",
            "index": 35,
            "selectedWords": [
                "enthousiaste",
                "tonique"
            ],
            "freeResponses": [],
            "nbPlayClick": 1,
            "expression": "ENTHOUSIASTE",
            "csv_id": 3795,
            "video_name": "DIVERS_PARL_ENTHOUSIASTE_AD_01_0003"
        },
        {
            "name": "6581",
            "score": "0.977",
            "index": 36,
            "selectedWords": [
                "fac\u00e9tieuse",
                "irrit\u00e9e"
            ],
            "freeResponses": [],
            "nbPlayClick": 1,
            "expression": "RECONFORTANT",
            "csv_id": 6615,
            "video_name": "DIVERS_BOOK_RECONFORTANT_AD_01_0002"
        },
        {
            "name": "4993",
            "score": "0.966",
            "index": 37,
            "selectedWords": [
                "irrit\u00e9e",
                "autre",
                "autre",
                "autre",
                "in\u00e9branlable"
            ],
            "freeResponses": [],
            "nbPlayClick": 1,
            "expression": "RECONFORTANT",
            "csv_id": 5027,
            "video_name": "DIVERS_BOOK_RECONFORTANT_AD_01_0004"
        },
        {
            "name": "8404",
            "score": "0.986",
            "index": 38,
            "selectedWords": [
                "d\u00e9sol\u00e9e",
                "manifeste"
            ],
            "freeResponses": [],
            "nbPlayClick": 2,
            "expression": "SUPPLIANT",
            "csv_id": 8438,
            "video_name": "DIVERS_BOOK_SUPPLIANT_AD_01_0004"
        },
        {
            "name": "8228",
            "score": "0.985",
            "index": 39,
            "selectedWords": [
                "enthousiaste",
                "tonique"
            ],
            "freeResponses": [],
            "nbPlayClick": 1,
            "expression": "ENTHOUSIASTE",
            "csv_id": 8262,
            "video_name": "DIVERS_BOOK_ENTHOUSIASTE_AD_01_0001"
        },
        {
            "name": "5971",
            "score": "0.974",
            "index": 40,
            "selectedWords": [
                "neutre",
                "notoire"
            ],
            "freeResponses": [],
            "nbPlayClick": 2,
            "expression": "NEUTRE",
            "csv_id": 6005,
            "video_name": "DIVERS_BOOK_AD_04_0002"
        },
        {
            "name": "5464",
            "score": "0.970",
            "index": 41,
            "selectedWords": [
                "en col\u00e8re",
                "hargneuse"
            ],
            "freeResponses": [],
            "nbPlayClick": 1,
            "expression": "COLERE",
            "csv_id": 5498,
            "video_name": "DIVERS_PARL_COLERE_AD_01_0003"
        },
        {
            "name": "4137",
            "score": "0.956",
            "index": 42,
            "selectedWords": [
                "pensive",
                "r\u00e9fl\u00e9chie"
            ],
            "freeResponses": [],
            "nbPlayClick": 1,
            "expression": "NEUTRE",
            "csv_id": 4137,
            "video_name": "DIVERS_PARL_AD_04_0001"
        },
        {
            "name": "5876",
            "score": "0.973",
            "index": 43,
            "selectedWords": [
                "\u00e9vidente",
                "prouv\u00e9e"
            ],
            "freeResponses": [],
            "nbPlayClick": 1,
            "expression": "NEUTRE",
            "csv_id": 5910,
            "video_name": "DIVERS_PARL_AD_03_0003"
        },
        {
            "name": "9643",
            "score": "0.990",
            "index": 44,
            "selectedWords": [
                "enthousiaste",
                "euphorique"
            ],
            "freeResponses": [],
            "nbPlayClick": 1,
            "expression": "ENTHOUSIASTE",
            "csv_id": 9677,
            "video_name": "DIVERS_PARL_ENTHOUSIASTE_AD_02_0001"
        },
        {
            "name": "3692",
            "score": "0.950",
            "index": 45,
            "selectedWords": [
                "autre",
                "fac\u00e9tieuse",
                "finaude"
            ],
            "freeResponses": [],
            "nbPlayClick": 1,
            "expression": "INCREDULE",
            "csv_id": 3692,
            "video_name": "DIVERS_BOOK_INCREDULE_AD_01_0001"
        },
        {
            "name": "11298",
            "score": "0.995",
            "index": 46,
            "selectedWords": [
                "pensive",
                "r\u00e9fl\u00e9chissante"
            ],
            "freeResponses": [],
            "nbPlayClick": 1,
            "expression": "DESOLE",
            "csv_id": 11332,
            "video_name": "DIVERS_BOOK_DESOLE_AD_03_0002"
        },
        {
            "name": "11934",
            "score": "0.997",
            "index": 47,
            "selectedWords": [
                "\u00e9vidente",
                "incontestable"
            ],
            "freeResponses": [],
            "nbPlayClick": 1,
            "expression": "NEUTRE",
            "csv_id": 11971,
            "video_name": "DIVERS_PARL_AD_01_0005"
        },
        {
            "name": "10462",
            "score": "0.993",
            "index": 48,
            "selectedWords": [
                "en col\u00e8re",
                "\u00e9nerv\u00e9e"
            ],
            "freeResponses": [],
            "nbPlayClick": 1,
            "expression": "NEUTRE",
            "csv_id": 10496,
            "video_name": "DIVERS_PARL_AD_01_0001"
        },
        {
            "name": "5202",
            "score": "0.968",
            "index": 49,
            "selectedWords": [
                "pensive",
                "r\u00e9fl\u00e9chissante"
            ],
            "freeResponses": [],
            "nbPlayClick": 1,
            "expression": "PENSIF",
            "csv_id": 5236,
            "video_name": "DIVERS_PARL_PENSIF_AD_01_0002"
        },
        {
            "name": "8071",
            "score": "0.985",
            "index": 50,
            "selectedWords": [
                "neutre",
                "s\u00fbre"
            ],
            "freeResponses": [],
            "nbPlayClick": 1,
            "expression": "NEUTRE",
            "csv_id": 8105,
            "video_name": "DIVERS_PARL_AD_03_0002"
        },
        {
            "name": "5720",
            "score": "0.972",
            "index": 51,
            "selectedWords": [
                "enthousiaste",
                "euphorique"
            ],
            "freeResponses": [],
            "nbPlayClick": 1,
            "expression": "ESPIEGLE",
            "csv_id": 5754,
            "video_name": "DIVERS_PARL_ESPIEGLE_AD_01_0001"
        },
        {
            "name": "2988",
            "score": "0.938",
            "index": 52,
            "selectedWords": [
                "\u00e9vidente",
                "indubitable"
            ],
            "freeResponses": [],
            "nbPlayClick": 1,
            "expression": "SUPPLIANT",
            "csv_id": 2988,
            "video_name": "DIVERS_PARL_SUPPLIANT_AD_02_0002"
        },
        {
            "name": "6218",
            "score": "0.975",
            "index": 53,
            "selectedWords": [
                "suppliante",
                "prostern\u00e9e"
            ],
            "freeResponses": [],
            "nbPlayClick": 1,
            "expression": "SUPPLIANT",
            "csv_id": 6252,
            "video_name": "DIVERS_BOOK_SUPPLIANT_AD_01_0002"
        },
        {
            "name": "3817",
            "score": "0.951",
            "index": 54,
            "selectedWords": [
                "\u00e9tonn\u00e9e",
                "autre",
                "dubitative"
            ],
            "freeResponses": [],
            "nbPlayClick": 1,
            "expression": "ETONNE",
            "csv_id": 3817,
            "video_name": "DIVERS_PARL_ETONNE_AD_01_0001"
        },
        {
            "name": "8783",
            "score": "0.987",
            "index": 55,
            "selectedWords": [
                "suppliante",
                "larmoyante"
            ],
            "freeResponses": [],
            "nbPlayClick": 1,
            "expression": "SUPPLIANT",
            "csv_id": 8817,
            "video_name": "DIVERS_BOOK_SUPPLIANT_AD_01_0002"
        },
        {
            "name": "9293",
            "score": "0.989",
            "index": 56,
            "selectedWords": [
                "d\u00e9termin\u00e9e",
                "manifeste"
            ],
            "freeResponses": [],
            "nbPlayClick": 1,
            "expression": "NEUTRE",
            "csv_id": 9327,
            "video_name": "DIVERS_BOOK_AD_04_0001"
        },
        {
            "name": "9852",
            "score": "0.991",
            "index": 57,
            "selectedWords": [
                "enthousiaste",
                "\u00e9loquente"
            ],
            "freeResponses": [],
            "nbPlayClick": 1,
            "expression": "DETERMINE",
            "csv_id": 9886,
            "video_name": "DIVERS_BOOK_DETERMINE_AD_03_0001"
        },
        {
            "name": "4058",
            "score": "0.955",
            "index": 58,
            "selectedWords": [
                "r\u00e9confortante",
                "apaisante"
            ],
            "freeResponses": [],
            "nbPlayClick": 1,
            "expression": "EVIDENCE",
            "csv_id": 4058,
            "video_name": "DIVERS_PARL_EVIDENCE_AD_02_0002"
        },
        {
            "name": "3535",
            "score": "0.947",
            "index": 59,
            "selectedWords": [
                "neutre",
                "certaine"
            ],
            "freeResponses": [],
            "nbPlayClick": 1,
            "expression": "NEUTRE",
            "csv_id": 3535,
            "video_name": "DIVERS_PARL_AD_04_0003"
        }
    ],
    "training": [
        {
            "name": "77",
            "score": "0.639",
            "index": 0,
            "selectedWords": [
                "d\u00e9termin\u00e9e",
                "r\u00e9solue"
            ],
            "freeResponses": [],
            "nbPlayClick": 1,
            "expression": "NEUTRE"
        }
    ],
    "filenameDate": "2023-09-17_22-48"
}