{
    "user": {
        "isProlific": true,
        "id": "5e69e3642aed5004a3c010cf",
        "session": "64ef9220b61c8d0b3556ba32",
        "study": "64ef59ce58b9cfe7a2bd1a45"
    },
    "userAgent": "Mozilla/5.0 (Macintosh; Intel Mac OS X 10_12_6) AppleWebKit/537.36 (KHTML, like Gecko) Chrome/103.0.0.0 Safari/537.36",
    "landingDate": "2023-08-30T19:11:12.980Z",
    "startDate": "2023-08-30T19:31:34.827Z",
    "endDate": "2023-08-30T20:32:19.011Z",
    "reviews": [
        {
            "name": "10919",
            "score": "0.994",
            "index": 0,
            "selectedWords": [
                "d\u00e9termin\u00e9e",
                "r\u00e9solue",
                "d\u00e9cid\u00e9e",
                "autre",
                "imp\u00e9n\u00e9trable",
                "autre",
                "m\u00e9fiante",
                "indiscutable",
                "prouv\u00e9e",
                "incontestable"
            ],
            "freeResponses": [],
            "nbPlayClick": 2,
            "expression": "NEUTRE",
            "csv_id": 10953,
            "video_name": "DIVERS_PARL_AD_01_0005"
        },
        {
            "name": "9235",
            "score": "0.989",
            "index": 1,
            "selectedWords": [
                "incr\u00e9dule",
                "dubitative",
                "perplexe",
                "d\u00e9courag\u00e9e",
                "accabl\u00e9e",
                "pein\u00e9e",
                "autre",
                "autre",
                "consolante",
                "autre",
                "autre",
                "autre",
                "autre",
                "autre",
                "autre",
                "autre",
                "autre",
                "autre",
                "autre"
            ],
            "freeResponses": [],
            "nbPlayClick": 4,
            "expression": "SUPPLIANT",
            "csv_id": 9269,
            "video_name": "DIVERS_PARL_SUPPLIANT_AD_02_0002"
        },
        {
            "name": "2431",
            "score": "0.925",
            "index": 2,
            "selectedWords": [
                "\u00e9vidente",
                "irr\u00e9cusable",
                "certaine",
                "limpide",
                "ardente",
                "autre",
                "imp\u00e9n\u00e9trable",
                "agressive",
                "autre",
                "indiscutable",
                "convaincue",
                "indign\u00e9e",
                "autre",
                "d\u00e9cid\u00e9e",
                "autre"
            ],
            "freeResponses": [],
            "nbPlayClick": 4,
            "expression": "INCREDULE",
            "csv_id": 2431,
            "video_name": "ESTYLE_INCREDULE_AD_02_0001"
        },
        {
            "name": "4294",
            "score": "0.958",
            "index": 3,
            "selectedWords": [
                "en col\u00e8re",
                "hargneuse",
                "f\u00e2ch\u00e9e",
                "indign\u00e9e",
                "autre",
                "autre"
            ],
            "freeResponses": [],
            "nbPlayClick": 1,
            "expression": "COLERE",
            "csv_id": 4294,
            "video_name": "DIVERS_PARL_COLERE_AD_02_0002"
        },
        {
            "name": "2391",
            "score": "0.924",
            "index": 4,
            "selectedWords": [
                "suppliante",
                "consolante",
                "consolatrice",
                "autre",
                "autre",
                "autre",
                "autre",
                "autre",
                "autre",
                "autre",
                "autre",
                "m\u00e9ditative",
                "sinc\u00e8re"
            ],
            "freeResponses": [],
            "nbPlayClick": 4,
            "expression": "RECONFORTANT",
            "csv_id": 2391,
            "video_name": "DIVERS_BOOK_RECONFORTANT_AD_01_0004"
        },
        {
            "name": "12263",
            "score": "0.998",
            "index": 5,
            "selectedWords": [
                "autre",
                "inexpressive",
                "fade",
                "autre",
                "autre",
                "autre",
                "autre",
                "autre",
                "autre",
                "autre",
                "autre"
            ],
            "freeResponses": [],
            "nbPlayClick": 3,
            "expression": "NEUTRE",
            "csv_id": 12300,
            "video_name": "DIVERS_BOOK_AD_04_0001"
        },
        {
            "name": "4661",
            "score": "0.963",
            "index": 6,
            "selectedWords": [
                "neutre",
                "autre",
                "dubitative",
                "autre",
                "autre",
                "autre",
                "autre",
                "autre",
                "autre",
                "autre",
                "autre",
                "autre",
                "autre",
                "m\u00e9contente"
            ],
            "freeResponses": [],
            "nbPlayClick": 3,
            "expression": "NEUTRE",
            "csv_id": 4695,
            "video_name": "DIVERS_PARL_AD_06_0002"
        },
        {
            "name": "8601",
            "score": "0.987",
            "index": 7,
            "selectedWords": [
                "neutre",
                "d\u00e9termin\u00e9e",
                "r\u00e9fl\u00e9chie",
                "autre",
                "autre",
                "autre",
                "autre",
                "autre",
                "autre",
                "autre",
                "autre",
                "autre",
                "autre",
                "autre",
                "autre",
                "autre",
                "autre",
                "prouv\u00e9e"
            ],
            "freeResponses": [],
            "nbPlayClick": 1,
            "expression": "NEUTRE",
            "csv_id": 8635,
            "video_name": "DIVERS_PARL_AD_06_0001"
        },
        {
            "name": "10714",
            "score": "0.994",
            "index": 8,
            "selectedWords": [
                "incr\u00e9dule",
                "dubitative",
                "sceptique",
                "autre",
                "autre",
                "autre"
            ],
            "freeResponses": [],
            "nbPlayClick": 4,
            "expression": "NEUTRE",
            "csv_id": 10748,
            "video_name": "DIVERS_PARL_AD_03_0002"
        },
        {
            "name": "4336",
            "score": "0.958",
            "index": 9,
            "selectedWords": [
                "incr\u00e9dule",
                "autre",
                "autre",
                "autre",
                "autre",
                "maligne",
                "autre",
                "r\u00e9fl\u00e9chissante",
                "pr\u00e9occup\u00e9e",
                "autre"
            ],
            "freeResponses": [],
            "nbPlayClick": 3,
            "expression": "NEUTRE",
            "csv_id": 4336,
            "video_name": "DIVERS_BOOK_AD_04_0002"
        },
        {
            "name": "5637",
            "score": "0.971",
            "index": 10,
            "selectedWords": [
                "suppliante",
                "implorante",
                "m\u00e9ditative",
                "r\u00e9fl\u00e9chissante",
                "pr\u00e9occup\u00e9e",
                "autre",
                "autre",
                "autre",
                "autre",
                "autre",
                "autre",
                "autre"
            ],
            "freeResponses": [],
            "nbPlayClick": 2,
            "expression": "DESOLE",
            "csv_id": 5671,
            "video_name": "DIVERS_PARL_DESOLE_AD_02_0002"
        },
        {
            "name": "692",
            "score": "0.830",
            "index": 11,
            "selectedWords": [
                "suppliante",
                "implorante",
                "sinc\u00e8re",
                "autre",
                "autre",
                "autre",
                "encourageante",
                "pr\u00e9occup\u00e9e",
                "autre",
                "autre",
                "autre",
                "autre",
                "autre",
                "autre"
            ],
            "freeResponses": [],
            "nbPlayClick": 2,
            "expression": "SUPPLIANT",
            "csv_id": 692,
            "video_name": "DIVERS_PARL_SUPPLIANT_AD_02_0002"
        },
        {
            "name": "10890",
            "score": "0.994",
            "index": 12,
            "selectedWords": [
                "d\u00e9termin\u00e9e",
                "r\u00e9solue",
                "d\u00e9cid\u00e9e",
                "autre",
                "autre",
                "autre",
                "autre",
                "maligne"
            ],
            "freeResponses": [],
            "nbPlayClick": 3,
            "expression": "NEUTRE",
            "csv_id": 10924,
            "video_name": "DIVERS_PARL_AD_03_0002"
        },
        {
            "name": "3979",
            "score": "0.954",
            "index": 13,
            "selectedWords": [
                "d\u00e9termin\u00e9e",
                "r\u00e9fl\u00e9chie",
                "autre",
                "implorante",
                "autre",
                "d\u00e9cid\u00e9e",
                "autre",
                "autre",
                "autre",
                "autre",
                "autre",
                "autre",
                "autre",
                "autre",
                "certaine"
            ],
            "freeResponses": [],
            "nbPlayClick": 2,
            "expression": "NEUTRE",
            "csv_id": 3979,
            "video_name": "DIVERS_PARL_AD_01_0006"
        },
        {
            "name": "6426",
            "score": "0.976",
            "index": 14,
            "selectedWords": [
                "d\u00e9termin\u00e9e",
                "r\u00e9solue",
                "d\u00e9cid\u00e9e",
                "autre",
                "imp\u00e9n\u00e9trable",
                "autre",
                "in\u00e9branlable",
                "irr\u00e9cusable",
                "incontestable",
                "autre"
            ],
            "freeResponses": [],
            "nbPlayClick": 3,
            "expression": "NEUTRE",
            "csv_id": 6460,
            "video_name": "DIVERS_PARL_AD_06_0004"
        },
        {
            "name": "11165",
            "score": "0.995",
            "index": 15,
            "selectedWords": [
                "autre",
                "dubitative",
                "sceptique",
                "autre",
                "autre",
                "autre",
                "autre",
                "autre",
                "pensante",
                "pr\u00e9occup\u00e9e",
                "autre",
                "autre",
                "autre",
                "autre",
                "autre",
                "autre",
                "autre",
                "autre"
            ],
            "freeResponses": [],
            "nbPlayClick": 4,
            "expression": "NEUTRE",
            "csv_id": 11199,
            "video_name": "DIVERS_PARL_AD_01_0005"
        },
        {
            "name": "4828",
            "score": "0.964",
            "index": 16,
            "selectedWords": [
                "en col\u00e8re",
                "en rage",
                "enrag\u00e9e",
                "autre",
                "imp\u00e9n\u00e9trable",
                "agressive",
                "autre",
                "in\u00e9branlable",
                "irr\u00e9cusable",
                "limpide",
                "enflamm\u00e9e",
                "bouillonnante",
                "passionn\u00e9e",
                "autre"
            ],
            "freeResponses": [],
            "nbPlayClick": 1,
            "expression": "COLERE",
            "csv_id": 4862,
            "video_name": "DIVERS_PARL_COLERE_AD_02_0002"
        },
        {
            "name": "11690",
            "score": "0.996",
            "index": 17,
            "selectedWords": [
                "incr\u00e9dule",
                "dubitative",
                "sceptique",
                "autre",
                "autre",
                "estomaqu\u00e9e",
                "autre",
                "autre",
                "autre",
                "autre",
                "autre",
                "autre",
                "autre"
            ],
            "freeResponses": [],
            "nbPlayClick": 3,
            "expression": "ETONNE",
            "csv_id": 11727,
            "video_name": "DIVERS_PARL_ETONNE_AD_01_0001"
        },
        {
            "name": "4660",
            "score": "0.962",
            "index": 18,
            "selectedWords": [
                "d\u00e9termin\u00e9e",
                "autre",
                "autre",
                "autre",
                "autre",
                "autre",
                "ind\u00e9niable",
                "prouv\u00e9e",
                "certaine",
                "ferme",
                "autre"
            ],
            "freeResponses": [],
            "nbPlayClick": 2,
            "expression": "NEUTRE",
            "csv_id": 4694,
            "video_name": "DIVERS_PARL_AD_03_0004"
        },
        {
            "name": "8496",
            "score": "0.986",
            "index": 19,
            "selectedWords": [
                "enthousiaste",
                "triomphale",
                "autre",
                "autre",
                "autre",
                "autre",
                "encourageante",
                "autre",
                "autre",
                "autre",
                "autre"
            ],
            "freeResponses": [],
            "nbPlayClick": 4,
            "expression": "ENTHOUSIASTE",
            "csv_id": 8530,
            "video_name": "DIVERS_PARL_ENTHOUSIASTE_AD_02_0001"
        },
        {
            "name": "8686",
            "score": "0.987",
            "index": 20,
            "selectedWords": [
                "incr\u00e9dule",
                "dubitative",
                "perplexe",
                "sid\u00e9r\u00e9e",
                "autre",
                "autre",
                "autre",
                "autre",
                "autre",
                "autre",
                "autre"
            ],
            "freeResponses": [],
            "nbPlayClick": 3,
            "expression": "PENSIF",
            "csv_id": 8720,
            "video_name": "DIVERS_PARL_PENSIF_AD_01_0002"
        },
        {
            "name": "7462",
            "score": "0.982",
            "index": 21,
            "selectedWords": [
                "d\u00e9termin\u00e9e",
                "r\u00e9solue",
                "d\u00e9cid\u00e9e",
                "autre",
                "imp\u00e9n\u00e9trable",
                "agressive",
                "autre",
                "in\u00e9branlable",
                "certaine",
                "ferme"
            ],
            "freeResponses": [],
            "nbPlayClick": 3,
            "expression": "NEUTRE",
            "csv_id": 7496,
            "video_name": "DIVERS_PARL_AD_01_0002"
        },
        {
            "name": "5068",
            "score": "0.966",
            "index": 22,
            "selectedWords": [
                "pensive",
                "autre",
                "dubitative",
                "sceptique",
                "autre",
                "autre",
                "autre",
                "autre",
                "autre",
                "autre",
                "autre",
                "autre",
                "autre",
                "autre",
                "autre",
                "autre",
                "autre",
                "autre",
                "autre",
                "autre",
                "autre"
            ],
            "freeResponses": [],
            "nbPlayClick": 4,
            "expression": "PENSIF",
            "csv_id": 5102,
            "video_name": "DIVERS_BOOK_PENSIF_AD_01_0003"
        },
        {
            "name": "1702",
            "score": "0.900",
            "index": 23,
            "selectedWords": [
                "d\u00e9termin\u00e9e",
                "r\u00e9solue",
                "d\u00e9cid\u00e9e",
                "autre",
                "autre",
                "autre",
                "autre",
                "autre",
                "autre",
                "autre",
                "autre",
                "indubitable",
                "certaine"
            ],
            "freeResponses": [],
            "nbPlayClick": 2,
            "expression": "NEUTRE",
            "csv_id": 1702,
            "video_name": "DIVERS_PARL_AD_06_0002"
        },
        {
            "name": "12354",
            "score": "0.999",
            "index": 24,
            "selectedWords": [
                "neutre",
                "certaine",
                "autre",
                "autre",
                "autre",
                "autre",
                "autre"
            ],
            "freeResponses": [],
            "nbPlayClick": 3,
            "expression": "NEUTRE",
            "csv_id": 12391,
            "video_name": "DIVERS_BOOK_AD_04_0001"
        },
        {
            "name": "11349",
            "score": "0.995",
            "index": 25,
            "selectedWords": [
                "suppliante",
                "implorante",
                "sinc\u00e8re",
                "autre",
                "autre",
                "autre",
                "autre",
                "reconstituante",
                "pr\u00e9occup\u00e9e"
            ],
            "freeResponses": [],
            "nbPlayClick": 2,
            "expression": "SUPPLIANT",
            "csv_id": 11383,
            "video_name": "DIVERS_BOOK_SUPPLIANT_AD_01_0002"
        },
        {
            "name": "7420",
            "score": "0.982",
            "index": 26,
            "selectedWords": [
                "r\u00e9confortante",
                "consolatrice",
                "autre",
                "autre",
                "autre",
                "autre",
                "autre",
                "autre",
                "autre",
                "autre",
                "autre",
                "autre",
                "autre",
                "autre",
                "autre",
                "autre",
                "autre",
                "autre",
                "sinc\u00e8re"
            ],
            "freeResponses": [],
            "nbPlayClick": 2,
            "expression": "RECONFORTANT",
            "csv_id": 7454,
            "video_name": "DIVERS_BOOK_RECONFORTANT_AD_01_0004"
        },
        {
            "name": "7254",
            "score": "0.981",
            "index": 27,
            "selectedWords": [
                "dubitative",
                "autre",
                "autre",
                "autre",
                "autre",
                "autre",
                "autre",
                "autre",
                "autre",
                "autre",
                "autre",
                "autre",
                "autre",
                "autre",
                "accabl\u00e9e",
                "pr\u00e9occup\u00e9e"
            ],
            "freeResponses": [],
            "nbPlayClick": 4,
            "expression": "NEUTRE",
            "csv_id": 7288,
            "video_name": "DIVERS_PARL_AD_01_0000"
        },
        {
            "name": "2111",
            "score": "0.915",
            "index": 28,
            "selectedWords": [
                "autre",
                "autre",
                "atone",
                "fade",
                "autre",
                "autre",
                "autre",
                "autre",
                "autre",
                "autre",
                "autre",
                "ennuy\u00e9e"
            ],
            "freeResponses": [],
            "nbPlayClick": 7,
            "expression": "NEUTRE",
            "csv_id": 2111,
            "video_name": "DIVERS_PARL_AD_03_0001"
        },
        {
            "name": "5224",
            "score": "0.968",
            "index": 29,
            "selectedWords": [
                "autre",
                "autre",
                "autre",
                "autre",
                "ennuy\u00e9e",
                "d\u00e9pit\u00e9e",
                "emb\u00eat\u00e9e",
                "indign\u00e9e"
            ],
            "freeResponses": [],
            "nbPlayClick": 4,
            "expression": "NEUTRE",
            "csv_id": 5258,
            "video_name": "DIVERS_PARL_AD_03_0001"
        },
        {
            "name": "2864",
            "score": "0.935",
            "index": 30,
            "selectedWords": [
                "fac\u00e9tieuse",
                "d\u00e9lur\u00e9e",
                "taquine",
                "autre",
                "autre",
                "autre",
                "autre",
                "autre",
                "autre"
            ],
            "freeResponses": [],
            "nbPlayClick": 2,
            "expression": "ENTHOUSIASTE",
            "csv_id": 2864,
            "video_name": "DIVERS_PARL_ENTHOUSIASTE_AD_01_0003"
        },
        {
            "name": "10709",
            "score": "0.994",
            "index": 31,
            "selectedWords": [
                "neutre",
                "certaine",
                "prouv\u00e9e",
                "officielle"
            ],
            "freeResponses": [],
            "nbPlayClick": 1,
            "expression": "NEUTRE",
            "csv_id": 10743,
            "video_name": "DIVERS_PARL_AD_04_0003"
        },
        {
            "name": "8815",
            "score": "0.988",
            "index": 32,
            "selectedWords": [
                "incr\u00e9dule",
                "dubitative",
                "sceptique",
                "autre",
                "autre",
                "autre",
                "autre"
            ],
            "freeResponses": [],
            "nbPlayClick": 2,
            "expression": "NEUTRE",
            "csv_id": 8849,
            "video_name": "DIVERS_PARL_AD_05_0004"
        },
        {
            "name": "3775",
            "score": "0.951",
            "index": 33,
            "selectedWords": [
                "neutre",
                "s\u00fbre",
                "autre",
                "autre",
                "apaisante",
                "autre",
                "autre",
                "autre",
                "autre",
                "autre",
                "autre",
                "autre",
                "autre",
                "autre",
                "autre",
                "autre",
                "autre",
                "sinc\u00e8re"
            ],
            "freeResponses": [],
            "nbPlayClick": 2,
            "expression": "NEUTRE",
            "csv_id": 3775,
            "video_name": "DIVERS_PARL_AD_05_0001"
        },
        {
            "name": "9227",
            "score": "0.989",
            "index": 34,
            "selectedWords": [
                "enthousiaste",
                "triomphale",
                "autre",
                "autre",
                "in\u00e9branlable",
                "prouv\u00e9e",
                "indiscutable",
                "convaincue"
            ],
            "freeResponses": [],
            "nbPlayClick": 2,
            "expression": "DETERMINE",
            "csv_id": 9261,
            "video_name": "DIVERS_PARL_DETERMINE_AD_01_0004"
        },
        {
            "name": "7502",
            "score": "0.982",
            "index": 35,
            "selectedWords": [
                "neutre",
                "autre",
                "autre",
                "ennuy\u00e9e",
                "autre",
                "autre",
                "autre",
                "autre",
                "autre",
                "autre",
                "autre",
                "autre",
                "autre",
                "autre",
                "autre",
                "autre",
                "autre",
                "fade"
            ],
            "freeResponses": [],
            "nbPlayClick": 3,
            "expression": "NEUTRE",
            "csv_id": 7536,
            "video_name": "DIVERS_PARL_AD_06_0003"
        },
        {
            "name": "10218",
            "score": "0.992",
            "index": 36,
            "selectedWords": [
                "neutre",
                "s\u00fbre",
                "r\u00e9fl\u00e9chie",
                "autre",
                "autre",
                "autre",
                "autre",
                "autre",
                "autre",
                "autre",
                "autre"
            ],
            "freeResponses": [],
            "nbPlayClick": 2,
            "expression": "NEUTRE",
            "csv_id": 10252,
            "video_name": "DIVERS_PARL_AD_05_0003"
        },
        {
            "name": "6725",
            "score": "0.978",
            "index": 37,
            "selectedWords": [
                "autre",
                "dubitative",
                "autre",
                "autre",
                "autre",
                "autre",
                "autre",
                "navr\u00e9e",
                "afflig\u00e9e",
                "pr\u00e9occup\u00e9e"
            ],
            "freeResponses": [],
            "nbPlayClick": 2,
            "expression": "DESOLE",
            "csv_id": 6759,
            "video_name": "DIVERS_PARL_DESOLE_AD_02_0002"
        },
        {
            "name": "4444",
            "score": "0.960",
            "index": 38,
            "selectedWords": [
                "d\u00e9termin\u00e9e",
                "r\u00e9solue",
                "convaincue"
            ],
            "freeResponses": [],
            "nbPlayClick": 1,
            "expression": "NEUTRE",
            "csv_id": 4478,
            "video_name": "DIVERS_PARL_AD_02_0001"
        },
        {
            "name": "12255",
            "score": "0.998",
            "index": 39,
            "selectedWords": [
                "neutre",
                "s\u00fbre",
                "autre",
                "autre",
                "autre",
                "autre",
                "autre",
                "autre",
                "autre"
            ],
            "freeResponses": [],
            "nbPlayClick": 2,
            "expression": "NEUTRE",
            "csv_id": 12292,
            "video_name": "DIVERS_BOOK_AD_04_0001"
        },
        {
            "name": "4542",
            "score": "0.961",
            "index": 40,
            "selectedWords": [
                "pensive",
                "r\u00eaveuse",
                "occup\u00e9e",
                "autre",
                "autre",
                "autre",
                "autre",
                "autre",
                "autre",
                "pensante",
                "autre",
                "h\u00e9b\u00e9t\u00e9e"
            ],
            "freeResponses": [],
            "nbPlayClick": 1,
            "expression": "PENSIF",
            "csv_id": 4576,
            "video_name": "ESTYLE_PENSIF_AD_02_0001"
        },
        {
            "name": "11210",
            "score": "0.995",
            "index": 41,
            "selectedWords": [
                "pensive",
                "r\u00e9fl\u00e9chissante",
                "occup\u00e9e",
                "autre",
                "autre",
                "autre",
                "autre",
                "autre",
                "autre",
                "autre",
                "autre",
                "autre"
            ],
            "freeResponses": [],
            "nbPlayClick": 2,
            "expression": "NEUTRE",
            "csv_id": 11244,
            "video_name": "DIVERS_BOOK_AD_01_0001"
        },
        {
            "name": "7485",
            "score": "0.982",
            "index": 42,
            "selectedWords": [
                "incr\u00e9dule",
                "dubitative",
                "autre",
                "autre",
                "autre",
                "ennuy\u00e9e",
                "autre",
                "autre",
                "autre",
                "autre",
                "autre",
                "autre",
                "autre",
                "autre",
                "autre"
            ],
            "freeResponses": [],
            "nbPlayClick": 2,
            "expression": "DESOLE",
            "csv_id": 7519,
            "video_name": "DIVERS_PARL_DESOLE_AD_01_0004"
        },
        {
            "name": "1254",
            "score": "0.879",
            "index": 43,
            "selectedWords": [
                "autre",
                "implorante",
                "priante",
                "sinc\u00e8re",
                "autre",
                "autre",
                "autre",
                "autre"
            ],
            "freeResponses": [],
            "nbPlayClick": 1,
            "expression": "EVIDENCE",
            "csv_id": 1254,
            "video_name": "DIVERS_PARL_EVIDENCE_AD_02_0002"
        },
        {
            "name": "246",
            "score": "0.744",
            "index": 44,
            "selectedWords": [
                "suppliante",
                "implorante",
                "sinc\u00e8re"
            ],
            "freeResponses": [],
            "nbPlayClick": 1,
            "expression": "EVIDENCE",
            "csv_id": 246,
            "video_name": "DIVERS_PARL_EVIDENCE_AD_01_0001"
        },
        {
            "name": "9781",
            "score": "0.991",
            "index": 45,
            "selectedWords": [
                "neutre",
                "s\u00fbre",
                "r\u00e9fl\u00e9chie",
                "autre"
            ],
            "freeResponses": [],
            "nbPlayClick": 2,
            "expression": "NEUTRE",
            "csv_id": 9815,
            "video_name": "DIVERS_PARL_AD_01_0004"
        },
        {
            "name": "3152",
            "score": "0.941",
            "index": 46,
            "selectedWords": [
                "incr\u00e9dule",
                "dubitative",
                "indign\u00e9e",
                "d\u00e9concert\u00e9e",
                "estomaqu\u00e9e",
                "autre",
                "autre",
                "autre",
                "autre",
                "autre",
                "autre",
                "autre",
                "autre",
                "m\u00e9contente",
                "irrit\u00e9e"
            ],
            "freeResponses": [],
            "nbPlayClick": 2,
            "expression": "INCREDULE",
            "csv_id": 3152,
            "video_name": "DIVERS_PARL_INCREDULE_AD_01_0001"
        },
        {
            "name": "9331",
            "score": "0.989",
            "index": 47,
            "selectedWords": [
                "neutre",
                "s\u00fbre"
            ],
            "freeResponses": [],
            "nbPlayClick": 1,
            "expression": "NEUTRE",
            "csv_id": 9365,
            "video_name": "DIVERS_BOOK_AD_04_0001"
        },
        {
            "name": "11443",
            "score": "0.996",
            "index": 48,
            "selectedWords": [
                "neutre",
                "autre",
                "autre",
                "ennuy\u00e9e"
            ],
            "freeResponses": [],
            "nbPlayClick": 2,
            "expression": "NEUTRE",
            "csv_id": 11480,
            "video_name": "DIVERS_PARL_AD_02_0004"
        },
        {
            "name": "4508",
            "score": "0.961",
            "index": 49,
            "selectedWords": [
                "\u00e9tonn\u00e9e",
                "sinc\u00e8re",
                "perplexe",
                "autre",
                "implorante"
            ],
            "freeResponses": [],
            "nbPlayClick": 3,
            "expression": "ETONNE",
            "csv_id": 4542,
            "video_name": "DIVERS_PARL_ETONNE_AD_01_0001"
        },
        {
            "name": "3895",
            "score": "0.953",
            "index": 50,
            "selectedWords": [
                "d\u00e9termin\u00e9e",
                "r\u00e9solue",
                "convaincue",
                "autre",
                "autre",
                "autre",
                "autre",
                "autre",
                "autre",
                "autre",
                "autre"
            ],
            "freeResponses": [],
            "nbPlayClick": 3,
            "expression": "NEUTRE",
            "csv_id": 3895,
            "video_name": "DIVERS_PARL_AD_06_0003"
        },
        {
            "name": "7814",
            "score": "0.983",
            "index": 51,
            "selectedWords": [
                "incr\u00e9dule",
                "m\u00e9fiante",
                "sceptique",
                "autre",
                "autre",
                "autre",
                "autre",
                "d\u00e9lur\u00e9e",
                "autre",
                "autre",
                "autre",
                "autre",
                "autre",
                "autre"
            ],
            "freeResponses": [],
            "nbPlayClick": 2,
            "expression": "INCREDULE",
            "csv_id": 7848,
            "video_name": "DIVERS_PARL_INCREDULE_AD_02_0003"
        },
        {
            "name": "1953",
            "score": "0.910",
            "index": 52,
            "selectedWords": [
                "autre",
                "dubitative",
                "sceptique",
                "autre",
                "autre",
                "autre",
                "autre",
                "autre",
                "autre",
                "pein\u00e9e",
                "autre",
                "autre",
                "autre",
                "autre",
                "autre",
                "autre",
                "autre",
                "autre",
                "autre",
                "autre",
                "pr\u00e9occup\u00e9e"
            ],
            "freeResponses": [],
            "nbPlayClick": 1,
            "expression": "RECONFORTANT",
            "csv_id": 1953,
            "video_name": "DIVERS_BOOK_RECONFORTANT_AD_01_0002"
        },
        {
            "name": "5429",
            "score": "0.969",
            "index": 53,
            "selectedWords": [
                "autre",
                "dubitative",
                "autre",
                "autre",
                "autre",
                "autre",
                "autre",
                "autre",
                "autre",
                "autre",
                "autre",
                "autre",
                "autre",
                "autre",
                "autre",
                "pr\u00e9occup\u00e9e",
                "autre",
                "autre",
                "s\u00fbre"
            ],
            "freeResponses": [],
            "nbPlayClick": 2,
            "expression": "EVIDENCE",
            "csv_id": 5463,
            "video_name": "DIVERS_PARL_EVIDENCE_AD_01_0001"
        },
        {
            "name": "10071",
            "score": "0.992",
            "index": 54,
            "selectedWords": [
                "d\u00e9termin\u00e9e",
                "r\u00e9solue",
                "d\u00e9cid\u00e9e",
                "autre",
                "autre",
                "autre",
                "autre",
                "autre",
                "in\u00e9branlable",
                "certaine"
            ],
            "freeResponses": [],
            "nbPlayClick": 2,
            "expression": "NEUTRE",
            "csv_id": 10105,
            "video_name": "DIVERS_PARL_AD_03_0001"
        },
        {
            "name": "6886",
            "score": "0.979",
            "index": 55,
            "selectedWords": [
                "en col\u00e8re",
                "en rogne",
                "m\u00e9contente",
                "indign\u00e9e"
            ],
            "freeResponses": [],
            "nbPlayClick": 1,
            "expression": "COLERE",
            "csv_id": 6920,
            "video_name": "DIVERS_PARL_COLERE_AD_02_0002"
        },
        {
            "name": "7738",
            "score": "0.983",
            "index": 56,
            "selectedWords": [
                "pensive",
                "r\u00e9fl\u00e9chie",
                "autre",
                "autre",
                "autre",
                "autre",
                "autre",
                "autre",
                "autre",
                "autre",
                "autre",
                "autre",
                "autre",
                "autre",
                "autre",
                "autre",
                "autre",
                "autre",
                "autre",
                "sinc\u00e8re",
                "s\u00fbre"
            ],
            "freeResponses": [],
            "nbPlayClick": 2,
            "expression": "NEUTRE",
            "csv_id": 7772,
            "video_name": "DIVERS_PARL_AD_04_0001"
        },
        {
            "name": "6318",
            "score": "0.976",
            "index": 57,
            "selectedWords": [
                "neutre",
                "s\u00fbre",
                "autre",
                "autre",
                "inexpressive",
                "fade"
            ],
            "freeResponses": [],
            "nbPlayClick": 2,
            "expression": "NEUTRE",
            "csv_id": 6352,
            "video_name": "DIVERS_BOOK_AD_01_0002"
        },
        {
            "name": "5774",
            "score": "0.972",
            "index": 58,
            "selectedWords": [
                "autre",
                "dubitative",
                "autre",
                "d\u00e9lur\u00e9e",
                "autre",
                "opini\u00e2tre",
                "coquine",
                "autre"
            ],
            "freeResponses": [],
            "nbPlayClick": 2,
            "expression": "INCREDULE",
            "csv_id": 5808,
            "video_name": "DIVERS_PARL_INCREDULE_AD_02_0003"
        },
        {
            "name": "8996",
            "score": "0.988",
            "index": 59,
            "selectedWords": [
                "espi\u00e8gle",
                "fac\u00e9tieuse",
                "rus\u00e9e"
            ],
            "freeResponses": [],
            "nbPlayClick": 1,
            "expression": "NEUTRE",
            "csv_id": 9030,
            "video_name": "DIVERS_PARL_AD_02_0002"
        }
    ],
    "training": [
        {
            "name": "77",
            "score": "0.639",
            "index": 0,
            "selectedWords": [
                "neutre",
                "certaine",
                "prouv\u00e9e",
                "r\u00e9fl\u00e9chie"
            ],
            "freeResponses": [],
            "nbPlayClick": 2,
            "expression": "NEUTRE"
        }
    ],
    "filenameDate": "2023-08-30_16-32"
}