{
    "user": {
        "isProlific": true,
        "id": "5e8605568be6ea1ffc220617",
        "session": "64f0474b91c2766b9703706a",
        "study": "64ef977375f88e4e1174dce0"
    },
    "userAgent": "Mozilla/5.0 (Windows NT 10.0; Win64; x64) AppleWebKit/537.36 (KHTML, like Gecko) Chrome/116.0.0.0 Safari/537.36",
    "landingDate": "2023-08-31T07:55:41.211Z",
    "startDate": "2023-08-31T07:58:23.671Z",
    "endDate": "2023-08-31T09:09:40.610Z",
    "reviews": [
        {
            "name": "10274",
            "score": "0.992",
            "index": 0,
            "selectedWords": [
                "neutre",
                "certaine"
            ],
            "freeResponses": [],
            "nbPlayClick": 3,
            "expression": "NEUTRE",
            "csv_id": 10308,
            "video_name": "DIVERS_PARL_AD_04_0004"
        },
        {
            "name": "10004",
            "score": "0.992",
            "index": 1,
            "selectedWords": [
                "autre",
                "certaine",
                "prouv\u00e9e"
            ],
            "freeResponses": [],
            "nbPlayClick": 2,
            "expression": "NEUTRE",
            "csv_id": 10038,
            "video_name": "DIVERS_PARL_AD_05_0003"
        },
        {
            "name": "6828",
            "score": "0.979",
            "index": 2,
            "selectedWords": [
                "narquoise",
                "finaude"
            ],
            "freeResponses": [],
            "nbPlayClick": 4,
            "expression": "INCREDULE",
            "csv_id": 6862,
            "video_name": "DIVERS_PARL_INCREDULE_AD_01_0001"
        },
        {
            "name": "4789",
            "score": "0.964",
            "index": 3,
            "selectedWords": [
                "\u00e9vidente",
                "certaine"
            ],
            "freeResponses": [],
            "nbPlayClick": 1,
            "expression": "NEUTRE",
            "csv_id": 4823,
            "video_name": "DIVERS_BOOK_AD_01_0002"
        },
        {
            "name": "4662",
            "score": "0.963",
            "index": 4,
            "selectedWords": [
                "apaisante",
                "autre",
                "autre",
                "autre",
                "autre",
                "autre",
                "convaincue"
            ],
            "freeResponses": [],
            "nbPlayClick": 3,
            "expression": "NEUTRE",
            "csv_id": 4696,
            "video_name": "DIVERS_PARL_AD_06_0003"
        },
        {
            "name": "10480",
            "score": "0.993",
            "index": 5,
            "selectedWords": [
                "\u00e9tonn\u00e9e",
                "autre",
                "autre",
                "autre",
                "autre",
                "autre",
                "autre",
                "ennuy\u00e9e"
            ],
            "freeResponses": [],
            "nbPlayClick": 4,
            "expression": "NEUTRE",
            "csv_id": 10514,
            "video_name": "DIVERS_PARL_AD_03_0004"
        },
        {
            "name": "11022",
            "score": "0.994",
            "index": 6,
            "selectedWords": [
                "d\u00e9termin\u00e9e",
                "r\u00e9solue"
            ],
            "freeResponses": [],
            "nbPlayClick": 2,
            "expression": "NEUTRE",
            "csv_id": 11056,
            "video_name": "DIVERS_PARL_AD_02_0001"
        },
        {
            "name": "2030",
            "score": "0.913",
            "index": 7,
            "selectedWords": [
                "d\u00e9termin\u00e9e",
                "manifeste"
            ],
            "freeResponses": [],
            "nbPlayClick": 2,
            "expression": "NEUTRE",
            "csv_id": 2030,
            "video_name": "DIVERS_PARL_AD_06_0004"
        },
        {
            "name": "3240",
            "score": "0.943",
            "index": 8,
            "selectedWords": [
                "autre",
                "autre",
                "autre",
                "f\u00e2ch\u00e9e",
                "contrari\u00e9e"
            ],
            "freeResponses": [],
            "nbPlayClick": 5,
            "expression": "EVIDENCE",
            "csv_id": 3240,
            "video_name": "DIVERS_PARL_EVIDENCE_AD_02_0002"
        },
        {
            "name": "6324",
            "score": "0.976",
            "index": 9,
            "selectedWords": [
                "\u00e9tonn\u00e9e",
                "ennuy\u00e9e"
            ],
            "freeResponses": [],
            "nbPlayClick": 3,
            "expression": "INCREDULE",
            "csv_id": 6358,
            "video_name": "DIVERS_BOOK_INCREDULE_AD_01_0001"
        },
        {
            "name": "9015",
            "score": "0.988",
            "index": 10,
            "selectedWords": [
                "d\u00e9termin\u00e9e",
                "r\u00e9solue"
            ],
            "freeResponses": [],
            "nbPlayClick": 2,
            "expression": "NEUTRE",
            "csv_id": 9049,
            "video_name": "DIVERS_BOOK_AD_03_0002"
        },
        {
            "name": "4934",
            "score": "0.965",
            "index": 11,
            "selectedWords": [
                "entreprenante",
                "apaisante"
            ],
            "freeResponses": [],
            "nbPlayClick": 4,
            "expression": "RECONFORTANT",
            "csv_id": 4968,
            "video_name": "DIVERS_PARL_RECONFORTANT_AD_02_0001"
        },
        {
            "name": "2217",
            "score": "0.918",
            "index": 12,
            "selectedWords": [
                "d\u00e9termin\u00e9e",
                "certaine"
            ],
            "freeResponses": [],
            "nbPlayClick": 2,
            "expression": "NEUTRE",
            "csv_id": 2217,
            "video_name": "DIVERS_PARL_AD_02_0004"
        },
        {
            "name": "3908",
            "score": "0.953",
            "index": 13,
            "selectedWords": [
                "enthousiaste",
                "excit\u00e9e"
            ],
            "freeResponses": [],
            "nbPlayClick": 3,
            "expression": "ENTHOUSIASTE",
            "csv_id": 3908,
            "video_name": "DIVERS_BOOK_ENTHOUSIASTE_AD_01_0004"
        },
        {
            "name": "8228",
            "score": "0.985",
            "index": 14,
            "selectedWords": [
                "exalt\u00e9e",
                "euphorique"
            ],
            "freeResponses": [],
            "nbPlayClick": 3,
            "expression": "ENTHOUSIASTE",
            "csv_id": 8262,
            "video_name": "DIVERS_BOOK_ENTHOUSIASTE_AD_01_0001"
        },
        {
            "name": "3401",
            "score": "0.945",
            "index": 15,
            "selectedWords": [
                "imp\u00e9n\u00e9trable",
                "atone"
            ],
            "freeResponses": [],
            "nbPlayClick": 4,
            "expression": "INCREDULE",
            "csv_id": 3401,
            "video_name": "DIVERS_PARL_INCREDULE_AD_02_0003"
        },
        {
            "name": "11903",
            "score": "0.997",
            "index": 16,
            "selectedWords": [
                "neutre",
                "atone"
            ],
            "freeResponses": [],
            "nbPlayClick": 3,
            "expression": "NEUTRE",
            "csv_id": 11940,
            "video_name": "DIVERS_BOOK_AD_03_0002"
        },
        {
            "name": "8609",
            "score": "0.987",
            "index": 17,
            "selectedWords": [
                "autre",
                "fade",
                "imp\u00e9n\u00e9trable"
            ],
            "freeResponses": [],
            "nbPlayClick": 3,
            "expression": "DESOLE",
            "csv_id": 8643,
            "video_name": "DIVERS_BOOK_DESOLE_AD_03_0002"
        },
        {
            "name": "1678",
            "score": "0.900",
            "index": 18,
            "selectedWords": [
                "dubitative",
                "m\u00e9contente"
            ],
            "freeResponses": [],
            "nbPlayClick": 6,
            "expression": "INCREDULE",
            "csv_id": 1678,
            "video_name": "DIVERS_PARL_INCREDULE_AD_01_0001"
        },
        {
            "name": "3560",
            "score": "0.948",
            "index": 19,
            "selectedWords": [
                "froide",
                "imp\u00e9n\u00e9trable"
            ],
            "freeResponses": [],
            "nbPlayClick": 5,
            "expression": "NEUTRE",
            "csv_id": 3560,
            "video_name": "DIVERS_BOOK_AD_03_0002"
        },
        {
            "name": "7746",
            "score": "0.983",
            "index": 20,
            "selectedWords": [
                "manifeste",
                "certaine"
            ],
            "freeResponses": [],
            "nbPlayClick": 4,
            "expression": "NEUTRE",
            "csv_id": 7780,
            "video_name": "DIVERS_PARL_AD_04_0001"
        },
        {
            "name": "11034",
            "score": "0.994",
            "index": 21,
            "selectedWords": [
                "coquine",
                "espi\u00e8gle"
            ],
            "freeResponses": [],
            "nbPlayClick": 5,
            "expression": "ESPIEGLE",
            "csv_id": 11068,
            "video_name": "DIVERS_BOOK_ESPIEGLE_AD_03_0001"
        },
        {
            "name": "11265",
            "score": "0.995",
            "index": 22,
            "selectedWords": [
                "d\u00e9termin\u00e9e",
                "autre",
                "autre",
                "autre",
                "autre",
                "autre",
                "passionn\u00e9e"
            ],
            "freeResponses": [],
            "nbPlayClick": 2,
            "expression": "ENTHOUSIASTE",
            "csv_id": 11299,
            "video_name": "DIVERS_BOOK_ENTHOUSIASTE_AD_01_0001"
        },
        {
            "name": "11748",
            "score": "0.996",
            "index": 23,
            "selectedWords": [
                "neutre",
                "autre",
                "autre",
                "inexpressive"
            ],
            "freeResponses": [],
            "nbPlayClick": 3,
            "expression": "NEUTRE",
            "csv_id": 11785,
            "video_name": "DIVERS_BOOK_AD_03_0002"
        },
        {
            "name": "7900",
            "score": "0.984",
            "index": 24,
            "selectedWords": [
                "d\u00e9cid\u00e9e",
                "officielle"
            ],
            "freeResponses": [],
            "nbPlayClick": 3,
            "expression": "NEUTRE",
            "csv_id": 7934,
            "video_name": "DIVERS_PARL_AD_05_0001"
        },
        {
            "name": "4429",
            "score": "0.960",
            "index": 25,
            "selectedWords": [
                "d\u00e9termin\u00e9e",
                "d\u00e9cid\u00e9e"
            ],
            "freeResponses": [],
            "nbPlayClick": 2,
            "expression": "NEUTRE",
            "csv_id": 4463,
            "video_name": "DIVERS_PARL_AD_03_0001"
        },
        {
            "name": "7112",
            "score": "0.980",
            "index": 26,
            "selectedWords": [
                "narquoise",
                "s\u00fbre"
            ],
            "freeResponses": [],
            "nbPlayClick": 3,
            "expression": "NEUTRE",
            "csv_id": 7146,
            "video_name": "DIVERS_PARL_AD_02_0001"
        },
        {
            "name": "628",
            "score": "0.824",
            "index": 27,
            "selectedWords": [
                "fac\u00e9tieuse",
                "triomphale"
            ],
            "freeResponses": [],
            "nbPlayClick": 4,
            "expression": "NEUTRE",
            "csv_id": 628,
            "video_name": "DIVERS_PARL_AD_06_0002"
        },
        {
            "name": "3340",
            "score": "0.944",
            "index": 28,
            "selectedWords": [
                "d\u00e9sol\u00e9e",
                "d\u00e9pit\u00e9e"
            ],
            "freeResponses": [],
            "nbPlayClick": 4,
            "expression": "SUPPLIANT",
            "csv_id": 3340,
            "video_name": "DIVERS_PARL_SUPPLIANT_AD_02_0002"
        },
        {
            "name": "3956",
            "score": "0.953",
            "index": 29,
            "selectedWords": [
                "afflig\u00e9e",
                "ennuy\u00e9e"
            ],
            "freeResponses": [],
            "nbPlayClick": 3,
            "expression": "RECONFORTANT",
            "csv_id": 3956,
            "video_name": "DIVERS_PARL_RECONFORTANT_AD_02_0001"
        },
        {
            "name": "7183",
            "score": "0.980",
            "index": 30,
            "selectedWords": [
                "accabl\u00e9e",
                "d\u00e9courag\u00e9e"
            ],
            "freeResponses": [],
            "nbPlayClick": 5,
            "expression": "DESOLE",
            "csv_id": 7217,
            "video_name": "DIVERS_PARL_DESOLE_AD_01_0004"
        },
        {
            "name": "5738",
            "score": "0.972",
            "index": 31,
            "selectedWords": [
                "d\u00e9termin\u00e9e",
                "agit\u00e9e"
            ],
            "freeResponses": [],
            "nbPlayClick": 2,
            "expression": "ENTHOUSIASTE",
            "csv_id": 5772,
            "video_name": "DIVERS_PARL_ENTHOUSIASTE_AD_02_0001"
        },
        {
            "name": "2050",
            "score": "0.913",
            "index": 32,
            "selectedWords": [
                "attrist\u00e9e",
                "navr\u00e9e"
            ],
            "freeResponses": [],
            "nbPlayClick": 5,
            "expression": "NEUTRE",
            "csv_id": 2050,
            "video_name": "DIVERS_PARL_AD_01_0001"
        },
        {
            "name": "2310",
            "score": "0.921",
            "index": 33,
            "selectedWords": [
                "neutre",
                "autre",
                "imp\u00e9n\u00e9trable"
            ],
            "freeResponses": [],
            "nbPlayClick": 2,
            "expression": "NEUTRE",
            "csv_id": 2310,
            "video_name": "DIVERS_PARL_AD_05_0001"
        },
        {
            "name": "2454",
            "score": "0.925",
            "index": 34,
            "selectedWords": [
                "indiscutable",
                "certaine"
            ],
            "freeResponses": [],
            "nbPlayClick": 2,
            "expression": "NEUTRE",
            "csv_id": 2454,
            "video_name": "DIVERS_PARL_AD_04_0001"
        },
        {
            "name": "8471",
            "score": "0.986",
            "index": 35,
            "selectedWords": [
                "certaine",
                "convaincue"
            ],
            "freeResponses": [],
            "nbPlayClick": 3,
            "expression": "NEUTRE",
            "csv_id": 8505,
            "video_name": "DIVERS_BOOK_AD_01_0001"
        },
        {
            "name": "9930",
            "score": "0.991",
            "index": 36,
            "selectedWords": [
                "\u00e9vidente",
                "autre",
                "autre",
                "autre",
                "autre",
                "indiscutable"
            ],
            "freeResponses": [],
            "nbPlayClick": 1,
            "expression": "NEUTRE",
            "csv_id": 9964,
            "video_name": "DIVERS_PARL_AD_04_0003"
        },
        {
            "name": "7660",
            "score": "0.983",
            "index": 37,
            "selectedWords": [
                "autre",
                "inexpressive",
                "fade"
            ],
            "freeResponses": [],
            "nbPlayClick": 3,
            "expression": "NEUTRE",
            "csv_id": 7694,
            "video_name": "DIVERS_BOOK_AD_03_0002"
        },
        {
            "name": "10380",
            "score": "0.993",
            "index": 38,
            "selectedWords": [
                "d\u00e9sol\u00e9e",
                "r\u00e9fl\u00e9chie"
            ],
            "freeResponses": [],
            "nbPlayClick": 3,
            "expression": "NEUTRE",
            "csv_id": 10414,
            "video_name": "DIVERS_PARL_AD_03_0001"
        },
        {
            "name": "11752",
            "score": "0.996",
            "index": 39,
            "selectedWords": [
                "\u00e9tonn\u00e9e",
                "estomaqu\u00e9e"
            ],
            "freeResponses": [],
            "nbPlayClick": 6,
            "expression": "ETONNE",
            "csv_id": 11789,
            "video_name": "DIVERS_BOOK_ETONNE_AD_01_0004"
        },
        {
            "name": "8142",
            "score": "0.985",
            "index": 40,
            "selectedWords": [
                "d\u00e9pit\u00e9e",
                "attrist\u00e9e"
            ],
            "freeResponses": [],
            "nbPlayClick": 2,
            "expression": "PENSIF",
            "csv_id": 8176,
            "video_name": "DIVERS_BOOK_PENSIF_AD_03_0002"
        },
        {
            "name": "4523",
            "score": "0.961",
            "index": 41,
            "selectedWords": [
                "attrist\u00e9e",
                "d\u00e9courag\u00e9e"
            ],
            "freeResponses": [],
            "nbPlayClick": 10,
            "expression": "RECONFORTANT",
            "csv_id": 4557,
            "video_name": "DIVERS_BOOK_RECONFORTANT_AD_01_0002"
        },
        {
            "name": "6942",
            "score": "0.979",
            "index": 42,
            "selectedWords": [
                "froide",
                "d\u00e9cid\u00e9e"
            ],
            "freeResponses": [],
            "nbPlayClick": 3,
            "expression": "NEUTRE",
            "csv_id": 6976,
            "video_name": "DIVERS_PARL_AD_06_0003"
        },
        {
            "name": "3885",
            "score": "0.953",
            "index": 43,
            "selectedWords": [
                "neutre",
                "nette"
            ],
            "freeResponses": [],
            "nbPlayClick": 2,
            "expression": "NEUTRE",
            "csv_id": 3885,
            "video_name": "DIVERS_PARL_AD_04_0003"
        },
        {
            "name": "7098",
            "score": "0.980",
            "index": 44,
            "selectedWords": [
                "triomphale",
                "enflamm\u00e9e"
            ],
            "freeResponses": [],
            "nbPlayClick": 3,
            "expression": "ENTHOUSIASTE",
            "csv_id": 7132,
            "video_name": "DIVERS_PARL_ENTHOUSIASTE_AD_02_0001"
        },
        {
            "name": "8602",
            "score": "0.987",
            "index": 45,
            "selectedWords": [
                "\u00e9berlu\u00e9e",
                "abasourdie"
            ],
            "freeResponses": [],
            "nbPlayClick": 4,
            "expression": "PENSIF",
            "csv_id": 8636,
            "video_name": "DIVERS_BOOK_PENSIF_AD_01_0003"
        },
        {
            "name": "7445",
            "score": "0.982",
            "index": 46,
            "selectedWords": [
                "d\u00e9termin\u00e9e",
                "ferme"
            ],
            "freeResponses": [],
            "nbPlayClick": 3,
            "expression": "NEUTRE",
            "csv_id": 7479,
            "video_name": "DIVERS_BOOK_AD_04_0001"
        },
        {
            "name": "11189",
            "score": "0.995",
            "index": 47,
            "selectedWords": [
                "en col\u00e8re",
                "ferme"
            ],
            "freeResponses": [],
            "nbPlayClick": 3,
            "expression": "COLERE",
            "csv_id": 11223,
            "video_name": "DIVERS_PARL_COLERE_AD_02_0002"
        },
        {
            "name": "10561",
            "score": "0.993",
            "index": 48,
            "selectedWords": [
                "espi\u00e8gle",
                "coquine"
            ],
            "freeResponses": [],
            "nbPlayClick": 2,
            "expression": "ESPIEGLE",
            "csv_id": 10595,
            "video_name": "DIVERS_BOOK_ESPIEGLE_AD_03_0001"
        },
        {
            "name": "6927",
            "score": "0.979",
            "index": 49,
            "selectedWords": [
                "\u00e9vidente",
                "certaine"
            ],
            "freeResponses": [],
            "nbPlayClick": 4,
            "expression": "NEUTRE",
            "csv_id": 6961,
            "video_name": "DIVERS_BOOK_AD_01_0001"
        },
        {
            "name": "5553",
            "score": "0.970",
            "index": 50,
            "selectedWords": [
                "r\u00e9confortante",
                "enthousiaste"
            ],
            "freeResponses": [],
            "nbPlayClick": 5,
            "expression": "RECONFORTANT",
            "csv_id": 5587,
            "video_name": "DIVERS_BOOK_RECONFORTANT_AD_01_0002"
        },
        {
            "name": "9649",
            "score": "0.990",
            "index": 51,
            "selectedWords": [
                "autre",
                "autre",
                "emball\u00e9e",
                "enthousiaste"
            ],
            "freeResponses": [],
            "nbPlayClick": 3,
            "expression": "ENTHOUSIASTE",
            "csv_id": 9683,
            "video_name": "DIVERS_PARL_ENTHOUSIASTE_AD_02_0001"
        },
        {
            "name": "10809",
            "score": "0.994",
            "index": 52,
            "selectedWords": [
                "neutre",
                "autre",
                "autre",
                "autre",
                "autre",
                "autre",
                "autre",
                "imp\u00e9n\u00e9trable"
            ],
            "freeResponses": [],
            "nbPlayClick": 4,
            "expression": "NEUTRE",
            "csv_id": 10843,
            "video_name": "DIVERS_BOOK_AD_01_0002"
        },
        {
            "name": "12378",
            "score": "0.999",
            "index": 53,
            "selectedWords": [
                "certaine",
                "s\u00fbre"
            ],
            "freeResponses": [],
            "nbPlayClick": 2,
            "expression": "NEUTRE",
            "csv_id": 12415,
            "video_name": "DIVERS_BOOK_AD_04_0002"
        },
        {
            "name": "7625",
            "score": "0.983",
            "index": 54,
            "selectedWords": [
                "ardente",
                "emball\u00e9e"
            ],
            "freeResponses": [],
            "nbPlayClick": 3,
            "expression": "ENTHOUSIASTE",
            "csv_id": 7659,
            "video_name": "DIVERS_PARL_ENTHOUSIASTE_AD_01_0003"
        },
        {
            "name": "11302",
            "score": "0.995",
            "index": 55,
            "selectedWords": [
                "incr\u00e9dule",
                "dubitative",
                "h\u00e9b\u00e9t\u00e9e"
            ],
            "freeResponses": [],
            "nbPlayClick": 2,
            "expression": "ETONNE",
            "csv_id": 11336,
            "video_name": "DIVERS_BOOK_ETONNE_AD_01_0002"
        },
        {
            "name": "4222",
            "score": "0.957",
            "index": 56,
            "selectedWords": [
                "d\u00e9sol\u00e9e",
                "attrist\u00e9e"
            ],
            "freeResponses": [],
            "nbPlayClick": 4,
            "expression": "RECONFORTANT",
            "csv_id": 4222,
            "video_name": "DIVERS_BOOK_RECONFORTANT_AD_01_0004"
        },
        {
            "name": "3018",
            "score": "0.939",
            "index": 57,
            "selectedWords": [
                "attrist\u00e9e",
                "d\u00e9pit\u00e9e",
                "entreprenante"
            ],
            "freeResponses": [],
            "nbPlayClick": 6,
            "expression": "EVIDENCE",
            "csv_id": 3018,
            "video_name": "DIVERS_PARL_EVIDENCE_AD_01_0001"
        },
        {
            "name": "6054",
            "score": "0.974",
            "index": 58,
            "selectedWords": [
                "afflig\u00e9e",
                "accabl\u00e9e"
            ],
            "freeResponses": [],
            "nbPlayClick": 3,
            "expression": "SUPPLIANT",
            "csv_id": 6088,
            "video_name": "DIVERS_BOOK_SUPPLIANT_AD_01_0002"
        },
        {
            "name": "4136",
            "score": "0.956",
            "index": 59,
            "selectedWords": [
                "d\u00e9termin\u00e9e",
                "officielle"
            ],
            "freeResponses": [],
            "nbPlayClick": 3,
            "expression": "EVIDENCE",
            "csv_id": 4136,
            "video_name": "DIVERS_PARL_EVIDENCE_AD_02_0002"
        }
    ],
    "training": [
        {
            "name": "77",
            "score": "0.639",
            "index": 0,
            "selectedWords": [
                "d\u00e9termin\u00e9e",
                "autre",
                "autre",
                "autre",
                "autre",
                "autre",
                "autre",
                "autre",
                "autre",
                "indubitable"
            ],
            "freeResponses": [],
            "nbPlayClick": 2,
            "expression": "NEUTRE"
        }
    ],
    "filenameDate": "2023-08-31_10-9"
}