{
    "user": {
        "isProlific": true,
        "id": "5e8cfd341766840c12eb0c8a",
        "session": "65ba23c206baeac62bd5523a",
        "study": "64ef977375f88e4e1174dce0"
    },
    "userAgent": "Mozilla/5.0 (Windows NT 10.0; Win64; x64) AppleWebKit/537.36 (KHTML, like Gecko) Chrome/120.0.0.0 Safari/537.36",
    "landingDate": "2024-01-31T10:41:51.387Z",
    "startDate": "2024-01-31T10:43:48.314Z",
    "endDate": "2024-01-31T11:14:59.961Z",
    "reviews": [
        {
            "name": "9590",
            "score": "0.990",
            "index": 0,
            "selectedWords": [
                "espi\u00e8gle",
                "narquoise"
            ],
            "freeResponses": [],
            "nbPlayClick": 3,
            "expression": "NEUTRE",
            "csv_id": 9624,
            "video_name": "DIVERS_PARL_AD_05_0004"
        },
        {
            "name": "4967",
            "score": "0.965",
            "index": 1,
            "selectedWords": [
                "\u00e9vidente",
                "irr\u00e9cusable",
                "officielle"
            ],
            "freeResponses": [],
            "nbPlayClick": 2,
            "expression": "NEUTRE",
            "csv_id": 5001,
            "video_name": "DIVERS_PARL_AD_06_0002"
        },
        {
            "name": "790",
            "score": "0.841",
            "index": 2,
            "selectedWords": [
                "en col\u00e8re",
                "irrit\u00e9e",
                "m\u00e9contente"
            ],
            "freeResponses": [],
            "nbPlayClick": 2,
            "expression": "NEUTRE",
            "csv_id": 790,
            "video_name": "DIVERS_PARL_AD_04_0001"
        },
        {
            "name": "7386",
            "score": "0.981",
            "index": 3,
            "selectedWords": [
                "incr\u00e9dule",
                "dubitative",
                "perplexe"
            ],
            "freeResponses": [],
            "nbPlayClick": 2,
            "expression": "INCREDULE",
            "csv_id": 7420,
            "video_name": "DIVERS_BOOK_INCREDULE_AD_01_0001"
        },
        {
            "name": "10822",
            "score": "0.994",
            "index": 4,
            "selectedWords": [
                "\u00e9vidente",
                "officielle"
            ],
            "freeResponses": [],
            "nbPlayClick": 3,
            "expression": "NEUTRE",
            "csv_id": 10856,
            "video_name": "DIVERS_PARL_AD_04_0001"
        },
        {
            "name": "9361",
            "score": "0.990",
            "index": 5,
            "selectedWords": [
                "afflig\u00e9e",
                "attrist\u00e9e"
            ],
            "freeResponses": [],
            "nbPlayClick": 1,
            "expression": "SUPPLIANT",
            "csv_id": 9395,
            "video_name": "DIVERS_PARL_SUPPLIANT_AD_02_0001"
        },
        {
            "name": "6184",
            "score": "0.975",
            "index": 6,
            "selectedWords": [
                "officielle",
                "limpide",
                "s\u00fbre"
            ],
            "freeResponses": [],
            "nbPlayClick": 2,
            "expression": "NEUTRE",
            "csv_id": 6218,
            "video_name": "DIVERS_PARL_AD_01_0001"
        },
        {
            "name": "713",
            "score": "0.833",
            "index": 7,
            "selectedWords": [
                "taquine",
                "narquoise"
            ],
            "freeResponses": [],
            "nbPlayClick": 2,
            "expression": "INCREDULE",
            "csv_id": 713,
            "video_name": "DIVERS_PARL_INCREDULE_AD_02_0003"
        },
        {
            "name": "11179",
            "score": "0.995",
            "index": 8,
            "selectedWords": [
                "confuse",
                "d\u00e9sorient\u00e9e"
            ],
            "freeResponses": [],
            "nbPlayClick": 1,
            "expression": "PENSIF",
            "csv_id": 11213,
            "video_name": "DIVERS_PARL_PENSIF_AD_01_0002"
        },
        {
            "name": "3306",
            "score": "0.944",
            "index": 9,
            "selectedWords": [
                "enthousiaste",
                "euphorique",
                "exalt\u00e9e"
            ],
            "freeResponses": [],
            "nbPlayClick": 1,
            "expression": "ENTHOUSIASTE",
            "csv_id": 3306,
            "video_name": "DIVERS_BOOK_ENTHOUSIASTE_AD_01_0004"
        },
        {
            "name": "7205",
            "score": "0.981",
            "index": 10,
            "selectedWords": [
                "espi\u00e8gle",
                "narquoise",
                "ferme"
            ],
            "freeResponses": [],
            "nbPlayClick": 1,
            "expression": "NEUTRE",
            "csv_id": 7239,
            "video_name": "DIVERS_PARL_AD_03_0001"
        },
        {
            "name": "9254",
            "score": "0.989",
            "index": 11,
            "selectedWords": [
                "\u00e9vidente",
                "officielle",
                "notoire"
            ],
            "freeResponses": [],
            "nbPlayClick": 3,
            "expression": "NEUTRE",
            "csv_id": 9288,
            "video_name": "DIVERS_PARL_AD_06_0002"
        },
        {
            "name": "3469",
            "score": "0.946",
            "index": 12,
            "selectedWords": [
                "neutre",
                "s\u00fbre"
            ],
            "freeResponses": [],
            "nbPlayClick": 2,
            "expression": "NEUTRE",
            "csv_id": 3469,
            "video_name": "DIVERS_PARL_AD_05_0004"
        },
        {
            "name": "1381",
            "score": "0.885",
            "index": 13,
            "selectedWords": [
                "certaine",
                "enthousiaste",
                "euphorique"
            ],
            "freeResponses": [],
            "nbPlayClick": 2,
            "expression": "RECONFORTANT",
            "csv_id": 1381,
            "video_name": "DIVERS_PARL_RECONFORTANT_AD_02_0001"
        },
        {
            "name": "3674",
            "score": "0.949",
            "index": 14,
            "selectedWords": [
                "\u00e9tonn\u00e9e",
                "nette"
            ],
            "freeResponses": [],
            "nbPlayClick": 2,
            "expression": "NEUTRE",
            "csv_id": 3674,
            "video_name": "DIVERS_PARL_AD_04_0002"
        },
        {
            "name": "9155",
            "score": "0.989",
            "index": 15,
            "selectedWords": [
                "enthousiaste",
                "sinc\u00e8re"
            ],
            "freeResponses": [],
            "nbPlayClick": 5,
            "expression": "ENTHOUSIASTE",
            "csv_id": 9189,
            "video_name": "DIVERS_PARL_ENTHOUSIASTE_AD_02_0001"
        },
        {
            "name": "5593",
            "score": "0.971",
            "index": 16,
            "selectedWords": [
                "officielle",
                "certaine",
                "s\u00fbre"
            ],
            "freeResponses": [],
            "nbPlayClick": 2,
            "expression": "NEUTRE",
            "csv_id": 5627,
            "video_name": "DIVERS_PARL_AD_04_0002"
        },
        {
            "name": "1740",
            "score": "0.902",
            "index": 17,
            "selectedWords": [
                "en col\u00e8re",
                "irrit\u00e9e",
                "m\u00e9contente",
                "contrari\u00e9e"
            ],
            "freeResponses": [],
            "nbPlayClick": 3,
            "expression": "COLERE",
            "csv_id": 1740,
            "video_name": "DIVERS_PARL_COLERE_AD_01_0003"
        },
        {
            "name": "5050",
            "score": "0.966",
            "index": 18,
            "selectedWords": [
                "neutre",
                "limpide",
                "froide"
            ],
            "freeResponses": [],
            "nbPlayClick": 3,
            "expression": "NEUTRE",
            "csv_id": 5084,
            "video_name": "DIVERS_PARL_AD_04_0004"
        },
        {
            "name": "2026",
            "score": "0.912",
            "index": 19,
            "selectedWords": [
                "officielle",
                "limpide"
            ],
            "freeResponses": [],
            "nbPlayClick": 2,
            "expression": "NEUTRE",
            "csv_id": 2026,
            "video_name": "DIVERS_PARL_AD_06_0004"
        },
        {
            "name": "5016",
            "score": "0.966",
            "index": 20,
            "selectedWords": [
                "espi\u00e8gle",
                "dubitative"
            ],
            "freeResponses": [],
            "nbPlayClick": 3,
            "expression": "NEUTRE",
            "csv_id": 5050,
            "video_name": "DIVERS_PARL_AD_03_0003"
        },
        {
            "name": "8662",
            "score": "0.987",
            "index": 21,
            "selectedWords": [
                "ferme",
                "nette"
            ],
            "freeResponses": [],
            "nbPlayClick": 3,
            "expression": "NEUTRE",
            "csv_id": 8696,
            "video_name": "DIVERS_BOOK_AD_03_0001"
        },
        {
            "name": "8142",
            "score": "0.985",
            "index": 22,
            "selectedWords": [
                "espi\u00e8gle",
                "narquoise",
                "ferme"
            ],
            "freeResponses": [],
            "nbPlayClick": 2,
            "expression": "PENSIF",
            "csv_id": 8176,
            "video_name": "DIVERS_BOOK_PENSIF_AD_03_0002"
        },
        {
            "name": "12176",
            "score": "0.998",
            "index": 23,
            "selectedWords": [
                "espi\u00e8gle",
                "malicieuse",
                "maligne"
            ],
            "freeResponses": [],
            "nbPlayClick": 1,
            "expression": "NEUTRE",
            "csv_id": 12213,
            "video_name": "DIVERS_BOOK_AD_01_0002"
        },
        {
            "name": "10979",
            "score": "0.994",
            "index": 24,
            "selectedWords": [
                "\u00e9vidente",
                "agressive",
                "froide"
            ],
            "freeResponses": [],
            "nbPlayClick": 2,
            "expression": "NEUTRE",
            "csv_id": 11013,
            "video_name": "DIVERS_PARL_AD_01_0002"
        },
        {
            "name": "3455",
            "score": "0.946",
            "index": 25,
            "selectedWords": [
                "r\u00e9confortante",
                "apaisante",
                "pr\u00e9occup\u00e9e"
            ],
            "freeResponses": [],
            "nbPlayClick": 2,
            "expression": "RECONFORTANT",
            "csv_id": 3455,
            "video_name": "DIVERS_PARL_RECONFORTANT_AD_02_0001"
        },
        {
            "name": "9968",
            "score": "0.992",
            "index": 26,
            "selectedWords": [
                "\u00e9vidente",
                "espi\u00e8gle"
            ],
            "freeResponses": [],
            "nbPlayClick": 2,
            "expression": "NEUTRE",
            "csv_id": 10002,
            "video_name": "DIVERS_PARL_AD_01_0006"
        },
        {
            "name": "2538",
            "score": "0.928",
            "index": 27,
            "selectedWords": [
                "incr\u00e9dule"
            ],
            "freeResponses": [
                "Sarcastique"
            ],
            "nbPlayClick": 5,
            "response": "Sarcastique",
            "expression": "EVIDENCE",
            "csv_id": 2538,
            "video_name": "DIVERS_PARL_EVIDENCE_AD_01_0001"
        },
        {
            "name": "9193",
            "score": "0.989",
            "index": 28,
            "selectedWords": [
                "\u00e9vidente",
                "prouv\u00e9e",
                "certaine",
                "r\u00e9fl\u00e9chie"
            ],
            "freeResponses": [],
            "nbPlayClick": 2,
            "expression": "NEUTRE",
            "csv_id": 9227,
            "video_name": "DIVERS_BOOK_AD_04_0002"
        },
        {
            "name": "12301",
            "score": "0.998",
            "index": 29,
            "selectedWords": [
                "d\u00e9termin\u00e9e",
                "r\u00e9fl\u00e9chie",
                "irrit\u00e9e"
            ],
            "freeResponses": [],
            "nbPlayClick": 2,
            "expression": "ETONNE",
            "csv_id": 12338,
            "video_name": "DIVERS_BOOK_ETONNE_AD_03_0001"
        },
        {
            "name": "9336",
            "score": "0.989",
            "index": 30,
            "selectedWords": [
                "d\u00e9termin\u00e9e",
                "manifeste"
            ],
            "freeResponses": [],
            "nbPlayClick": 1,
            "expression": "DETERMINE",
            "csv_id": 9370,
            "video_name": "DIVERS_PARL_DETERMINE_AD_01_0002"
        },
        {
            "name": "8513",
            "score": "0.986",
            "index": 31,
            "selectedWords": [
                "coquine",
                "exalt\u00e9e",
                "euphorique"
            ],
            "freeResponses": [],
            "nbPlayClick": 1,
            "expression": "ESPIEGLE",
            "csv_id": 8547,
            "video_name": "DIVERS_BOOK_ESPIEGLE_AD_03_0001"
        },
        {
            "name": "7821",
            "score": "0.984",
            "index": 32,
            "selectedWords": [
                "\u00e9vidente",
                "indubitable"
            ],
            "freeResponses": [],
            "nbPlayClick": 1,
            "expression": "NEUTRE",
            "csv_id": 7855,
            "video_name": "DIVERS_PARL_AD_03_0001"
        },
        {
            "name": "5047",
            "score": "0.966",
            "index": 33,
            "selectedWords": [
                "espi\u00e8gle",
                "malicieuse"
            ],
            "freeResponses": [],
            "nbPlayClick": 3,
            "expression": "INCREDULE",
            "csv_id": 5081,
            "video_name": "DIVERS_BOOK_INCREDULE_AD_01_0001"
        },
        {
            "name": "7627",
            "score": "0.983",
            "index": 34,
            "selectedWords": [
                "d\u00e9sol\u00e9e",
                "absente"
            ],
            "freeResponses": [],
            "nbPlayClick": 2,
            "expression": "DESOLE",
            "csv_id": 7661,
            "video_name": "DIVERS_PARL_DESOLE_AD_02_0002"
        },
        {
            "name": "5756",
            "score": "0.972",
            "index": 35,
            "selectedWords": [
                "espi\u00e8gle",
                "narquoise"
            ],
            "freeResponses": [],
            "nbPlayClick": 1,
            "expression": "EVIDENCE",
            "csv_id": 5790,
            "video_name": "DIVERS_PARL_EVIDENCE_AD_02_0002"
        },
        {
            "name": "5670",
            "score": "0.971",
            "index": 36,
            "selectedWords": [
                "irrit\u00e9e",
                "en rogne",
                "m\u00e9contente",
                "contrari\u00e9e"
            ],
            "freeResponses": [],
            "nbPlayClick": 1,
            "expression": "EVIDENCE",
            "csv_id": 5704,
            "video_name": "DIVERS_PARL_EVIDENCE_AD_02_0002"
        },
        {
            "name": "4086",
            "score": "0.955",
            "index": 37,
            "selectedWords": [
                "espi\u00e8gle",
                "narquoise",
                "notoire"
            ],
            "freeResponses": [],
            "nbPlayClick": 2,
            "expression": "NEUTRE",
            "csv_id": 4086,
            "video_name": "DIVERS_PARL_AD_03_0003"
        },
        {
            "name": "8885",
            "score": "0.988",
            "index": 38,
            "selectedWords": [
                "\u00e9vidente",
                "agressive",
                "froide"
            ],
            "freeResponses": [],
            "nbPlayClick": 2,
            "expression": "DETERMINE",
            "csv_id": 8919,
            "video_name": "DIVERS_PARL_DETERMINE_AD_01_0002"
        },
        {
            "name": "149",
            "score": "0.701",
            "index": 39,
            "selectedWords": [
                "autre",
                "autre",
                "autre",
                "autre",
                "ennuy\u00e9e",
                "contrari\u00e9e"
            ],
            "freeResponses": [],
            "nbPlayClick": 2,
            "expression": "EVIDENCE",
            "csv_id": 149,
            "video_name": "DIVERS_PARL_EVIDENCE_AD_01_0001"
        },
        {
            "name": "1331",
            "score": "0.883",
            "index": 40,
            "selectedWords": [
                "en col\u00e8re",
                "irrit\u00e9e",
                "f\u00e2ch\u00e9e",
                "contrari\u00e9e"
            ],
            "freeResponses": [],
            "nbPlayClick": 1,
            "expression": "COLERE",
            "csv_id": 1331,
            "video_name": "DIVERS_PARL_COLERE_AD_02_0002"
        },
        {
            "name": "9699",
            "score": "0.991",
            "index": 41,
            "selectedWords": [
                "en col\u00e8re",
                "hargneuse",
                "f\u00e2ch\u00e9e",
                "indign\u00e9e"
            ],
            "freeResponses": [],
            "nbPlayClick": 1,
            "expression": "COLERE",
            "csv_id": 9733,
            "video_name": "DIVERS_PARL_COLERE_AD_02_0002"
        },
        {
            "name": "8944",
            "score": "0.988",
            "index": 42,
            "selectedWords": [
                "pensive",
                "transport\u00e9e",
                "passionn\u00e9e",
                "\u00e9loquente"
            ],
            "freeResponses": [],
            "nbPlayClick": 1,
            "expression": "DESOLE",
            "csv_id": 8978,
            "video_name": "DIVERS_BOOK_DESOLE_AD_03_0002"
        },
        {
            "name": "6261",
            "score": "0.975",
            "index": 43,
            "selectedWords": [
                "r\u00e9confortante",
                "autre",
                "nette",
                "r\u00e9fl\u00e9chie"
            ],
            "freeResponses": [],
            "nbPlayClick": 1,
            "expression": "NEUTRE",
            "csv_id": 6295,
            "video_name": "DIVERS_PARL_AD_04_0004"
        },
        {
            "name": "1291",
            "score": "0.881",
            "index": 44,
            "selectedWords": [
                "enthousiaste",
                "euphorique"
            ],
            "freeResponses": [],
            "nbPlayClick": 1,
            "expression": "RECONFORTANT",
            "csv_id": 1291,
            "video_name": "DIVERS_PARL_RECONFORTANT_AD_02_0001"
        },
        {
            "name": "6061",
            "score": "0.974",
            "index": 45,
            "selectedWords": [
                "enthousiaste",
                "\u00e9loquente",
                "emball\u00e9e"
            ],
            "freeResponses": [],
            "nbPlayClick": 2,
            "expression": "RECONFORTANT",
            "csv_id": 6095,
            "video_name": "DIVERS_BOOK_RECONFORTANT_AD_03_0002"
        },
        {
            "name": "2324",
            "score": "0.922",
            "index": 46,
            "selectedWords": [
                "espi\u00e8gle",
                "narquoise",
                "taquine"
            ],
            "freeResponses": [],
            "nbPlayClick": 1,
            "expression": "INCREDULE",
            "csv_id": 2324,
            "video_name": "DIVERS_BOOK_INCREDULE_AD_01_0001"
        },
        {
            "name": "3550",
            "score": "0.947",
            "index": 47,
            "selectedWords": [
                "\u00e9vidente",
                "manifeste"
            ],
            "freeResponses": [],
            "nbPlayClick": 1,
            "expression": "NEUTRE",
            "csv_id": 3550,
            "video_name": "DIVERS_PARL_AD_01_0004"
        },
        {
            "name": "1195",
            "score": "0.875",
            "index": 48,
            "selectedWords": [
                "enthousiaste",
                "triomphale",
                "emball\u00e9e"
            ],
            "freeResponses": [],
            "nbPlayClick": 2,
            "expression": "ENTHOUSIASTE",
            "csv_id": 1195,
            "video_name": "DIVERS_PARL_ENTHOUSIASTE_AD_01_0003"
        },
        {
            "name": "5180",
            "score": "0.967",
            "index": 49,
            "selectedWords": [
                "d\u00e9termin\u00e9e",
                "manifeste"
            ],
            "freeResponses": [],
            "nbPlayClick": 1,
            "expression": "NEUTRE",
            "csv_id": 5214,
            "video_name": "DIVERS_PARL_AD_05_0003"
        },
        {
            "name": "9292",
            "score": "0.989",
            "index": 50,
            "selectedWords": [
                "\u00e9tonn\u00e9e",
                "nette"
            ],
            "freeResponses": [],
            "nbPlayClick": 2,
            "expression": "ETONNE",
            "csv_id": 9326,
            "video_name": "DIVERS_BOOK_ETONNE_AD_01_0004"
        },
        {
            "name": "8059",
            "score": "0.984",
            "index": 51,
            "selectedWords": [
                "d\u00e9termin\u00e9e",
                "r\u00e9solue",
                "d\u00e9cid\u00e9e"
            ],
            "freeResponses": [],
            "nbPlayClick": 1,
            "expression": "NEUTRE",
            "csv_id": 8093,
            "video_name": "DIVERS_PARL_AD_01_0004"
        },
        {
            "name": "7436",
            "score": "0.982",
            "index": 52,
            "selectedWords": [
                "espi\u00e8gle",
                "narquoise"
            ],
            "freeResponses": [],
            "nbPlayClick": 1,
            "expression": "NEUTRE",
            "csv_id": 7470,
            "video_name": "DIVERS_PARL_AD_02_0002"
        },
        {
            "name": "9110",
            "score": "0.989",
            "index": 53,
            "selectedWords": [
                "enthousiaste",
                "triomphale"
            ],
            "freeResponses": [],
            "nbPlayClick": 2,
            "expression": "EVIDENCE",
            "csv_id": 9144,
            "video_name": "DIVERS_PARL_EVIDENCE_AD_02_0002"
        },
        {
            "name": "1430",
            "score": "0.887",
            "index": 54,
            "selectedWords": [
                "enthousiaste",
                "manifeste"
            ],
            "freeResponses": [],
            "nbPlayClick": 1,
            "expression": "EVIDENCE",
            "csv_id": 1430,
            "video_name": "DIVERS_PARL_EVIDENCE_AD_01_0001"
        },
        {
            "name": "5341",
            "score": "0.969",
            "index": 55,
            "selectedWords": [
                "\u00e9vidente",
                "prouv\u00e9e"
            ],
            "freeResponses": [],
            "nbPlayClick": 1,
            "expression": "NEUTRE",
            "csv_id": 5375,
            "video_name": "DIVERS_PARL_AD_06_0001"
        },
        {
            "name": "5656",
            "score": "0.971",
            "index": 56,
            "selectedWords": [
                "en col\u00e8re",
                "en rogne",
                "f\u00e2ch\u00e9e"
            ],
            "freeResponses": [],
            "nbPlayClick": 1,
            "expression": "COLERE",
            "csv_id": 5690,
            "video_name": "DIVERS_PARL_COLERE_AD_02_0002"
        },
        {
            "name": "6363",
            "score": "0.976",
            "index": 57,
            "selectedWords": [
                "\u00e9vidente",
                "manifeste"
            ],
            "freeResponses": [],
            "nbPlayClick": 1,
            "expression": "NEUTRE",
            "csv_id": 6397,
            "video_name": "DIVERS_PARL_AD_03_0003"
        },
        {
            "name": "7523",
            "score": "0.982",
            "index": 58,
            "selectedWords": [
                "pensive",
                "r\u00e9fl\u00e9chie"
            ],
            "freeResponses": [],
            "nbPlayClick": 1,
            "expression": "PENSIF",
            "csv_id": 7557,
            "video_name": "DIVERS_PARL_PENSIF_AD_01_0002"
        },
        {
            "name": "6794",
            "score": "0.978",
            "index": 59,
            "selectedWords": [
                "\u00e9vidente",
                "manifeste"
            ],
            "freeResponses": [],
            "nbPlayClick": 2,
            "expression": "NEUTRE",
            "csv_id": 6828,
            "video_name": "DIVERS_BOOK_AD_04_0002"
        }
    ],
    "training": [
        {
            "name": "77",
            "score": "0.639",
            "index": 0,
            "selectedWords": [
                "neutre",
                "certaine"
            ],
            "freeResponses": [],
            "nbPlayClick": 3,
            "expression": "NEUTRE"
        }
    ],
    "filenameDate": "2024-01-31_12-14"
}