{
    "user": {
        "isProlific": true,
        "id": "5e908fa8cd4b4201f3bcb150",
        "session": "651440d2c2ce9c6ba92d65ce",
        "study": "64ef977375f88e4e1174dce0"
    },
    "userAgent": "Mozilla/5.0 (Macintosh; Intel Mac OS X 10.15; rv:109.0) Gecko/20100101 Firefox/117.0",
    "landingDate": "2023-09-27T14:49:36.012Z",
    "startDate": "2023-09-27T14:54:13.554Z",
    "endDate": "2023-09-27T15:49:06.085Z",
    "reviews": [
        {
            "name": "10087",
            "score": "0.992",
            "index": 0,
            "selectedWords": [
                "opini\u00e2tre",
                "r\u00e9solue",
                "s\u00fbre",
                "in\u00e9branlable",
                "stimulante",
                "autre"
            ],
            "freeResponses": [],
            "nbPlayClick": 4,
            "expression": "NEUTRE",
            "csv_id": 10121,
            "video_name": "DIVERS_PARL_AD_05_0003"
        },
        {
            "name": "2983",
            "score": "0.938",
            "index": 1,
            "selectedWords": [
                "ennuy\u00e9e",
                "navr\u00e9e",
                "autre",
                "autre",
                "autre",
                "ind\u00e9niable"
            ],
            "freeResponses": [],
            "nbPlayClick": 2,
            "expression": "DETERMINE",
            "csv_id": 2983,
            "video_name": "DIVERS_PARL_DETERMINE_AD_01_0002"
        },
        {
            "name": "11728",
            "score": "0.996",
            "index": 2,
            "selectedWords": [
                "irrit\u00e9e",
                "certaine",
                "opini\u00e2tre",
                "d\u00e9cid\u00e9e"
            ],
            "freeResponses": [],
            "nbPlayClick": 3,
            "expression": "NEUTRE",
            "csv_id": 11765,
            "video_name": "DIVERS_PARL_AD_01_0006"
        },
        {
            "name": "2110",
            "score": "0.915",
            "index": 3,
            "selectedWords": [
                "suppliante",
                "rus\u00e9e",
                "autre"
            ],
            "freeResponses": [],
            "nbPlayClick": 5,
            "expression": "RECONFORTANT",
            "csv_id": 2110,
            "video_name": "DIVERS_PARL_RECONFORTANT_AD_02_0001"
        },
        {
            "name": "3847",
            "score": "0.952",
            "index": 4,
            "selectedWords": [
                "d\u00e9sol\u00e9e",
                "incontestable",
                "finaude"
            ],
            "freeResponses": [],
            "nbPlayClick": 2,
            "expression": "RECONFORTANT",
            "csv_id": 3847,
            "video_name": "DIVERS_PARL_RECONFORTANT_AD_02_0001"
        },
        {
            "name": "11644",
            "score": "0.996",
            "index": 5,
            "selectedWords": [
                "hargneuse",
                "autre",
                "autre",
                "convaincue",
                "en rage",
                "d\u00e9termin\u00e9e",
                "m\u00e9contente"
            ],
            "freeResponses": [],
            "nbPlayClick": 2,
            "expression": "COLERE",
            "csv_id": 11681,
            "video_name": "DIVERS_PARL_COLERE_AD_01_0003"
        },
        {
            "name": "1653",
            "score": "0.899",
            "index": 6,
            "selectedWords": [
                "malicieuse",
                "fac\u00e9tieuse",
                "afflig\u00e9e",
                "effar\u00e9e"
            ],
            "freeResponses": [],
            "nbPlayClick": 1,
            "expression": "EVIDENCE",
            "csv_id": 1653,
            "video_name": "DIVERS_PARL_EVIDENCE_AD_01_0001"
        },
        {
            "name": "4392",
            "score": "0.959",
            "index": 7,
            "selectedWords": [
                "suppliante",
                "implorante",
                "autre",
                "autre",
                "ennuy\u00e9e"
            ],
            "freeResponses": [],
            "nbPlayClick": 3,
            "expression": "SUPPLIANT",
            "csv_id": 4392,
            "video_name": "DIVERS_PARL_SUPPLIANT_AD_02_0001"
        },
        {
            "name": "7240",
            "score": "0.981",
            "index": 8,
            "selectedWords": [
                "d\u00e9termin\u00e9e",
                "ferme",
                "infaillible"
            ],
            "freeResponses": [],
            "nbPlayClick": 3,
            "expression": "NEUTRE",
            "csv_id": 7274,
            "video_name": "DIVERS_BOOK_AD_03_0001"
        },
        {
            "name": "2469",
            "score": "0.926",
            "index": 9,
            "selectedWords": [
                "\u00e9vidente",
                "prouv\u00e9e",
                "ind\u00e9niable"
            ],
            "freeResponses": [],
            "nbPlayClick": 2,
            "expression": "DETERMINE",
            "csv_id": 2469,
            "video_name": "DIVERS_PARL_DETERMINE_AD_01_0002"
        },
        {
            "name": "5230",
            "score": "0.968",
            "index": 10,
            "selectedWords": [
                "enthousiaste",
                "\u00e9loquente",
                "exalt\u00e9e",
                "passionn\u00e9e"
            ],
            "freeResponses": [],
            "nbPlayClick": 2,
            "expression": "RECONFORTANT",
            "csv_id": 5264,
            "video_name": "DIVERS_BOOK_RECONFORTANT_AD_03_0002"
        },
        {
            "name": "4591",
            "score": "0.962",
            "index": 11,
            "selectedWords": [
                "certaine",
                "froide",
                "irr\u00e9cusable"
            ],
            "freeResponses": [],
            "nbPlayClick": 2,
            "expression": "DESOLE",
            "csv_id": 4625,
            "video_name": "DIVERS_PARL_DESOLE_AD_01_0004"
        },
        {
            "name": "7711",
            "score": "0.983",
            "index": 12,
            "selectedWords": [
                "accabl\u00e9e",
                "afflig\u00e9e",
                "pein\u00e9e",
                "autre",
                "malheureuse"
            ],
            "freeResponses": [],
            "nbPlayClick": 2,
            "expression": "SUPPLIANT",
            "csv_id": 7745,
            "video_name": "DIVERS_BOOK_SUPPLIANT_AD_01_0004"
        },
        {
            "name": "5949",
            "score": "0.973",
            "index": 13,
            "selectedWords": [
                "nette",
                "r\u00e9fl\u00e9chie"
            ],
            "freeResponses": [],
            "nbPlayClick": 2,
            "expression": "NEUTRE",
            "csv_id": 5983,
            "video_name": "DIVERS_BOOK_AD_01_0001"
        },
        {
            "name": "11573",
            "score": "0.996",
            "index": 14,
            "selectedWords": [
                "\u00e9vidente",
                "incontestable",
                "certaine",
                "d\u00e9termin\u00e9e"
            ],
            "freeResponses": [],
            "nbPlayClick": 1,
            "expression": "NEUTRE",
            "csv_id": 11610,
            "video_name": "DIVERS_PARL_AD_02_0003"
        },
        {
            "name": "10285",
            "score": "0.992",
            "index": 15,
            "selectedWords": [
                "d\u00e9termin\u00e9e",
                "manifeste",
                "d\u00e9cid\u00e9e"
            ],
            "freeResponses": [],
            "nbPlayClick": 2,
            "expression": "NEUTRE",
            "csv_id": 10319,
            "video_name": "DIVERS_PARL_AD_06_0003"
        },
        {
            "name": "11452",
            "score": "0.996",
            "index": 16,
            "selectedWords": [
                "attrist\u00e9e",
                "officielle",
                "autre",
                "nette"
            ],
            "freeResponses": [],
            "nbPlayClick": 2,
            "expression": "NEUTRE",
            "csv_id": 11489,
            "video_name": "DIVERS_PARL_AD_01_0000"
        },
        {
            "name": "11640",
            "score": "0.996",
            "index": 17,
            "selectedWords": [
                "afflig\u00e9e",
                "contrari\u00e9e",
                "larmoyante"
            ],
            "freeResponses": [],
            "nbPlayClick": 2,
            "expression": "SUPPLIANT",
            "csv_id": 11677,
            "video_name": "DIVERS_PARL_SUPPLIANT_AD_02_0002"
        },
        {
            "name": "11404",
            "score": "0.995",
            "index": 18,
            "selectedWords": [
                "d\u00e9termin\u00e9e",
                "bouillonnante",
                "r\u00e9solue"
            ],
            "freeResponses": [],
            "nbPlayClick": 1,
            "expression": "NEUTRE",
            "csv_id": 11441,
            "video_name": "DIVERS_PARL_AD_03_0001"
        },
        {
            "name": "2565",
            "score": "0.928",
            "index": 19,
            "selectedWords": [
                "effar\u00e9e",
                "fac\u00e9tieuse",
                "taquine",
                "autre",
                "autre",
                "autre",
                "in\u00e9branlable"
            ],
            "freeResponses": [],
            "nbPlayClick": 1,
            "expression": "EVIDENCE",
            "csv_id": 2565,
            "video_name": "DIVERS_PARL_EVIDENCE_AD_01_0001"
        },
        {
            "name": "6978",
            "score": "0.979",
            "index": 20,
            "selectedWords": [
                "d\u00e9termin\u00e9e",
                "r\u00e9solue",
                "autre",
                "r\u00e9fl\u00e9chie",
                "nette"
            ],
            "freeResponses": [],
            "nbPlayClick": 1,
            "expression": "NEUTRE",
            "csv_id": 7012,
            "video_name": "DIVERS_PARL_AD_01_0004"
        },
        {
            "name": "7503",
            "score": "0.982",
            "index": 21,
            "selectedWords": [
                "m\u00e9fiante",
                "convaincue"
            ],
            "freeResponses": [],
            "nbPlayClick": 2,
            "expression": "NEUTRE",
            "csv_id": 7537,
            "video_name": "DIVERS_BOOK_AD_01_0002"
        },
        {
            "name": "3574",
            "score": "0.948",
            "index": 22,
            "selectedWords": [
                "m\u00e9fiante",
                "convaincue",
                "sceptique"
            ],
            "freeResponses": [],
            "nbPlayClick": 2,
            "expression": "NEUTRE",
            "csv_id": 3574,
            "video_name": "DIVERS_PARL_AD_04_0001"
        },
        {
            "name": "9448",
            "score": "0.990",
            "index": 23,
            "selectedWords": [
                "atone",
                "inexpressive"
            ],
            "freeResponses": [],
            "nbPlayClick": 2,
            "expression": "DESOLE",
            "csv_id": 9482,
            "video_name": "DIVERS_PARL_DESOLE_AD_02_0002"
        },
        {
            "name": "6615",
            "score": "0.977",
            "index": 24,
            "selectedWords": [
                "froide",
                "irr\u00e9cusable",
                "narquoise",
                "officielle"
            ],
            "freeResponses": [],
            "nbPlayClick": 1,
            "expression": "NEUTRE",
            "csv_id": 6649,
            "video_name": "DIVERS_PARL_AD_01_0000"
        },
        {
            "name": "4423",
            "score": "0.960",
            "index": 25,
            "selectedWords": [
                "pensive",
                "perplexe",
                "incr\u00e9dule"
            ],
            "freeResponses": [],
            "nbPlayClick": 1,
            "expression": "NEUTRE",
            "csv_id": 4423,
            "video_name": "DIVERS_PARL_AD_01_0004"
        },
        {
            "name": "6636",
            "score": "0.978",
            "index": 26,
            "selectedWords": [
                "d\u00e9termin\u00e9e",
                "manifeste",
                "ferme",
                "incontestable",
                "m\u00e9contente"
            ],
            "freeResponses": [],
            "nbPlayClick": 3,
            "expression": "INCREDULE",
            "csv_id": 6670,
            "video_name": "DIVERS_PARL_INCREDULE_AD_02_0003"
        },
        {
            "name": "5025",
            "score": "0.966",
            "index": 27,
            "selectedWords": [
                "apaisante",
                "r\u00e9fl\u00e9chie"
            ],
            "freeResponses": [],
            "nbPlayClick": 1,
            "expression": "RECONFORTANT",
            "csv_id": 5059,
            "video_name": "DIVERS_BOOK_RECONFORTANT_AD_01_0004"
        },
        {
            "name": "4293",
            "score": "0.958",
            "index": 28,
            "selectedWords": [
                "dubitative",
                "m\u00e9fiante",
                "incr\u00e9dule"
            ],
            "freeResponses": [],
            "nbPlayClick": 2,
            "expression": "NEUTRE",
            "csv_id": 4293,
            "video_name": "DIVERS_BOOK_AD_04_0002"
        },
        {
            "name": "10032",
            "score": "0.992",
            "index": 29,
            "selectedWords": [
                "consolante",
                "prouv\u00e9e",
                "\u00e9vidente"
            ],
            "freeResponses": [],
            "nbPlayClick": 2,
            "expression": "DESOLE",
            "csv_id": 10066,
            "video_name": "DIVERS_BOOK_DESOLE_AD_03_0002"
        },
        {
            "name": "4291",
            "score": "0.958",
            "index": 30,
            "selectedWords": [
                "ardente",
                "bouillonnante",
                "enfi\u00e9vr\u00e9e"
            ],
            "freeResponses": [],
            "nbPlayClick": 1,
            "expression": "RECONFORTANT",
            "csv_id": 4291,
            "video_name": "DIVERS_BOOK_RECONFORTANT_AD_03_0002"
        },
        {
            "name": "5810",
            "score": "0.973",
            "index": 31,
            "selectedWords": [
                "suppliante",
                "agit\u00e9e",
                "convaincue"
            ],
            "freeResponses": [],
            "nbPlayClick": 1,
            "expression": "SUPPLIANT",
            "csv_id": 5844,
            "video_name": "DIVERS_PARL_SUPPLIANT_AD_02_0001"
        },
        {
            "name": "2079",
            "score": "0.914",
            "index": 32,
            "selectedWords": [
                "effar\u00e9e",
                "interloqu\u00e9e"
            ],
            "freeResponses": [],
            "nbPlayClick": 2,
            "expression": "ETONNE",
            "csv_id": 2079,
            "video_name": "DIVERS_BOOK_ETONNE_AD_01_0002"
        },
        {
            "name": "3023",
            "score": "0.939",
            "index": 33,
            "selectedWords": [
                "certaine",
                "d\u00e9cid\u00e9e",
                "r\u00e9solue",
                "triomphale"
            ],
            "freeResponses": [],
            "nbPlayClick": 1,
            "expression": "NEUTRE",
            "csv_id": 3023,
            "video_name": "DIVERS_PARL_AD_03_0002"
        },
        {
            "name": "12231",
            "score": "0.998",
            "index": 34,
            "selectedWords": [
                "neutre",
                "limpide",
                "officielle"
            ],
            "freeResponses": [],
            "nbPlayClick": 2,
            "expression": "NEUTRE",
            "csv_id": 12268,
            "video_name": "DIVERS_BOOK_AD_03_0002"
        },
        {
            "name": "3392",
            "score": "0.945",
            "index": 35,
            "selectedWords": [
                "ardente",
                "enflamm\u00e9e",
                "exalt\u00e9e"
            ],
            "freeResponses": [],
            "nbPlayClick": 1,
            "expression": "EVIDENCE",
            "csv_id": 3392,
            "video_name": "DIVERS_BOOK_EVIDENCE_AD_01_0002"
        },
        {
            "name": "330",
            "score": "0.773",
            "index": 36,
            "selectedWords": [
                "exalt\u00e9e",
                "euphorique",
                "d\u00e9termin\u00e9e"
            ],
            "freeResponses": [],
            "nbPlayClick": 2,
            "expression": "ENTHOUSIASTE",
            "csv_id": 330,
            "video_name": "DIVERS_PARL_ENTHOUSIASTE_AD_01_0003"
        },
        {
            "name": "12054",
            "score": "0.997",
            "index": 37,
            "selectedWords": [
                "\u00e9vidente",
                "prouv\u00e9e",
                "certaine"
            ],
            "freeResponses": [],
            "nbPlayClick": 2,
            "expression": "NEUTRE",
            "csv_id": 12091,
            "video_name": "DIVERS_BOOK_AD_03_0002"
        },
        {
            "name": "9318",
            "score": "0.989",
            "index": 38,
            "selectedWords": [
                "agit\u00e9e",
                "ardente",
                "euphorique"
            ],
            "freeResponses": [],
            "nbPlayClick": 1,
            "expression": "ENTHOUSIASTE",
            "csv_id": 9352,
            "video_name": "DIVERS_BOOK_ENTHOUSIASTE_AD_01_0001"
        },
        {
            "name": "3722",
            "score": "0.950",
            "index": 39,
            "selectedWords": [
                "agressive",
                "contrari\u00e9e",
                "en rogne"
            ],
            "freeResponses": [],
            "nbPlayClick": 1,
            "expression": "COLERE",
            "csv_id": 3722,
            "video_name": "DIVERS_PARL_COLERE_AD_01_0003"
        },
        {
            "name": "8072",
            "score": "0.985",
            "index": 40,
            "selectedWords": [
                "agit\u00e9e",
                "bouillonnante",
                "d\u00e9cid\u00e9e",
                "fac\u00e9tieuse"
            ],
            "freeResponses": [],
            "nbPlayClick": 1,
            "expression": "DETERMINE",
            "csv_id": 8106,
            "video_name": "DIVERS_BOOK_DETERMINE_AD_03_0001"
        },
        {
            "name": "5903",
            "score": "0.973",
            "index": 41,
            "selectedWords": [
                "froide",
                "d\u00e9pit\u00e9e",
                "d\u00e9cid\u00e9e"
            ],
            "freeResponses": [],
            "nbPlayClick": 2,
            "expression": "DESOLE",
            "csv_id": 5937,
            "video_name": "DIVERS_PARL_DESOLE_AD_01_0004"
        },
        {
            "name": "4212",
            "score": "0.957",
            "index": 42,
            "selectedWords": [
                "agressive",
                "certaine",
                "en col\u00e8re",
                "nette"
            ],
            "freeResponses": [],
            "nbPlayClick": 1,
            "expression": "COLERE",
            "csv_id": 4212,
            "video_name": "DIVERS_PARL_COLERE_AD_02_0002"
        },
        {
            "name": "6199",
            "score": "0.975",
            "index": 43,
            "selectedWords": [
                "apaisante",
                "certaine",
                "in\u00e9branlable",
                "autre"
            ],
            "freeResponses": [],
            "nbPlayClick": 1,
            "expression": "NEUTRE",
            "csv_id": 6233,
            "video_name": "DIVERS_PARL_AD_04_0002"
        },
        {
            "name": "2790",
            "score": "0.934",
            "index": 44,
            "selectedWords": [
                "d\u00e9termin\u00e9e",
                "d\u00e9cid\u00e9e",
                "incontestable"
            ],
            "freeResponses": [],
            "nbPlayClick": 1,
            "expression": "NEUTRE",
            "csv_id": 2790,
            "video_name": "DIVERS_PARL_AD_06_0003"
        },
        {
            "name": "9245",
            "score": "0.989",
            "index": 45,
            "selectedWords": [
                "courrouc\u00e9e",
                "emb\u00eat\u00e9e",
                "ferme"
            ],
            "freeResponses": [],
            "nbPlayClick": 2,
            "expression": "NEUTRE",
            "csv_id": 9279,
            "video_name": "DIVERS_PARL_AD_01_0004"
        },
        {
            "name": "8310",
            "score": "0.986",
            "index": 46,
            "selectedWords": [
                "certaine",
                "s\u00fbre",
                "nette",
                "triomphale"
            ],
            "freeResponses": [],
            "nbPlayClick": 1,
            "expression": "NEUTRE",
            "csv_id": 8344,
            "video_name": "DIVERS_PARL_AD_05_0003"
        },
        {
            "name": "1444",
            "score": "0.888",
            "index": 47,
            "selectedWords": [
                "neutre",
                "limpide",
                "\u00e9loquente"
            ],
            "freeResponses": [],
            "nbPlayClick": 1,
            "expression": "NEUTRE",
            "csv_id": 1444,
            "video_name": "DIVERS_PARL_AD_06_0001"
        },
        {
            "name": "4754",
            "score": "0.963",
            "index": 48,
            "selectedWords": [
                "suppliante",
                "implorante",
                "malheureuse"
            ],
            "freeResponses": [],
            "nbPlayClick": 1,
            "expression": "SUPPLIANT",
            "csv_id": 4788,
            "video_name": "DIVERS_PARL_SUPPLIANT_AD_02_0001"
        },
        {
            "name": "7068",
            "score": "0.980",
            "index": 49,
            "selectedWords": [
                "incr\u00e9dule",
                "m\u00e9fiante",
                "sceptique"
            ],
            "freeResponses": [],
            "nbPlayClick": 2,
            "expression": "NEUTRE",
            "csv_id": 7102,
            "video_name": "DIVERS_BOOK_AD_03_0002"
        },
        {
            "name": "4257",
            "score": "0.957",
            "index": 50,
            "selectedWords": [
                "dubitative",
                "agressive",
                "indign\u00e9e",
                "sceptique"
            ],
            "freeResponses": [],
            "nbPlayClick": 2,
            "expression": "INCREDULE",
            "csv_id": 4257,
            "video_name": "DIVERS_BOOK_INCREDULE_AD_01_0001"
        },
        {
            "name": "6768",
            "score": "0.978",
            "index": 51,
            "selectedWords": [
                "neutre",
                "certaine",
                "in\u00e9branlable"
            ],
            "freeResponses": [],
            "nbPlayClick": 1,
            "expression": "NEUTRE",
            "csv_id": 6802,
            "video_name": "DIVERS_BOOK_AD_04_0002"
        },
        {
            "name": "4970",
            "score": "0.965",
            "index": 52,
            "selectedWords": [
                "pensive",
                "songeuse",
                "pr\u00e9occup\u00e9e",
                "perplexe"
            ],
            "freeResponses": [],
            "nbPlayClick": 2,
            "expression": "PENSIF",
            "csv_id": 5004,
            "video_name": "DIVERS_BOOK_PENSIF_AD_03_0002"
        },
        {
            "name": "10553",
            "score": "0.993",
            "index": 53,
            "selectedWords": [
                "attrist\u00e9e",
                "\u00e9vidente"
            ],
            "freeResponses": [],
            "nbPlayClick": 1,
            "expression": "DESOLE",
            "csv_id": 10587,
            "video_name": "DIVERS_BOOK_DESOLE_AD_03_0002"
        },
        {
            "name": "6943",
            "score": "0.979",
            "index": 54,
            "selectedWords": [
                "neutre",
                "autre",
                "imp\u00e9n\u00e9trable",
                "froide",
                "inexpressive"
            ],
            "freeResponses": [],
            "nbPlayClick": 1,
            "expression": "NEUTRE",
            "csv_id": 6977,
            "video_name": "DIVERS_PARL_AD_03_0003"
        },
        {
            "name": "8901",
            "score": "0.988",
            "index": 55,
            "selectedWords": [
                "certaine",
                "in\u00e9branlable",
                "\u00e9nergique"
            ],
            "freeResponses": [],
            "nbPlayClick": 1,
            "expression": "NEUTRE",
            "csv_id": 8935,
            "video_name": "DIVERS_PARL_AD_06_0001"
        },
        {
            "name": "8845",
            "score": "0.988",
            "index": 56,
            "selectedWords": [
                "d\u00e9termin\u00e9e",
                "r\u00e9solue",
                "convaincue"
            ],
            "freeResponses": [],
            "nbPlayClick": 1,
            "expression": "NEUTRE",
            "csv_id": 8879,
            "video_name": "DIVERS_PARL_AD_06_0001"
        },
        {
            "name": "8757",
            "score": "0.987",
            "index": 57,
            "selectedWords": [
                "d\u00e9cid\u00e9e",
                "enflamm\u00e9e"
            ],
            "freeResponses": [],
            "nbPlayClick": 2,
            "expression": "NEUTRE",
            "csv_id": 8791,
            "video_name": "DIVERS_PARL_AD_01_0005"
        },
        {
            "name": "8376",
            "score": "0.986",
            "index": 58,
            "selectedWords": [
                "pensante",
                "autre",
                "dubitative"
            ],
            "freeResponses": [],
            "nbPlayClick": 1,
            "expression": "NEUTRE",
            "csv_id": 8410,
            "video_name": "DIVERS_PARL_AD_04_0003"
        },
        {
            "name": "8423",
            "score": "0.986",
            "index": 59,
            "selectedWords": [
                "bouillonnante",
                "enflamm\u00e9e",
                "irrit\u00e9e"
            ],
            "freeResponses": [],
            "nbPlayClick": 1,
            "expression": "EVIDENCE",
            "csv_id": 8457,
            "video_name": "DIVERS_PARL_EVIDENCE_AD_02_0002"
        }
    ],
    "training": [
        {
            "name": "77",
            "score": "0.639",
            "index": 0,
            "selectedWords": [
                "r\u00e9fl\u00e9chie",
                "manifeste"
            ],
            "freeResponses": [],
            "nbPlayClick": 6,
            "expression": "NEUTRE"
        }
    ],
    "filenameDate": "2023-09-27_17-49"
}