{
    "user": {
        "isProlific": true,
        "id": "5ea4cba9be6bbd31c9266459",
        "session": "655dfa000569ce106ad002aa",
        "study": "64ef977375f88e4e1174dce0"
    },
    "userAgent": "Mozilla/5.0 (X11; Linux x86_64; rv:120.0) Gecko/20100101 Firefox/120.0",
    "landingDate": "2023-11-22T12:54:52.131Z",
    "startDate": "2023-11-22T12:55:55.267Z",
    "endDate": "2023-11-22T13:32:22.598Z",
    "reviews": [
        {
            "name": "585",
            "score": "0.818",
            "index": 0,
            "selectedWords": [
                "d\u00e9termin\u00e9e",
                "manifeste"
            ],
            "freeResponses": [],
            "nbPlayClick": 2,
            "expression": "NEUTRE",
            "csv_id": 585,
            "video_name": "DIVERS_PARL_AD_01_0004"
        },
        {
            "name": "9151",
            "score": "0.989",
            "index": 1,
            "selectedWords": [
                "enthousiaste",
                "tonique",
                "transport\u00e9e"
            ],
            "freeResponses": [],
            "nbPlayClick": 1,
            "expression": "ENTHOUSIASTE",
            "csv_id": 9185,
            "video_name": "DIVERS_PARL_ENTHOUSIASTE_AD_01_0003"
        },
        {
            "name": "3739",
            "score": "0.950",
            "index": 2,
            "selectedWords": [
                "en col\u00e8re",
                "irrit\u00e9e"
            ],
            "freeResponses": [],
            "nbPlayClick": 2,
            "expression": "INCREDULE",
            "csv_id": 3739,
            "video_name": "DIVERS_PARL_INCREDULE_AD_01_0001"
        },
        {
            "name": "8817",
            "score": "0.988",
            "index": 3,
            "selectedWords": [
                "neutre",
                "notoire"
            ],
            "freeResponses": [],
            "nbPlayClick": 2,
            "expression": "NEUTRE",
            "csv_id": 8851,
            "video_name": "DIVERS_BOOK_AD_04_0001"
        },
        {
            "name": "4598",
            "score": "0.962",
            "index": 4,
            "selectedWords": [
                "autre",
                "autre",
                "autre",
                "autre",
                "autre",
                "autre",
                "autre",
                "autre",
                "indiscutable",
                "nette"
            ],
            "freeResponses": [],
            "nbPlayClick": 1,
            "expression": "NEUTRE",
            "csv_id": 4632,
            "video_name": "DIVERS_PARL_AD_06_0001"
        },
        {
            "name": "5918",
            "score": "0.973",
            "index": 5,
            "selectedWords": [
                "d\u00e9sol\u00e9e",
                "transport\u00e9e",
                "pr\u00e9occup\u00e9e"
            ],
            "freeResponses": [],
            "nbPlayClick": 1,
            "expression": "SUPPLIANT",
            "csv_id": 5952,
            "video_name": "DIVERS_BOOK_SUPPLIANT_AD_01_0002"
        },
        {
            "name": "8808",
            "score": "0.988",
            "index": 6,
            "selectedWords": [
                "\u00e9vidente",
                "autre",
                "autre",
                "consolante",
                "autre",
                "autre"
            ],
            "freeResponses": [],
            "nbPlayClick": 3,
            "expression": "EVIDENCE",
            "csv_id": 8842,
            "video_name": "DIVERS_PARL_EVIDENCE_AD_01_0001"
        },
        {
            "name": "9481",
            "score": "0.990",
            "index": 7,
            "selectedWords": [
                "neutre",
                "autre",
                "autre",
                "ennuy\u00e9e"
            ],
            "freeResponses": [],
            "nbPlayClick": 2,
            "expression": "NEUTRE",
            "csv_id": 9515,
            "video_name": "DIVERS_PARL_AD_04_0001"
        },
        {
            "name": "11155",
            "score": "0.995",
            "index": 8,
            "selectedWords": [
                "d\u00e9sol\u00e9e",
                "manifeste"
            ],
            "freeResponses": [],
            "nbPlayClick": 1,
            "expression": "NEUTRE",
            "csv_id": 11189,
            "video_name": "DIVERS_PARL_AD_03_0002"
        },
        {
            "name": "4197",
            "score": "0.957",
            "index": 9,
            "selectedWords": [
                "autre",
                "implorante",
                "autre",
                "d\u00e9cid\u00e9e"
            ],
            "freeResponses": [],
            "nbPlayClick": 2,
            "expression": "SUPPLIANT",
            "csv_id": 4197,
            "video_name": "DIVERS_PARL_SUPPLIANT_AD_02_0001"
        },
        {
            "name": "8165",
            "score": "0.985",
            "index": 10,
            "selectedWords": [
                "\u00e9vidente",
                "incontestable",
                "officielle"
            ],
            "freeResponses": [],
            "nbPlayClick": 2,
            "expression": "NEUTRE",
            "csv_id": 8199,
            "video_name": "DIVERS_PARL_AD_06_0002"
        },
        {
            "name": "8780",
            "score": "0.987",
            "index": 11,
            "selectedWords": [
                "d\u00e9termin\u00e9e",
                "manifeste"
            ],
            "freeResponses": [],
            "nbPlayClick": 1,
            "expression": "NEUTRE",
            "csv_id": 8814,
            "video_name": "DIVERS_PARL_AD_06_0003"
        },
        {
            "name": "10758",
            "score": "0.994",
            "index": 12,
            "selectedWords": [
                "d\u00e9termin\u00e9e",
                "r\u00e9fl\u00e9chie"
            ],
            "freeResponses": [],
            "nbPlayClick": 1,
            "expression": "NEUTRE",
            "csv_id": 10792,
            "video_name": "DIVERS_PARL_AD_02_0004"
        },
        {
            "name": "6674",
            "score": "0.978",
            "index": 13,
            "selectedWords": [
                "espi\u00e8gle",
                "autre",
                "autre",
                "autre",
                "songeuse"
            ],
            "freeResponses": [],
            "nbPlayClick": 2,
            "expression": "NEUTRE",
            "csv_id": 6708,
            "video_name": "DIVERS_BOOK_AD_01_0002"
        },
        {
            "name": "9047",
            "score": "0.988",
            "index": 14,
            "selectedWords": [
                "\u00e9vidente",
                "autre",
                "fac\u00e9tieuse",
                "narquoise"
            ],
            "freeResponses": [],
            "nbPlayClick": 1,
            "expression": "NEUTRE",
            "csv_id": 9081,
            "video_name": "DIVERS_PARL_AD_02_0004"
        },
        {
            "name": "1718",
            "score": "0.901",
            "index": 15,
            "selectedWords": [
                "autre",
                "autre",
                "autre",
                "autre",
                "autre",
                "opini\u00e2tre",
                "autre",
                "reconstituante"
            ],
            "freeResponses": [],
            "nbPlayClick": 2,
            "expression": "INCREDULE",
            "csv_id": 1718,
            "video_name": "DIVERS_PARL_INCREDULE_AD_01_0001"
        },
        {
            "name": "5205",
            "score": "0.968",
            "index": 16,
            "selectedWords": [
                "en col\u00e8re",
                "autre",
                "\u00e9berlu\u00e9e"
            ],
            "freeResponses": [],
            "nbPlayClick": 1,
            "expression": "RECONFORTANT",
            "csv_id": 5239,
            "video_name": "DIVERS_PARL_RECONFORTANT_AD_02_0001"
        },
        {
            "name": "11175",
            "score": "0.995",
            "index": 17,
            "selectedWords": [
                "neutre",
                "autre",
                "autre",
                "autre",
                "autre",
                "autre",
                "autre",
                "autre",
                "reconstituante"
            ],
            "freeResponses": [],
            "nbPlayClick": 1,
            "expression": "NEUTRE",
            "csv_id": 11209,
            "video_name": "DIVERS_BOOK_AD_01_0001"
        },
        {
            "name": "2308",
            "score": "0.921",
            "index": 18,
            "selectedWords": [
                "\u00e9tonn\u00e9e",
                "autre",
                "dubitative"
            ],
            "freeResponses": [],
            "nbPlayClick": 2,
            "expression": "INCREDULE",
            "csv_id": 2308,
            "video_name": "DIVERS_BOOK_INCREDULE_AD_01_0001"
        },
        {
            "name": "6445",
            "score": "0.977",
            "index": 19,
            "selectedWords": [
                "autre",
                "fac\u00e9tieuse",
                "narquoise"
            ],
            "freeResponses": [],
            "nbPlayClick": 1,
            "expression": "RECONFORTANT",
            "csv_id": 6479,
            "video_name": "DIVERS_BOOK_RECONFORTANT_AD_03_0002"
        },
        {
            "name": "3690",
            "score": "0.950",
            "index": 20,
            "selectedWords": [
                "en col\u00e8re",
                "irrit\u00e9e",
                "autre",
                "autre",
                "autre",
                "in\u00e9branlable"
            ],
            "freeResponses": [],
            "nbPlayClick": 1,
            "expression": "NEUTRE",
            "csv_id": 3690,
            "video_name": "DIVERS_PARL_AD_06_0004"
        },
        {
            "name": "6679",
            "score": "0.978",
            "index": 21,
            "selectedWords": [
                "incr\u00e9dule",
                "autre",
                "autre",
                "\u00e9bahie"
            ],
            "freeResponses": [],
            "nbPlayClick": 1,
            "expression": "ETONNE",
            "csv_id": 6713,
            "video_name": "DIVERS_BOOK_ETONNE_AD_01_0002"
        },
        {
            "name": "8741",
            "score": "0.987",
            "index": 22,
            "selectedWords": [
                "d\u00e9termin\u00e9e",
                "manifeste"
            ],
            "freeResponses": [],
            "nbPlayClick": 1,
            "expression": "NEUTRE",
            "csv_id": 8775,
            "video_name": "DIVERS_PARL_AD_03_0001"
        },
        {
            "name": "6325",
            "score": "0.976",
            "index": 23,
            "selectedWords": [
                "autre",
                "reconstituante",
                "autre",
                "autre",
                "ennuy\u00e9e"
            ],
            "freeResponses": [],
            "nbPlayClick": 1,
            "response": "recon",
            "expression": "NEUTRE",
            "csv_id": 6359,
            "video_name": "DIVERS_BOOK_AD_01_0001"
        },
        {
            "name": "7371",
            "score": "0.981",
            "index": 24,
            "selectedWords": [
                "en col\u00e8re",
                "courrouc\u00e9e",
                "autre",
                "agressive"
            ],
            "freeResponses": [],
            "nbPlayClick": 1,
            "expression": "DETERMINE",
            "csv_id": 7405,
            "video_name": "DIVERS_PARL_DETERMINE_AD_01_0004"
        },
        {
            "name": "4560",
            "score": "0.961",
            "index": 25,
            "selectedWords": [
                "d\u00e9termin\u00e9e",
                "manifeste",
                "prouv\u00e9e"
            ],
            "freeResponses": [],
            "nbPlayClick": 1,
            "expression": "NEUTRE",
            "csv_id": 4594,
            "video_name": "DIVERS_PARL_AD_03_0003"
        },
        {
            "name": "6532",
            "score": "0.977",
            "index": 26,
            "selectedWords": [
                "en col\u00e8re",
                "autre",
                "autre",
                "autre",
                "autre",
                "autre"
            ],
            "freeResponses": [
                "Lass\u00e9e"
            ],
            "nbPlayClick": 1,
            "response": "Lass\u00e9e",
            "expression": "EVIDENCE",
            "csv_id": 6566,
            "video_name": "DIVERS_PARL_EVIDENCE_AD_02_0002"
        },
        {
            "name": "5596",
            "score": "0.971",
            "index": 27,
            "selectedWords": [
                "d\u00e9termin\u00e9e",
                "r\u00e9solue"
            ],
            "freeResponses": [],
            "nbPlayClick": 1,
            "expression": "NEUTRE",
            "csv_id": 5630,
            "video_name": "DIVERS_PARL_AD_03_0003"
        },
        {
            "name": "11733",
            "score": "0.996",
            "index": 28,
            "selectedWords": [
                "autre",
                "autre",
                "autre",
                "autre",
                "ennuy\u00e9e",
                "afflig\u00e9e"
            ],
            "freeResponses": [],
            "nbPlayClick": 1,
            "expression": "SUPPLIANT",
            "csv_id": 11770,
            "video_name": "DIVERS_BOOK_SUPPLIANT_AD_01_0002"
        },
        {
            "name": "10950",
            "score": "0.994",
            "index": 29,
            "selectedWords": [
                "agressive"
            ],
            "freeResponses": [
                "Accusatrice"
            ],
            "nbPlayClick": 1,
            "response": "Accusatrice",
            "expression": "NEUTRE",
            "csv_id": 10984,
            "video_name": "DIVERS_PARL_AD_02_0002"
        },
        {
            "name": "10364",
            "score": "0.993",
            "index": 30,
            "selectedWords": [
                "ferme",
                "nette",
                "s\u00fbre"
            ],
            "freeResponses": [],
            "nbPlayClick": 1,
            "response": "fer",
            "expression": "NEUTRE",
            "csv_id": 10398,
            "video_name": "DIVERS_PARL_AD_01_0005"
        },
        {
            "name": "10275",
            "score": "0.992",
            "index": 31,
            "selectedWords": [
                "neutre",
                "autre",
                "reconstituante"
            ],
            "freeResponses": [],
            "nbPlayClick": 1,
            "response": "reco",
            "expression": "NEUTRE",
            "csv_id": 10309,
            "video_name": "DIVERS_BOOK_AD_01_0001"
        },
        {
            "name": "6288",
            "score": "0.976",
            "index": 32,
            "selectedWords": [
                "en col\u00e8re",
                "hargneuse",
                "f\u00e2ch\u00e9e"
            ],
            "freeResponses": [],
            "nbPlayClick": 1,
            "expression": "COLERE",
            "csv_id": 6322,
            "video_name": "DIVERS_PARL_COLERE_AD_01_0003"
        },
        {
            "name": "2785",
            "score": "0.934",
            "index": 33,
            "selectedWords": [
                "\u00e9vidente",
                "autre",
                "autre",
                "ennuy\u00e9e"
            ],
            "freeResponses": [],
            "nbPlayClick": 1,
            "expression": "NEUTRE",
            "csv_id": 2785,
            "video_name": "DIVERS_PARL_AD_04_0004"
        },
        {
            "name": "5470",
            "score": "0.970",
            "index": 34,
            "selectedWords": [
                "afflig\u00e9e",
                "autre",
                "autre",
                "autre",
                "autre",
                "ind\u00e9niable"
            ],
            "freeResponses": [],
            "nbPlayClick": 1,
            "response": "ex",
            "expression": "EVIDENCE",
            "csv_id": 5504,
            "video_name": "DIVERS_PARL_EVIDENCE_AD_01_0001"
        },
        {
            "name": "11735",
            "score": "0.996",
            "index": 35,
            "selectedWords": [
                "neutre",
                "certaine"
            ],
            "freeResponses": [],
            "nbPlayClick": 1,
            "expression": "NEUTRE",
            "csv_id": 11772,
            "video_name": "DIVERS_BOOK_AD_03_0002"
        },
        {
            "name": "9033",
            "score": "0.988",
            "index": 36,
            "selectedWords": [
                "d\u00e9termin\u00e9e",
                "manifeste"
            ],
            "freeResponses": [],
            "nbPlayClick": 1,
            "expression": "NEUTRE",
            "csv_id": 9067,
            "video_name": "DIVERS_PARL_AD_05_0002"
        },
        {
            "name": "5036",
            "score": "0.966",
            "index": 37,
            "selectedWords": [
                "d\u00e9termin\u00e9e",
                "agit\u00e9e",
                "irrit\u00e9e"
            ],
            "freeResponses": [],
            "nbPlayClick": 1,
            "expression": "COLERE",
            "csv_id": 5070,
            "video_name": "DIVERS_PARL_COLERE_AD_01_0003"
        },
        {
            "name": "2648",
            "score": "0.930",
            "index": 38,
            "selectedWords": [
                "d\u00e9termin\u00e9e",
                "manifeste"
            ],
            "freeResponses": [],
            "nbPlayClick": 2,
            "expression": "NEUTRE",
            "csv_id": 2648,
            "video_name": "DIVERS_PARL_AD_01_0002"
        },
        {
            "name": "11460",
            "score": "0.996",
            "index": 39,
            "selectedWords": [
                "\u00e9vidente",
                "irr\u00e9cusable"
            ],
            "freeResponses": [],
            "nbPlayClick": 1,
            "expression": "NEUTRE",
            "csv_id": 11497,
            "video_name": "DIVERS_PARL_AD_03_0001"
        },
        {
            "name": "9222",
            "score": "0.989",
            "index": 40,
            "selectedWords": [
                "d\u00e9termin\u00e9e",
                "autre",
                "autre",
                "enfi\u00e9vr\u00e9e"
            ],
            "freeResponses": [],
            "nbPlayClick": 1,
            "response": "fi",
            "expression": "NEUTRE",
            "csv_id": 9256,
            "video_name": "DIVERS_PARL_AD_01_0004"
        },
        {
            "name": "10010",
            "score": "0.992",
            "index": 41,
            "selectedWords": [
                "\u00e9vidente",
                "incontestable"
            ],
            "freeResponses": [],
            "nbPlayClick": 1,
            "expression": "NEUTRE",
            "csv_id": 10044,
            "video_name": "DIVERS_BOOK_AD_03_0002"
        },
        {
            "name": "5016",
            "score": "0.966",
            "index": 42,
            "selectedWords": [
                "\u00e9vidente",
                "autre",
                "narquoise"
            ],
            "freeResponses": [],
            "nbPlayClick": 1,
            "response": "nar",
            "expression": "NEUTRE",
            "csv_id": 5050,
            "video_name": "DIVERS_PARL_AD_03_0003"
        },
        {
            "name": "7089",
            "score": "0.980",
            "index": 43,
            "selectedWords": [
                "autre",
                "autre",
                "autre",
                "attrist\u00e9e",
                "afflig\u00e9e"
            ],
            "freeResponses": [],
            "nbPlayClick": 1,
            "expression": "SUPPLIANT",
            "csv_id": 7123,
            "video_name": "DIVERS_BOOK_SUPPLIANT_AD_01_0004"
        },
        {
            "name": "11207",
            "score": "0.995",
            "index": 44,
            "selectedWords": [
                "en col\u00e8re",
                "irrit\u00e9e",
                "autre",
                "autre"
            ],
            "freeResponses": [],
            "nbPlayClick": 1,
            "expression": "COLERE",
            "csv_id": 11241,
            "video_name": "DIVERS_PARL_COLERE_AD_01_0003"
        },
        {
            "name": "2489",
            "score": "0.926",
            "index": 45,
            "selectedWords": [
                "\u00e9vidente",
                "manifeste"
            ],
            "freeResponses": [],
            "nbPlayClick": 1,
            "response": "",
            "expression": "NEUTRE",
            "csv_id": 2489,
            "video_name": "DIVERS_PARL_AD_05_0004"
        },
        {
            "name": "11095",
            "score": "0.995",
            "index": 46,
            "selectedWords": [
                "\u00e9vidente",
                "manifeste"
            ],
            "freeResponses": [],
            "nbPlayClick": 2,
            "expression": "NEUTRE",
            "csv_id": 11129,
            "video_name": "DIVERS_PARL_AD_02_0002"
        },
        {
            "name": "2369",
            "score": "0.923",
            "index": 47,
            "selectedWords": [
                "neutre",
                "autre",
                "atone"
            ],
            "freeResponses": [],
            "nbPlayClick": 1,
            "expression": "NEUTRE",
            "csv_id": 2369,
            "video_name": "DIVERS_BOOK_AD_03_0001"
        },
        {
            "name": "6681",
            "score": "0.978",
            "index": 48,
            "selectedWords": [
                "d\u00e9termin\u00e9e",
                "transport\u00e9e"
            ],
            "freeResponses": [],
            "nbPlayClick": 1,
            "expression": "NEUTRE",
            "csv_id": 6715,
            "video_name": "DIVERS_PARL_AD_01_0005"
        },
        {
            "name": "8885",
            "score": "0.988",
            "index": 49,
            "selectedWords": [
                "d\u00e9termin\u00e9e",
                "manifeste"
            ],
            "freeResponses": [],
            "nbPlayClick": 2,
            "expression": "DETERMINE",
            "csv_id": 8919,
            "video_name": "DIVERS_PARL_DETERMINE_AD_01_0002"
        },
        {
            "name": "11824",
            "score": "0.997",
            "index": 50,
            "selectedWords": [
                "neutre",
                "autre",
                "autre",
                "reconstituante"
            ],
            "freeResponses": [],
            "nbPlayClick": 2,
            "response": "recon",
            "expression": "NEUTRE",
            "csv_id": 11861,
            "video_name": "DIVERS_PARL_AD_02_0003"
        },
        {
            "name": "3845",
            "score": "0.952",
            "index": 51,
            "selectedWords": [
                "autre",
                "autre",
                "autre",
                "attrist\u00e9e"
            ],
            "freeResponses": [
                "Accusatrice"
            ],
            "nbPlayClick": 1,
            "response": "Accusatrice",
            "expression": "DESOLE",
            "csv_id": 3845,
            "video_name": "DIVERS_PARL_DESOLE_AD_02_0002"
        },
        {
            "name": "4409",
            "score": "0.959",
            "index": 52,
            "selectedWords": [
                "neutre",
                "limpide"
            ],
            "freeResponses": [],
            "nbPlayClick": 1,
            "expression": "NEUTRE",
            "csv_id": 4409,
            "video_name": "DIVERS_PARL_AD_05_0002"
        },
        {
            "name": "10031",
            "score": "0.992",
            "index": 53,
            "selectedWords": [
                "suppliante",
                "autre",
                "autre",
                "autre",
                "autre",
                "ennuy\u00e9e"
            ],
            "freeResponses": [],
            "nbPlayClick": 2,
            "expression": "SUPPLIANT",
            "csv_id": 10065,
            "video_name": "DIVERS_PARL_SUPPLIANT_AD_02_0002"
        },
        {
            "name": "3582",
            "score": "0.948",
            "index": 54,
            "selectedWords": [
                "en col\u00e8re",
                "en rage",
                "m\u00e9contente"
            ],
            "freeResponses": [],
            "nbPlayClick": 1,
            "expression": "COLERE",
            "csv_id": 3582,
            "video_name": "DIVERS_PARL_COLERE_AD_02_0002"
        },
        {
            "name": "8947",
            "score": "0.988",
            "index": 55,
            "selectedWords": [
                "\u00e9vidente",
                "incontestable"
            ],
            "freeResponses": [],
            "nbPlayClick": 1,
            "expression": "NEUTRE",
            "csv_id": 8981,
            "video_name": "DIVERS_BOOK_AD_04_0001"
        },
        {
            "name": "3738",
            "score": "0.950",
            "index": 56,
            "selectedWords": [
                "narquoise",
                "autre",
                "autre",
                "autre",
                "attrist\u00e9e"
            ],
            "freeResponses": [],
            "nbPlayClick": 2,
            "response": "nar",
            "expression": "SUPPLIANT",
            "csv_id": 3738,
            "video_name": "DIVERS_PARL_SUPPLIANT_AD_02_0001"
        },
        {
            "name": "11544",
            "score": "0.996",
            "index": 57,
            "selectedWords": [
                "reconstituante",
                "autre",
                "autre",
                "autre",
                "autre",
                "autre",
                "autre",
                "songeuse"
            ],
            "freeResponses": [],
            "nbPlayClick": 2,
            "response": "reco",
            "expression": "PENSIF",
            "csv_id": 11581,
            "video_name": "DIVERS_BOOK_PENSIF_AD_03_0002"
        },
        {
            "name": "7091",
            "score": "0.980",
            "index": 58,
            "selectedWords": [
                "en col\u00e8re",
                "irrit\u00e9e",
                "autre",
                "autre",
                "autre"
            ],
            "freeResponses": [],
            "nbPlayClick": 1,
            "expression": "EVIDENCE",
            "csv_id": 7125,
            "video_name": "DIVERS_PARL_EVIDENCE_AD_02_0002"
        },
        {
            "name": "4728",
            "score": "0.963",
            "index": 59,
            "selectedWords": [
                "\u00e9vidente",
                "incontestable",
                "officielle"
            ],
            "freeResponses": [],
            "nbPlayClick": 1,
            "expression": "NEUTRE",
            "csv_id": 4762,
            "video_name": "DIVERS_PARL_AD_04_0004"
        }
    ],
    "training": [
        {
            "name": "77",
            "score": "0.639",
            "index": 0,
            "selectedWords": [
                "neutre",
                "s\u00fbre"
            ],
            "freeResponses": [],
            "nbPlayClick": 1,
            "expression": "NEUTRE"
        }
    ],
    "filenameDate": "2023-11-22_14-32"
}