{
    "user": {
        "isProlific": true,
        "id": "5ea8462024fd2808a79ec6e9",
        "session": "65bfe67b6a24b32b1145a149",
        "study": "64ef977375f88e4e1174dce0"
    },
    "userAgent": "Mozilla/5.0 (Windows NT 10.0; Win64; x64) AppleWebKit/537.36 (KHTML, like Gecko) Chrome/120.0.0.0 Safari/537.36 OPR/106.0.0.0",
    "landingDate": "2024-02-04T19:33:30.866Z",
    "startDate": "2024-02-04T19:35:08.037Z",
    "endDate": "2024-02-04T20:01:55.273Z",
    "reviews": [
        {
            "name": "10424",
            "score": "0.993",
            "index": 0,
            "selectedWords": [
                "neutre",
                "certaine"
            ],
            "freeResponses": [],
            "nbPlayClick": 1,
            "expression": "NEUTRE",
            "csv_id": 10458,
            "video_name": "DIVERS_PARL_AD_06_0001"
        },
        {
            "name": "3142",
            "score": "0.941",
            "index": 1,
            "selectedWords": [
                "neutre",
                "certaine"
            ],
            "freeResponses": [],
            "nbPlayClick": 1,
            "expression": "NEUTRE",
            "csv_id": 3142,
            "video_name": "DIVERS_BOOK_AD_03_0002"
        },
        {
            "name": "2942",
            "score": "0.937",
            "index": 2,
            "selectedWords": [
                "enthousiaste",
                "autre",
                "\u00e9berlu\u00e9e"
            ],
            "freeResponses": [],
            "nbPlayClick": 2,
            "expression": "RECONFORTANT",
            "csv_id": 2942,
            "video_name": "DIVERS_BOOK_RECONFORTANT_AD_01_0002"
        },
        {
            "name": "11998",
            "score": "0.997",
            "index": 3,
            "selectedWords": [
                "d\u00e9termin\u00e9e",
                "r\u00e9fl\u00e9chie"
            ],
            "freeResponses": [],
            "nbPlayClick": 1,
            "expression": "NEUTRE",
            "csv_id": 12035,
            "video_name": "DIVERS_PARL_AD_04_0002"
        },
        {
            "name": "11597",
            "score": "0.996",
            "index": 4,
            "selectedWords": [
                "\u00e9vidente",
                "incontestable"
            ],
            "freeResponses": [],
            "nbPlayClick": 1,
            "expression": "NEUTRE",
            "csv_id": 11634,
            "video_name": "DIVERS_PARL_AD_04_0002"
        },
        {
            "name": "7827",
            "score": "0.984",
            "index": 5,
            "selectedWords": [
                "neutre",
                "s\u00fbre"
            ],
            "freeResponses": [],
            "nbPlayClick": 2,
            "expression": "NEUTRE",
            "csv_id": 7861,
            "video_name": "DIVERS_BOOK_AD_04_0002"
        },
        {
            "name": "10560",
            "score": "0.993",
            "index": 6,
            "selectedWords": [
                "autre",
                "autre",
                "autre",
                "autre",
                "autre",
                "autre",
                "autre",
                "autre",
                "pensante"
            ],
            "freeResponses": [
                "h\u00e9sitante"
            ],
            "nbPlayClick": 4,
            "response": "h\u00e9sitante",
            "expression": "NEUTRE",
            "csv_id": 10594,
            "video_name": "DIVERS_PARL_AD_01_0004"
        },
        {
            "name": "5607",
            "score": "0.971",
            "index": 7,
            "selectedWords": [
                "en col\u00e8re",
                "courrouc\u00e9e"
            ],
            "freeResponses": [],
            "nbPlayClick": 1,
            "expression": "DETERMINE",
            "csv_id": 5641,
            "video_name": "DIVERS_PARL_DETERMINE_AD_01_0004"
        },
        {
            "name": "4566",
            "score": "0.961",
            "index": 8,
            "selectedWords": [
                "autre",
                "autre",
                "autre",
                "attrist\u00e9e",
                "d\u00e9pit\u00e9e"
            ],
            "freeResponses": [],
            "nbPlayClick": 2,
            "expression": "DESOLE",
            "csv_id": 4600,
            "video_name": "DIVERS_BOOK_DESOLE_AD_03_0002"
        },
        {
            "name": "1964",
            "score": "0.911",
            "index": 9,
            "selectedWords": [
                "d\u00e9termin\u00e9e",
                "r\u00e9solue"
            ],
            "freeResponses": [],
            "nbPlayClick": 1,
            "expression": "NEUTRE",
            "csv_id": 1964,
            "video_name": "DIVERS_PARL_AD_05_0002"
        },
        {
            "name": "6879",
            "score": "0.979",
            "index": 10,
            "selectedWords": [
                "enthousiaste",
                "tonique"
            ],
            "freeResponses": [],
            "nbPlayClick": 1,
            "expression": "DETERMINE",
            "csv_id": 6913,
            "video_name": "DIVERS_PARL_DETERMINE_AD_01_0004"
        },
        {
            "name": "4884",
            "score": "0.965",
            "index": 11,
            "selectedWords": [
                "autre",
                "autre",
                "autre",
                "autre",
                "autre",
                "autre",
                "autre",
                "autre",
                "navr\u00e9e"
            ],
            "freeResponses": [
                "hautaine"
            ],
            "nbPlayClick": 1,
            "response": "nav",
            "expression": "NEUTRE",
            "csv_id": 4918,
            "video_name": "DIVERS_PARL_AD_04_0004"
        },
        {
            "name": "8142",
            "score": "0.985",
            "index": 12,
            "selectedWords": [
                "autre",
                "autre",
                "autre",
                "autre",
                "autre",
                "autre",
                "h\u00e9b\u00e9t\u00e9e"
            ],
            "freeResponses": [
                "h\u00e9sitante"
            ],
            "nbPlayClick": 1,
            "response": "h\u00e9sitante",
            "expression": "PENSIF",
            "csv_id": 8176,
            "video_name": "DIVERS_BOOK_PENSIF_AD_03_0002"
        },
        {
            "name": "11259",
            "score": "0.995",
            "index": 13,
            "selectedWords": [
                "d\u00e9termin\u00e9e",
                "en col\u00e8re"
            ],
            "freeResponses": [],
            "nbPlayClick": 1,
            "response": "en c",
            "expression": "NEUTRE",
            "csv_id": 11293,
            "video_name": "DIVERS_PARL_AD_01_0006"
        },
        {
            "name": "8392",
            "score": "0.986",
            "index": 14,
            "selectedWords": [
                "\u00e9vidente",
                "incontestable"
            ],
            "freeResponses": [],
            "nbPlayClick": 2,
            "expression": "DETERMINE",
            "csv_id": 8426,
            "video_name": "DIVERS_PARL_DETERMINE_AD_01_0002"
        },
        {
            "name": "12318",
            "score": "0.998",
            "index": 15,
            "selectedWords": [
                "\u00e9tonn\u00e9e"
            ],
            "freeResponses": [
                "enjou\u00e9e"
            ],
            "nbPlayClick": 1,
            "response": "enjou\u00e9e",
            "expression": "ETONNE",
            "csv_id": 12355,
            "video_name": "DIVERS_BOOK_ETONNE_AD_01_0002"
        },
        {
            "name": "12010",
            "score": "0.997",
            "index": 16,
            "selectedWords": [
                "suppliante",
                "implorante"
            ],
            "freeResponses": [],
            "nbPlayClick": 1,
            "expression": "SUPPLIANT",
            "csv_id": 12047,
            "video_name": "DIVERS_BOOK_SUPPLIANT_AD_01_0002"
        },
        {
            "name": "5651",
            "score": "0.971",
            "index": 17,
            "selectedWords": [
                "autre",
                "autre",
                "autre",
                "autre",
                "autre",
                "autre",
                "autre",
                "autre",
                "pensante"
            ],
            "freeResponses": [
                "heureuse"
            ],
            "nbPlayClick": 5,
            "response": "heureuse",
            "expression": "RECONFORTANT",
            "csv_id": 5685,
            "video_name": "DIVERS_BOOK_RECONFORTANT_AD_01_0004"
        },
        {
            "name": "7320",
            "score": "0.981",
            "index": 18,
            "selectedWords": [
                "pensive",
                "r\u00e9fl\u00e9chissante"
            ],
            "freeResponses": [],
            "nbPlayClick": 2,
            "expression": "SUPPLIANT",
            "csv_id": 7354,
            "video_name": "DIVERS_PARL_SUPPLIANT_AD_02_0001"
        },
        {
            "name": "3995",
            "score": "0.954",
            "index": 19,
            "selectedWords": [
                "r\u00e9confortante",
                "apaisante"
            ],
            "freeResponses": [],
            "nbPlayClick": 1,
            "expression": "NEUTRE",
            "csv_id": 3995,
            "video_name": "DIVERS_PARL_AD_05_0004"
        },
        {
            "name": "7299",
            "score": "0.981",
            "index": 20,
            "selectedWords": [
                "\u00e9tonn\u00e9e",
                "autre",
                "\u00e9berlu\u00e9e"
            ],
            "freeResponses": [],
            "nbPlayClick": 1,
            "response": "\u00e9to",
            "expression": "ETONNE",
            "csv_id": 7333,
            "video_name": "DIVERS_BOOK_ETONNE_AD_03_0001"
        },
        {
            "name": "5291",
            "score": "0.968",
            "index": 21,
            "selectedWords": [
                "autre",
                "inexpressive",
                "terne"
            ],
            "freeResponses": [],
            "nbPlayClick": 2,
            "expression": "DESOLE",
            "csv_id": 5325,
            "video_name": "DIVERS_PARL_DESOLE_AD_02_0002"
        },
        {
            "name": "10674",
            "score": "0.994",
            "index": 22,
            "selectedWords": [
                "\u00e9vidente",
                "incontestable"
            ],
            "freeResponses": [],
            "nbPlayClick": 1,
            "expression": "NEUTRE",
            "csv_id": 10708,
            "video_name": "DIVERS_PARL_AD_04_0002"
        },
        {
            "name": "9219",
            "score": "0.989",
            "index": 23,
            "selectedWords": [
                "neutre",
                "autre",
                "autre",
                "autre",
                "autre",
                "autre",
                "autre",
                "autre",
                "autre",
                "autre",
                "d\u00e9cid\u00e9e"
            ],
            "freeResponses": [],
            "nbPlayClick": 1,
            "expression": "NEUTRE",
            "csv_id": 9253,
            "video_name": "DIVERS_BOOK_AD_03_0001"
        },
        {
            "name": "7180",
            "score": "0.980",
            "index": 24,
            "selectedWords": [
                "en col\u00e8re",
                "irrit\u00e9e"
            ],
            "freeResponses": [],
            "nbPlayClick": 1,
            "expression": "COLERE",
            "csv_id": 7214,
            "video_name": "DIVERS_PARL_COLERE_AD_02_0002"
        },
        {
            "name": "4761",
            "score": "0.964",
            "index": 25,
            "selectedWords": [
                "enthousiaste",
                "euphorique"
            ],
            "freeResponses": [],
            "nbPlayClick": 1,
            "expression": "RECONFORTANT",
            "csv_id": 4795,
            "video_name": "DIVERS_BOOK_RECONFORTANT_AD_01_0004"
        },
        {
            "name": "6587",
            "score": "0.977",
            "index": 26,
            "selectedWords": [
                "neutre",
                "s\u00fbre"
            ],
            "freeResponses": [],
            "nbPlayClick": 1,
            "expression": "NEUTRE",
            "csv_id": 6621,
            "video_name": "DIVERS_PARL_AD_04_0002"
        },
        {
            "name": "10238",
            "score": "0.992",
            "index": 27,
            "selectedWords": [
                "autre",
                "contrari\u00e9e",
                "attrist\u00e9e"
            ],
            "freeResponses": [],
            "nbPlayClick": 1,
            "response": "",
            "expression": "SUPPLIANT",
            "csv_id": 10272,
            "video_name": "DIVERS_PARL_SUPPLIANT_AD_02_0001"
        },
        {
            "name": "1360",
            "score": "0.884",
            "index": 28,
            "selectedWords": [
                "autre",
                "autre",
                "autre",
                "malicieuse",
                "taquine"
            ],
            "freeResponses": [],
            "nbPlayClick": 1,
            "expression": "EVIDENCE",
            "csv_id": 1360,
            "video_name": "DIVERS_PARL_EVIDENCE_AD_01_0001"
        },
        {
            "name": "9441",
            "score": "0.990",
            "index": 29,
            "selectedWords": [
                "\u00e9vidente",
                "indubitable"
            ],
            "freeResponses": [],
            "nbPlayClick": 1,
            "expression": "NEUTRE",
            "csv_id": 9475,
            "video_name": "DIVERS_PARL_AD_01_0005"
        },
        {
            "name": "3018",
            "score": "0.939",
            "index": 30,
            "selectedWords": [
                "autre",
                "autre",
                "taquine",
                "autre",
                "autre",
                "autre",
                "sceptique"
            ],
            "freeResponses": [],
            "nbPlayClick": 1,
            "response": "ta",
            "expression": "EVIDENCE",
            "csv_id": 3018,
            "video_name": "DIVERS_PARL_EVIDENCE_AD_01_0001"
        },
        {
            "name": "8049",
            "score": "0.984",
            "index": 31,
            "selectedWords": [
                "espi\u00e8gle",
                "autre",
                "euphorique"
            ],
            "freeResponses": [],
            "nbPlayClick": 1,
            "response": "eu",
            "expression": "ENTHOUSIASTE",
            "csv_id": 8083,
            "video_name": "DIVERS_PARL_ENTHOUSIASTE_AD_02_0001"
        },
        {
            "name": "6041",
            "score": "0.974",
            "index": 32,
            "selectedWords": [
                "enthousiaste",
                "euphorique"
            ],
            "freeResponses": [],
            "nbPlayClick": 1,
            "response": "eu",
            "expression": "ENTHOUSIASTE",
            "csv_id": 6075,
            "video_name": "DIVERS_BOOK_ENTHOUSIASTE_AD_01_0001"
        },
        {
            "name": "2640",
            "score": "0.930",
            "index": 33,
            "selectedWords": [
                "en col\u00e8re",
                "d\u00e9termin\u00e9e"
            ],
            "freeResponses": [],
            "nbPlayClick": 1,
            "response": "d\u00e9te",
            "expression": "COLERE",
            "csv_id": 2640,
            "video_name": "DIVERS_PARL_COLERE_AD_01_0003"
        },
        {
            "name": "8645",
            "score": "0.987",
            "index": 34,
            "selectedWords": [
                "autre",
                "autre",
                "autre",
                "attrist\u00e9e",
                "d\u00e9pit\u00e9e"
            ],
            "freeResponses": [],
            "nbPlayClick": 1,
            "expression": "NEUTRE",
            "csv_id": 8679,
            "video_name": "DIVERS_PARL_AD_05_0003"
        },
        {
            "name": "5378",
            "score": "0.969",
            "index": 35,
            "selectedWords": [
                "neutre",
                "s\u00fbre"
            ],
            "freeResponses": [],
            "nbPlayClick": 1,
            "expression": "NEUTRE",
            "csv_id": 5412,
            "video_name": "DIVERS_PARL_AD_04_0003"
        },
        {
            "name": "10277",
            "score": "0.992",
            "index": 36,
            "selectedWords": [
                "d\u00e9termin\u00e9e",
                "manifeste"
            ],
            "freeResponses": [],
            "nbPlayClick": 2,
            "expression": "NEUTRE",
            "csv_id": 10311,
            "video_name": "DIVERS_PARL_AD_06_0002"
        },
        {
            "name": "4516",
            "score": "0.961",
            "index": 37,
            "selectedWords": [
                "autre",
                "taquine",
                "malicieuse"
            ],
            "freeResponses": [],
            "nbPlayClick": 2,
            "response": "taq",
            "expression": "ESPIEGLE",
            "csv_id": 4550,
            "video_name": "DIVERS_BOOK_ESPIEGLE_AD_03_0001"
        },
        {
            "name": "7516",
            "score": "0.982",
            "index": 38,
            "selectedWords": [
                "neutre",
                "autre",
                "autre",
                "autre",
                "autre",
                "atone"
            ],
            "freeResponses": [],
            "nbPlayClick": 1,
            "expression": "NEUTRE",
            "csv_id": 7550,
            "video_name": "DIVERS_BOOK_AD_04_0001"
        },
        {
            "name": "7616",
            "score": "0.983",
            "index": 39,
            "selectedWords": [
                "autre",
                "autre",
                "autre",
                "in\u00e9branlable",
                "certaine"
            ],
            "freeResponses": [],
            "nbPlayClick": 1,
            "expression": "NEUTRE",
            "csv_id": 7650,
            "video_name": "DIVERS_PARL_AD_02_0001"
        },
        {
            "name": "9797",
            "score": "0.991",
            "index": 40,
            "selectedWords": [
                "d\u00e9termin\u00e9e",
                "r\u00e9solue"
            ],
            "freeResponses": [],
            "nbPlayClick": 1,
            "expression": "NEUTRE",
            "csv_id": 9831,
            "video_name": "DIVERS_PARL_AD_01_0006"
        },
        {
            "name": "12350",
            "score": "0.998",
            "index": 41,
            "selectedWords": [
                "autre",
                "atone",
                "fade"
            ],
            "freeResponses": [],
            "nbPlayClick": 1,
            "response": "aton",
            "expression": "NEUTRE",
            "csv_id": 12387,
            "video_name": "DIVERS_PARL_AD_04_0001"
        },
        {
            "name": "12252",
            "score": "0.998",
            "index": 42,
            "selectedWords": [
                "autre",
                "autre",
                "autre",
                "autre",
                "autre",
                "autre",
                "autre",
                "incontestable",
                "indubitable"
            ],
            "freeResponses": [],
            "nbPlayClick": 1,
            "expression": "NEUTRE",
            "csv_id": 12289,
            "video_name": "DIVERS_PARL_AD_06_0003"
        },
        {
            "name": "5247",
            "score": "0.968",
            "index": 43,
            "selectedWords": [
                "\u00e9vidente",
                "prouv\u00e9e"
            ],
            "freeResponses": [],
            "nbPlayClick": 2,
            "expression": "NEUTRE",
            "csv_id": 5281,
            "video_name": "DIVERS_BOOK_AD_01_0001"
        },
        {
            "name": "3684",
            "score": "0.950",
            "index": 44,
            "selectedWords": [
                "en col\u00e8re",
                "en rage"
            ],
            "freeResponses": [],
            "nbPlayClick": 1,
            "expression": "COLERE",
            "csv_id": 3684,
            "video_name": "DIVERS_PARL_COLERE_AD_02_0002"
        },
        {
            "name": "9930",
            "score": "0.991",
            "index": 45,
            "selectedWords": [
                "atone",
                "ennuy\u00e9e"
            ],
            "freeResponses": [],
            "nbPlayClick": 2,
            "response": "ennuy",
            "expression": "NEUTRE",
            "csv_id": 9964,
            "video_name": "DIVERS_PARL_AD_04_0003"
        },
        {
            "name": "10361",
            "score": "0.993",
            "index": 46,
            "selectedWords": [
                "autre",
                "autre",
                "autre",
                "autre",
                "autre",
                "autre",
                "m\u00e9fiante",
                "convaincue"
            ],
            "freeResponses": [],
            "nbPlayClick": 1,
            "expression": "NEUTRE",
            "csv_id": 10395,
            "video_name": "DIVERS_PARL_AD_03_0002"
        },
        {
            "name": "9544",
            "score": "0.990",
            "index": 47,
            "selectedWords": [
                "r\u00e9confortante",
                "apaisante"
            ],
            "freeResponses": [],
            "nbPlayClick": 2,
            "expression": "SUPPLIANT",
            "csv_id": 9578,
            "video_name": "DIVERS_PARL_SUPPLIANT_AD_02_0001"
        },
        {
            "name": "11470",
            "score": "0.996",
            "index": 48,
            "selectedWords": [
                "neutre",
                "autre",
                "autre",
                "inexpressive"
            ],
            "freeResponses": [],
            "nbPlayClick": 1,
            "expression": "NEUTRE",
            "csv_id": 11507,
            "video_name": "DIVERS_PARL_AD_01_0005"
        },
        {
            "name": "5312",
            "score": "0.968",
            "index": 49,
            "selectedWords": [
                "agit\u00e9e",
                "autre",
                "autre",
                "autre",
                "autre",
                "ennuy\u00e9e"
            ],
            "freeResponses": [],
            "nbPlayClick": 1,
            "response": "agit",
            "expression": "DETERMINE",
            "csv_id": 5346,
            "video_name": "DIVERS_PARL_DETERMINE_AD_01_0004"
        },
        {
            "name": "7848",
            "score": "0.984",
            "index": 50,
            "selectedWords": [
                "neutre",
                "s\u00fbre"
            ],
            "freeResponses": [],
            "nbPlayClick": 1,
            "expression": "DESOLE",
            "csv_id": 7882,
            "video_name": "DIVERS_PARL_DESOLE_AD_01_0004"
        },
        {
            "name": "9761",
            "score": "0.991",
            "index": 51,
            "selectedWords": [
                "autre",
                "inexpressive",
                "froide"
            ],
            "freeResponses": [],
            "nbPlayClick": 2,
            "expression": "NEUTRE",
            "csv_id": 9795,
            "video_name": "DIVERS_BOOK_AD_04_0002"
        },
        {
            "name": "3267",
            "score": "0.943",
            "index": 52,
            "selectedWords": [
                "songeuse"
            ],
            "freeResponses": [
                "heureuse"
            ],
            "nbPlayClick": 1,
            "response": "song",
            "expression": "RECONFORTANT",
            "csv_id": 3267,
            "video_name": "DIVERS_BOOK_RECONFORTANT_AD_01_0004"
        },
        {
            "name": "4018",
            "score": "0.954",
            "index": 53,
            "selectedWords": [
                "en col\u00e8re",
                "irrit\u00e9e"
            ],
            "freeResponses": [],
            "nbPlayClick": 1,
            "expression": "SUPPLIANT",
            "csv_id": 4018,
            "video_name": "DIVERS_PARL_SUPPLIANT_AD_02_0002"
        },
        {
            "name": "3110",
            "score": "0.940",
            "index": 54,
            "selectedWords": [
                "neutre",
                "certaine"
            ],
            "freeResponses": [],
            "nbPlayClick": 1,
            "expression": "NEUTRE",
            "csv_id": 3110,
            "video_name": "DIVERS_PARL_AD_04_0004"
        },
        {
            "name": "9262",
            "score": "0.989",
            "index": 55,
            "selectedWords": [
                "en col\u00e8re",
                "hargneuse"
            ],
            "freeResponses": [],
            "nbPlayClick": 1,
            "expression": "NEUTRE",
            "csv_id": 9296,
            "video_name": "DIVERS_PARL_AD_01_0001"
        },
        {
            "name": "10908",
            "score": "0.994",
            "index": 56,
            "selectedWords": [
                "autre",
                "autre",
                "autre",
                "autre",
                "autre",
                "autre",
                "ind\u00e9niable",
                "irr\u00e9cusable"
            ],
            "freeResponses": [],
            "nbPlayClick": 3,
            "expression": "NEUTRE",
            "csv_id": 10942,
            "video_name": "DIVERS_PARL_AD_04_0001"
        },
        {
            "name": "8914",
            "score": "0.988",
            "index": 57,
            "selectedWords": [
                "enthousiaste",
                "tonique"
            ],
            "freeResponses": [],
            "nbPlayClick": 1,
            "expression": "RECONFORTANT",
            "csv_id": 8948,
            "video_name": "DIVERS_BOOK_RECONFORTANT_AD_01_0002"
        },
        {
            "name": "8666",
            "score": "0.987",
            "index": 58,
            "selectedWords": [
                "\u00e9vidente",
                "indubitable"
            ],
            "freeResponses": [],
            "nbPlayClick": 1,
            "expression": "NEUTRE",
            "csv_id": 8700,
            "video_name": "DIVERS_PARL_AD_03_0001"
        },
        {
            "name": "7519",
            "score": "0.982",
            "index": 59,
            "selectedWords": [
                "\u00e9vidente",
                "manifeste"
            ],
            "freeResponses": [],
            "nbPlayClick": 1,
            "expression": "NEUTRE",
            "csv_id": 7553,
            "video_name": "DIVERS_PARL_AD_04_0004"
        }
    ],
    "training": [
        {
            "name": "77",
            "score": "0.639",
            "index": 0,
            "selectedWords": [
                "\u00e9tonn\u00e9e"
            ],
            "freeResponses": [
                "d\u00e9\u00e7ue"
            ],
            "nbPlayClick": 3,
            "response": "d\u00e9\u00e7ue",
            "expression": "NEUTRE"
        }
    ],
    "filenameDate": "2024-02-04_21-1"
}