{
    "user": {
        "isProlific": true,
        "id": "5eb34f37d16113140c112fb0",
        "session": "64fcb48157a1e521e5185a8d",
        "study": "64ef977375f88e4e1174dce0"
    },
    "userAgent": "Mozilla/5.0 (Windows NT 10.0; Win64; x64) AppleWebKit/537.36 (KHTML, like Gecko) Chrome/116.0.0.0 Safari/537.36",
    "landingDate": "2023-09-09T18:08:13.774Z",
    "startDate": "2023-09-09T18:11:10.507Z",
    "endDate": "2023-09-09T18:50:15.709Z",
    "reviews": [
        {
            "name": "8037",
            "score": "0.984",
            "index": 0,
            "selectedWords": [
                "autre",
                "autre",
                "autre",
                "autre",
                "autre",
                "autre",
                "autre",
                "finaude",
                "rus\u00e9e"
            ],
            "freeResponses": [],
            "nbPlayClick": 3,
            "expression": "INCREDULE",
            "csv_id": 8071,
            "video_name": "DIVERS_PARL_INCREDULE_AD_02_0003"
        },
        {
            "name": "3047",
            "score": "0.939",
            "index": 1,
            "selectedWords": [
                "espi\u00e8gle",
                "malicieuse"
            ],
            "freeResponses": [],
            "nbPlayClick": 5,
            "expression": "ESPIEGLE",
            "csv_id": 3047,
            "video_name": "DIVERS_BOOK_ESPIEGLE_AD_03_0001"
        },
        {
            "name": "7283",
            "score": "0.981",
            "index": 2,
            "selectedWords": [
                "autre",
                "autre",
                "autre",
                "autre",
                "autre",
                "autre",
                "d\u00e9cid\u00e9e",
                "s\u00fbre",
                "r\u00e9fl\u00e9chie"
            ],
            "freeResponses": [],
            "nbPlayClick": 2,
            "expression": "DETERMINE",
            "csv_id": 7317,
            "video_name": "DIVERS_PARL_DETERMINE_AD_01_0002"
        },
        {
            "name": "4958",
            "score": "0.965",
            "index": 3,
            "selectedWords": [
                "rus\u00e9e",
                "autre",
                "implorante",
                "larmoyante"
            ],
            "freeResponses": [],
            "nbPlayClick": 2,
            "expression": "RECONFORTANT",
            "csv_id": 4992,
            "video_name": "DIVERS_PARL_RECONFORTANT_AD_02_0001"
        },
        {
            "name": "5475",
            "score": "0.970",
            "index": 4,
            "selectedWords": [
                "d\u00e9sol\u00e9e",
                "autre",
                "autre",
                "consolante"
            ],
            "freeResponses": [],
            "nbPlayClick": 2,
            "expression": "RECONFORTANT",
            "csv_id": 5509,
            "video_name": "DIVERS_PARL_RECONFORTANT_AD_02_0001"
        },
        {
            "name": "11018",
            "score": "0.994",
            "index": 5,
            "selectedWords": [
                "neutre",
                "s\u00fbre",
                "froide"
            ],
            "freeResponses": [],
            "nbPlayClick": 3,
            "expression": "NEUTRE",
            "csv_id": 11052,
            "video_name": "DIVERS_BOOK_AD_03_0001"
        },
        {
            "name": "4844",
            "score": "0.964",
            "index": 6,
            "selectedWords": [
                "en col\u00e8re",
                "\u00e9nerv\u00e9e",
                "m\u00e9contente"
            ],
            "freeResponses": [],
            "nbPlayClick": 1,
            "expression": "COLERE",
            "csv_id": 4878,
            "video_name": "DIVERS_PARL_COLERE_AD_02_0002"
        },
        {
            "name": "9287",
            "score": "0.989",
            "index": 7,
            "selectedWords": [
                "d\u00e9termin\u00e9e",
                "r\u00e9fl\u00e9chie",
                "infaillible"
            ],
            "freeResponses": [],
            "nbPlayClick": 1,
            "expression": "NEUTRE",
            "csv_id": 9321,
            "video_name": "DIVERS_PARL_AD_01_0002"
        },
        {
            "name": "7594",
            "score": "0.982",
            "index": 8,
            "selectedWords": [
                "d\u00e9termin\u00e9e",
                "autre",
                "autre",
                "autre",
                "autre",
                "autre",
                "autre",
                "autre",
                "autre",
                "autre",
                "m\u00e9contente",
                "\u00e9nerv\u00e9e"
            ],
            "freeResponses": [],
            "nbPlayClick": 1,
            "expression": "COLERE",
            "csv_id": 7628,
            "video_name": "DIVERS_PARL_COLERE_AD_02_0002"
        },
        {
            "name": "3083",
            "score": "0.940",
            "index": 9,
            "selectedWords": [
                "\u00e9tonn\u00e9e",
                "autre",
                "\u00e9berlu\u00e9e"
            ],
            "freeResponses": [],
            "nbPlayClick": 2,
            "expression": "ETONNE",
            "csv_id": 3083,
            "video_name": "DIVERS_BOOK_ETONNE_AD_03_0001"
        },
        {
            "name": "4140",
            "score": "0.956",
            "index": 10,
            "selectedWords": [
                "incr\u00e9dule",
                "dubitative",
                "indign\u00e9e"
            ],
            "freeResponses": [],
            "nbPlayClick": 1,
            "expression": "NEUTRE",
            "csv_id": 4140,
            "video_name": "DIVERS_PARL_AD_01_0004"
        },
        {
            "name": "3147",
            "score": "0.941",
            "index": 11,
            "selectedWords": [
                "d\u00e9sol\u00e9e",
                "autre",
                "autre",
                "consolante",
                "consolatrice"
            ],
            "freeResponses": [],
            "nbPlayClick": 3,
            "expression": "SUPPLIANT",
            "csv_id": 3147,
            "video_name": "DIVERS_PARL_SUPPLIANT_AD_02_0002"
        },
        {
            "name": "5756",
            "score": "0.972",
            "index": 12,
            "selectedWords": [
                "\u00e9vidente",
                "emb\u00eat\u00e9e"
            ],
            "freeResponses": [],
            "nbPlayClick": 3,
            "expression": "EVIDENCE",
            "csv_id": 5790,
            "video_name": "DIVERS_PARL_EVIDENCE_AD_02_0002"
        },
        {
            "name": "4539",
            "score": "0.961",
            "index": 13,
            "selectedWords": [
                "d\u00e9termin\u00e9e",
                "autre",
                "autre",
                "autre",
                "autre",
                "autre",
                "autre",
                "autre",
                "autre",
                "autre",
                "indiscutable",
                "nette"
            ],
            "freeResponses": [],
            "nbPlayClick": 1,
            "expression": "COLERE",
            "csv_id": 4573,
            "video_name": "DIVERS_PARL_COLERE_AD_01_0003"
        },
        {
            "name": "1745",
            "score": "0.902",
            "index": 14,
            "selectedWords": [
                "neutre",
                "limpide"
            ],
            "freeResponses": [],
            "nbPlayClick": 1,
            "expression": "NEUTRE",
            "csv_id": 1745,
            "video_name": "DIVERS_PARL_AD_03_0003"
        },
        {
            "name": "8095",
            "score": "0.985",
            "index": 15,
            "selectedWords": [
                "\u00e9vidente",
                "indubitable"
            ],
            "freeResponses": [],
            "nbPlayClick": 2,
            "expression": "EVIDENCE",
            "csv_id": 8129,
            "video_name": "DIVERS_BOOK_EVIDENCE_AD_01_0002"
        },
        {
            "name": "6252",
            "score": "0.975",
            "index": 16,
            "selectedWords": [
                "neutre",
                "s\u00fbre"
            ],
            "freeResponses": [],
            "nbPlayClick": 2,
            "expression": "NEUTRE",
            "csv_id": 6286,
            "video_name": "DIVERS_PARL_AD_01_0004"
        },
        {
            "name": "7039",
            "score": "0.980",
            "index": 17,
            "selectedWords": [
                "autre",
                "dubitative",
                "sceptique"
            ],
            "freeResponses": [],
            "nbPlayClick": 2,
            "expression": "INCREDULE",
            "csv_id": 7073,
            "video_name": "DIVERS_PARL_INCREDULE_AD_02_0003"
        },
        {
            "name": "11834",
            "score": "0.997",
            "index": 18,
            "selectedWords": [
                "neutre",
                "s\u00fbre"
            ],
            "freeResponses": [],
            "nbPlayClick": 2,
            "expression": "NEUTRE",
            "csv_id": 11871,
            "video_name": "DIVERS_BOOK_AD_03_0002"
        },
        {
            "name": "2370",
            "score": "0.923",
            "index": 19,
            "selectedWords": [
                "\u00e9tonn\u00e9e",
                "m\u00e9fiante",
                "sid\u00e9r\u00e9e"
            ],
            "freeResponses": [],
            "nbPlayClick": 2,
            "expression": "COLERE",
            "csv_id": 2370,
            "video_name": "DIVERS_PARL_COLERE_AD_01_0003"
        },
        {
            "name": "5484",
            "score": "0.970",
            "index": 20,
            "selectedWords": [
                "neutre",
                "notoire",
                "notoire"
            ],
            "freeResponses": [],
            "nbPlayClick": 2,
            "expression": "NEUTRE",
            "csv_id": 5518,
            "video_name": "DIVERS_PARL_AD_06_0001"
        },
        {
            "name": "9701",
            "score": "0.991",
            "index": 21,
            "selectedWords": [
                "autre",
                "autre",
                "apaisante",
                "autre",
                "autre",
                "autre",
                "autre",
                "autre",
                "autre",
                "autre",
                "autre",
                "r\u00eaveuse",
                "transport\u00e9e"
            ],
            "freeResponses": [],
            "nbPlayClick": 3,
            "expression": "RECONFORTANT",
            "csv_id": 9735,
            "video_name": "DIVERS_BOOK_RECONFORTANT_AD_03_0002"
        },
        {
            "name": "10153",
            "score": "0.992",
            "index": 22,
            "selectedWords": [
                "d\u00e9termin\u00e9e",
                "manifeste",
                "convaincue"
            ],
            "freeResponses": [],
            "nbPlayClick": 1,
            "expression": "NEUTRE",
            "csv_id": 10187,
            "video_name": "DIVERS_PARL_AD_04_0004"
        },
        {
            "name": "1887",
            "score": "0.908",
            "index": 23,
            "selectedWords": [
                "d\u00e9termin\u00e9e",
                "autre",
                "autre",
                "autre",
                "autre",
                "autre",
                "autre",
                "autre",
                "autre",
                "autre",
                "autre",
                "autre",
                "bouillonnante"
            ],
            "freeResponses": [],
            "nbPlayClick": 3,
            "expression": "COLERE",
            "csv_id": 1887,
            "video_name": "ESTYLE_COLERE_AD_02_0001"
        },
        {
            "name": "242",
            "score": "0.743",
            "index": 24,
            "selectedWords": [
                "autre",
                "autre",
                "autre",
                "autre",
                "maligne",
                "autre",
                "autre",
                "autre",
                "autre",
                "autre",
                "autre",
                "r\u00eaveuse"
            ],
            "freeResponses": [],
            "nbPlayClick": 3,
            "expression": "RECONFORTANT",
            "csv_id": 242,
            "video_name": "DIVERS_BOOK_RECONFORTANT_AD_01_0002"
        },
        {
            "name": "8971",
            "score": "0.988",
            "index": 25,
            "selectedWords": [
                "d\u00e9lur\u00e9e",
                "transport\u00e9e"
            ],
            "freeResponses": [],
            "nbPlayClick": 2,
            "expression": "PENSIF",
            "csv_id": 9005,
            "video_name": "DIVERS_BOOK_PENSIF_AD_01_0003"
        },
        {
            "name": "412",
            "score": "0.792",
            "index": 26,
            "selectedWords": [
                "autre",
                "autre",
                "autre",
                "autre",
                "autre",
                "autre",
                "m\u00e9fiante",
                "autre",
                "finaude",
                "rus\u00e9e"
            ],
            "freeResponses": [],
            "nbPlayClick": 1,
            "expression": "NEUTRE",
            "csv_id": 412,
            "video_name": "DIVERS_PARL_AD_04_0003"
        },
        {
            "name": "3081",
            "score": "0.940",
            "index": 27,
            "selectedWords": [
                "\u00e9tonn\u00e9e",
                "autre",
                "dubitative"
            ],
            "freeResponses": [],
            "nbPlayClick": 2,
            "expression": "NEUTRE",
            "csv_id": 3081,
            "video_name": "DIVERS_PARL_AD_05_0001"
        },
        {
            "name": "11908",
            "score": "0.997",
            "index": 28,
            "selectedWords": [
                "incr\u00e9dule",
                "intuitive",
                "irr\u00e9cusable"
            ],
            "freeResponses": [],
            "nbPlayClick": 1,
            "expression": "NEUTRE",
            "csv_id": 11945,
            "video_name": "DIVERS_PARL_AD_01_0005"
        },
        {
            "name": "8289",
            "score": "0.985",
            "index": 29,
            "selectedWords": [
                "d\u00e9termin\u00e9e",
                "manifeste",
                "autre",
                "autre",
                "autre"
            ],
            "freeResponses": [],
            "nbPlayClick": 1,
            "expression": "NEUTRE",
            "csv_id": 8323,
            "video_name": "DIVERS_PARL_AD_06_0001"
        },
        {
            "name": "5957",
            "score": "0.974",
            "index": 30,
            "selectedWords": [
                "suppliante",
                "priante"
            ],
            "freeResponses": [],
            "nbPlayClick": 2,
            "expression": "SUPPLIANT",
            "csv_id": 5991,
            "video_name": "DIVERS_BOOK_SUPPLIANT_AD_01_0004"
        },
        {
            "name": "5251",
            "score": "0.968",
            "index": 31,
            "selectedWords": [
                "neutre",
                "autre",
                "autre",
                "ennuy\u00e9e"
            ],
            "freeResponses": [],
            "nbPlayClick": 1,
            "expression": "NEUTRE",
            "csv_id": 5285,
            "video_name": "DIVERS_PARL_AD_04_0001"
        },
        {
            "name": "9437",
            "score": "0.990",
            "index": 32,
            "selectedWords": [
                "d\u00e9termin\u00e9e",
                "manifeste"
            ],
            "freeResponses": [],
            "nbPlayClick": 1,
            "expression": "NEUTRE",
            "csv_id": 9471,
            "video_name": "DIVERS_PARL_AD_06_0001"
        },
        {
            "name": "10618",
            "score": "0.993",
            "index": 33,
            "selectedWords": [
                "suppliante",
                "implorante"
            ],
            "freeResponses": [],
            "nbPlayClick": 1,
            "expression": "SUPPLIANT",
            "csv_id": 10652,
            "video_name": "DIVERS_BOOK_SUPPLIANT_AD_01_0002"
        },
        {
            "name": "7643",
            "score": "0.983",
            "index": 34,
            "selectedWords": [
                "\u00e9tonn\u00e9e",
                "autre",
                "autre",
                "autre",
                "songeuse"
            ],
            "freeResponses": [],
            "nbPlayClick": 2,
            "expression": "NEUTRE",
            "csv_id": 7677,
            "video_name": "DIVERS_BOOK_AD_03_0001"
        },
        {
            "name": "2925",
            "score": "0.937",
            "index": 35,
            "selectedWords": [
                "autre",
                "autre",
                "autre",
                "autre",
                "maligne",
                "rus\u00e9e"
            ],
            "freeResponses": [],
            "nbPlayClick": 2,
            "expression": "EVIDENCE",
            "csv_id": 2925,
            "video_name": "DIVERS_BOOK_EVIDENCE_AD_01_0002"
        },
        {
            "name": "10014",
            "score": "0.992",
            "index": 36,
            "selectedWords": [
                "neutre",
                "autre",
                "autre",
                "autre",
                "autre",
                "apaisante"
            ],
            "freeResponses": [],
            "nbPlayClick": 1,
            "expression": "NEUTRE",
            "csv_id": 10048,
            "video_name": "DIVERS_PARL_AD_05_0001"
        },
        {
            "name": "8404",
            "score": "0.986",
            "index": 37,
            "selectedWords": [
                "suppliante",
                "larmoyante"
            ],
            "freeResponses": [],
            "nbPlayClick": 1,
            "expression": "SUPPLIANT",
            "csv_id": 8438,
            "video_name": "DIVERS_BOOK_SUPPLIANT_AD_01_0004"
        },
        {
            "name": "4425",
            "score": "0.960",
            "index": 38,
            "selectedWords": [
                "d\u00e9termin\u00e9e",
                "r\u00e9solue"
            ],
            "freeResponses": [],
            "nbPlayClick": 1,
            "expression": "NEUTRE",
            "csv_id": 4459,
            "video_name": "DIVERS_PARL_AD_06_0004"
        },
        {
            "name": "1756",
            "score": "0.903",
            "index": 39,
            "selectedWords": [
                "\u00e9tonn\u00e9e",
                "autre",
                "dubitative"
            ],
            "freeResponses": [],
            "nbPlayClick": 2,
            "expression": "NEUTRE",
            "csv_id": 1756,
            "video_name": "DIVERS_PARL_AD_06_0002"
        },
        {
            "name": "9016",
            "score": "0.988",
            "index": 40,
            "selectedWords": [
                "neutre",
                "limpide"
            ],
            "freeResponses": [],
            "nbPlayClick": 1,
            "expression": "NEUTRE",
            "csv_id": 9050,
            "video_name": "DIVERS_PARL_AD_02_0002"
        },
        {
            "name": "11404",
            "score": "0.995",
            "index": 41,
            "selectedWords": [
                "\u00e9vidente",
                "prouv\u00e9e"
            ],
            "freeResponses": [],
            "nbPlayClick": 2,
            "expression": "NEUTRE",
            "csv_id": 11441,
            "video_name": "DIVERS_PARL_AD_03_0001"
        },
        {
            "name": "10605",
            "score": "0.993",
            "index": 42,
            "selectedWords": [
                "autre",
                "autre",
                "\u00e9bahie",
                "stup\u00e9faite"
            ],
            "freeResponses": [],
            "nbPlayClick": 3,
            "expression": "NEUTRE",
            "csv_id": 10639,
            "video_name": "DIVERS_BOOK_AD_03_0002"
        },
        {
            "name": "9894",
            "score": "0.991",
            "index": 43,
            "selectedWords": [
                "neutre",
                "s\u00fbre"
            ],
            "freeResponses": [],
            "nbPlayClick": 1,
            "expression": "NEUTRE",
            "csv_id": 9928,
            "video_name": "DIVERS_PARL_AD_01_0006"
        },
        {
            "name": "9814",
            "score": "0.991",
            "index": 44,
            "selectedWords": [
                "\u00e9tonn\u00e9e",
                "autre",
                "dubitative"
            ],
            "freeResponses": [],
            "nbPlayClick": 1,
            "expression": "PENSIF",
            "csv_id": 9848,
            "video_name": "DIVERS_BOOK_PENSIF_AD_03_0002"
        },
        {
            "name": "8724",
            "score": "0.987",
            "index": 45,
            "selectedWords": [
                "autre",
                "autre",
                "autre",
                "autre",
                "consolatrice",
                "autre",
                "autre",
                "autre",
                "autre",
                "z\u00e9l\u00e9e"
            ],
            "freeResponses": [],
            "nbPlayClick": 1,
            "expression": "EVIDENCE",
            "csv_id": 8758,
            "video_name": "DIVERS_PARL_EVIDENCE_AD_02_0002"
        },
        {
            "name": "8826",
            "score": "0.988",
            "index": 46,
            "selectedWords": [
                "enthousiaste",
                "euphorique",
                "exalt\u00e9e"
            ],
            "freeResponses": [],
            "nbPlayClick": 1,
            "expression": "ENTHOUSIASTE",
            "csv_id": 8860,
            "video_name": "DIVERS_PARL_ENTHOUSIASTE_AD_02_0001"
        },
        {
            "name": "4005",
            "score": "0.954",
            "index": 47,
            "selectedWords": [
                "espi\u00e8gle",
                "malicieuse",
                "finaude"
            ],
            "freeResponses": [],
            "nbPlayClick": 1,
            "expression": "ESPIEGLE",
            "csv_id": 4005,
            "video_name": "DIVERS_PARL_ESPIEGLE_AD_01_0001"
        },
        {
            "name": "2920",
            "score": "0.937",
            "index": 48,
            "selectedWords": [
                "autre",
                "autre",
                "autre",
                "autre",
                "autre",
                "autre",
                "autre",
                "autre",
                "afflig\u00e9e",
                "pein\u00e9e"
            ],
            "freeResponses": [],
            "nbPlayClick": 1,
            "expression": "SUPPLIANT",
            "csv_id": 2920,
            "video_name": "DIVERS_PARL_SUPPLIANT_AD_02_0001"
        },
        {
            "name": "6514",
            "score": "0.977",
            "index": 49,
            "selectedWords": [
                "en col\u00e8re",
                "irrit\u00e9e",
                "f\u00e2ch\u00e9e"
            ],
            "freeResponses": [],
            "nbPlayClick": 1,
            "expression": "COLERE",
            "csv_id": 6548,
            "video_name": "DIVERS_PARL_COLERE_AD_01_0003"
        },
        {
            "name": "6527",
            "score": "0.977",
            "index": 50,
            "selectedWords": [
                "\u00e9vidente",
                "manifeste"
            ],
            "freeResponses": [],
            "nbPlayClick": 3,
            "expression": "NEUTRE",
            "csv_id": 6561,
            "video_name": "DIVERS_PARL_AD_03_0004"
        },
        {
            "name": "1440",
            "score": "0.888",
            "index": 51,
            "selectedWords": [
                "\u00e9vidente",
                "manifeste"
            ],
            "freeResponses": [],
            "nbPlayClick": 2,
            "expression": "DETERMINE",
            "csv_id": 1440,
            "video_name": "DIVERS_PARL_DETERMINE_AD_01_0002"
        },
        {
            "name": "8863",
            "score": "0.988",
            "index": 52,
            "selectedWords": [
                "autre",
                "autre",
                "autre",
                "autre",
                "autre",
                "autre",
                "autre",
                "incontestable",
                "indubitable"
            ],
            "freeResponses": [],
            "nbPlayClick": 1,
            "expression": "NEUTRE",
            "csv_id": 8897,
            "video_name": "DIVERS_PARL_AD_02_0004"
        },
        {
            "name": "10847",
            "score": "0.994",
            "index": 53,
            "selectedWords": [
                "d\u00e9termin\u00e9e",
                "r\u00e9fl\u00e9chie",
                "s\u00fbre"
            ],
            "freeResponses": [],
            "nbPlayClick": 1,
            "expression": "NEUTRE",
            "csv_id": 10881,
            "video_name": "DIVERS_PARL_AD_01_0006"
        },
        {
            "name": "11412",
            "score": "0.995",
            "index": 54,
            "selectedWords": [
                "incr\u00e9dule",
                "convaincue"
            ],
            "freeResponses": [],
            "nbPlayClick": 1,
            "expression": "NEUTRE",
            "csv_id": 11449,
            "video_name": "DIVERS_PARL_AD_03_0001"
        },
        {
            "name": "5107",
            "score": "0.967",
            "index": 55,
            "selectedWords": [
                "\u00e9vidente",
                "incontestable",
                "certaine"
            ],
            "freeResponses": [],
            "nbPlayClick": 1,
            "expression": "NEUTRE",
            "csv_id": 5141,
            "video_name": "DIVERS_PARL_AD_06_0001"
        },
        {
            "name": "7578",
            "score": "0.982",
            "index": 56,
            "selectedWords": [
                "autre",
                "autre",
                "\u00e9bahie",
                "autre",
                "autre",
                "autre",
                "sceptique"
            ],
            "freeResponses": [],
            "nbPlayClick": 1,
            "expression": "EVIDENCE",
            "csv_id": 7612,
            "video_name": "DIVERS_PARL_EVIDENCE_AD_01_0001"
        },
        {
            "name": "10468",
            "score": "0.993",
            "index": 57,
            "selectedWords": [
                "autre",
                "autre",
                "d\u00e9lur\u00e9e",
                "autre",
                "autre",
                "autre",
                "autre",
                "stimulante"
            ],
            "freeResponses": [],
            "nbPlayClick": 1,
            "expression": "ENTHOUSIASTE",
            "csv_id": 10502,
            "video_name": "DIVERS_PARL_ENTHOUSIASTE_AD_02_0001"
        },
        {
            "name": "4156",
            "score": "0.956",
            "index": 58,
            "selectedWords": [
                "autre",
                "autre",
                "autre",
                "in\u00e9branlable",
                "certaine"
            ],
            "freeResponses": [],
            "nbPlayClick": 2,
            "expression": "NEUTRE",
            "csv_id": 4156,
            "video_name": "DIVERS_PARL_AD_01_0006"
        },
        {
            "name": "8531",
            "score": "0.987",
            "index": 59,
            "selectedWords": [
                "neutre",
                "s\u00fbre"
            ],
            "freeResponses": [],
            "nbPlayClick": 2,
            "expression": "NEUTRE",
            "csv_id": 8565,
            "video_name": "DIVERS_PARL_AD_01_0002"
        }
    ],
    "training": [
        {
            "name": "77",
            "score": "0.639",
            "index": 0,
            "selectedWords": [
                "\u00e9vidente",
                "manifeste",
                "\u00e9loquente"
            ],
            "freeResponses": [],
            "nbPlayClick": 4,
            "expression": "NEUTRE"
        }
    ],
    "filenameDate": "2023-09-09_20-50"
}