{
    "user": {
        "isProlific": true,
        "id": "5ed00081d382500b916d5879",
        "session": "652528ba8820db32686800c0",
        "study": "64ef977375f88e4e1174dce0"
    },
    "userAgent": "Mozilla/5.0 (Windows NT 10.0; Win64; x64) AppleWebKit/537.36 (KHTML, like Gecko) Chrome/117.0.0.0 Safari/537.36",
    "landingDate": "2023-10-10T10:35:29.044Z",
    "startDate": "2023-10-10T10:44:59.731Z",
    "endDate": "2023-10-10T12:02:24.487Z",
    "reviews": [
        {
            "name": "5020",
            "score": "0.966",
            "index": 0,
            "selectedWords": [
                "pensive",
                "transport\u00e9e",
                "absente",
                "songeuse"
            ],
            "freeResponses": [],
            "nbPlayClick": 4,
            "expression": "DESOLE",
            "csv_id": 5054,
            "video_name": "DIVERS_PARL_DESOLE_AD_02_0002"
        },
        {
            "name": "5726",
            "score": "0.972",
            "index": 1,
            "selectedWords": [
                "certaine",
                "irrit\u00e9e",
                "\u00e9loquente"
            ],
            "freeResponses": [],
            "nbPlayClick": 6,
            "expression": "NEUTRE",
            "csv_id": 5760,
            "video_name": "DIVERS_BOOK_AD_01_0002"
        },
        {
            "name": "9375",
            "score": "0.990",
            "index": 2,
            "selectedWords": [
                "\u00e9nergique",
                "taquine",
                "malicieuse",
                "narquoise"
            ],
            "freeResponses": [],
            "nbPlayClick": 1,
            "expression": "ESPIEGLE",
            "csv_id": 9409,
            "video_name": "DIVERS_PARL_ESPIEGLE_AD_01_0001"
        },
        {
            "name": "710",
            "score": "0.832",
            "index": 3,
            "selectedWords": [
                "d\u00e9termin\u00e9e",
                "certaine",
                "entreprenante"
            ],
            "freeResponses": [],
            "nbPlayClick": 3,
            "expression": "NEUTRE",
            "csv_id": 710,
            "video_name": "DIVERS_PARL_AD_05_0004"
        },
        {
            "name": "7873",
            "score": "0.984",
            "index": 4,
            "selectedWords": [
                "courrouc\u00e9e",
                "r\u00e9solue",
                "ennuy\u00e9e"
            ],
            "freeResponses": [],
            "nbPlayClick": 3,
            "expression": "NEUTRE",
            "csv_id": 7907,
            "video_name": "DIVERS_PARL_AD_03_0004"
        },
        {
            "name": "11076",
            "score": "0.995",
            "index": 5,
            "selectedWords": [
                "\u00e9vidente",
                "sceptique",
                "patente"
            ],
            "freeResponses": [],
            "nbPlayClick": 4,
            "expression": "PENSIF",
            "csv_id": 11110,
            "video_name": "DIVERS_BOOK_PENSIF_AD_01_0003"
        },
        {
            "name": "6807",
            "score": "0.979",
            "index": 6,
            "selectedWords": [
                "\u00e9vidente",
                "agit\u00e9e",
                "convaincue",
                "m\u00e9contente"
            ],
            "freeResponses": [],
            "nbPlayClick": 2,
            "expression": "ETONNE",
            "csv_id": 6841,
            "video_name": "DIVERS_PARL_ETONNE_AD_01_0001"
        },
        {
            "name": "6476",
            "score": "0.977",
            "index": 7,
            "selectedWords": [
                "neutre",
                "\u00e9vidente"
            ],
            "freeResponses": [],
            "nbPlayClick": 3,
            "expression": "NEUTRE",
            "csv_id": 6510,
            "video_name": "DIVERS_PARL_AD_04_0002"
        },
        {
            "name": "12086",
            "score": "0.997",
            "index": 8,
            "selectedWords": [
                "inexpressive",
                "neutre"
            ],
            "freeResponses": [],
            "nbPlayClick": 3,
            "expression": "NEUTRE",
            "csv_id": 12123,
            "video_name": "DIVERS_BOOK_AD_03_0001"
        },
        {
            "name": "10734",
            "score": "0.994",
            "index": 9,
            "selectedWords": [
                "convaincue",
                "indubitable"
            ],
            "freeResponses": [],
            "nbPlayClick": 1,
            "expression": "NEUTRE",
            "csv_id": 10768,
            "video_name": "DIVERS_PARL_AD_06_0002"
        },
        {
            "name": "2953",
            "score": "0.937",
            "index": 10,
            "selectedWords": [
                "encourageante",
                "excit\u00e9e",
                "stimulante",
                "\u00e9nergique"
            ],
            "freeResponses": [],
            "nbPlayClick": 4,
            "expression": "ENTHOUSIASTE",
            "csv_id": 2953,
            "video_name": "DIVERS_PARL_ENTHOUSIASTE_AD_01_0003"
        },
        {
            "name": "6461",
            "score": "0.977",
            "index": 11,
            "selectedWords": [
                "attrist\u00e9e",
                "emb\u00eat\u00e9e",
                "m\u00e9contente"
            ],
            "freeResponses": [],
            "nbPlayClick": 1,
            "expression": "SUPPLIANT",
            "csv_id": 6495,
            "video_name": "DIVERS_PARL_SUPPLIANT_AD_02_0002"
        },
        {
            "name": "3256",
            "score": "0.943",
            "index": 12,
            "selectedWords": [
                "confuse",
                "indign\u00e9e",
                "irrit\u00e9e",
                "\u00e9tonn\u00e9e"
            ],
            "freeResponses": [],
            "nbPlayClick": 5,
            "expression": "INCREDULE",
            "csv_id": 3256,
            "video_name": "DIVERS_BOOK_INCREDULE_AD_01_0001"
        },
        {
            "name": "6139",
            "score": "0.975",
            "index": 13,
            "selectedWords": [
                "sceptique",
                "perplexe"
            ],
            "freeResponses": [],
            "nbPlayClick": 1,
            "expression": "INCREDULE",
            "csv_id": 6173,
            "video_name": "DIVERS_BOOK_INCREDULE_AD_01_0001"
        },
        {
            "name": "10726",
            "score": "0.994",
            "index": 14,
            "selectedWords": [
                "triomphale",
                "rus\u00e9e",
                "malicieuse"
            ],
            "freeResponses": [],
            "nbPlayClick": 1,
            "expression": "ESPIEGLE",
            "csv_id": 10760,
            "video_name": "DIVERS_PARL_ESPIEGLE_AD_01_0001"
        },
        {
            "name": "2732",
            "score": "0.932",
            "index": 15,
            "selectedWords": [
                "d\u00e9courag\u00e9e",
                "froide",
                "sceptique"
            ],
            "freeResponses": [],
            "nbPlayClick": 3,
            "expression": "NEUTRE",
            "csv_id": 2732,
            "video_name": "DIVERS_PARL_AD_06_0002"
        },
        {
            "name": "8485",
            "score": "0.986",
            "index": 16,
            "selectedWords": [
                "r\u00e9solue",
                "apaisante",
                "consolante"
            ],
            "freeResponses": [],
            "nbPlayClick": 1,
            "expression": "NEUTRE",
            "csv_id": 8519,
            "video_name": "DIVERS_PARL_AD_01_0005"
        },
        {
            "name": "3565",
            "score": "0.948",
            "index": 17,
            "selectedWords": [
                "abasourdie",
                "agit\u00e9e"
            ],
            "freeResponses": [],
            "nbPlayClick": 1,
            "expression": "ETONNE",
            "csv_id": 3565,
            "video_name": "DIVERS_BOOK_ETONNE_AD_01_0002"
        },
        {
            "name": "1561",
            "score": "0.894",
            "index": 18,
            "selectedWords": [
                "incontestable",
                "terne",
                "r\u00e9fl\u00e9chissante"
            ],
            "freeResponses": [],
            "nbPlayClick": 1,
            "expression": "PENSIF",
            "csv_id": 1561,
            "video_name": "DIVERS_BOOK_PENSIF_AD_01_0003"
        },
        {
            "name": "5197",
            "score": "0.968",
            "index": 19,
            "selectedWords": [
                "certaine",
                "d\u00e9cid\u00e9e",
                "emball\u00e9e"
            ],
            "freeResponses": [],
            "nbPlayClick": 2,
            "expression": "EVIDENCE",
            "csv_id": 5231,
            "video_name": "DIVERS_BOOK_EVIDENCE_AD_01_0002"
        },
        {
            "name": "5378",
            "score": "0.969",
            "index": 20,
            "selectedWords": [
                "neutre",
                "ind\u00e9niable"
            ],
            "freeResponses": [],
            "nbPlayClick": 1,
            "expression": "NEUTRE",
            "csv_id": 5412,
            "video_name": "DIVERS_PARL_AD_04_0003"
        },
        {
            "name": "1439",
            "score": "0.888",
            "index": 21,
            "selectedWords": [
                "contrari\u00e9e",
                "pr\u00e9occup\u00e9e",
                "indiscutable"
            ],
            "freeResponses": [],
            "nbPlayClick": 3,
            "expression": "EVIDENCE",
            "csv_id": 1439,
            "video_name": "DIVERS_PARL_EVIDENCE_AD_01_0001"
        },
        {
            "name": "6858",
            "score": "0.979",
            "index": 22,
            "selectedWords": [
                "certaine",
                "ennuy\u00e9e",
                "dubitative",
                "irrit\u00e9e"
            ],
            "freeResponses": [],
            "nbPlayClick": 1,
            "expression": "COLERE",
            "csv_id": 6892,
            "video_name": "DIVERS_PARL_COLERE_AD_01_0004"
        },
        {
            "name": "10371",
            "score": "0.993",
            "index": 23,
            "selectedWords": [
                "nette",
                "ind\u00e9niable"
            ],
            "freeResponses": [],
            "nbPlayClick": 1,
            "expression": "NEUTRE",
            "csv_id": 10405,
            "video_name": "DIVERS_PARL_AD_02_0003"
        },
        {
            "name": "9148",
            "score": "0.989",
            "index": 24,
            "selectedWords": [
                "ferme",
                "certaine"
            ],
            "freeResponses": [],
            "nbPlayClick": 1,
            "expression": "NEUTRE",
            "csv_id": 9182,
            "video_name": "DIVERS_PARL_AD_06_0002"
        },
        {
            "name": "6571",
            "score": "0.977",
            "index": 25,
            "selectedWords": [
                "inexpressive",
                "r\u00e9fl\u00e9chissante"
            ],
            "freeResponses": [],
            "nbPlayClick": 2,
            "expression": "DESOLE",
            "csv_id": 6605,
            "video_name": "DIVERS_PARL_DESOLE_AD_02_0002"
        },
        {
            "name": "11893",
            "score": "0.997",
            "index": 26,
            "selectedWords": [
                "emball\u00e9e",
                "\u00e9tonn\u00e9e",
                "stup\u00e9faite"
            ],
            "freeResponses": [],
            "nbPlayClick": 1,
            "expression": "ETONNE",
            "csv_id": 11930,
            "video_name": "DIVERS_BOOK_ETONNE_AD_03_0001"
        },
        {
            "name": "12382",
            "score": "0.999",
            "index": 27,
            "selectedWords": [
                "neutre",
                "inexpressive"
            ],
            "freeResponses": [],
            "nbPlayClick": 1,
            "expression": "NEUTRE",
            "csv_id": 12419,
            "video_name": "DIVERS_BOOK_AD_04_0001"
        },
        {
            "name": "9129",
            "score": "0.989",
            "index": 28,
            "selectedWords": [
                "dubitative",
                "indiscutable",
                "incr\u00e9dule"
            ],
            "freeResponses": [],
            "nbPlayClick": 1,
            "expression": "PENSIF",
            "csv_id": 9163,
            "video_name": "DIVERS_BOOK_PENSIF_AD_03_0002"
        },
        {
            "name": "5198",
            "score": "0.968",
            "index": 29,
            "selectedWords": [
                "d\u00e9courag\u00e9e",
                "sceptique"
            ],
            "freeResponses": [],
            "nbPlayClick": 3,
            "expression": "NEUTRE",
            "csv_id": 5232,
            "video_name": "DIVERS_PARL_AD_03_0003"
        },
        {
            "name": "3124",
            "score": "0.941",
            "index": 30,
            "selectedWords": [
                "fac\u00e9tieuse",
                "hargneuse"
            ],
            "freeResponses": [],
            "nbPlayClick": 2,
            "expression": "ESPIEGLE",
            "csv_id": 3124,
            "video_name": "DIVERS_PARL_ESPIEGLE_AD_01_0001"
        },
        {
            "name": "4843",
            "score": "0.964",
            "index": 31,
            "selectedWords": [
                "apaisante",
                "pr\u00e9occup\u00e9e",
                "pein\u00e9e"
            ],
            "freeResponses": [],
            "nbPlayClick": 5,
            "expression": "NEUTRE",
            "csv_id": 4877,
            "video_name": "DIVERS_PARL_AD_02_0003"
        },
        {
            "name": "9070",
            "score": "0.989",
            "index": 32,
            "selectedWords": [
                "contrari\u00e9e",
                "d\u00e9termin\u00e9e",
                "certaine"
            ],
            "freeResponses": [],
            "nbPlayClick": 2,
            "expression": "COLERE",
            "csv_id": 9104,
            "video_name": "DIVERS_PARL_COLERE_AD_01_0004"
        },
        {
            "name": "8150",
            "score": "0.985",
            "index": 33,
            "selectedWords": [
                "convaincue",
                "incontestable"
            ],
            "freeResponses": [],
            "nbPlayClick": 2,
            "expression": "NEUTRE",
            "csv_id": 8184,
            "video_name": "DIVERS_PARL_AD_06_0004"
        },
        {
            "name": "11818",
            "score": "0.997",
            "index": 34,
            "selectedWords": [
                "entreprenante",
                "r\u00e9fl\u00e9chie"
            ],
            "freeResponses": [],
            "nbPlayClick": 1,
            "expression": "NEUTRE",
            "csv_id": 11855,
            "video_name": "DIVERS_BOOK_AD_03_0002"
        },
        {
            "name": "12059",
            "score": "0.997",
            "index": 35,
            "selectedWords": [
                "\u00e9vidente",
                "autre",
                "autre",
                "certaine"
            ],
            "freeResponses": [],
            "nbPlayClick": 2,
            "expression": "NEUTRE",
            "csv_id": 12096,
            "video_name": "DIVERS_PARL_AD_02_0002"
        },
        {
            "name": "8865",
            "score": "0.988",
            "index": 36,
            "selectedWords": [
                "triomphale",
                "\u00e9loquente",
                "s\u00fbre"
            ],
            "freeResponses": [],
            "nbPlayClick": 1,
            "expression": "NEUTRE",
            "csv_id": 8899,
            "video_name": "DIVERS_PARL_AD_01_0005"
        },
        {
            "name": "10015",
            "score": "0.992",
            "index": 37,
            "selectedWords": [
                "attrist\u00e9e",
                "suppliante",
                "pr\u00e9occup\u00e9e"
            ],
            "freeResponses": [],
            "nbPlayClick": 1,
            "expression": "SUPPLIANT",
            "csv_id": 10049,
            "video_name": "DIVERS_BOOK_SUPPLIANT_AD_01_0002"
        },
        {
            "name": "8466",
            "score": "0.986",
            "index": 38,
            "selectedWords": [
                "convaincue",
                "vivifiante",
                "ind\u00e9niable"
            ],
            "freeResponses": [],
            "nbPlayClick": 2,
            "expression": "ETONNE",
            "csv_id": 8500,
            "video_name": "DIVERS_BOOK_ETONNE_AD_03_0001"
        },
        {
            "name": "9913",
            "score": "0.991",
            "index": 39,
            "selectedWords": [
                "ennuy\u00e9e",
                "inexpressive",
                "neutre"
            ],
            "freeResponses": [],
            "nbPlayClick": 2,
            "expression": "NEUTRE",
            "csv_id": 9947,
            "video_name": "DIVERS_PARL_AD_04_0001"
        },
        {
            "name": "11903",
            "score": "0.997",
            "index": 40,
            "selectedWords": [
                "sceptique",
                "pensante",
                "s\u00fbre"
            ],
            "freeResponses": [],
            "nbPlayClick": 2,
            "expression": "NEUTRE",
            "csv_id": 11940,
            "video_name": "DIVERS_BOOK_AD_03_0002"
        },
        {
            "name": "6123",
            "score": "0.975",
            "index": 41,
            "selectedWords": [
                "dubitative",
                "ennuy\u00e9e",
                "m\u00e9contente"
            ],
            "freeResponses": [],
            "nbPlayClick": 1,
            "expression": "INCREDULE",
            "csv_id": 6157,
            "video_name": "DIVERS_PARL_INCREDULE_AD_02_0003"
        },
        {
            "name": "7706",
            "score": "0.983",
            "index": 42,
            "selectedWords": [
                "r\u00e9fl\u00e9chie",
                "fade"
            ],
            "freeResponses": [],
            "nbPlayClick": 3,
            "expression": "PENSIF",
            "csv_id": 7740,
            "video_name": "DIVERS_PARL_PENSIF_AD_01_0002"
        },
        {
            "name": "5657",
            "score": "0.971",
            "index": 43,
            "selectedWords": [
                "apaisante",
                "consolante",
                "indiscutable"
            ],
            "freeResponses": [],
            "nbPlayClick": 3,
            "expression": "RECONFORTANT",
            "csv_id": 5691,
            "video_name": "DIVERS_PARL_RECONFORTANT_AD_02_0001"
        },
        {
            "name": "6627",
            "score": "0.978",
            "index": 44,
            "selectedWords": [
                "m\u00e9contente",
                "\u00e9vidente",
                "s\u00fbre",
                "attrist\u00e9e"
            ],
            "freeResponses": [],
            "nbPlayClick": 1,
            "expression": "PENSIF",
            "csv_id": 6661,
            "video_name": "DIVERS_PARL_PENSIF_AD_01_0002"
        },
        {
            "name": "9555",
            "score": "0.990",
            "index": 45,
            "selectedWords": [
                "d\u00e9termin\u00e9e",
                "s\u00fbre",
                "manifeste"
            ],
            "freeResponses": [],
            "nbPlayClick": 1,
            "expression": "SUPPLIANT",
            "csv_id": 9589,
            "video_name": "DIVERS_PARL_SUPPLIANT_AD_02_0001"
        },
        {
            "name": "502",
            "score": "0.805",
            "index": 46,
            "selectedWords": [
                "neutre",
                "pensante"
            ],
            "freeResponses": [],
            "nbPlayClick": 2,
            "expression": "PENSIF",
            "csv_id": 502,
            "video_name": "DIVERS_BOOK_PENSIF_AD_01_0003"
        },
        {
            "name": "7076",
            "score": "0.980",
            "index": 47,
            "selectedWords": [
                "d\u00e9termin\u00e9e",
                "r\u00e9solue",
                "convaincue"
            ],
            "freeResponses": [],
            "nbPlayClick": 1,
            "expression": "NEUTRE",
            "csv_id": 7110,
            "video_name": "DIVERS_PARL_AD_01_0005"
        },
        {
            "name": "12027",
            "score": "0.997",
            "index": 48,
            "selectedWords": [
                "\u00e9vidente",
                "incontestable",
                "officielle",
                "\u00e9nergique"
            ],
            "freeResponses": [],
            "nbPlayClick": 1,
            "expression": "DETERMINE",
            "csv_id": 12064,
            "video_name": "DIVERS_PARL_DETERMINE_AD_01_0004"
        },
        {
            "name": "10771",
            "score": "0.994",
            "index": 49,
            "selectedWords": [
                "\u00e9tonn\u00e9e",
                "autre",
                "autre",
                "autre",
                "songeuse",
                "autre"
            ],
            "freeResponses": [],
            "nbPlayClick": 1,
            "expression": "ETONNE",
            "csv_id": 10805,
            "video_name": "DIVERS_BOOK_ETONNE_AD_01_0004"
        },
        {
            "name": "5434",
            "score": "0.969",
            "index": 50,
            "selectedWords": [
                "\u00e9vidente",
                "prouv\u00e9e",
                "s\u00fbre",
                "nette"
            ],
            "freeResponses": [],
            "nbPlayClick": 2,
            "expression": "INCREDULE",
            "csv_id": 5468,
            "video_name": "DIVERS_PARL_INCREDULE_AD_02_0003"
        },
        {
            "name": "6269",
            "score": "0.976",
            "index": 51,
            "selectedWords": [
                "agit\u00e9e",
                "emball\u00e9e",
                "bouillonnante",
                "passionn\u00e9e"
            ],
            "freeResponses": [],
            "nbPlayClick": 1,
            "expression": "ENTHOUSIASTE",
            "csv_id": 6303,
            "video_name": "DIVERS_BOOK_ENTHOUSIASTE_AD_01_0001"
        },
        {
            "name": "1636",
            "score": "0.898",
            "index": 52,
            "selectedWords": [
                "convaincue",
                "d\u00e9cid\u00e9e"
            ],
            "freeResponses": [],
            "nbPlayClick": 1,
            "expression": "SUPPLIANT",
            "csv_id": 1636,
            "video_name": "DIVERS_PARL_SUPPLIANT_AD_02_0002"
        },
        {
            "name": "10995",
            "score": "0.994",
            "index": 53,
            "selectedWords": [
                "neutre",
                "autre",
                "imp\u00e9n\u00e9trable"
            ],
            "freeResponses": [],
            "nbPlayClick": 1,
            "expression": "NEUTRE",
            "csv_id": 11029,
            "video_name": "DIVERS_PARL_AD_04_0003"
        },
        {
            "name": "10492",
            "score": "0.993",
            "index": 54,
            "selectedWords": [
                "\u00e9vidente",
                "irr\u00e9cusable",
                "ind\u00e9niable"
            ],
            "freeResponses": [],
            "nbPlayClick": 1,
            "expression": "NEUTRE",
            "csv_id": 10526,
            "video_name": "DIVERS_BOOK_AD_04_0001"
        },
        {
            "name": "9817",
            "score": "0.991",
            "index": 55,
            "selectedWords": [
                "neutre",
                "inexpressive"
            ],
            "freeResponses": [],
            "nbPlayClick": 2,
            "expression": "NEUTRE",
            "csv_id": 9851,
            "video_name": "DIVERS_PARL_AD_04_0003"
        },
        {
            "name": "11398",
            "score": "0.995",
            "index": 56,
            "selectedWords": [
                "inexpressive",
                "\u00e9tonn\u00e9e"
            ],
            "freeResponses": [],
            "nbPlayClick": 1,
            "expression": "NEUTRE",
            "csv_id": 11432,
            "video_name": "DIVERS_PARL_AD_02_0001"
        },
        {
            "name": "12104",
            "score": "0.997",
            "index": 57,
            "selectedWords": [
                "certaine",
                "irr\u00e9cusable",
                "officielle"
            ],
            "freeResponses": [],
            "nbPlayClick": 1,
            "expression": "NEUTRE",
            "csv_id": 12141,
            "video_name": "DIVERS_PARL_AD_03_0004"
        },
        {
            "name": "8591",
            "score": "0.987",
            "index": 58,
            "selectedWords": [
                "d\u00e9sol\u00e9e",
                "r\u00e9fl\u00e9chie",
                "infaillible"
            ],
            "freeResponses": [],
            "nbPlayClick": 1,
            "expression": "DESOLE",
            "csv_id": 8625,
            "video_name": "DIVERS_PARL_DESOLE_AD_01_0004"
        },
        {
            "name": "3786",
            "score": "0.951",
            "index": 59,
            "selectedWords": [
                "r\u00e9confortante",
                "indubitable",
                "infaillible",
                "prouv\u00e9e"
            ],
            "freeResponses": [],
            "nbPlayClick": 3,
            "expression": "DESOLE",
            "csv_id": 3786,
            "video_name": "DIVERS_PARL_DESOLE_AD_01_0004"
        }
    ],
    "training": [
        {
            "name": "77",
            "score": "0.639",
            "index": 0,
            "selectedWords": [
                "\u00e9nergique",
                "z\u00e9l\u00e9e",
                "certaine",
                "d\u00e9termin\u00e9e",
                "ferme"
            ],
            "freeResponses": [],
            "nbPlayClick": 7,
            "expression": "NEUTRE"
        }
    ],
    "filenameDate": "2023-10-10_14-2"
}