{
    "user": {
        "isProlific": true,
        "id": "5efdcc5880afcc04fa5ba688",
        "session": "6546712f126d092f63f3c430",
        "study": "64ef977375f88e4e1174dce0"
    },
    "userAgent": "Mozilla/5.0 (Windows NT 10.0; Win64; x64) AppleWebKit/537.36 (KHTML, like Gecko) Chrome/116.0.0.0 Safari/537.36 OPR/102.0.0.0",
    "landingDate": "2023-11-04T16:28:51.767Z",
    "startDate": "2023-11-04T16:31:01.543Z",
    "endDate": "2023-11-04T17:07:48.140Z",
    "reviews": [
        {
            "name": "4519",
            "score": "0.961",
            "index": 0,
            "selectedWords": [
                "autre",
                "dubitative",
                "sceptique"
            ],
            "freeResponses": [],
            "nbPlayClick": 2,
            "expression": "NEUTRE",
            "csv_id": 4553,
            "video_name": "DIVERS_PARL_AD_06_0001"
        },
        {
            "name": "11442",
            "score": "0.995",
            "index": 1,
            "selectedWords": [
                "\u00e9vidente",
                "autre",
                "autre",
                "ennuy\u00e9e",
                "pein\u00e9e"
            ],
            "freeResponses": [],
            "nbPlayClick": 1,
            "expression": "NEUTRE",
            "csv_id": 11479,
            "video_name": "DIVERS_PARL_AD_02_0001"
        },
        {
            "name": "2665",
            "score": "0.931",
            "index": 2,
            "selectedWords": [
                "\u00e9tonn\u00e9e",
                "autre",
                "autre",
                "autre",
                "\u00e9bahie"
            ],
            "freeResponses": [],
            "nbPlayClick": 2,
            "response": "\u00e9ba",
            "expression": "ETONNE",
            "csv_id": 2665,
            "video_name": "DIVERS_BOOK_ETONNE_AD_03_0001"
        },
        {
            "name": "11030",
            "score": "0.994",
            "index": 3,
            "selectedWords": [
                "d\u00e9termin\u00e9e",
                "r\u00e9solue",
                "convaincue"
            ],
            "freeResponses": [],
            "nbPlayClick": 2,
            "expression": "NEUTRE",
            "csv_id": 11064,
            "video_name": "DIVERS_PARL_AD_06_0002"
        },
        {
            "name": "713",
            "score": "0.833",
            "index": 4,
            "selectedWords": [
                "autre",
                "dubitative",
                "sceptique"
            ],
            "freeResponses": [],
            "nbPlayClick": 2,
            "expression": "INCREDULE",
            "csv_id": 713,
            "video_name": "DIVERS_PARL_INCREDULE_AD_02_0003"
        },
        {
            "name": "7569",
            "score": "0.982",
            "index": 5,
            "selectedWords": [
                "enthousiaste",
                "autre",
                "autre",
                "malicieuse"
            ],
            "freeResponses": [],
            "nbPlayClick": 4,
            "expression": "RECONFORTANT",
            "csv_id": 7603,
            "video_name": "DIVERS_BOOK_RECONFORTANT_AD_03_0002"
        },
        {
            "name": "3190",
            "score": "0.942",
            "index": 6,
            "selectedWords": [
                "\u00e9vidente",
                "prouv\u00e9e",
                "s\u00fbre"
            ],
            "freeResponses": [],
            "nbPlayClick": 2,
            "expression": "EVIDENCE",
            "csv_id": 3190,
            "video_name": "DIVERS_PARL_EVIDENCE_AD_01_0001"
        },
        {
            "name": "8645",
            "score": "0.987",
            "index": 7,
            "selectedWords": [
                "neutre",
                "limpide"
            ],
            "freeResponses": [],
            "nbPlayClick": 4,
            "expression": "NEUTRE",
            "csv_id": 8679,
            "video_name": "DIVERS_PARL_AD_05_0003"
        },
        {
            "name": "12104",
            "score": "0.997",
            "index": 8,
            "selectedWords": [
                "neutre",
                "s\u00fbre"
            ],
            "freeResponses": [],
            "nbPlayClick": 1,
            "expression": "NEUTRE",
            "csv_id": 12141,
            "video_name": "DIVERS_PARL_AD_03_0004"
        },
        {
            "name": "9630",
            "score": "0.990",
            "index": 9,
            "selectedWords": [
                "neutre",
                "s\u00fbre"
            ],
            "freeResponses": [],
            "nbPlayClick": 5,
            "expression": "NEUTRE",
            "csv_id": 9664,
            "video_name": "DIVERS_PARL_AD_04_0002"
        },
        {
            "name": "8725",
            "score": "0.987",
            "index": 10,
            "selectedWords": [
                "en col\u00e8re",
                "irrit\u00e9e"
            ],
            "freeResponses": [],
            "nbPlayClick": 1,
            "expression": "NEUTRE",
            "csv_id": 8759,
            "video_name": "DIVERS_PARL_AD_01_0002"
        },
        {
            "name": "12005",
            "score": "0.997",
            "index": 11,
            "selectedWords": [
                "incr\u00e9dule",
                "convaincue"
            ],
            "freeResponses": [],
            "nbPlayClick": 4,
            "expression": "NEUTRE",
            "csv_id": 12042,
            "video_name": "DIVERS_PARL_AD_02_0004"
        },
        {
            "name": "8494",
            "score": "0.986",
            "index": 12,
            "selectedWords": [
                "autre",
                "autre",
                "autre",
                "autre",
                "autre",
                "autre",
                "autre",
                "neutre",
                "autre",
                "autre",
                "d\u00e9courag\u00e9e"
            ],
            "freeResponses": [],
            "nbPlayClick": 6,
            "response": "neu",
            "expression": "DESOLE",
            "csv_id": 8528,
            "video_name": "DIVERS_PARL_DESOLE_AD_01_0004"
        },
        {
            "name": "9592",
            "score": "0.990",
            "index": 13,
            "selectedWords": [
                "autre",
                "autre",
                "autre",
                "in\u00e9branlable",
                "autre",
                "autre",
                "autre",
                "autre",
                "narquoise"
            ],
            "freeResponses": [],
            "nbPlayClick": 3,
            "expression": "NEUTRE",
            "csv_id": 9626,
            "video_name": "DIVERS_PARL_AD_05_0003"
        },
        {
            "name": "4604",
            "score": "0.962",
            "index": 14,
            "selectedWords": [
                "ennuy\u00e9e",
                "contrari\u00e9e"
            ],
            "freeResponses": [],
            "nbPlayClick": 5,
            "response": "enn",
            "expression": "NEUTRE",
            "csv_id": 4638,
            "video_name": "DIVERS_PARL_AD_06_0004"
        },
        {
            "name": "11869",
            "score": "0.997",
            "index": 15,
            "selectedWords": [
                "suppliante",
                "autre",
                "autre",
                "certaine"
            ],
            "freeResponses": [],
            "nbPlayClick": 3,
            "expression": "SUPPLIANT",
            "csv_id": 11906,
            "video_name": "DIVERS_PARL_SUPPLIANT_AD_02_0002"
        },
        {
            "name": "4574",
            "score": "0.962",
            "index": 16,
            "selectedWords": [
                "neutre",
                "autre",
                "autre",
                "autre",
                "autre",
                "autre",
                "autre",
                "autre",
                "autre",
                "autre",
                "d\u00e9cid\u00e9e"
            ],
            "freeResponses": [],
            "nbPlayClick": 4,
            "response": "",
            "expression": "NEUTRE",
            "csv_id": 4608,
            "video_name": "DIVERS_PARL_AD_04_0004"
        },
        {
            "name": "9361",
            "score": "0.990",
            "index": 17,
            "selectedWords": [
                "suppliante",
                "\u00e9vidente"
            ],
            "freeResponses": [],
            "nbPlayClick": 2,
            "response": "\u00e9v",
            "expression": "SUPPLIANT",
            "csv_id": 9395,
            "video_name": "DIVERS_PARL_SUPPLIANT_AD_02_0001"
        },
        {
            "name": "1450",
            "score": "0.888",
            "index": 18,
            "selectedWords": [
                "\u00e9tonn\u00e9e",
                "irrit\u00e9e"
            ],
            "freeResponses": [],
            "nbPlayClick": 2,
            "response": "irr",
            "expression": "INCREDULE",
            "csv_id": 1450,
            "video_name": "DIVERS_PARL_INCREDULE_AD_01_0001"
        },
        {
            "name": "6594",
            "score": "0.977",
            "index": 19,
            "selectedWords": [
                "d\u00e9termin\u00e9e",
                "r\u00e9fl\u00e9chie",
                "r\u00e9solue"
            ],
            "freeResponses": [],
            "nbPlayClick": 3,
            "response": "r\u00e9s",
            "expression": "DESOLE",
            "csv_id": 6628,
            "video_name": "DIVERS_PARL_DESOLE_AD_01_0004"
        },
        {
            "name": "9605",
            "score": "0.990",
            "index": 20,
            "selectedWords": [
                "pensive",
                "songeuse"
            ],
            "freeResponses": [],
            "nbPlayClick": 4,
            "expression": "NEUTRE",
            "csv_id": 9639,
            "video_name": "DIVERS_PARL_AD_03_0001"
        },
        {
            "name": "493",
            "score": "0.804",
            "index": 21,
            "selectedWords": [
                "neutre",
                "s\u00fbre"
            ],
            "freeResponses": [],
            "nbPlayClick": 2,
            "expression": "NEUTRE",
            "csv_id": 493,
            "video_name": "DIVERS_PARL_AD_06_0004"
        },
        {
            "name": "4278",
            "score": "0.958",
            "index": 22,
            "selectedWords": [
                "convaincue",
                "r\u00e9fl\u00e9chie"
            ],
            "freeResponses": [],
            "nbPlayClick": 4,
            "response": "dub",
            "expression": "NEUTRE",
            "csv_id": 4278,
            "video_name": "DIVERS_PARL_AD_04_0001"
        },
        {
            "name": "4457",
            "score": "0.960",
            "index": 23,
            "selectedWords": [
                "incr\u00e9dule",
                "dubitative"
            ],
            "freeResponses": [],
            "nbPlayClick": 3,
            "expression": "NEUTRE",
            "csv_id": 4491,
            "video_name": "DIVERS_BOOK_AD_04_0001"
        },
        {
            "name": "7963",
            "score": "0.984",
            "index": 24,
            "selectedWords": [
                "autre",
                "imp\u00e9n\u00e9trable",
                "d\u00e9termin\u00e9e"
            ],
            "freeResponses": [],
            "nbPlayClick": 2,
            "response": "d\u00e9t",
            "expression": "DESOLE",
            "csv_id": 7997,
            "video_name": "DIVERS_PARL_DESOLE_AD_01_0004"
        },
        {
            "name": "5900",
            "score": "0.973",
            "index": 25,
            "selectedWords": [
                "suppliante",
                "autre",
                "neutre"
            ],
            "freeResponses": [],
            "nbPlayClick": 5,
            "response": "neu",
            "expression": "DESOLE",
            "csv_id": 5934,
            "video_name": "DIVERS_PARL_DESOLE_AD_01_0004"
        },
        {
            "name": "6399",
            "score": "0.976",
            "index": 26,
            "selectedWords": [
                "neutre",
                "autre",
                "autre",
                "inexpressive"
            ],
            "freeResponses": [],
            "nbPlayClick": 5,
            "expression": "NEUTRE",
            "csv_id": 6433,
            "video_name": "DIVERS_PARL_AD_04_0004"
        },
        {
            "name": "3844",
            "score": "0.952",
            "index": 27,
            "selectedWords": [
                "\u00e9vidente",
                "autre",
                "autre",
                "autre",
                "autre",
                "priante"
            ],
            "freeResponses": [],
            "nbPlayClick": 2,
            "expression": "EVIDENCE",
            "csv_id": 3844,
            "video_name": "DIVERS_PARL_EVIDENCE_AD_01_0001"
        },
        {
            "name": "9447",
            "score": "0.990",
            "index": 28,
            "selectedWords": [
                "enthousiaste",
                "autre",
                "autre",
                "autre",
                "autre",
                "autre",
                "autre",
                "autre",
                "autre",
                "autre",
                "autre",
                "autre",
                "autre",
                "autre",
                "\u00e9nergique",
                "autre",
                "autre",
                "passionn\u00e9e"
            ],
            "freeResponses": [],
            "nbPlayClick": 3,
            "expression": "ESPIEGLE",
            "csv_id": 9481,
            "video_name": "ESTYLE_ESPIEGLE_AD_02_0001"
        },
        {
            "name": "9046",
            "score": "0.988",
            "index": 29,
            "selectedWords": [
                "autre",
                "autre",
                "autre",
                "autre",
                "autre",
                "autre",
                "d\u00e9cid\u00e9e",
                "s\u00fbre"
            ],
            "freeResponses": [],
            "nbPlayClick": 3,
            "expression": "NEUTRE",
            "csv_id": 9080,
            "video_name": "DIVERS_PARL_AD_05_0002"
        },
        {
            "name": "7732",
            "score": "0.983",
            "index": 30,
            "selectedWords": [
                "suppliante",
                "implorante"
            ],
            "freeResponses": [],
            "nbPlayClick": 3,
            "expression": "SUPPLIANT",
            "csv_id": 7766,
            "video_name": "DIVERS_BOOK_SUPPLIANT_AD_01_0004"
        },
        {
            "name": "5988",
            "score": "0.974",
            "index": 31,
            "selectedWords": [
                "\u00e9tonn\u00e9e",
                "autre",
                "autre",
                "autre",
                "\u00e9bahie"
            ],
            "freeResponses": [],
            "nbPlayClick": 2,
            "response": "\u00e9bah",
            "expression": "ETONNE",
            "csv_id": 6022,
            "video_name": "DIVERS_PARL_ETONNE_AD_01_0001"
        },
        {
            "name": "12194",
            "score": "0.998",
            "index": 32,
            "selectedWords": [
                "neutre",
                "inexpressive"
            ],
            "freeResponses": [],
            "nbPlayClick": 2,
            "response": "ine",
            "expression": "NEUTRE",
            "csv_id": 12231,
            "video_name": "DIVERS_BOOK_AD_03_0002"
        },
        {
            "name": "4635",
            "score": "0.962",
            "index": 33,
            "selectedWords": [
                "officielle",
                "neutre"
            ],
            "freeResponses": [],
            "nbPlayClick": 1,
            "response": "neut",
            "expression": "NEUTRE",
            "csv_id": 4669,
            "video_name": "DIVERS_PARL_AD_06_0004"
        },
        {
            "name": "11319",
            "score": "0.995",
            "index": 34,
            "selectedWords": [
                "\u00e9tonn\u00e9e",
                "autre",
                "dubitative"
            ],
            "freeResponses": [],
            "nbPlayClick": 5,
            "expression": "ETONNE",
            "csv_id": 11353,
            "video_name": "DIVERS_PARL_ETONNE_AD_01_0001"
        },
        {
            "name": "7151",
            "score": "0.980",
            "index": 35,
            "selectedWords": [
                "autre",
                "autre",
                "atone",
                "terne"
            ],
            "freeResponses": [],
            "nbPlayClick": 7,
            "expression": "NEUTRE",
            "csv_id": 7185,
            "video_name": "DIVERS_BOOK_AD_01_0001"
        },
        {
            "name": "2009",
            "score": "0.912",
            "index": 36,
            "selectedWords": [
                "autre",
                "imp\u00e9n\u00e9trable",
                "convaincue"
            ],
            "freeResponses": [],
            "nbPlayClick": 1,
            "expression": "DETERMINE",
            "csv_id": 2009,
            "video_name": "DIVERS_PARL_DETERMINE_AD_01_0002"
        },
        {
            "name": "11397",
            "score": "0.995",
            "index": 37,
            "selectedWords": [
                "en col\u00e8re",
                "en rage",
                "\u00e9nergique",
                "s\u00fbre"
            ],
            "freeResponses": [],
            "nbPlayClick": 2,
            "expression": "COLERE",
            "csv_id": 11431,
            "video_name": "DIVERS_PARL_COLERE_AD_02_0002"
        },
        {
            "name": "8868",
            "score": "0.988",
            "index": 38,
            "selectedWords": [
                "neutre"
            ],
            "freeResponses": [
                "Fatigu\u00e9e"
            ],
            "nbPlayClick": 5,
            "response": "Fatigu\u00e9e",
            "expression": "NEUTRE",
            "csv_id": 8902,
            "video_name": "DIVERS_PARL_AD_04_0003"
        },
        {
            "name": "2422",
            "score": "0.925",
            "index": 39,
            "selectedWords": [
                "en col\u00e8re",
                "\u00e9nerv\u00e9e",
                "autre",
                "autre",
                "autre"
            ],
            "freeResponses": [],
            "nbPlayClick": 4,
            "expression": "INCREDULE",
            "csv_id": 2422,
            "video_name": "DIVERS_BOOK_INCREDULE_AD_01_0001"
        },
        {
            "name": "3271",
            "score": "0.943",
            "index": 40,
            "selectedWords": [
                "officielle",
                "neutre"
            ],
            "freeResponses": [],
            "nbPlayClick": 1,
            "response": "neutre",
            "expression": "NEUTRE",
            "csv_id": 3271,
            "video_name": "DIVERS_PARL_AD_06_0001"
        },
        {
            "name": "4491",
            "score": "0.960",
            "index": 41,
            "selectedWords": [
                "neutre",
                "inexpressive"
            ],
            "freeResponses": [],
            "nbPlayClick": 5,
            "response": "in",
            "expression": "NEUTRE",
            "csv_id": 4525,
            "video_name": "DIVERS_BOOK_AD_03_0001"
        },
        {
            "name": "5627",
            "score": "0.971",
            "index": 42,
            "selectedWords": [
                "d\u00e9sol\u00e9e",
                "autre",
                "autre",
                "autre",
                "autre",
                "attrist\u00e9e"
            ],
            "freeResponses": [],
            "nbPlayClick": 3,
            "expression": "DESOLE",
            "csv_id": 5661,
            "video_name": "DIVERS_PARL_DESOLE_AD_02_0002"
        },
        {
            "name": "8803",
            "score": "0.987",
            "index": 43,
            "selectedWords": [
                "inexpressive",
                "neutre"
            ],
            "freeResponses": [],
            "nbPlayClick": 3,
            "response": "neu",
            "expression": "DESOLE",
            "csv_id": 8837,
            "video_name": "DIVERS_PARL_DESOLE_AD_01_0004"
        },
        {
            "name": "8928",
            "score": "0.988",
            "index": 44,
            "selectedWords": [
                "\u00e9vidente",
                "s\u00fbre"
            ],
            "freeResponses": [],
            "nbPlayClick": 2,
            "response": "s\u00fb",
            "expression": "NEUTRE",
            "csv_id": 8962,
            "video_name": "DIVERS_PARL_AD_06_0002"
        },
        {
            "name": "8328",
            "score": "0.986",
            "index": 45,
            "selectedWords": [
                "en col\u00e8re",
                "autre",
                "autre",
                "incr\u00e9dule"
            ],
            "freeResponses": [],
            "nbPlayClick": 5,
            "response": "incr",
            "expression": "NEUTRE",
            "csv_id": 8362,
            "video_name": "DIVERS_PARL_AD_01_0002"
        },
        {
            "name": "11569",
            "score": "0.996",
            "index": 46,
            "selectedWords": [
                "neutre",
                "inexpressive"
            ],
            "freeResponses": [],
            "nbPlayClick": 2,
            "response": "inex",
            "expression": "NEUTRE",
            "csv_id": 11606,
            "video_name": "DIVERS_BOOK_AD_03_0001"
        },
        {
            "name": "643",
            "score": "0.826",
            "index": 47,
            "selectedWords": [
                "\u00e9vidente",
                "autre",
                "autre",
                "ennuy\u00e9e"
            ],
            "freeResponses": [],
            "nbPlayClick": 3,
            "expression": "EVIDENCE",
            "csv_id": 643,
            "video_name": "DIVERS_PARL_EVIDENCE_AD_01_0001"
        },
        {
            "name": "8992",
            "score": "0.988",
            "index": 48,
            "selectedWords": [
                "enthousiaste",
                "autre",
                "autre",
                "autre",
                "autre",
                "autre",
                "autre",
                "autre",
                "autre",
                "autre",
                "autre",
                "autre",
                "autre",
                "autre",
                "autre",
                "autre",
                "autre",
                "autre",
                "passionn\u00e9e"
            ],
            "freeResponses": [],
            "nbPlayClick": 6,
            "expression": "RECONFORTANT",
            "csv_id": 9026,
            "video_name": "DIVERS_BOOK_RECONFORTANT_AD_01_0002"
        },
        {
            "name": "11732",
            "score": "0.996",
            "index": 49,
            "selectedWords": [
                "officielle",
                "neutre"
            ],
            "freeResponses": [],
            "nbPlayClick": 1,
            "response": "neu",
            "expression": "NEUTRE",
            "csv_id": 11769,
            "video_name": "DIVERS_PARL_AD_02_0001"
        },
        {
            "name": "6832",
            "score": "0.979",
            "index": 50,
            "selectedWords": [
                "inexpressive",
                "neutre"
            ],
            "freeResponses": [],
            "nbPlayClick": 1,
            "response": "neu",
            "expression": "DESOLE",
            "csv_id": 6866,
            "video_name": "DIVERS_PARL_DESOLE_AD_01_0004"
        },
        {
            "name": "5997",
            "score": "0.974",
            "index": 51,
            "selectedWords": [
                "nette",
                "s\u00fbre"
            ],
            "freeResponses": [],
            "nbPlayClick": 1,
            "response": "S\u00fbr",
            "expression": "NEUTRE",
            "csv_id": 6031,
            "video_name": "DIVERS_PARL_AD_06_0002"
        },
        {
            "name": "9675",
            "score": "0.991",
            "index": 52,
            "selectedWords": [
                "autre",
                "s\u00fbre",
                "convaincue"
            ],
            "freeResponses": [],
            "nbPlayClick": 5,
            "response": "conva",
            "expression": "NEUTRE",
            "csv_id": 9709,
            "video_name": "DIVERS_PARL_AD_02_0004"
        },
        {
            "name": "8474",
            "score": "0.986",
            "index": 53,
            "selectedWords": [
                "\u00e9vidente",
                "incontestable"
            ],
            "freeResponses": [],
            "nbPlayClick": 1,
            "expression": "EVIDENCE",
            "csv_id": 8508,
            "video_name": "DIVERS_BOOK_EVIDENCE_AD_01_0002"
        },
        {
            "name": "10247",
            "score": "0.992",
            "index": 54,
            "selectedWords": [
                "autre",
                "autre",
                "autre",
                "autre",
                "autre",
                "autre",
                "d\u00e9cid\u00e9e",
                "entreprenante"
            ],
            "freeResponses": [],
            "nbPlayClick": 4,
            "expression": "NEUTRE",
            "csv_id": 10281,
            "video_name": "DIVERS_PARL_AD_02_0003"
        },
        {
            "name": "9425",
            "score": "0.990",
            "index": 55,
            "selectedWords": [
                "neutre",
                "inexpressive"
            ],
            "freeResponses": [],
            "nbPlayClick": 2,
            "response": "inex",
            "expression": "NEUTRE",
            "csv_id": 9459,
            "video_name": "DIVERS_PARL_AD_05_0004"
        },
        {
            "name": "9864",
            "score": "0.991",
            "index": 56,
            "selectedWords": [
                "\u00e9tonn\u00e9e",
                "autre",
                "autre",
                "\u00e9bahie"
            ],
            "freeResponses": [],
            "nbPlayClick": 4,
            "expression": "ETONNE",
            "csv_id": 9898,
            "video_name": "DIVERS_PARL_ETONNE_AD_01_0001"
        },
        {
            "name": "1444",
            "score": "0.888",
            "index": 57,
            "selectedWords": [
                "officielle",
                "inexpressive"
            ],
            "freeResponses": [],
            "nbPlayClick": 1,
            "response": "ine",
            "expression": "NEUTRE",
            "csv_id": 1444,
            "video_name": "DIVERS_PARL_AD_06_0001"
        },
        {
            "name": "3727",
            "score": "0.950",
            "index": 58,
            "selectedWords": [
                "suppliante",
                "priante"
            ],
            "freeResponses": [],
            "nbPlayClick": 2,
            "expression": "SUPPLIANT",
            "csv_id": 3727,
            "video_name": "DIVERS_BOOK_SUPPLIANT_AD_01_0004"
        },
        {
            "name": "8828",
            "score": "0.988",
            "index": 59,
            "selectedWords": [
                "s\u00fbre",
                "r\u00e9fl\u00e9chie"
            ],
            "freeResponses": [],
            "nbPlayClick": 2,
            "response": "s\u00fb",
            "expression": "NEUTRE",
            "csv_id": 8862,
            "video_name": "DIVERS_PARL_AD_05_0001"
        }
    ],
    "training": [
        {
            "name": "77",
            "score": "0.639",
            "index": 0,
            "selectedWords": [
                "neutre",
                "limpide",
                "autre"
            ],
            "freeResponses": [],
            "nbPlayClick": 4,
            "expression": "NEUTRE"
        }
    ],
    "filenameDate": "2023-11-04_18-7"
}