{
    "user": {
        "isProlific": true,
        "id": "5f1296a0cb0187110403bc9f",
        "session": "65382a965cda76b101bb2bbe",
        "study": "64ef977375f88e4e1174dce0"
    },
    "userAgent": "Mozilla/5.0 (Windows NT 10.0; Win64; x64) AppleWebKit/537.36 (KHTML, like Gecko) Chrome/117.0.0.0 Safari/537.36",
    "landingDate": "2023-10-24T20:36:05.370Z",
    "startDate": "2023-10-24T20:39:56.394Z",
    "endDate": "2023-10-24T21:10:07.716Z",
    "reviews": [
        {
            "name": "10133",
            "score": "0.992",
            "index": 0,
            "selectedWords": [
                "d\u00e9termin\u00e9e",
                "agit\u00e9e",
                "f\u00e2ch\u00e9e",
                "m\u00e9contente"
            ],
            "freeResponses": [],
            "nbPlayClick": 5,
            "expression": "ENTHOUSIASTE",
            "csv_id": 10167,
            "video_name": "DIVERS_PARL_ENTHOUSIASTE_AD_01_0003"
        },
        {
            "name": "6532",
            "score": "0.977",
            "index": 1,
            "selectedWords": [
                "autre",
                "autre",
                "autre",
                "autre",
                "ennuy\u00e9e",
                "autre",
                "autre",
                "autre",
                "autre",
                "autre",
                "autre",
                "autre",
                "autre",
                "autre",
                "autre",
                "froide",
                "autre",
                "fade",
                "autre",
                "autre",
                "autre"
            ],
            "freeResponses": [],
            "nbPlayClick": 5,
            "expression": "EVIDENCE",
            "csv_id": 6566,
            "video_name": "DIVERS_PARL_EVIDENCE_AD_02_0002"
        },
        {
            "name": "9560",
            "score": "0.990",
            "index": 2,
            "selectedWords": [
                "d\u00e9termin\u00e9e",
                "r\u00e9solue",
                "convaincue",
                "s\u00fbre"
            ],
            "freeResponses": [],
            "nbPlayClick": 2,
            "expression": "NEUTRE",
            "csv_id": 9594,
            "video_name": "DIVERS_PARL_AD_03_0004"
        },
        {
            "name": "4121",
            "score": "0.956",
            "index": 3,
            "selectedWords": [
                "espi\u00e8gle",
                "narquoise",
                "autre",
                "autre",
                "in\u00e9branlable",
                "autre",
                "autre",
                "opini\u00e2tre",
                "r\u00e9solue",
                "autre",
                "autre",
                "autre"
            ],
            "freeResponses": [],
            "nbPlayClick": 3,
            "expression": "ENTHOUSIASTE",
            "csv_id": 4121,
            "video_name": "DIVERS_PARL_ENTHOUSIASTE_AD_01_0003"
        },
        {
            "name": "538",
            "score": "0.810",
            "index": 4,
            "selectedWords": [
                "r\u00e9confortante",
                "apaisante",
                "consolante"
            ],
            "freeResponses": [],
            "nbPlayClick": 3,
            "expression": "RECONFORTANT",
            "csv_id": 538,
            "video_name": "ESTYLE_RECONFORTANT_AD_02_0001"
        },
        {
            "name": "7807",
            "score": "0.983",
            "index": 5,
            "selectedWords": [
                "d\u00e9termin\u00e9e",
                "r\u00e9solue"
            ],
            "freeResponses": [],
            "nbPlayClick": 2,
            "expression": "DETERMINE",
            "csv_id": 7841,
            "video_name": "DIVERS_PARL_DETERMINE_AD_01_0004"
        },
        {
            "name": "10567",
            "score": "0.993",
            "index": 6,
            "selectedWords": [
                "d\u00e9termin\u00e9e",
                "autre",
                "autre",
                "imp\u00e9n\u00e9trable"
            ],
            "freeResponses": [],
            "nbPlayClick": 3,
            "response": "im",
            "expression": "NEUTRE",
            "csv_id": 10601,
            "video_name": "DIVERS_PARL_AD_04_0003"
        },
        {
            "name": "11425",
            "score": "0.995",
            "index": 7,
            "selectedWords": [
                "incr\u00e9dule",
                "autre",
                "autre",
                "autre",
                "estomaqu\u00e9e"
            ],
            "freeResponses": [],
            "nbPlayClick": 9,
            "expression": "ETONNE",
            "csv_id": 11462,
            "video_name": "DIVERS_BOOK_ETONNE_AD_01_0004"
        },
        {
            "name": "4666",
            "score": "0.963",
            "index": 8,
            "selectedWords": [
                "d\u00e9sol\u00e9e",
                "transport\u00e9e"
            ],
            "freeResponses": [],
            "nbPlayClick": 3,
            "expression": "SUPPLIANT",
            "csv_id": 4700,
            "video_name": "ESTYLE_SUPPLIANT_AD_02_0001"
        },
        {
            "name": "10026",
            "score": "0.992",
            "index": 9,
            "selectedWords": [
                "d\u00e9termin\u00e9e",
                "r\u00e9fl\u00e9chie",
                "autre",
                "imp\u00e9n\u00e9trable"
            ],
            "freeResponses": [],
            "nbPlayClick": 2,
            "expression": "NEUTRE",
            "csv_id": 10060,
            "video_name": "DIVERS_BOOK_AD_01_0001"
        },
        {
            "name": "7798",
            "score": "0.983",
            "index": 10,
            "selectedWords": [
                "suppliante",
                "implorante"
            ],
            "freeResponses": [],
            "nbPlayClick": 1,
            "expression": "SUPPLIANT",
            "csv_id": 7832,
            "video_name": "DIVERS_PARL_SUPPLIANT_AD_02_0001"
        },
        {
            "name": "2779",
            "score": "0.934",
            "index": 11,
            "selectedWords": [
                "d\u00e9termin\u00e9e",
                "r\u00e9solue"
            ],
            "freeResponses": [],
            "nbPlayClick": 2,
            "expression": "NEUTRE",
            "csv_id": 2779,
            "video_name": "DIVERS_PARL_AD_01_0004"
        },
        {
            "name": "4394",
            "score": "0.959",
            "index": 12,
            "selectedWords": [
                "r\u00e9confortante",
                "encourageante"
            ],
            "freeResponses": [],
            "nbPlayClick": 2,
            "expression": "RECONFORTANT",
            "csv_id": 4394,
            "video_name": "DIVERS_PARL_RECONFORTANT_AD_02_0001"
        },
        {
            "name": "9348",
            "score": "0.989",
            "index": 13,
            "selectedWords": [
                "irrit\u00e9e",
                "autre",
                "autre",
                "autre",
                "autre",
                "d\u00e9cid\u00e9e"
            ],
            "freeResponses": [],
            "nbPlayClick": 1,
            "expression": "DETERMINE",
            "csv_id": 9382,
            "video_name": "DIVERS_PARL_DETERMINE_AD_01_0004"
        },
        {
            "name": "3553",
            "score": "0.947",
            "index": 14,
            "selectedWords": [
                "autre",
                "dubitative",
                "sceptique"
            ],
            "freeResponses": [],
            "nbPlayClick": 2,
            "expression": "NEUTRE",
            "csv_id": 3553,
            "video_name": "DIVERS_PARL_AD_02_0004"
        },
        {
            "name": "4953",
            "score": "0.965",
            "index": 15,
            "selectedWords": [
                "en col\u00e8re",
                "en rogne"
            ],
            "freeResponses": [],
            "nbPlayClick": 1,
            "expression": "COLERE",
            "csv_id": 4987,
            "video_name": "DIVERS_PARL_COLERE_AD_01_0003"
        },
        {
            "name": "2641",
            "score": "0.930",
            "index": 16,
            "selectedWords": [
                "d\u00e9termin\u00e9e",
                "manifeste",
                "infaillible"
            ],
            "freeResponses": [],
            "nbPlayClick": 2,
            "expression": "DESOLE",
            "csv_id": 2641,
            "video_name": "DIVERS_PARL_DESOLE_AD_02_0002"
        },
        {
            "name": "8021",
            "score": "0.984",
            "index": 17,
            "selectedWords": [
                "d\u00e9termin\u00e9e",
                "autre",
                "autre",
                "autre",
                "m\u00e9fiante",
                "en rogne"
            ],
            "freeResponses": [],
            "nbPlayClick": 2,
            "expression": "COLERE",
            "csv_id": 8055,
            "video_name": "DIVERS_PARL_COLERE_AD_02_0002"
        },
        {
            "name": "9325",
            "score": "0.989",
            "index": 18,
            "selectedWords": [
                "d\u00e9termin\u00e9e",
                "r\u00e9fl\u00e9chie"
            ],
            "freeResponses": [],
            "nbPlayClick": 4,
            "expression": "NEUTRE",
            "csv_id": 9359,
            "video_name": "DIVERS_PARL_AD_02_0001"
        },
        {
            "name": "7858",
            "score": "0.984",
            "index": 19,
            "selectedWords": [
                "autre",
                "inexpressive",
                "fade"
            ],
            "freeResponses": [],
            "nbPlayClick": 4,
            "expression": "NEUTRE",
            "csv_id": 7892,
            "video_name": "DIVERS_PARL_AD_03_0001"
        },
        {
            "name": "6255",
            "score": "0.975",
            "index": 20,
            "selectedWords": [
                "\u00e9vidente",
                "autre",
                "autre",
                "m\u00e9fiante"
            ],
            "freeResponses": [],
            "nbPlayClick": 2,
            "expression": "NEUTRE",
            "csv_id": 6289,
            "video_name": "DIVERS_PARL_AD_04_0004"
        },
        {
            "name": "8722",
            "score": "0.987",
            "index": 21,
            "selectedWords": [
                "d\u00e9termin\u00e9e",
                "r\u00e9solue"
            ],
            "freeResponses": [],
            "nbPlayClick": 1,
            "expression": "NEUTRE",
            "csv_id": 8756,
            "video_name": "DIVERS_PARL_AD_01_0004"
        },
        {
            "name": "5126",
            "score": "0.967",
            "index": 22,
            "selectedWords": [
                "autre",
                "fac\u00e9tieuse",
                "malicieuse"
            ],
            "freeResponses": [],
            "nbPlayClick": 1,
            "expression": "EVIDENCE",
            "csv_id": 5160,
            "video_name": "DIVERS_PARL_EVIDENCE_AD_01_0001"
        },
        {
            "name": "1073",
            "score": "0.867",
            "index": 23,
            "selectedWords": [
                "irrit\u00e9e",
                "f\u00e2ch\u00e9e"
            ],
            "freeResponses": [],
            "nbPlayClick": 2,
            "expression": "EVIDENCE",
            "csv_id": 1073,
            "video_name": "DIVERS_PARL_EVIDENCE_AD_02_0002"
        },
        {
            "name": "11058",
            "score": "0.994",
            "index": 24,
            "selectedWords": [
                "d\u00e9termin\u00e9e",
                "r\u00e9solue"
            ],
            "freeResponses": [],
            "nbPlayClick": 2,
            "expression": "COLERE",
            "csv_id": 11092,
            "video_name": "DIVERS_PARL_COLERE_AD_01_0004"
        },
        {
            "name": "12261",
            "score": "0.998",
            "index": 25,
            "selectedWords": [
                "autre",
                "autre",
                "autre",
                "autre",
                "autre",
                "interloqu\u00e9e",
                "autre",
                "autre",
                "autre",
                "autre",
                "r\u00eaveuse"
            ],
            "freeResponses": [],
            "nbPlayClick": 5,
            "response": "",
            "expression": "ETONNE",
            "csv_id": 12298,
            "video_name": "DIVERS_BOOK_ETONNE_AD_03_0001"
        },
        {
            "name": "7187",
            "score": "0.980",
            "index": 26,
            "selectedWords": [
                "d\u00e9termin\u00e9e",
                "r\u00e9solue",
                "d\u00e9cid\u00e9e"
            ],
            "freeResponses": [],
            "nbPlayClick": 1,
            "expression": "NEUTRE",
            "csv_id": 7221,
            "video_name": "DIVERS_PARL_AD_02_0004"
        },
        {
            "name": "1497",
            "score": "0.891",
            "index": 27,
            "selectedWords": [
                "enthousiaste",
                "coquine",
                "autre",
                "vivifiante"
            ],
            "freeResponses": [],
            "nbPlayClick": 1,
            "response": "",
            "expression": "ESPIEGLE",
            "csv_id": 1497,
            "video_name": "DIVERS_PARL_ESPIEGLE_AD_01_0001"
        },
        {
            "name": "10894",
            "score": "0.994",
            "index": 28,
            "selectedWords": [
                "autre",
                "inexpressive",
                "atone",
                "autre",
                "froide"
            ],
            "freeResponses": [],
            "nbPlayClick": 1,
            "response": "fr",
            "expression": "NEUTRE",
            "csv_id": 10928,
            "video_name": "DIVERS_PARL_AD_01_0005"
        },
        {
            "name": "9086",
            "score": "0.989",
            "index": 29,
            "selectedWords": [
                "\u00e9vidente",
                "autre",
                "fac\u00e9tieuse",
                "narquoise"
            ],
            "freeResponses": [],
            "nbPlayClick": 1,
            "expression": "NEUTRE",
            "csv_id": 9120,
            "video_name": "DIVERS_PARL_AD_05_0002"
        },
        {
            "name": "8858",
            "score": "0.988",
            "index": 30,
            "selectedWords": [
                "espi\u00e8gle",
                "malicieuse",
                "maligne",
                "en rogne"
            ],
            "freeResponses": [],
            "nbPlayClick": 1,
            "expression": "ENTHOUSIASTE",
            "csv_id": 8892,
            "video_name": "DIVERS_PARL_ENTHOUSIASTE_AD_01_0003"
        },
        {
            "name": "3487",
            "score": "0.946",
            "index": 31,
            "selectedWords": [
                "\u00e9vidente",
                "autre",
                "autre",
                "m\u00e9fiante"
            ],
            "freeResponses": [],
            "nbPlayClick": 3,
            "expression": "EVIDENCE",
            "csv_id": 3487,
            "video_name": "DIVERS_PARL_EVIDENCE_AD_01_0001"
        },
        {
            "name": "7171",
            "score": "0.980",
            "index": 32,
            "selectedWords": [
                "en col\u00e8re",
                "courrouc\u00e9e",
                "indign\u00e9e",
                "agit\u00e9e"
            ],
            "freeResponses": [],
            "nbPlayClick": 2,
            "expression": "COLERE",
            "csv_id": 7205,
            "video_name": "DIVERS_PARL_COLERE_AD_01_0003"
        },
        {
            "name": "6095",
            "score": "0.974",
            "index": 33,
            "selectedWords": [
                "enthousiaste",
                "\u00e9loquente",
                "autre",
                "songeuse"
            ],
            "freeResponses": [],
            "nbPlayClick": 1,
            "expression": "RECONFORTANT",
            "csv_id": 6129,
            "video_name": "DIVERS_BOOK_RECONFORTANT_AD_03_0002"
        },
        {
            "name": "11508",
            "score": "0.996",
            "index": 34,
            "selectedWords": [
                "autre",
                "imp\u00e9n\u00e9trable",
                "froide"
            ],
            "freeResponses": [],
            "nbPlayClick": 2,
            "expression": "NEUTRE",
            "csv_id": 11545,
            "video_name": "DIVERS_BOOK_AD_04_0001"
        },
        {
            "name": "9941",
            "score": "0.991",
            "index": 35,
            "selectedWords": [
                "f\u00e2ch\u00e9e",
                "irrit\u00e9e"
            ],
            "freeResponses": [],
            "nbPlayClick": 2,
            "expression": "NEUTRE",
            "csv_id": 9975,
            "video_name": "DIVERS_PARL_AD_01_0005"
        },
        {
            "name": "11320",
            "score": "0.995",
            "index": 36,
            "selectedWords": [
                "\u00e9vidente",
                "incontestable",
                "in\u00e9branlable"
            ],
            "freeResponses": [],
            "nbPlayClick": 1,
            "expression": "DETERMINE",
            "csv_id": 11354,
            "video_name": "DIVERS_PARL_DETERMINE_AD_01_0004"
        },
        {
            "name": "8113",
            "score": "0.985",
            "index": 37,
            "selectedWords": [
                "en col\u00e8re",
                "irrit\u00e9e"
            ],
            "freeResponses": [],
            "nbPlayClick": 1,
            "expression": "COLERE",
            "csv_id": 8147,
            "video_name": "DIVERS_PARL_COLERE_AD_02_0002"
        },
        {
            "name": "9626",
            "score": "0.990",
            "index": 38,
            "selectedWords": [
                "neutre",
                "limpide"
            ],
            "freeResponses": [],
            "nbPlayClick": 1,
            "expression": "NEUTRE",
            "csv_id": 9660,
            "video_name": "DIVERS_BOOK_AD_01_0001"
        },
        {
            "name": "1853",
            "score": "0.907",
            "index": 39,
            "selectedWords": [
                "suppliante",
                "autre",
                "\u00e9berlu\u00e9e",
                "abasourdie",
                "sid\u00e9r\u00e9e"
            ],
            "freeResponses": [],
            "nbPlayClick": 1,
            "expression": "EVIDENCE",
            "csv_id": 1853,
            "video_name": "DIVERS_PARL_EVIDENCE_AD_02_0002"
        },
        {
            "name": "9466",
            "score": "0.990",
            "index": 40,
            "selectedWords": [
                "d\u00e9termin\u00e9e",
                "manifeste"
            ],
            "freeResponses": [],
            "nbPlayClick": 2,
            "expression": "DETERMINE",
            "csv_id": 9500,
            "video_name": "DIVERS_PARL_DETERMINE_AD_01_0004"
        },
        {
            "name": "282",
            "score": "0.757",
            "index": 41,
            "selectedWords": [
                "suppliante",
                "autre",
                "autre",
                "irrit\u00e9e"
            ],
            "freeResponses": [],
            "nbPlayClick": 2,
            "response": "irr",
            "expression": "EVIDENCE",
            "csv_id": 282,
            "video_name": "DIVERS_PARL_EVIDENCE_AD_02_0002"
        },
        {
            "name": "7859",
            "score": "0.984",
            "index": 42,
            "selectedWords": [
                "sceptique",
                "opini\u00e2tre"
            ],
            "freeResponses": [],
            "nbPlayClick": 2,
            "expression": "INCREDULE",
            "csv_id": 7893,
            "video_name": "DIVERS_PARL_INCREDULE_AD_02_0003"
        },
        {
            "name": "8361",
            "score": "0.986",
            "index": 43,
            "selectedWords": [
                "enthousiaste",
                "tonique"
            ],
            "freeResponses": [],
            "nbPlayClick": 1,
            "expression": "ENTHOUSIASTE",
            "csv_id": 8395,
            "video_name": "DIVERS_PARL_ENTHOUSIASTE_AD_02_0001"
        },
        {
            "name": "4722",
            "score": "0.963",
            "index": 44,
            "selectedWords": [
                "\u00e9vidente",
                "incontestable"
            ],
            "freeResponses": [],
            "nbPlayClick": 2,
            "expression": "NEUTRE",
            "csv_id": 4756,
            "video_name": "DIVERS_PARL_AD_04_0003"
        },
        {
            "name": "2041",
            "score": "0.913",
            "index": 45,
            "selectedWords": [
                "d\u00e9sol\u00e9e",
                "manifeste"
            ],
            "freeResponses": [],
            "nbPlayClick": 4,
            "expression": "NEUTRE",
            "csv_id": 2041,
            "video_name": "DIVERS_BOOK_AD_04_0002"
        },
        {
            "name": "8562",
            "score": "0.987",
            "index": 46,
            "selectedWords": [
                "autre",
                "autre",
                "autre",
                "autre",
                "autre",
                "autre",
                "d\u00e9cid\u00e9e",
                "autre",
                "autre",
                "autre",
                "autre",
                "autre",
                "autre",
                "officielle"
            ],
            "freeResponses": [],
            "nbPlayClick": 3,
            "expression": "NEUTRE",
            "csv_id": 8596,
            "video_name": "DIVERS_BOOK_AD_01_0001"
        },
        {
            "name": "5864",
            "score": "0.973",
            "index": 47,
            "selectedWords": [
                "\u00e9vidente",
                "incontestable"
            ],
            "freeResponses": [],
            "nbPlayClick": 1,
            "expression": "NEUTRE",
            "csv_id": 5898,
            "video_name": "DIVERS_PARL_AD_06_0004"
        },
        {
            "name": "6957",
            "score": "0.979",
            "index": 48,
            "selectedWords": [
                "enthousiaste",
                "tonique"
            ],
            "freeResponses": [],
            "nbPlayClick": 2,
            "expression": "ENTHOUSIASTE",
            "csv_id": 6991,
            "video_name": "DIVERS_PARL_ENTHOUSIASTE_AD_02_0001"
        },
        {
            "name": "3789",
            "score": "0.951",
            "index": 49,
            "selectedWords": [
                "en col\u00e8re",
                "en rage",
                "f\u00e2ch\u00e9e",
                "agit\u00e9e"
            ],
            "freeResponses": [],
            "nbPlayClick": 1,
            "expression": "COLERE",
            "csv_id": 3789,
            "video_name": "DIVERS_PARL_COLERE_AD_02_0002"
        },
        {
            "name": "4291",
            "score": "0.958",
            "index": 50,
            "selectedWords": [
                "officielle",
                "patente"
            ],
            "freeResponses": [],
            "nbPlayClick": 3,
            "response": "off",
            "expression": "RECONFORTANT",
            "csv_id": 4291,
            "video_name": "DIVERS_BOOK_RECONFORTANT_AD_03_0002"
        },
        {
            "name": "2405",
            "score": "0.924",
            "index": 51,
            "selectedWords": [
                "d\u00e9termin\u00e9e",
                "manifeste",
                "autre",
                "autre",
                "autre",
                "autre",
                "opini\u00e2tre"
            ],
            "freeResponses": [],
            "nbPlayClick": 2,
            "expression": "DESOLE",
            "csv_id": 2405,
            "video_name": "DIVERS_PARL_DESOLE_AD_02_0002"
        },
        {
            "name": "3036",
            "score": "0.939",
            "index": 52,
            "selectedWords": [
                "suppliante",
                "implorante"
            ],
            "freeResponses": [],
            "nbPlayClick": 2,
            "expression": "SUPPLIANT",
            "csv_id": 3036,
            "video_name": "DIVERS_BOOK_SUPPLIANT_AD_01_0002"
        },
        {
            "name": "1826",
            "score": "0.906",
            "index": 53,
            "selectedWords": [
                "espi\u00e8gle",
                "narquoise"
            ],
            "freeResponses": [],
            "nbPlayClick": 2,
            "expression": "INCREDULE",
            "csv_id": 1826,
            "video_name": "DIVERS_PARL_INCREDULE_AD_01_0001"
        },
        {
            "name": "5108",
            "score": "0.967",
            "index": 54,
            "selectedWords": [
                "enthousiaste",
                "triomphale"
            ],
            "freeResponses": [],
            "nbPlayClick": 3,
            "expression": "RECONFORTANT",
            "csv_id": 5142,
            "video_name": "DIVERS_BOOK_RECONFORTANT_AD_03_0002"
        },
        {
            "name": "4753",
            "score": "0.963",
            "index": 55,
            "selectedWords": [
                "d\u00e9termin\u00e9e",
                "r\u00e9solue"
            ],
            "freeResponses": [],
            "nbPlayClick": 2,
            "expression": "EVIDENCE",
            "csv_id": 4787,
            "video_name": "DIVERS_PARL_EVIDENCE_AD_02_0002"
        },
        {
            "name": "12015",
            "score": "0.997",
            "index": 56,
            "selectedWords": [
                "d\u00e9sol\u00e9e",
                "manifeste"
            ],
            "freeResponses": [],
            "nbPlayClick": 2,
            "expression": "NEUTRE",
            "csv_id": 12052,
            "video_name": "DIVERS_PARL_AD_02_0002"
        },
        {
            "name": "10718",
            "score": "0.994",
            "index": 57,
            "selectedWords": [
                "\u00e9vidente",
                "manifeste"
            ],
            "freeResponses": [],
            "nbPlayClick": 2,
            "expression": "NEUTRE",
            "csv_id": 10752,
            "video_name": "DIVERS_BOOK_AD_03_0001"
        },
        {
            "name": "3267",
            "score": "0.943",
            "index": 58,
            "selectedWords": [
                "enthousiaste",
                "euphorique"
            ],
            "freeResponses": [],
            "nbPlayClick": 1,
            "expression": "RECONFORTANT",
            "csv_id": 3267,
            "video_name": "DIVERS_BOOK_RECONFORTANT_AD_01_0004"
        },
        {
            "name": "7291",
            "score": "0.981",
            "index": 59,
            "selectedWords": [
                "enthousiaste",
                "\u00e9loquente",
                "emball\u00e9e"
            ],
            "freeResponses": [],
            "nbPlayClick": 1,
            "expression": "RECONFORTANT",
            "csv_id": 7325,
            "video_name": "DIVERS_BOOK_RECONFORTANT_AD_01_0002"
        }
    ],
    "training": [
        {
            "name": "77",
            "score": "0.639",
            "index": 0,
            "selectedWords": [
                "\u00e9vidente",
                "incontestable"
            ],
            "freeResponses": [],
            "nbPlayClick": 8,
            "expression": "NEUTRE"
        }
    ],
    "filenameDate": "2023-10-24_17-10"
}