{
    "user": {
        "isProlific": true,
        "id": "5f40972cde82ae1d751f0eec",
        "session": "64fe5e27320d5da43932527a",
        "study": "64ef977375f88e4e1174dce0"
    },
    "userAgent": "Mozilla/5.0 (Windows NT 10.0; Win64; x64) AppleWebKit/537.36 (KHTML, like Gecko) Chrome/116.0.0.0 Safari/537.36",
    "landingDate": "2023-09-11T00:25:18.126Z",
    "startDate": "2023-09-11T00:27:52.400Z",
    "endDate": "2023-09-11T01:13:58.005Z",
    "reviews": [
        {
            "name": "9322",
            "score": "0.989",
            "index": 0,
            "selectedWords": [
                "incr\u00e9dule",
                "dubitative",
                "sceptique",
                "froide"
            ],
            "freeResponses": [],
            "nbPlayClick": 2,
            "expression": "NEUTRE",
            "csv_id": 9356,
            "video_name": "DIVERS_PARL_AD_05_0002"
        },
        {
            "name": "9690",
            "score": "0.991",
            "index": 1,
            "selectedWords": [
                "autre",
                "autre",
                "autre",
                "incontestable",
                "indubitable"
            ],
            "freeResponses": [
                "sup\u00e9rieure",
                "hautain"
            ],
            "nbPlayClick": 4,
            "response": "hautain",
            "expression": "NEUTRE",
            "csv_id": 9724,
            "video_name": "DIVERS_BOOK_AD_01_0002"
        },
        {
            "name": "11724",
            "score": "0.996",
            "index": 2,
            "selectedWords": [
                "incr\u00e9dule",
                "autre",
                "\u00e9berlu\u00e9e",
                "estomaqu\u00e9e"
            ],
            "freeResponses": [],
            "nbPlayClick": 2,
            "expression": "ETONNE",
            "csv_id": 11761,
            "video_name": "DIVERS_BOOK_ETONNE_AD_01_0002"
        },
        {
            "name": "6513",
            "score": "0.977",
            "index": 3,
            "selectedWords": [
                "en col\u00e8re",
                "hargneuse"
            ],
            "freeResponses": [
                "imp\u00e9rieuse"
            ],
            "nbPlayClick": 2,
            "response": "imp\u00e9rieuse",
            "expression": "COLERE",
            "csv_id": 6547,
            "video_name": "DIVERS_PARL_COLERE_AD_01_0004"
        },
        {
            "name": "4927",
            "score": "0.965",
            "index": 4,
            "selectedWords": [
                "\u00e9tonn\u00e9e",
                "autre",
                "autre",
                "autre",
                "estomaqu\u00e9e",
                "h\u00e9b\u00e9t\u00e9e"
            ],
            "freeResponses": [],
            "nbPlayClick": 1,
            "expression": "ETONNE",
            "csv_id": 4961,
            "video_name": "DIVERS_BOOK_ETONNE_AD_01_0002"
        },
        {
            "name": "7768",
            "score": "0.983",
            "index": 5,
            "selectedWords": [
                "incr\u00e9dule",
                "intuitive",
                "autre",
                "autre",
                "autre"
            ],
            "freeResponses": [
                "d\u00e9termin\u00e9e"
            ],
            "nbPlayClick": 2,
            "response": "d\u00e9termin\u00e9e",
            "expression": "NEUTRE",
            "csv_id": 7802,
            "video_name": "DIVERS_PARL_AD_02_0002"
        },
        {
            "name": "9817",
            "score": "0.991",
            "index": 6,
            "selectedWords": [
                "\u00e9vidente",
                "manifeste",
                "infaillible",
                "limpide"
            ],
            "freeResponses": [],
            "nbPlayClick": 2,
            "expression": "NEUTRE",
            "csv_id": 9851,
            "video_name": "DIVERS_PARL_AD_04_0003"
        },
        {
            "name": "6582",
            "score": "0.977",
            "index": 7,
            "selectedWords": [
                "d\u00e9sol\u00e9e",
                "r\u00e9fl\u00e9chie",
                "s\u00fbre"
            ],
            "freeResponses": [],
            "nbPlayClick": 2,
            "expression": "NEUTRE",
            "csv_id": 6616,
            "video_name": "DIVERS_PARL_AD_03_0002"
        },
        {
            "name": "8822",
            "score": "0.988",
            "index": 8,
            "selectedWords": [
                "d\u00e9termin\u00e9e",
                "manifeste",
                "convaincue"
            ],
            "freeResponses": [
                "informatrice"
            ],
            "nbPlayClick": 2,
            "response": "informatrice",
            "expression": "NEUTRE",
            "csv_id": 8856,
            "video_name": "DIVERS_PARL_AD_02_0004"
        },
        {
            "name": "3384",
            "score": "0.945",
            "index": 9,
            "selectedWords": [
                "neutre",
                "autre",
                "dubitative",
                "sceptique",
                "froide"
            ],
            "freeResponses": [],
            "nbPlayClick": 4,
            "expression": "NEUTRE",
            "csv_id": 3384,
            "video_name": "DIVERS_PARL_AD_03_0004"
        },
        {
            "name": "8736",
            "score": "0.987",
            "index": 10,
            "selectedWords": [
                "neutre",
                "limpide",
                "officielle",
                "autre"
            ],
            "freeResponses": [
                "sure"
            ],
            "nbPlayClick": 2,
            "response": "sure",
            "expression": "NEUTRE",
            "csv_id": 8770,
            "video_name": "DIVERS_BOOK_AD_01_0002"
        },
        {
            "name": "11809",
            "score": "0.997",
            "index": 11,
            "selectedWords": [
                "enthousiaste",
                "triomphale",
                "autre",
                "autre",
                "in\u00e9branlable",
                "certaine"
            ],
            "freeResponses": [],
            "nbPlayClick": 2,
            "expression": "NEUTRE",
            "csv_id": 11846,
            "video_name": "DIVERS_PARL_AD_03_0002"
        },
        {
            "name": "9253",
            "score": "0.989",
            "index": 12,
            "selectedWords": [
                "d\u00e9termin\u00e9e",
                "manifeste",
                "autre",
                "autre",
                "vivifiante",
                "encourageante"
            ],
            "freeResponses": [],
            "nbPlayClick": 2,
            "expression": "NEUTRE",
            "csv_id": 9287,
            "video_name": "DIVERS_PARL_AD_01_0005"
        },
        {
            "name": "8881",
            "score": "0.988",
            "index": 13,
            "selectedWords": [
                "espi\u00e8gle",
                "d\u00e9lur\u00e9e",
                "autre",
                "autre",
                "encourageante",
                "autre"
            ],
            "freeResponses": [],
            "nbPlayClick": 2,
            "expression": "ENTHOUSIASTE",
            "csv_id": 8915,
            "video_name": "DIVERS_PARL_ENTHOUSIASTE_AD_01_0003"
        },
        {
            "name": "10926",
            "score": "0.994",
            "index": 14,
            "selectedWords": [
                "en col\u00e8re",
                "courrouc\u00e9e",
                "indign\u00e9e"
            ],
            "freeResponses": [],
            "nbPlayClick": 2,
            "expression": "COLERE",
            "csv_id": 10960,
            "video_name": "DIVERS_PARL_COLERE_AD_01_0004"
        },
        {
            "name": "5417",
            "score": "0.969",
            "index": 15,
            "selectedWords": [
                "autre",
                "autre",
                "apaisante",
                "pensante",
                "pr\u00e9occup\u00e9e",
                "autre",
                "autre"
            ],
            "freeResponses": [],
            "nbPlayClick": 2,
            "expression": "NEUTRE",
            "csv_id": 5451,
            "video_name": "DIVERS_PARL_AD_01_0004"
        },
        {
            "name": "5863",
            "score": "0.973",
            "index": 16,
            "selectedWords": [
                "incr\u00e9dule",
                "dubitative",
                "manifeste",
                "r\u00e9fl\u00e9chie"
            ],
            "freeResponses": [],
            "nbPlayClick": 2,
            "expression": "NEUTRE",
            "csv_id": 5897,
            "video_name": "DIVERS_BOOK_AD_03_0002"
        },
        {
            "name": "12315",
            "score": "0.998",
            "index": 17,
            "selectedWords": [
                "pensive",
                "m\u00e9ditative",
                "autre",
                "attrist\u00e9e",
                "d\u00e9pit\u00e9e"
            ],
            "freeResponses": [],
            "nbPlayClick": 2,
            "expression": "PENSIF",
            "csv_id": 12352,
            "video_name": "DIVERS_PARL_PENSIF_AD_01_0002"
        },
        {
            "name": "5720",
            "score": "0.972",
            "index": 18,
            "selectedWords": [
                "enthousiaste",
                "euphorique",
                "excit\u00e9e",
                "autre",
                "autre"
            ],
            "freeResponses": [],
            "nbPlayClick": 2,
            "expression": "ESPIEGLE",
            "csv_id": 5754,
            "video_name": "DIVERS_PARL_ESPIEGLE_AD_01_0001"
        },
        {
            "name": "12069",
            "score": "0.997",
            "index": 19,
            "selectedWords": [
                "d\u00e9sol\u00e9e",
                "manifeste",
                "autre",
                "autre",
                "autre",
                "ennuy\u00e9e",
                "contrari\u00e9e"
            ],
            "freeResponses": [],
            "nbPlayClick": 3,
            "expression": "NEUTRE",
            "csv_id": 12106,
            "video_name": "DIVERS_BOOK_AD_01_0001"
        },
        {
            "name": "9092",
            "score": "0.989",
            "index": 20,
            "selectedWords": [
                "certaine",
                "euphorique",
                "finaude"
            ],
            "freeResponses": [],
            "nbPlayClick": 2,
            "expression": "NEUTRE",
            "csv_id": 9126,
            "video_name": "DIVERS_PARL_AD_01_0002"
        },
        {
            "name": "1324",
            "score": "0.882",
            "index": 21,
            "selectedWords": [
                "suppliante",
                "larmoyante"
            ],
            "freeResponses": [],
            "nbPlayClick": 1,
            "expression": "RECONFORTANT",
            "csv_id": 1324,
            "video_name": "DIVERS_PARL_RECONFORTANT_AD_02_0001"
        },
        {
            "name": "9879",
            "score": "0.991",
            "index": 22,
            "selectedWords": [
                "d\u00e9termin\u00e9e",
                "r\u00e9solue"
            ],
            "freeResponses": [],
            "nbPlayClick": 1,
            "expression": "NEUTRE",
            "csv_id": 9913,
            "video_name": "DIVERS_PARL_AD_03_0002"
        },
        {
            "name": "11384",
            "score": "0.995",
            "index": 23,
            "selectedWords": [
                "\u00e9tonn\u00e9e",
                "autre",
                "autre",
                "d\u00e9lur\u00e9e",
                "taquine"
            ],
            "freeResponses": [],
            "nbPlayClick": 2,
            "expression": "ETONNE",
            "csv_id": 11418,
            "video_name": "DIVERS_BOOK_ETONNE_AD_01_0004"
        },
        {
            "name": "4897",
            "score": "0.965",
            "index": 24,
            "selectedWords": [
                "autre",
                "autre",
                "autre",
                "autre",
                "autre",
                "songeuse"
            ],
            "freeResponses": [
                "incertaine"
            ],
            "nbPlayClick": 2,
            "response": "incertaine",
            "expression": "PENSIF",
            "csv_id": 4931,
            "video_name": "DIVERS_BOOK_PENSIF_AD_03_0002"
        },
        {
            "name": "5982",
            "score": "0.974",
            "index": 25,
            "selectedWords": [
                "\u00e9vidente",
                "prouv\u00e9e",
                "ind\u00e9niable",
                "officielle"
            ],
            "freeResponses": [],
            "nbPlayClick": 1,
            "expression": "NEUTRE",
            "csv_id": 6016,
            "video_name": "DIVERS_BOOK_AD_04_0002"
        },
        {
            "name": "8918",
            "score": "0.988",
            "index": 26,
            "selectedWords": [
                "d\u00e9sol\u00e9e",
                "manifeste",
                "convaincue",
                "indiscutable"
            ],
            "freeResponses": [],
            "nbPlayClick": 2,
            "expression": "NEUTRE",
            "csv_id": 8952,
            "video_name": "DIVERS_PARL_AD_05_0001"
        },
        {
            "name": "9943",
            "score": "0.991",
            "index": 27,
            "selectedWords": [
                "d\u00e9termin\u00e9e",
                "r\u00e9solue",
                "convaincue",
                "indiscutable"
            ],
            "freeResponses": [],
            "nbPlayClick": 2,
            "expression": "NEUTRE",
            "csv_id": 9977,
            "video_name": "DIVERS_PARL_AD_05_0002"
        },
        {
            "name": "9034",
            "score": "0.988",
            "index": 28,
            "selectedWords": [
                "neutre",
                "certaine",
                "in\u00e9branlable"
            ],
            "freeResponses": [],
            "nbPlayClick": 1,
            "expression": "NEUTRE",
            "csv_id": 9068,
            "video_name": "DIVERS_BOOK_AD_03_0002"
        },
        {
            "name": "10185",
            "score": "0.992",
            "index": 29,
            "selectedWords": [
                "pensive",
                "r\u00e9fl\u00e9chissante",
                "pr\u00e9occup\u00e9e"
            ],
            "freeResponses": [],
            "nbPlayClick": 2,
            "expression": "NEUTRE",
            "csv_id": 10219,
            "video_name": "DIVERS_BOOK_AD_03_0002"
        },
        {
            "name": "6641",
            "score": "0.978",
            "index": 30,
            "selectedWords": [
                "autre",
                "autre",
                "triomphale",
                "autre",
                "autre",
                "encourageante"
            ],
            "freeResponses": [],
            "nbPlayClick": 2,
            "response": "satisfaite",
            "expression": "DETERMINE",
            "csv_id": 6675,
            "video_name": "DIVERS_PARL_DETERMINE_AD_01_0002"
        },
        {
            "name": "2215",
            "score": "0.918",
            "index": 31,
            "selectedWords": [
                "\u00e9vidente",
                "autre",
                "autre",
                "autre",
                "maligne"
            ],
            "freeResponses": [
                "m\u00e9prisante"
            ],
            "nbPlayClick": 1,
            "response": "m\u00e9prisante",
            "expression": "RECONFORTANT",
            "csv_id": 2215,
            "video_name": "DIVERS_PARL_RECONFORTANT_AD_02_0001"
        },
        {
            "name": "4138",
            "score": "0.956",
            "index": 32,
            "selectedWords": [
                "incr\u00e9dule",
                "autre",
                "inexpressive",
                "froide",
                "autre",
                "autre"
            ],
            "freeResponses": [
                "fausse"
            ],
            "nbPlayClick": 1,
            "response": "fausse",
            "expression": "EVIDENCE",
            "csv_id": 4138,
            "video_name": "DIVERS_PARL_EVIDENCE_AD_02_0002"
        },
        {
            "name": "8781",
            "score": "0.987",
            "index": 33,
            "selectedWords": [
                "d\u00e9sol\u00e9e",
                "autre",
                "autre",
                "autre",
                "autre",
                "attrist\u00e9e"
            ],
            "freeResponses": [],
            "nbPlayClick": 1,
            "expression": "NEUTRE",
            "csv_id": 8815,
            "video_name": "DIVERS_BOOK_AD_01_0001"
        },
        {
            "name": "5707",
            "score": "0.972",
            "index": 34,
            "selectedWords": [
                "autre",
                "autre",
                "autre",
                "autre",
                "autre",
                "autre",
                "ind\u00e9niable",
                "prouv\u00e9e",
                "indiscutable",
                "ferme"
            ],
            "freeResponses": [],
            "nbPlayClick": 1,
            "expression": "NEUTRE",
            "csv_id": 5741,
            "video_name": "DIVERS_BOOK_AD_04_0002"
        },
        {
            "name": "4101",
            "score": "0.955",
            "index": 35,
            "selectedWords": [
                "suppliante",
                "consolante",
                "autre",
                "fac\u00e9tieuse"
            ],
            "freeResponses": [],
            "nbPlayClick": 1,
            "expression": "RECONFORTANT",
            "csv_id": 4101,
            "video_name": "DIVERS_PARL_RECONFORTANT_AD_02_0001"
        },
        {
            "name": "4991",
            "score": "0.966",
            "index": 36,
            "selectedWords": [
                "en col\u00e8re",
                "hargneuse",
                "\u00e9nergique"
            ],
            "freeResponses": [],
            "nbPlayClick": 1,
            "expression": "COLERE",
            "csv_id": 5025,
            "video_name": "DIVERS_PARL_COLERE_AD_02_0002"
        },
        {
            "name": "10368",
            "score": "0.993",
            "index": 37,
            "selectedWords": [
                "\u00e9tonn\u00e9e",
                "absente"
            ],
            "freeResponses": [],
            "nbPlayClick": 2,
            "expression": "ETONNE",
            "csv_id": 10402,
            "video_name": "DIVERS_PARL_ETONNE_AD_01_0001"
        },
        {
            "name": "5451",
            "score": "0.969",
            "index": 38,
            "selectedWords": [
                "espi\u00e8gle",
                "encourageante",
                "autre",
                "\u00e9berlu\u00e9e"
            ],
            "freeResponses": [],
            "nbPlayClick": 1,
            "response": "\u00e9ber",
            "expression": "ENTHOUSIASTE",
            "csv_id": 5485,
            "video_name": "DIVERS_PARL_ENTHOUSIASTE_AD_01_0003"
        },
        {
            "name": "5654",
            "score": "0.971",
            "index": 39,
            "selectedWords": [
                "d\u00e9termin\u00e9e",
                "r\u00e9solue",
                "entreprenante"
            ],
            "freeResponses": [],
            "nbPlayClick": 1,
            "expression": "NEUTRE",
            "csv_id": 5688,
            "video_name": "DIVERS_PARL_AD_06_0002"
        },
        {
            "name": "3565",
            "score": "0.948",
            "index": 40,
            "selectedWords": [
                "\u00e9tonn\u00e9e",
                "autre",
                "autre",
                "autre",
                "songeuse",
                "r\u00e9fl\u00e9chissante"
            ],
            "freeResponses": [],
            "nbPlayClick": 1,
            "expression": "ETONNE",
            "csv_id": 3565,
            "video_name": "DIVERS_BOOK_ETONNE_AD_01_0002"
        },
        {
            "name": "11997",
            "score": "0.997",
            "index": 41,
            "selectedWords": [
                "pensive",
                "r\u00eaveuse",
                "occup\u00e9e"
            ],
            "freeResponses": [],
            "nbPlayClick": 1,
            "expression": "PENSIF",
            "csv_id": 12034,
            "video_name": "DIVERS_BOOK_PENSIF_AD_03_0002"
        },
        {
            "name": "11283",
            "score": "0.995",
            "index": 42,
            "selectedWords": [
                "espi\u00e8gle",
                "autre",
                "\u00e9berlu\u00e9e"
            ],
            "freeResponses": [
                "incertaine"
            ],
            "nbPlayClick": 2,
            "response": "incertaine",
            "expression": "PENSIF",
            "csv_id": 11317,
            "video_name": "DIVERS_BOOK_PENSIF_AD_03_0002"
        },
        {
            "name": "12129",
            "score": "0.997",
            "index": 43,
            "selectedWords": [
                "\u00e9vidente",
                "manifeste",
                "convaincue"
            ],
            "freeResponses": [],
            "nbPlayClick": 1,
            "expression": "SUPPLIANT",
            "csv_id": 12166,
            "video_name": "DIVERS_PARL_SUPPLIANT_AD_02_0002"
        },
        {
            "name": "5905",
            "score": "0.973",
            "index": 44,
            "selectedWords": [
                "neutre",
                "notoire"
            ],
            "freeResponses": [],
            "nbPlayClick": 2,
            "expression": "NEUTRE",
            "csv_id": 5939,
            "video_name": "DIVERS_BOOK_AD_03_0002"
        },
        {
            "name": "4444",
            "score": "0.960",
            "index": 45,
            "selectedWords": [
                "in\u00e9branlable",
                "certaine"
            ],
            "freeResponses": [],
            "nbPlayClick": 1,
            "expression": "NEUTRE",
            "csv_id": 4478,
            "video_name": "DIVERS_PARL_AD_02_0001"
        },
        {
            "name": "4958",
            "score": "0.965",
            "index": 46,
            "selectedWords": [
                "autre",
                "autre",
                "apaisante",
                "consolatrice",
                "autre",
                "autre",
                "s\u00fbre"
            ],
            "freeResponses": [],
            "nbPlayClick": 1,
            "response": "s\u00fb",
            "expression": "RECONFORTANT",
            "csv_id": 4992,
            "video_name": "DIVERS_PARL_RECONFORTANT_AD_02_0001"
        },
        {
            "name": "3182",
            "score": "0.942",
            "index": 47,
            "selectedWords": [
                "transport\u00e9e",
                "tonique",
                "sinc\u00e8re"
            ],
            "freeResponses": [],
            "nbPlayClick": 3,
            "expression": "DETERMINE",
            "csv_id": 3182,
            "video_name": "DIVERS_BOOK_DETERMINE_AD_03_0001"
        },
        {
            "name": "3264",
            "score": "0.943",
            "index": 48,
            "selectedWords": [
                "incr\u00e9dule",
                "dubitative",
                "sceptique"
            ],
            "freeResponses": [],
            "nbPlayClick": 1,
            "expression": "INCREDULE",
            "csv_id": 3264,
            "video_name": "DIVERS_BOOK_INCREDULE_AD_01_0001"
        },
        {
            "name": "7907",
            "score": "0.984",
            "index": 49,
            "selectedWords": [
                "pensive",
                "songeuse",
                "autre"
            ],
            "freeResponses": [],
            "nbPlayClick": 1,
            "expression": "DESOLE",
            "csv_id": 7941,
            "video_name": "DIVERS_BOOK_DESOLE_AD_03_0002"
        },
        {
            "name": "11499",
            "score": "0.996",
            "index": 50,
            "selectedWords": [
                "nette",
                "r\u00e9fl\u00e9chie",
                "autre",
                "autre",
                "atone"
            ],
            "freeResponses": [],
            "nbPlayClick": 2,
            "response": "nette",
            "expression": "NEUTRE",
            "csv_id": 11536,
            "video_name": "DIVERS_PARL_AD_04_0002"
        },
        {
            "name": "4256",
            "score": "0.957",
            "index": 51,
            "selectedWords": [
                "suppliante",
                "implorante"
            ],
            "freeResponses": [],
            "nbPlayClick": 1,
            "expression": "EVIDENCE",
            "csv_id": 4256,
            "video_name": "DIVERS_PARL_EVIDENCE_AD_02_0002"
        },
        {
            "name": "5596",
            "score": "0.971",
            "index": 52,
            "selectedWords": [
                "autre",
                "autre",
                "autre",
                "autre",
                "autre",
                "opini\u00e2tre",
                "r\u00e9solue"
            ],
            "freeResponses": [],
            "nbPlayClick": 1,
            "expression": "NEUTRE",
            "csv_id": 5630,
            "video_name": "DIVERS_PARL_AD_03_0003"
        },
        {
            "name": "7438",
            "score": "0.982",
            "index": 53,
            "selectedWords": [
                "\u00e9vidente",
                "incontestable",
                "notoire"
            ],
            "freeResponses": [],
            "nbPlayClick": 2,
            "expression": "DETERMINE",
            "csv_id": 7472,
            "video_name": "DIVERS_PARL_DETERMINE_AD_01_0002"
        },
        {
            "name": "11353",
            "score": "0.995",
            "index": 54,
            "selectedWords": [
                "neutre",
                "certaine",
                "autre",
                "ennuy\u00e9e",
                "contrari\u00e9e"
            ],
            "freeResponses": [],
            "nbPlayClick": 2,
            "expression": "NEUTRE",
            "csv_id": 11387,
            "video_name": "DIVERS_PARL_AD_06_0003"
        },
        {
            "name": "799",
            "score": "0.843",
            "index": 55,
            "selectedWords": [
                "suppliante",
                "larmoyante"
            ],
            "freeResponses": [],
            "nbPlayClick": 1,
            "expression": "RECONFORTANT",
            "csv_id": 799,
            "video_name": "DIVERS_PARL_RECONFORTANT_AD_02_0001"
        },
        {
            "name": "5810",
            "score": "0.973",
            "index": 56,
            "selectedWords": [
                "larmoyante",
                "prostern\u00e9e"
            ],
            "freeResponses": [],
            "nbPlayClick": 1,
            "response": "larmo",
            "expression": "SUPPLIANT",
            "csv_id": 5844,
            "video_name": "DIVERS_PARL_SUPPLIANT_AD_02_0001"
        },
        {
            "name": "3897",
            "score": "0.953",
            "index": 57,
            "selectedWords": [
                "\u00e9vidente",
                "f\u00e2ch\u00e9e",
                "irrit\u00e9e"
            ],
            "freeResponses": [],
            "nbPlayClick": 2,
            "expression": "NEUTRE",
            "csv_id": 3897,
            "video_name": "DIVERS_PARL_AD_04_0004"
        },
        {
            "name": "1416",
            "score": "0.887",
            "index": 58,
            "selectedWords": [
                "neutre",
                "certaine"
            ],
            "freeResponses": [],
            "nbPlayClick": 1,
            "expression": "NEUTRE",
            "csv_id": 1416,
            "video_name": "DIVERS_PARL_AD_03_0004"
        },
        {
            "name": "7294",
            "score": "0.981",
            "index": 59,
            "selectedWords": [
                "autre",
                "autre",
                "autre",
                "in\u00e9branlable",
                "certaine",
                "incontestable"
            ],
            "freeResponses": [],
            "nbPlayClick": 1,
            "expression": "NEUTRE",
            "csv_id": 7328,
            "video_name": "DIVERS_BOOK_AD_04_0002"
        }
    ],
    "training": [
        {
            "name": "77",
            "score": "0.639",
            "index": 0,
            "selectedWords": [
                "\u00e9vidente",
                "manifeste",
                "convaincue",
                "autre",
                "\u00e9berlu\u00e9e"
            ],
            "freeResponses": [],
            "nbPlayClick": 2,
            "expression": "NEUTRE"
        }
    ],
    "filenameDate": "2023-09-11_21-13"
}