{
    "user": {
        "isProlific": true,
        "id": "5f5517cc8b1d1f0c7b58b929",
        "session": "65318f6e11b548245aad9820",
        "study": "64ef977375f88e4e1174dce0"
    },
    "userAgent": "Mozilla/5.0 (Windows NT 10.0; Win64; x64; rv:109.0) Gecko/20100101 Firefox/118.0",
    "landingDate": "2023-10-19T20:20:08.439Z",
    "startDate": "2023-10-19T20:21:12.772Z",
    "endDate": "2023-10-19T20:34:03.565Z",
    "reviews": [
        {
            "name": "5108",
            "score": "0.967",
            "index": 0,
            "selectedWords": [
                "enthousiaste",
                "euphorique"
            ],
            "freeResponses": [],
            "nbPlayClick": 1,
            "expression": "RECONFORTANT",
            "csv_id": 5142,
            "video_name": "DIVERS_BOOK_RECONFORTANT_AD_03_0002"
        },
        {
            "name": "8298",
            "score": "0.985",
            "index": 1,
            "selectedWords": [
                "neutre",
                "autre",
                "dubitative"
            ],
            "freeResponses": [],
            "nbPlayClick": 1,
            "expression": "NEUTRE",
            "csv_id": 8332,
            "video_name": "DIVERS_PARL_AD_03_0003"
        },
        {
            "name": "11242",
            "score": "0.995",
            "index": 2,
            "selectedWords": [
                "autre",
                "autre",
                "autre",
                "autre",
                "ennuy\u00e9e",
                "d\u00e9pit\u00e9e"
            ],
            "freeResponses": [],
            "nbPlayClick": 1,
            "expression": "NEUTRE",
            "csv_id": 11276,
            "video_name": "DIVERS_BOOK_AD_04_0002"
        },
        {
            "name": "9384",
            "score": "0.990",
            "index": 3,
            "selectedWords": [
                "pensive",
                "autre",
                "dubitative"
            ],
            "freeResponses": [],
            "nbPlayClick": 1,
            "expression": "NEUTRE",
            "csv_id": 9418,
            "video_name": "DIVERS_PARL_AD_03_0002"
        },
        {
            "name": "5696",
            "score": "0.972",
            "index": 4,
            "selectedWords": [
                "d\u00e9courag\u00e9e",
                "autre",
                "autre",
                "autre",
                "autre",
                "autre",
                "autre",
                "autre",
                "autre",
                "officielle"
            ],
            "freeResponses": [],
            "nbPlayClick": 2,
            "response": "d\u00e9",
            "expression": "DESOLE",
            "csv_id": 5730,
            "video_name": "DIVERS_PARL_DESOLE_AD_01_0004"
        },
        {
            "name": "4351",
            "score": "0.958",
            "index": 5,
            "selectedWords": [
                "espi\u00e8gle",
                "malicieuse"
            ],
            "freeResponses": [],
            "nbPlayClick": 1,
            "expression": "ESPIEGLE",
            "csv_id": 4351,
            "video_name": "DIVERS_PARL_ESPIEGLE_AD_01_0001"
        },
        {
            "name": "2705",
            "score": "0.932",
            "index": 6,
            "selectedWords": [
                "enthousiaste",
                "coquine"
            ],
            "freeResponses": [],
            "nbPlayClick": 1,
            "expression": "ENTHOUSIASTE",
            "csv_id": 2705,
            "video_name": "DIVERS_PARL_ENTHOUSIASTE_AD_01_0003"
        },
        {
            "name": "11361",
            "score": "0.995",
            "index": 7,
            "selectedWords": [
                "neutre",
                "s\u00fbre"
            ],
            "freeResponses": [],
            "nbPlayClick": 1,
            "expression": "NEUTRE",
            "csv_id": 11395,
            "video_name": "DIVERS_BOOK_AD_03_0002"
        },
        {
            "name": "6439",
            "score": "0.976",
            "index": 8,
            "selectedWords": [
                "espi\u00e8gle",
                "narquoise"
            ],
            "freeResponses": [],
            "nbPlayClick": 1,
            "expression": "INCREDULE",
            "csv_id": 6473,
            "video_name": "DIVERS_BOOK_INCREDULE_AD_01_0001"
        },
        {
            "name": "1772",
            "score": "0.904",
            "index": 9,
            "selectedWords": [
                "\u00e9tonn\u00e9e",
                "sinc\u00e8re"
            ],
            "freeResponses": [],
            "nbPlayClick": 1,
            "expression": "RECONFORTANT",
            "csv_id": 1772,
            "video_name": "DIVERS_PARL_RECONFORTANT_AD_02_0001"
        },
        {
            "name": "1299",
            "score": "0.881",
            "index": 10,
            "selectedWords": [
                "pensive",
                "songeuse"
            ],
            "freeResponses": [],
            "nbPlayClick": 1,
            "expression": "PENSIF",
            "csv_id": 1299,
            "video_name": "DIVERS_PARL_PENSIF_AD_01_0002"
        },
        {
            "name": "3009",
            "score": "0.939",
            "index": 11,
            "selectedWords": [
                "d\u00e9termin\u00e9e",
                "r\u00e9solue"
            ],
            "freeResponses": [],
            "nbPlayClick": 1,
            "expression": "NEUTRE",
            "csv_id": 3009,
            "video_name": "DIVERS_PARL_AD_06_0002"
        },
        {
            "name": "12132",
            "score": "0.997",
            "index": 12,
            "selectedWords": [
                "\u00e9tonn\u00e9e",
                "sinc\u00e8re"
            ],
            "freeResponses": [],
            "nbPlayClick": 1,
            "expression": "ETONNE",
            "csv_id": 12169,
            "video_name": "DIVERS_BOOK_ETONNE_AD_01_0004"
        },
        {
            "name": "8637",
            "score": "0.987",
            "index": 13,
            "selectedWords": [
                "neutre",
                "officielle"
            ],
            "freeResponses": [],
            "nbPlayClick": 1,
            "response": "off",
            "expression": "NEUTRE",
            "csv_id": 8671,
            "video_name": "DIVERS_PARL_AD_02_0001"
        },
        {
            "name": "6890",
            "score": "0.979",
            "index": 14,
            "selectedWords": [
                "autre",
                "autre",
                "autre",
                "autre",
                "tonique",
                "transport\u00e9e"
            ],
            "freeResponses": [],
            "nbPlayClick": 1,
            "response": "ton",
            "expression": "DETERMINE",
            "csv_id": 6924,
            "video_name": "DIVERS_BOOK_DETERMINE_AD_03_0001"
        },
        {
            "name": "6518",
            "score": "0.977",
            "index": 15,
            "selectedWords": [
                "\u00e9vidente",
                "irr\u00e9cusable"
            ],
            "freeResponses": [],
            "nbPlayClick": 1,
            "expression": "RECONFORTANT",
            "csv_id": 6552,
            "video_name": "DIVERS_PARL_RECONFORTANT_AD_02_0001"
        },
        {
            "name": "2217",
            "score": "0.918",
            "index": 16,
            "selectedWords": [
                "neutre",
                "certaine"
            ],
            "freeResponses": [],
            "nbPlayClick": 1,
            "expression": "NEUTRE",
            "csv_id": 2217,
            "video_name": "DIVERS_PARL_AD_02_0004"
        },
        {
            "name": "12270",
            "score": "0.998",
            "index": 17,
            "selectedWords": [
                "fade",
                "absente"
            ],
            "freeResponses": [],
            "nbPlayClick": 1,
            "response": "fa",
            "expression": "NEUTRE",
            "csv_id": 12307,
            "video_name": "DIVERS_BOOK_AD_03_0001"
        },
        {
            "name": "11267",
            "score": "0.995",
            "index": 18,
            "selectedWords": [
                "neutre",
                "certaine"
            ],
            "freeResponses": [],
            "nbPlayClick": 1,
            "expression": "NEUTRE",
            "csv_id": 11301,
            "video_name": "DIVERS_BOOK_AD_04_0001"
        },
        {
            "name": "8837",
            "score": "0.988",
            "index": 19,
            "selectedWords": [
                "en col\u00e8re",
                "irrit\u00e9e"
            ],
            "freeResponses": [],
            "nbPlayClick": 1,
            "expression": "COLERE",
            "csv_id": 8871,
            "video_name": "ESTYLE_COLERE_AD_02_0001"
        },
        {
            "name": "524",
            "score": "0.809",
            "index": 20,
            "selectedWords": [
                "incr\u00e9dule",
                "dubitative"
            ],
            "freeResponses": [],
            "nbPlayClick": 1,
            "expression": "NEUTRE",
            "csv_id": 524,
            "video_name": "DIVERS_PARL_AD_03_0002"
        },
        {
            "name": "5428",
            "score": "0.969",
            "index": 21,
            "selectedWords": [
                "neutre",
                "s\u00fbre"
            ],
            "freeResponses": [],
            "nbPlayClick": 2,
            "expression": "NEUTRE",
            "csv_id": 5462,
            "video_name": "DIVERS_BOOK_AD_04_0002"
        },
        {
            "name": "8422",
            "score": "0.986",
            "index": 22,
            "selectedWords": [
                "en col\u00e8re",
                "en rogne"
            ],
            "freeResponses": [],
            "nbPlayClick": 1,
            "expression": "COLERE",
            "csv_id": 8456,
            "video_name": "DIVERS_PARL_COLERE_AD_01_0003"
        },
        {
            "name": "2563",
            "score": "0.928",
            "index": 23,
            "selectedWords": [
                "suppliante",
                "implorante"
            ],
            "freeResponses": [],
            "nbPlayClick": 1,
            "expression": "SUPPLIANT",
            "csv_id": 2563,
            "video_name": "DIVERS_BOOK_SUPPLIANT_AD_01_0004"
        },
        {
            "name": "5274",
            "score": "0.968",
            "index": 24,
            "selectedWords": [
                "en col\u00e8re",
                "\u00e9nerv\u00e9e"
            ],
            "freeResponses": [],
            "nbPlayClick": 1,
            "expression": "NEUTRE",
            "csv_id": 5308,
            "video_name": "DIVERS_PARL_AD_06_0004"
        },
        {
            "name": "585",
            "score": "0.818",
            "index": 25,
            "selectedWords": [
                "neutre",
                "certaine"
            ],
            "freeResponses": [],
            "nbPlayClick": 1,
            "expression": "NEUTRE",
            "csv_id": 585,
            "video_name": "DIVERS_PARL_AD_01_0004"
        },
        {
            "name": "10214",
            "score": "0.992",
            "index": 26,
            "selectedWords": [
                "neutre",
                "limpide"
            ],
            "freeResponses": [],
            "nbPlayClick": 1,
            "expression": "NEUTRE",
            "csv_id": 10248,
            "video_name": "DIVERS_BOOK_AD_04_0002"
        },
        {
            "name": "2025",
            "score": "0.912",
            "index": 27,
            "selectedWords": [
                "suppliante",
                "larmoyante"
            ],
            "freeResponses": [],
            "nbPlayClick": 1,
            "expression": "SUPPLIANT",
            "csv_id": 2025,
            "video_name": "DIVERS_PARL_SUPPLIANT_AD_02_0001"
        },
        {
            "name": "6669",
            "score": "0.978",
            "index": 28,
            "selectedWords": [
                "autre",
                "autre",
                "autre",
                "in\u00e9branlable",
                "s\u00fbre"
            ],
            "freeResponses": [],
            "nbPlayClick": 1,
            "expression": "NEUTRE",
            "csv_id": 6703,
            "video_name": "DIVERS_PARL_AD_03_0001"
        },
        {
            "name": "11609",
            "score": "0.996",
            "index": 29,
            "selectedWords": [
                "suppliante",
                "implorante"
            ],
            "freeResponses": [],
            "nbPlayClick": 1,
            "expression": "SUPPLIANT",
            "csv_id": 11646,
            "video_name": "DIVERS_PARL_SUPPLIANT_AD_02_0002"
        },
        {
            "name": "7711",
            "score": "0.983",
            "index": 30,
            "selectedWords": [
                "suppliante",
                "mendiante"
            ],
            "freeResponses": [],
            "nbPlayClick": 1,
            "expression": "SUPPLIANT",
            "csv_id": 7745,
            "video_name": "DIVERS_BOOK_SUPPLIANT_AD_01_0004"
        },
        {
            "name": "12142",
            "score": "0.997",
            "index": 31,
            "selectedWords": [
                "neutre",
                "certaine"
            ],
            "freeResponses": [],
            "nbPlayClick": 1,
            "expression": "NEUTRE",
            "csv_id": 12179,
            "video_name": "DIVERS_PARL_AD_02_0004"
        },
        {
            "name": "4466",
            "score": "0.960",
            "index": 32,
            "selectedWords": [
                "espi\u00e8gle",
                "mutine"
            ],
            "freeResponses": [],
            "nbPlayClick": 1,
            "expression": "ESPIEGLE",
            "csv_id": 4500,
            "video_name": "DIVERS_BOOK_ESPIEGLE_AD_03_0001"
        },
        {
            "name": "10025",
            "score": "0.992",
            "index": 33,
            "selectedWords": [
                "\u00e9tonn\u00e9e",
                "r\u00e9fl\u00e9chie"
            ],
            "freeResponses": [],
            "nbPlayClick": 1,
            "expression": "NEUTRE",
            "csv_id": 10059,
            "video_name": "DIVERS_BOOK_AD_01_0002"
        },
        {
            "name": "7896",
            "score": "0.984",
            "index": 34,
            "selectedWords": [
                "incr\u00e9dule",
                "m\u00e9fiante"
            ],
            "freeResponses": [],
            "nbPlayClick": 1,
            "expression": "NEUTRE",
            "csv_id": 7930,
            "video_name": "DIVERS_BOOK_AD_03_0001"
        },
        {
            "name": "7588",
            "score": "0.982",
            "index": 35,
            "selectedWords": [
                "neutre",
                "limpide"
            ],
            "freeResponses": [],
            "nbPlayClick": 1,
            "expression": "NEUTRE",
            "csv_id": 7622,
            "video_name": "DIVERS_BOOK_AD_04_0002"
        },
        {
            "name": "11049",
            "score": "0.994",
            "index": 36,
            "selectedWords": [
                "neutre",
                "certaine"
            ],
            "freeResponses": [],
            "nbPlayClick": 1,
            "expression": "NEUTRE",
            "csv_id": 11083,
            "video_name": "DIVERS_PARL_AD_02_0001"
        },
        {
            "name": "12216",
            "score": "0.998",
            "index": 37,
            "selectedWords": [
                "neutre",
                "s\u00fbre",
                "irr\u00e9cusable"
            ],
            "freeResponses": [],
            "nbPlayClick": 1,
            "expression": "NEUTRE",
            "csv_id": 12253,
            "video_name": "DIVERS_PARL_AD_02_0003"
        },
        {
            "name": "5704",
            "score": "0.972",
            "index": 38,
            "selectedWords": [
                "\u00e9tonn\u00e9e",
                "sinc\u00e8re"
            ],
            "freeResponses": [],
            "nbPlayClick": 1,
            "expression": "NEUTRE",
            "csv_id": 5738,
            "video_name": "DIVERS_PARL_AD_02_0001"
        },
        {
            "name": "3707",
            "score": "0.950",
            "index": 39,
            "selectedWords": [
                "incr\u00e9dule",
                "sinc\u00e8re"
            ],
            "freeResponses": [],
            "nbPlayClick": 1,
            "expression": "NEUTRE",
            "csv_id": 3707,
            "video_name": "DIVERS_PARL_AD_06_0004"
        },
        {
            "name": "5017",
            "score": "0.966",
            "index": 40,
            "selectedWords": [
                "neutre",
                "s\u00fbre"
            ],
            "freeResponses": [],
            "nbPlayClick": 1,
            "expression": "NEUTRE",
            "csv_id": 5051,
            "video_name": "DIVERS_PARL_AD_01_0004"
        },
        {
            "name": "6517",
            "score": "0.977",
            "index": 41,
            "selectedWords": [
                "pensive",
                "songeuse",
                "pr\u00e9occup\u00e9e"
            ],
            "freeResponses": [],
            "nbPlayClick": 1,
            "expression": "PENSIF",
            "csv_id": 6551,
            "video_name": "DIVERS_BOOK_PENSIF_AD_01_0003"
        },
        {
            "name": "10969",
            "score": "0.994",
            "index": 42,
            "selectedWords": [
                "neutre",
                "certaine"
            ],
            "freeResponses": [],
            "nbPlayClick": 1,
            "expression": "NEUTRE",
            "csv_id": 11003,
            "video_name": "DIVERS_BOOK_AD_01_0002"
        },
        {
            "name": "9039",
            "score": "0.988",
            "index": 43,
            "selectedWords": [
                "en col\u00e8re",
                "\u00e9nerv\u00e9e"
            ],
            "freeResponses": [],
            "nbPlayClick": 1,
            "expression": "COLERE",
            "csv_id": 9073,
            "video_name": "DIVERS_PARL_COLERE_AD_01_0004"
        },
        {
            "name": "7631",
            "score": "0.983",
            "index": 44,
            "selectedWords": [
                "neutre",
                "certaine"
            ],
            "freeResponses": [],
            "nbPlayClick": 1,
            "expression": "NEUTRE",
            "csv_id": 7665,
            "video_name": "DIVERS_PARL_AD_02_0002"
        },
        {
            "name": "8488",
            "score": "0.986",
            "index": 45,
            "selectedWords": [
                "incr\u00e9dule",
                "dubitative"
            ],
            "freeResponses": [],
            "nbPlayClick": 1,
            "expression": "ETONNE",
            "csv_id": 8522,
            "video_name": "DIVERS_PARL_ETONNE_AD_01_0001"
        },
        {
            "name": "5758",
            "score": "0.972",
            "index": 46,
            "selectedWords": [
                "neutre",
                "s\u00fbre"
            ],
            "freeResponses": [],
            "nbPlayClick": 1,
            "expression": "NEUTRE",
            "csv_id": 5792,
            "video_name": "DIVERS_BOOK_AD_04_0001"
        },
        {
            "name": "4147",
            "score": "0.956",
            "index": 47,
            "selectedWords": [
                "espi\u00e8gle",
                "narquoise"
            ],
            "freeResponses": [],
            "nbPlayClick": 1,
            "response": "",
            "expression": "INCREDULE",
            "csv_id": 4147,
            "video_name": "DIVERS_BOOK_INCREDULE_AD_01_0001"
        },
        {
            "name": "10738",
            "score": "0.994",
            "index": 48,
            "selectedWords": [
                "neutre",
                "certaine"
            ],
            "freeResponses": [],
            "nbPlayClick": 1,
            "expression": "NEUTRE",
            "csv_id": 10772,
            "video_name": "DIVERS_PARL_AD_06_0001"
        },
        {
            "name": "10130",
            "score": "0.992",
            "index": 49,
            "selectedWords": [
                "\u00e9vidente",
                "incontestable"
            ],
            "freeResponses": [],
            "nbPlayClick": 1,
            "expression": "NEUTRE",
            "csv_id": 10164,
            "video_name": "DIVERS_PARL_AD_05_0001"
        },
        {
            "name": "10970",
            "score": "0.994",
            "index": 50,
            "selectedWords": [
                "\u00e9vidente",
                "irr\u00e9cusable"
            ],
            "freeResponses": [],
            "nbPlayClick": 1,
            "expression": "NEUTRE",
            "csv_id": 11004,
            "video_name": "DIVERS_PARL_AD_06_0001"
        },
        {
            "name": "11032",
            "score": "0.994",
            "index": 51,
            "selectedWords": [
                "\u00e9vidente",
                "incontestable"
            ],
            "freeResponses": [],
            "nbPlayClick": 1,
            "expression": "NEUTRE",
            "csv_id": 11066,
            "video_name": "DIVERS_PARL_AD_02_0001"
        },
        {
            "name": "11247",
            "score": "0.995",
            "index": 52,
            "selectedWords": [
                "neutre",
                "s\u00fbre"
            ],
            "freeResponses": [],
            "nbPlayClick": 1,
            "expression": "NEUTRE",
            "csv_id": 11281,
            "video_name": "DIVERS_BOOK_AD_03_0001"
        },
        {
            "name": "6526",
            "score": "0.977",
            "index": 53,
            "selectedWords": [
                "enthousiaste",
                "euphorique",
                "exalt\u00e9e"
            ],
            "freeResponses": [],
            "nbPlayClick": 1,
            "expression": "ENTHOUSIASTE",
            "csv_id": 6560,
            "video_name": "DIVERS_BOOK_ENTHOUSIASTE_AD_01_0001"
        },
        {
            "name": "996",
            "score": "0.861",
            "index": 54,
            "selectedWords": [
                "incr\u00e9dule",
                "dubitative"
            ],
            "freeResponses": [],
            "nbPlayClick": 1,
            "expression": "ETONNE",
            "csv_id": 996,
            "video_name": "DIVERS_BOOK_ETONNE_AD_01_0002"
        },
        {
            "name": "8691",
            "score": "0.987",
            "index": 55,
            "selectedWords": [
                "en col\u00e8re",
                "irrit\u00e9e"
            ],
            "freeResponses": [],
            "nbPlayClick": 1,
            "expression": "COLERE",
            "csv_id": 8725,
            "video_name": "DIVERS_PARL_COLERE_AD_01_0003"
        },
        {
            "name": "8554",
            "score": "0.987",
            "index": 56,
            "selectedWords": [
                "incr\u00e9dule",
                "m\u00e9fiante",
                "en rogne"
            ],
            "freeResponses": [],
            "nbPlayClick": 1,
            "expression": "NEUTRE",
            "csv_id": 8588,
            "video_name": "DIVERS_PARL_AD_05_0002"
        },
        {
            "name": "9693",
            "score": "0.991",
            "index": 57,
            "selectedWords": [
                "neutre",
                "limpide"
            ],
            "freeResponses": [],
            "nbPlayClick": 1,
            "expression": "NEUTRE",
            "csv_id": 9727,
            "video_name": "DIVERS_PARL_AD_03_0002"
        },
        {
            "name": "9718",
            "score": "0.991",
            "index": 58,
            "selectedWords": [
                "\u00e9vidente",
                "manifeste"
            ],
            "freeResponses": [],
            "nbPlayClick": 1,
            "expression": "NEUTRE",
            "csv_id": 9752,
            "video_name": "DIVERS_PARL_AD_05_0004"
        },
        {
            "name": "1822",
            "score": "0.906",
            "index": 59,
            "selectedWords": [
                "m\u00e9fiante",
                "sceptique"
            ],
            "freeResponses": [],
            "nbPlayClick": 1,
            "expression": "INCREDULE",
            "csv_id": 1822,
            "video_name": "DIVERS_PARL_INCREDULE_AD_01_0001"
        }
    ],
    "training": [
        {
            "name": "77",
            "score": "0.639",
            "index": 0,
            "selectedWords": [
                "neutre",
                "limpide",
                "officielle"
            ],
            "freeResponses": [],
            "nbPlayClick": 2,
            "expression": "NEUTRE"
        }
    ],
    "filenameDate": "2023-10-19_22-34"
}