{
    "user": {
        "isProlific": true,
        "id": "5f577e18c10c94216f1f53e7",
        "session": "65c455e7551eeee4b9960c4e",
        "study": "64ef977375f88e4e1174dce0"
    },
    "userAgent": "Mozilla/5.0 (Windows NT 10.0; Win64; x64) AppleWebKit/537.36 (KHTML, like Gecko) Chrome/121.0.0.0 Safari/537.36",
    "landingDate": "2024-02-08T04:18:05.252Z",
    "startDate": "2024-02-08T04:19:21.552Z",
    "endDate": "2024-02-08T04:39:42.273Z",
    "reviews": [
        {
            "name": "12292",
            "score": "0.998",
            "index": 0,
            "selectedWords": [
                "neutre",
                "limpide",
                "froide"
            ],
            "freeResponses": [],
            "nbPlayClick": 1,
            "expression": "NEUTRE",
            "csv_id": 12329,
            "video_name": "DIVERS_PARL_AD_02_0004"
        },
        {
            "name": "6341",
            "score": "0.976",
            "index": 1,
            "selectedWords": [
                "neutre",
                "limpide",
                "froide"
            ],
            "freeResponses": [],
            "nbPlayClick": 1,
            "expression": "NEUTRE",
            "csv_id": 6375,
            "video_name": "DIVERS_PARL_AD_01_0004"
        },
        {
            "name": "7265",
            "score": "0.981",
            "index": 2,
            "selectedWords": [
                "en col\u00e8re",
                "irrit\u00e9e",
                "m\u00e9contente"
            ],
            "freeResponses": [],
            "nbPlayClick": 1,
            "expression": "ETONNE",
            "csv_id": 7299,
            "video_name": "DIVERS_BOOK_ETONNE_AD_01_0002"
        },
        {
            "name": "10217",
            "score": "0.992",
            "index": 3,
            "selectedWords": [
                "coquine",
                "enthousiaste",
                "\u00e9loquente",
                "passionn\u00e9e"
            ],
            "freeResponses": [],
            "nbPlayClick": 1,
            "response": "enth",
            "expression": "ESPIEGLE",
            "csv_id": 10251,
            "video_name": "DIVERS_BOOK_ESPIEGLE_AD_03_0001"
        },
        {
            "name": "2082",
            "score": "0.914",
            "index": 4,
            "selectedWords": [
                "en col\u00e8re",
                "irrit\u00e9e",
                "furieuse"
            ],
            "freeResponses": [],
            "nbPlayClick": 2,
            "response": "s",
            "expression": "INCREDULE",
            "csv_id": 2082,
            "video_name": "DIVERS_BOOK_INCREDULE_AD_01_0001"
        },
        {
            "name": "7082",
            "score": "0.980",
            "index": 5,
            "selectedWords": [
                "pensive",
                "r\u00e9fl\u00e9chie",
                "autre"
            ],
            "freeResponses": [],
            "nbPlayClick": 1,
            "expression": "NEUTRE",
            "csv_id": 7116,
            "video_name": "DIVERS_BOOK_AD_03_0002"
        },
        {
            "name": "9476",
            "score": "0.990",
            "index": 6,
            "selectedWords": [
                "neutre",
                "autre",
                "autre",
                "autre",
                "autre",
                "apaisante"
            ],
            "freeResponses": [],
            "nbPlayClick": 1,
            "expression": "NEUTRE",
            "csv_id": 9510,
            "video_name": "DIVERS_BOOK_AD_04_0001"
        },
        {
            "name": "4741",
            "score": "0.963",
            "index": 7,
            "selectedWords": [
                "neutre",
                "s\u00fbre",
                "froide"
            ],
            "freeResponses": [],
            "nbPlayClick": 1,
            "expression": "COLERE",
            "csv_id": 4775,
            "video_name": "DIVERS_PARL_COLERE_AD_01_0004"
        },
        {
            "name": "8273",
            "score": "0.985",
            "index": 8,
            "selectedWords": [
                "neutre",
                "limpide"
            ],
            "freeResponses": [],
            "nbPlayClick": 1,
            "expression": "NEUTRE",
            "csv_id": 8307,
            "video_name": "DIVERS_PARL_AD_05_0003"
        },
        {
            "name": "9796",
            "score": "0.991",
            "index": 9,
            "selectedWords": [
                "d\u00e9termin\u00e9e",
                "r\u00e9fl\u00e9chie",
                "absente"
            ],
            "freeResponses": [],
            "nbPlayClick": 1,
            "expression": "NEUTRE",
            "csv_id": 9830,
            "video_name": "DIVERS_PARL_AD_01_0002"
        },
        {
            "name": "11900",
            "score": "0.997",
            "index": 10,
            "selectedWords": [
                "\u00e9tonn\u00e9e",
                "absente",
                "malheureuse"
            ],
            "freeResponses": [],
            "nbPlayClick": 1,
            "expression": "NEUTRE",
            "csv_id": 11937,
            "video_name": "DIVERS_BOOK_AD_01_0002"
        },
        {
            "name": "6440",
            "score": "0.976",
            "index": 11,
            "selectedWords": [
                "r\u00e9confortante",
                "apaisante"
            ],
            "freeResponses": [],
            "nbPlayClick": 1,
            "expression": "DESOLE",
            "csv_id": 6474,
            "video_name": "DIVERS_PARL_DESOLE_AD_01_0004"
        },
        {
            "name": "7673",
            "score": "0.983",
            "index": 12,
            "selectedWords": [
                "neutre",
                "limpide"
            ],
            "freeResponses": [],
            "nbPlayClick": 1,
            "expression": "NEUTRE",
            "csv_id": 7707,
            "video_name": "DIVERS_PARL_AD_05_0004"
        },
        {
            "name": "10062",
            "score": "0.992",
            "index": 13,
            "selectedWords": [
                "neutre",
                "limpide"
            ],
            "freeResponses": [],
            "nbPlayClick": 1,
            "expression": "NEUTRE",
            "csv_id": 10096,
            "video_name": "DIVERS_PARL_AD_06_0003"
        },
        {
            "name": "6311",
            "score": "0.976",
            "index": 14,
            "selectedWords": [
                "incr\u00e9dule",
                "m\u00e9fiante",
                "sceptique"
            ],
            "freeResponses": [],
            "nbPlayClick": 1,
            "expression": "ETONNE",
            "csv_id": 6345,
            "video_name": "DIVERS_BOOK_ETONNE_AD_01_0002"
        },
        {
            "name": "9854",
            "score": "0.991",
            "index": 15,
            "selectedWords": [
                "neutre",
                "limpide",
                "officielle"
            ],
            "freeResponses": [],
            "nbPlayClick": 2,
            "expression": "NEUTRE",
            "csv_id": 9888,
            "video_name": "DIVERS_PARL_AD_06_0001"
        },
        {
            "name": "5934",
            "score": "0.973",
            "index": 16,
            "selectedWords": [
                "neutre",
                "limpide",
                "officielle"
            ],
            "freeResponses": [],
            "nbPlayClick": 1,
            "expression": "NEUTRE",
            "csv_id": 5968,
            "video_name": "DIVERS_PARL_AD_04_0003"
        },
        {
            "name": "6774",
            "score": "0.978",
            "index": 17,
            "selectedWords": [
                "enthousiaste",
                "euphorique",
                "excit\u00e9e"
            ],
            "freeResponses": [],
            "nbPlayClick": 1,
            "expression": "ESPIEGLE",
            "csv_id": 6808,
            "video_name": "DIVERS_PARL_ESPIEGLE_AD_01_0001"
        },
        {
            "name": "6764",
            "score": "0.978",
            "index": 18,
            "selectedWords": [
                "neutre",
                "certaine",
                "atone"
            ],
            "freeResponses": [],
            "nbPlayClick": 1,
            "expression": "DESOLE",
            "csv_id": 6798,
            "video_name": "DIVERS_BOOK_DESOLE_AD_03_0002"
        },
        {
            "name": "9210",
            "score": "0.989",
            "index": 19,
            "selectedWords": [
                "pensive",
                "r\u00e9fl\u00e9chissante"
            ],
            "freeResponses": [],
            "nbPlayClick": 1,
            "expression": "NEUTRE",
            "csv_id": 9244,
            "video_name": "DIVERS_BOOK_AD_01_0001"
        },
        {
            "name": "6439",
            "score": "0.976",
            "index": 20,
            "selectedWords": [
                "d\u00e9termin\u00e9e",
                "agit\u00e9e",
                "f\u00e2ch\u00e9e"
            ],
            "freeResponses": [],
            "nbPlayClick": 1,
            "expression": "INCREDULE",
            "csv_id": 6473,
            "video_name": "DIVERS_BOOK_INCREDULE_AD_01_0001"
        },
        {
            "name": "4026",
            "score": "0.954",
            "index": 21,
            "selectedWords": [
                "enthousiaste",
                "euphorique",
                "excit\u00e9e"
            ],
            "freeResponses": [],
            "nbPlayClick": 1,
            "expression": "ENTHOUSIASTE",
            "csv_id": 4026,
            "video_name": "DIVERS_PARL_ENTHOUSIASTE_AD_02_0001"
        },
        {
            "name": "8316",
            "score": "0.986",
            "index": 22,
            "selectedWords": [
                "d\u00e9termin\u00e9e",
                "autre",
                "implorante",
                "autre",
                "inexpressive"
            ],
            "freeResponses": [],
            "nbPlayClick": 1,
            "expression": "INCREDULE",
            "csv_id": 8350,
            "video_name": "DIVERS_BOOK_INCREDULE_AD_01_0001"
        },
        {
            "name": "10995",
            "score": "0.994",
            "index": 23,
            "selectedWords": [
                "neutre",
                "limpide",
                "officielle"
            ],
            "freeResponses": [],
            "nbPlayClick": 2,
            "expression": "NEUTRE",
            "csv_id": 11029,
            "video_name": "DIVERS_PARL_AD_04_0003"
        },
        {
            "name": "2847",
            "score": "0.935",
            "index": 24,
            "selectedWords": [
                "neutre",
                "limpide",
                "officielle"
            ],
            "freeResponses": [],
            "nbPlayClick": 1,
            "expression": "NEUTRE",
            "csv_id": 2847,
            "video_name": "DIVERS_PARL_AD_06_0001"
        },
        {
            "name": "8649",
            "score": "0.987",
            "index": 25,
            "selectedWords": [
                "neutre",
                "s\u00fbre",
                "r\u00e9fl\u00e9chie"
            ],
            "freeResponses": [],
            "nbPlayClick": 1,
            "expression": "NEUTRE",
            "csv_id": 8683,
            "video_name": "DIVERS_PARL_AD_03_0001"
        },
        {
            "name": "4346",
            "score": "0.958",
            "index": 26,
            "selectedWords": [
                "accabl\u00e9e",
                "attrist\u00e9e",
                "d\u00e9courag\u00e9e"
            ],
            "freeResponses": [],
            "nbPlayClick": 1,
            "expression": "SUPPLIANT",
            "csv_id": 4346,
            "video_name": "ESTYLE_SUPPLIANT_AD_02_0001"
        },
        {
            "name": "9293",
            "score": "0.989",
            "index": 27,
            "selectedWords": [
                "certaine",
                "in\u00e9branlable"
            ],
            "freeResponses": [],
            "nbPlayClick": 1,
            "expression": "NEUTRE",
            "csv_id": 9327,
            "video_name": "DIVERS_BOOK_AD_04_0001"
        },
        {
            "name": "7389",
            "score": "0.981",
            "index": 28,
            "selectedWords": [
                "neutre",
                "limpide",
                "officielle"
            ],
            "freeResponses": [],
            "nbPlayClick": 1,
            "expression": "NEUTRE",
            "csv_id": 7423,
            "video_name": "DIVERS_PARL_AD_04_0003"
        },
        {
            "name": "2622",
            "score": "0.930",
            "index": 29,
            "selectedWords": [
                "neutre",
                "limpide",
                "officielle"
            ],
            "freeResponses": [],
            "nbPlayClick": 1,
            "expression": "NEUTRE",
            "csv_id": 2622,
            "video_name": "DIVERS_PARL_AD_05_0002"
        },
        {
            "name": "6831",
            "score": "0.979",
            "index": 30,
            "selectedWords": [
                "incr\u00e9dule",
                "sinc\u00e8re",
                "perplexe",
                "sid\u00e9r\u00e9e"
            ],
            "freeResponses": [],
            "nbPlayClick": 1,
            "expression": "NEUTRE",
            "csv_id": 6865,
            "video_name": "DIVERS_PARL_AD_01_0005"
        },
        {
            "name": "6269",
            "score": "0.976",
            "index": 31,
            "selectedWords": [
                "enthousiaste",
                "euphorique",
                "excit\u00e9e",
                "passionn\u00e9e"
            ],
            "freeResponses": [],
            "nbPlayClick": 1,
            "expression": "ENTHOUSIASTE",
            "csv_id": 6303,
            "video_name": "DIVERS_BOOK_ENTHOUSIASTE_AD_01_0001"
        },
        {
            "name": "6348",
            "score": "0.976",
            "index": 32,
            "selectedWords": [
                "r\u00e9confortante",
                "apaisante"
            ],
            "freeResponses": [],
            "nbPlayClick": 1,
            "expression": "RECONFORTANT",
            "csv_id": 6382,
            "video_name": "DIVERS_PARL_RECONFORTANT_AD_02_0001"
        },
        {
            "name": "2283",
            "score": "0.921",
            "index": 33,
            "selectedWords": [
                "enthousiaste",
                "autre",
                "autre",
                "inexpressive"
            ],
            "freeResponses": [],
            "nbPlayClick": 1,
            "expression": "ENTHOUSIASTE",
            "csv_id": 2283,
            "video_name": "DIVERS_PARL_ENTHOUSIASTE_AD_01_0003"
        },
        {
            "name": "9074",
            "score": "0.989",
            "index": 34,
            "selectedWords": [
                "neutre",
                "limpide",
                "officielle"
            ],
            "freeResponses": [],
            "nbPlayClick": 1,
            "expression": "NEUTRE",
            "csv_id": 9108,
            "video_name": "DIVERS_PARL_AD_02_0003"
        },
        {
            "name": "1972",
            "score": "0.911",
            "index": 35,
            "selectedWords": [
                "officielle",
                "certaine"
            ],
            "freeResponses": [],
            "nbPlayClick": 1,
            "expression": "INCREDULE",
            "csv_id": 1972,
            "video_name": "DIVERS_PARL_INCREDULE_AD_01_0001"
        },
        {
            "name": "10580",
            "score": "0.993",
            "index": 36,
            "selectedWords": [
                "neutre",
                "limpide",
                "officielle"
            ],
            "freeResponses": [],
            "nbPlayClick": 1,
            "expression": "NEUTRE",
            "csv_id": 10614,
            "video_name": "DIVERS_PARL_AD_04_0004"
        },
        {
            "name": "6996",
            "score": "0.980",
            "index": 37,
            "selectedWords": [
                "apaisante",
                "consolante"
            ],
            "freeResponses": [],
            "nbPlayClick": 1,
            "expression": "SUPPLIANT",
            "csv_id": 7030,
            "video_name": "DIVERS_PARL_SUPPLIANT_AD_02_0001"
        },
        {
            "name": "2346",
            "score": "0.922",
            "index": 38,
            "selectedWords": [
                "en col\u00e8re",
                "hargneuse"
            ],
            "freeResponses": [],
            "nbPlayClick": 1,
            "expression": "NEUTRE",
            "csv_id": 2346,
            "video_name": "DIVERS_PARL_AD_05_0003"
        },
        {
            "name": "7693",
            "score": "0.983",
            "index": 39,
            "selectedWords": [
                "en col\u00e8re",
                "irrit\u00e9e",
                "m\u00e9contente"
            ],
            "freeResponses": [],
            "nbPlayClick": 1,
            "expression": "INCREDULE",
            "csv_id": 7727,
            "video_name": "DIVERS_PARL_INCREDULE_AD_01_0001"
        },
        {
            "name": "5288",
            "score": "0.968",
            "index": 40,
            "selectedWords": [
                "en col\u00e8re",
                "en rage",
                "\u00e9nergique"
            ],
            "freeResponses": [],
            "nbPlayClick": 1,
            "expression": "SUPPLIANT",
            "csv_id": 5322,
            "video_name": "DIVERS_BOOK_SUPPLIANT_AD_01_0004"
        },
        {
            "name": "9843",
            "score": "0.991",
            "index": 41,
            "selectedWords": [
                "autre",
                "autre",
                "consolante",
                "pensante",
                "pr\u00e9occup\u00e9e"
            ],
            "freeResponses": [],
            "nbPlayClick": 2,
            "expression": "SUPPLIANT",
            "csv_id": 9877,
            "video_name": "DIVERS_PARL_SUPPLIANT_AD_02_0002"
        },
        {
            "name": "6606",
            "score": "0.977",
            "index": 42,
            "selectedWords": [
                "enthousiaste",
                "\u00e9loquente",
                "excit\u00e9e"
            ],
            "freeResponses": [],
            "nbPlayClick": 1,
            "expression": "ENTHOUSIASTE",
            "csv_id": 6640,
            "video_name": "DIVERS_PARL_ENTHOUSIASTE_AD_02_0001"
        },
        {
            "name": "236",
            "score": "0.741",
            "index": 43,
            "selectedWords": [
                "neutre",
                "limpide",
                "officielle"
            ],
            "freeResponses": [],
            "nbPlayClick": 1,
            "expression": "PENSIF",
            "csv_id": 236,
            "video_name": "DIVERS_BOOK_PENSIF_AD_03_0002"
        },
        {
            "name": "5445",
            "score": "0.969",
            "index": 44,
            "selectedWords": [
                "d\u00e9termin\u00e9e",
                "neutre"
            ],
            "freeResponses": [],
            "nbPlayClick": 1,
            "response": "ne",
            "expression": "DETERMINE",
            "csv_id": 5479,
            "video_name": "DIVERS_PARL_DETERMINE_AD_01_0002"
        },
        {
            "name": "2642",
            "score": "0.930",
            "index": 45,
            "selectedWords": [
                "neutre",
                "limpide",
                "officielle"
            ],
            "freeResponses": [],
            "nbPlayClick": 1,
            "expression": "NEUTRE",
            "csv_id": 2642,
            "video_name": "DIVERS_PARL_AD_05_0003"
        },
        {
            "name": "11083",
            "score": "0.995",
            "index": 46,
            "selectedWords": [
                "pensante",
                "pensive",
                "r\u00e9fl\u00e9chie"
            ],
            "freeResponses": [],
            "nbPlayClick": 1,
            "response": "pe",
            "expression": "PENSIF",
            "csv_id": 11117,
            "video_name": "DIVERS_PARL_PENSIF_AD_01_0002"
        },
        {
            "name": "4855",
            "score": "0.964",
            "index": 47,
            "selectedWords": [
                "en col\u00e8re",
                "irrit\u00e9e",
                "m\u00e9contente"
            ],
            "freeResponses": [],
            "nbPlayClick": 1,
            "expression": "INCREDULE",
            "csv_id": 4889,
            "video_name": "DIVERS_PARL_INCREDULE_AD_02_0003"
        },
        {
            "name": "5421",
            "score": "0.969",
            "index": 48,
            "selectedWords": [
                "r\u00e9confortante",
                "autre",
                "\u00e9bahie",
                "autre",
                "autre",
                "autre",
                "r\u00e9fl\u00e9chissante"
            ],
            "freeResponses": [],
            "nbPlayClick": 2,
            "response": "s",
            "expression": "RECONFORTANT",
            "csv_id": 5455,
            "video_name": "DIVERS_PARL_RECONFORTANT_AD_02_0001"
        },
        {
            "name": "10160",
            "score": "0.992",
            "index": 49,
            "selectedWords": [
                "neutre",
                "limpide",
                "officielle"
            ],
            "freeResponses": [],
            "nbPlayClick": 1,
            "expression": "NEUTRE",
            "csv_id": 10194,
            "video_name": "DIVERS_BOOK_AD_04_0002"
        },
        {
            "name": "11399",
            "score": "0.995",
            "index": 50,
            "selectedWords": [
                "enthousiaste",
                "euphorique",
                "excit\u00e9e"
            ],
            "freeResponses": [],
            "nbPlayClick": 1,
            "expression": "ESPIEGLE",
            "csv_id": 11433,
            "video_name": "DIVERS_PARL_ESPIEGLE_AD_01_0001"
        },
        {
            "name": "5076",
            "score": "0.966",
            "index": 51,
            "selectedWords": [
                "neutre",
                "limpide",
                "officielle"
            ],
            "freeResponses": [],
            "nbPlayClick": 1,
            "expression": "NEUTRE",
            "csv_id": 5110,
            "video_name": "DIVERS_BOOK_AD_01_0001"
        },
        {
            "name": "11189",
            "score": "0.995",
            "index": 52,
            "selectedWords": [
                "en col\u00e8re",
                "irrit\u00e9e"
            ],
            "freeResponses": [],
            "nbPlayClick": 1,
            "expression": "COLERE",
            "csv_id": 11223,
            "video_name": "DIVERS_PARL_COLERE_AD_02_0002"
        },
        {
            "name": "4415",
            "score": "0.959",
            "index": 53,
            "selectedWords": [
                "irrit\u00e9e",
                "m\u00e9contente"
            ],
            "freeResponses": [],
            "nbPlayClick": 1,
            "expression": "EVIDENCE",
            "csv_id": 4415,
            "video_name": "DIVERS_BOOK_EVIDENCE_AD_01_0002"
        },
        {
            "name": "9695",
            "score": "0.991",
            "index": 54,
            "selectedWords": [
                "neutre",
                "limpide",
                "officielle"
            ],
            "freeResponses": [],
            "nbPlayClick": 2,
            "expression": "NEUTRE",
            "csv_id": 9729,
            "video_name": "DIVERS_BOOK_AD_03_0001"
        },
        {
            "name": "7121",
            "score": "0.980",
            "index": 55,
            "selectedWords": [
                "neutre",
                "limpide",
                "officielle"
            ],
            "freeResponses": [],
            "nbPlayClick": 1,
            "expression": "NEUTRE",
            "csv_id": 7155,
            "video_name": "DIVERS_PARL_AD_01_0005"
        },
        {
            "name": "8554",
            "score": "0.987",
            "index": 56,
            "selectedWords": [
                "en col\u00e8re",
                "irrit\u00e9e",
                "autre",
                "dubitative"
            ],
            "freeResponses": [],
            "nbPlayClick": 1,
            "expression": "NEUTRE",
            "csv_id": 8588,
            "video_name": "DIVERS_PARL_AD_05_0002"
        },
        {
            "name": "1182",
            "score": "0.874",
            "index": 57,
            "selectedWords": [
                "en col\u00e8re",
                "hargneuse",
                "m\u00e9contente"
            ],
            "freeResponses": [],
            "nbPlayClick": 1,
            "expression": "EVIDENCE",
            "csv_id": 1182,
            "video_name": "DIVERS_PARL_EVIDENCE_AD_02_0002"
        },
        {
            "name": "8324",
            "score": "0.986",
            "index": 58,
            "selectedWords": [
                "enthousiaste",
                "euphorique"
            ],
            "freeResponses": [],
            "nbPlayClick": 1,
            "expression": "ENTHOUSIASTE",
            "csv_id": 8358,
            "video_name": "DIVERS_PARL_ENTHOUSIASTE_AD_01_0003"
        },
        {
            "name": "9372",
            "score": "0.990",
            "index": 59,
            "selectedWords": [
                "neutre",
                "limpide",
                "officielle"
            ],
            "freeResponses": [],
            "nbPlayClick": 1,
            "expression": "NEUTRE",
            "csv_id": 9406,
            "video_name": "DIVERS_PARL_AD_04_0001"
        }
    ],
    "training": [
        {
            "name": "77",
            "score": "0.639",
            "index": 0,
            "selectedWords": [
                "neutre",
                "s\u00fbre",
                "r\u00e9fl\u00e9chie",
                "absente",
                "sinc\u00e8re"
            ],
            "freeResponses": [],
            "nbPlayClick": 1,
            "expression": "NEUTRE"
        }
    ],
    "filenameDate": "2024-02-08_20-39"
}