{
    "user": {
        "isProlific": true,
        "id": "5f90c32f69122f1cebd1cc0b",
        "session": "64ef911891af9250ea8b042c",
        "study": "64ef59ce58b9cfe7a2bd1a45"
    },
    "userAgent": "Mozilla/5.0 (Windows NT 10.0; Win64; x64) AppleWebKit/537.36 (KHTML, like Gecko) Chrome/116.0.0.0 Safari/537.36",
    "landingDate": "2023-08-30T18:58:16.204Z",
    "startDate": "2023-08-30T19:00:40.451Z",
    "endDate": "2023-08-30T19:34:27.524Z",
    "reviews": [
        {
            "name": "9738",
            "score": "0.991",
            "index": 0,
            "selectedWords": [
                "d\u00e9termin\u00e9e",
                "officielle"
            ],
            "freeResponses": [],
            "nbPlayClick": 2,
            "expression": "NEUTRE",
            "csv_id": 9772,
            "video_name": "DIVERS_PARL_AD_01_0006"
        },
        {
            "name": "8413",
            "score": "0.986",
            "index": 1,
            "selectedWords": [
                "neutre",
                "fade"
            ],
            "freeResponses": [],
            "nbPlayClick": 2,
            "expression": "NEUTRE",
            "csv_id": 8447,
            "video_name": "DIVERS_BOOK_AD_03_0002"
        },
        {
            "name": "5967",
            "score": "0.974",
            "index": 2,
            "selectedWords": [
                "autre",
                "certaine",
                "convaincue"
            ],
            "freeResponses": [],
            "nbPlayClick": 2,
            "expression": "EVIDENCE",
            "csv_id": 6001,
            "video_name": "DIVERS_PARL_EVIDENCE_AD_02_0002"
        },
        {
            "name": "9257",
            "score": "0.989",
            "index": 3,
            "selectedWords": [
                "certaine",
                "convaincue"
            ],
            "freeResponses": [],
            "nbPlayClick": 2,
            "expression": "EVIDENCE",
            "csv_id": 9291,
            "video_name": "DIVERS_PARL_EVIDENCE_AD_01_0001"
        },
        {
            "name": "10380",
            "score": "0.993",
            "index": 4,
            "selectedWords": [
                "fade",
                "froide"
            ],
            "freeResponses": [],
            "nbPlayClick": 2,
            "expression": "NEUTRE",
            "csv_id": 10414,
            "video_name": "DIVERS_PARL_AD_03_0001"
        },
        {
            "name": "9204",
            "score": "0.989",
            "index": 5,
            "selectedWords": [
                "espi\u00e8gle",
                "taquine"
            ],
            "freeResponses": [],
            "nbPlayClick": 2,
            "expression": "NEUTRE",
            "csv_id": 9238,
            "video_name": "DIVERS_BOOK_AD_01_0001"
        },
        {
            "name": "1852",
            "score": "0.907",
            "index": 6,
            "selectedWords": [
                "accabl\u00e9e",
                "contrari\u00e9e"
            ],
            "freeResponses": [],
            "nbPlayClick": 3,
            "expression": "INCREDULE",
            "csv_id": 1852,
            "video_name": "DIVERS_PARL_INCREDULE_AD_02_0003"
        },
        {
            "name": "5668",
            "score": "0.971",
            "index": 7,
            "selectedWords": [
                "d\u00e9termin\u00e9e",
                "r\u00e9solue"
            ],
            "freeResponses": [],
            "nbPlayClick": 2,
            "expression": "DETERMINE",
            "csv_id": 5702,
            "video_name": "DIVERS_PARL_DETERMINE_AD_01_0002"
        },
        {
            "name": "9043",
            "score": "0.988",
            "index": 8,
            "selectedWords": [
                "certaine",
                "convaincue"
            ],
            "freeResponses": [],
            "nbPlayClick": 2,
            "expression": "NEUTRE",
            "csv_id": 9077,
            "video_name": "DIVERS_PARL_AD_01_0005"
        },
        {
            "name": "6574",
            "score": "0.977",
            "index": 9,
            "selectedWords": [
                "neutre",
                "fade"
            ],
            "freeResponses": [],
            "nbPlayClick": 2,
            "expression": "NEUTRE",
            "csv_id": 6608,
            "video_name": "DIVERS_PARL_AD_03_0003"
        },
        {
            "name": "5972",
            "score": "0.974",
            "index": 10,
            "selectedWords": [
                "enthousiaste",
                "euphorique"
            ],
            "freeResponses": [],
            "nbPlayClick": 2,
            "expression": "ENTHOUSIASTE",
            "csv_id": 6006,
            "video_name": "DIVERS_BOOK_ENTHOUSIASTE_AD_01_0004"
        },
        {
            "name": "8526",
            "score": "0.986",
            "index": 11,
            "selectedWords": [
                "d\u00e9termin\u00e9e",
                "convaincue"
            ],
            "freeResponses": [],
            "nbPlayClick": 2,
            "expression": "DETERMINE",
            "csv_id": 8560,
            "video_name": "DIVERS_BOOK_DETERMINE_AD_03_0001"
        },
        {
            "name": "6336",
            "score": "0.976",
            "index": 12,
            "selectedWords": [
                "abasourdie",
                "accabl\u00e9e"
            ],
            "freeResponses": [],
            "nbPlayClick": 2,
            "expression": "DESOLE",
            "csv_id": 6370,
            "video_name": "DIVERS_PARL_DESOLE_AD_02_0002"
        },
        {
            "name": "9060",
            "score": "0.988",
            "index": 13,
            "selectedWords": [
                "certaine",
                "convaincue"
            ],
            "freeResponses": [],
            "nbPlayClick": 2,
            "expression": "INCREDULE",
            "csv_id": 9094,
            "video_name": "DIVERS_PARL_INCREDULE_AD_01_0001"
        },
        {
            "name": "11009",
            "score": "0.994",
            "index": 14,
            "selectedWords": [
                "neutre",
                "fade"
            ],
            "freeResponses": [],
            "nbPlayClick": 2,
            "expression": "NEUTRE",
            "csv_id": 11043,
            "video_name": "DIVERS_PARL_AD_03_0001"
        },
        {
            "name": "9438",
            "score": "0.990",
            "index": 15,
            "selectedWords": [
                "certaine",
                "convaincue"
            ],
            "freeResponses": [],
            "nbPlayClick": 2,
            "expression": "RECONFORTANT",
            "csv_id": 9472,
            "video_name": "DIVERS_PARL_RECONFORTANT_AD_02_0001"
        },
        {
            "name": "7886",
            "score": "0.984",
            "index": 16,
            "selectedWords": [
                "ardente",
                "convaincue"
            ],
            "freeResponses": [],
            "nbPlayClick": 2,
            "expression": "EVIDENCE",
            "csv_id": 7920,
            "video_name": "DIVERS_PARL_EVIDENCE_AD_02_0002"
        },
        {
            "name": "9575",
            "score": "0.990",
            "index": 17,
            "selectedWords": [
                "absente",
                "d\u00e9pit\u00e9e"
            ],
            "freeResponses": [],
            "nbPlayClick": 2,
            "expression": "DESOLE",
            "csv_id": 9609,
            "video_name": "DIVERS_PARL_DESOLE_AD_02_0002"
        },
        {
            "name": "11303",
            "score": "0.995",
            "index": 18,
            "selectedWords": [
                "neutre",
                "froide"
            ],
            "freeResponses": [],
            "nbPlayClick": 2,
            "expression": "NEUTRE",
            "csv_id": 11337,
            "video_name": "DIVERS_BOOK_AD_04_0002"
        },
        {
            "name": "9017",
            "score": "0.988",
            "index": 19,
            "selectedWords": [
                "accabl\u00e9e",
                "contrari\u00e9e"
            ],
            "freeResponses": [],
            "nbPlayClick": 2,
            "expression": "NEUTRE",
            "csv_id": 9051,
            "video_name": "DIVERS_PARL_AD_01_0000"
        },
        {
            "name": "6385",
            "score": "0.976",
            "index": 20,
            "selectedWords": [
                "emball\u00e9e",
                "enthousiaste"
            ],
            "freeResponses": [],
            "nbPlayClick": 2,
            "expression": "RECONFORTANT",
            "csv_id": 6419,
            "video_name": "DIVERS_BOOK_RECONFORTANT_AD_03_0002"
        },
        {
            "name": "4906",
            "score": "0.965",
            "index": 21,
            "selectedWords": [
                "neutre",
                "terne"
            ],
            "freeResponses": [],
            "nbPlayClick": 2,
            "expression": "NEUTRE",
            "csv_id": 4940,
            "video_name": "DIVERS_PARL_AD_05_0001"
        },
        {
            "name": "4017",
            "score": "0.954",
            "index": 22,
            "selectedWords": [
                "s\u00fbre",
                "sinc\u00e8re"
            ],
            "freeResponses": [],
            "nbPlayClick": 2,
            "expression": "DETERMINE",
            "csv_id": 4017,
            "video_name": "DIVERS_PARL_DETERMINE_AD_01_0002"
        },
        {
            "name": "10129",
            "score": "0.992",
            "index": 23,
            "selectedWords": [
                "\u00e9tonn\u00e9e",
                "\u00e9berlu\u00e9e"
            ],
            "freeResponses": [],
            "nbPlayClick": 2,
            "expression": "ETONNE",
            "csv_id": 10163,
            "video_name": "DIVERS_BOOK_ETONNE_AD_01_0002"
        },
        {
            "name": "11010",
            "score": "0.994",
            "index": 24,
            "selectedWords": [
                "\u00e9vidente",
                "r\u00e9solue"
            ],
            "freeResponses": [],
            "nbPlayClick": 2,
            "expression": "NEUTRE",
            "csv_id": 11044,
            "video_name": "DIVERS_PARL_AD_01_0005"
        },
        {
            "name": "7122",
            "score": "0.980",
            "index": 25,
            "selectedWords": [
                "\u00e9nerv\u00e9e",
                "sid\u00e9r\u00e9e"
            ],
            "freeResponses": [],
            "nbPlayClick": 2,
            "expression": "INCREDULE",
            "csv_id": 7156,
            "video_name": "DIVERS_PARL_INCREDULE_AD_02_0003"
        },
        {
            "name": "9578",
            "score": "0.990",
            "index": 26,
            "selectedWords": [
                "incr\u00e9dule",
                "pensante"
            ],
            "freeResponses": [],
            "nbPlayClick": 2,
            "expression": "ETONNE",
            "csv_id": 9612,
            "video_name": "DIVERS_BOOK_ETONNE_AD_03_0001"
        },
        {
            "name": "4187",
            "score": "0.957",
            "index": 27,
            "selectedWords": [
                "d\u00e9termin\u00e9e",
                "convaincue"
            ],
            "freeResponses": [],
            "nbPlayClick": 3,
            "expression": "NEUTRE",
            "csv_id": 4187,
            "video_name": "DIVERS_PARL_AD_06_0004"
        },
        {
            "name": "186",
            "score": "0.721",
            "index": 28,
            "selectedWords": [
                "s\u00fbre",
                "certaine"
            ],
            "freeResponses": [],
            "nbPlayClick": 1,
            "expression": "NEUTRE",
            "csv_id": 186,
            "video_name": "DIVERS_PARL_AD_05_0001"
        },
        {
            "name": "4191",
            "score": "0.957",
            "index": 29,
            "selectedWords": [
                "enthousiaste",
                "emball\u00e9e"
            ],
            "freeResponses": [],
            "nbPlayClick": 2,
            "expression": "ENTHOUSIASTE",
            "csv_id": 4191,
            "video_name": "DIVERS_BOOK_ENTHOUSIASTE_AD_01_0004"
        },
        {
            "name": "927",
            "score": "0.854",
            "index": 30,
            "selectedWords": [
                "certaine",
                "in\u00e9branlable"
            ],
            "freeResponses": [],
            "nbPlayClick": 2,
            "expression": "NEUTRE",
            "csv_id": 927,
            "video_name": "DIVERS_BOOK_AD_04_0002"
        },
        {
            "name": "7212",
            "score": "0.981",
            "index": 31,
            "selectedWords": [
                "contrari\u00e9e",
                "d\u00e9sol\u00e9e"
            ],
            "freeResponses": [],
            "nbPlayClick": 2,
            "expression": "NEUTRE",
            "csv_id": 7246,
            "video_name": "DIVERS_PARL_AD_01_0004"
        },
        {
            "name": "3953",
            "score": "0.953",
            "index": 32,
            "selectedWords": [
                "d\u00e9concert\u00e9e",
                "incr\u00e9dule"
            ],
            "freeResponses": [],
            "nbPlayClick": 2,
            "expression": "ETONNE",
            "csv_id": 3953,
            "video_name": "DIVERS_BOOK_ETONNE_AD_03_0001"
        },
        {
            "name": "10464",
            "score": "0.993",
            "index": 33,
            "selectedWords": [
                "neutre",
                "fade"
            ],
            "freeResponses": [],
            "nbPlayClick": 2,
            "expression": "NEUTRE",
            "csv_id": 10498,
            "video_name": "DIVERS_BOOK_AD_03_0001"
        },
        {
            "name": "4545",
            "score": "0.961",
            "index": 34,
            "selectedWords": [
                "d\u00e9termin\u00e9e",
                "convaincue"
            ],
            "freeResponses": [],
            "nbPlayClick": 1,
            "expression": "NEUTRE",
            "csv_id": 4579,
            "video_name": "DIVERS_PARL_AD_03_0003"
        },
        {
            "name": "8407",
            "score": "0.986",
            "index": 35,
            "selectedWords": [
                "d\u00e9sol\u00e9e",
                "abasourdie"
            ],
            "freeResponses": [],
            "nbPlayClick": 2,
            "expression": "DESOLE",
            "csv_id": 8441,
            "video_name": "DIVERS_PARL_DESOLE_AD_02_0002"
        },
        {
            "name": "10196",
            "score": "0.992",
            "index": 36,
            "selectedWords": [
                "accabl\u00e9e",
                "afflig\u00e9e"
            ],
            "freeResponses": [],
            "nbPlayClick": 2,
            "expression": "SUPPLIANT",
            "csv_id": 10230,
            "video_name": "DIVERS_BOOK_SUPPLIANT_AD_01_0002"
        },
        {
            "name": "4684",
            "score": "0.963",
            "index": 37,
            "selectedWords": [
                "absente",
                "confuse"
            ],
            "freeResponses": [],
            "nbPlayClick": 1,
            "expression": "PENSIF",
            "csv_id": 4718,
            "video_name": "DIVERS_BOOK_PENSIF_AD_03_0002"
        },
        {
            "name": "11666",
            "score": "0.996",
            "index": 38,
            "selectedWords": [
                "certaine",
                "convaincue"
            ],
            "freeResponses": [],
            "nbPlayClick": 2,
            "expression": "NEUTRE",
            "csv_id": 11703,
            "video_name": "DIVERS_BOOK_AD_03_0002"
        },
        {
            "name": "10560",
            "score": "0.993",
            "index": 39,
            "selectedWords": [
                "neutre",
                "fade"
            ],
            "freeResponses": [],
            "nbPlayClick": 2,
            "expression": "NEUTRE",
            "csv_id": 10594,
            "video_name": "DIVERS_PARL_AD_01_0004"
        },
        {
            "name": "12304",
            "score": "0.998",
            "index": 40,
            "selectedWords": [
                "d\u00e9cid\u00e9e",
                "convaincue"
            ],
            "freeResponses": [],
            "nbPlayClick": 2,
            "expression": "NEUTRE",
            "csv_id": 12341,
            "video_name": "DIVERS_BOOK_AD_01_0001"
        },
        {
            "name": "1338",
            "score": "0.883",
            "index": 41,
            "selectedWords": [
                "accabl\u00e9e",
                "contrari\u00e9e"
            ],
            "freeResponses": [],
            "nbPlayClick": 2,
            "expression": "DESOLE",
            "csv_id": 1338,
            "video_name": "DIVERS_BOOK_DESOLE_AD_03_0002"
        },
        {
            "name": "8652",
            "score": "0.987",
            "index": 42,
            "selectedWords": [
                "confuse",
                "emb\u00eat\u00e9e"
            ],
            "freeResponses": [],
            "nbPlayClick": 1,
            "expression": "PENSIF",
            "csv_id": 8686,
            "video_name": "DIVERS_BOOK_PENSIF_AD_03_0002"
        },
        {
            "name": "2391",
            "score": "0.924",
            "index": 43,
            "selectedWords": [
                "\u00e9vidente",
                "certaine"
            ],
            "freeResponses": [],
            "nbPlayClick": 2,
            "expression": "RECONFORTANT",
            "csv_id": 2391,
            "video_name": "DIVERS_BOOK_RECONFORTANT_AD_01_0004"
        },
        {
            "name": "4700",
            "score": "0.963",
            "index": 44,
            "selectedWords": [
                "\u00e9vidente",
                "incontestable"
            ],
            "freeResponses": [],
            "nbPlayClick": 2,
            "expression": "RECONFORTANT",
            "csv_id": 4734,
            "video_name": "DIVERS_PARL_RECONFORTANT_AD_02_0001"
        },
        {
            "name": "4621",
            "score": "0.962",
            "index": 45,
            "selectedWords": [
                "coquine",
                "espi\u00e8gle"
            ],
            "freeResponses": [],
            "nbPlayClick": 2,
            "expression": "ESPIEGLE",
            "csv_id": 4655,
            "video_name": "DIVERS_PARL_ESPIEGLE_AD_01_0001"
        },
        {
            "name": "10267",
            "score": "0.992",
            "index": 46,
            "selectedWords": [
                "neutre",
                "froide"
            ],
            "freeResponses": [],
            "nbPlayClick": 2,
            "expression": "NEUTRE",
            "csv_id": 10301,
            "video_name": "DIVERS_PARL_AD_06_0003"
        },
        {
            "name": "5961",
            "score": "0.974",
            "index": 47,
            "selectedWords": [
                "emb\u00eat\u00e9e",
                "incr\u00e9dule"
            ],
            "freeResponses": [],
            "nbPlayClick": 2,
            "expression": "ETONNE",
            "csv_id": 5995,
            "video_name": "DIVERS_PARL_ETONNE_AD_01_0001"
        },
        {
            "name": "4025",
            "score": "0.954",
            "index": 48,
            "selectedWords": [
                "d\u00e9termin\u00e9e",
                "r\u00e9solue"
            ],
            "freeResponses": [],
            "nbPlayClick": 1,
            "expression": "EVIDENCE",
            "csv_id": 4025,
            "video_name": "DIVERS_PARL_EVIDENCE_AD_01_0001"
        },
        {
            "name": "9186",
            "score": "0.989",
            "index": 49,
            "selectedWords": [
                "neutre",
                "fade"
            ],
            "freeResponses": [],
            "nbPlayClick": 1,
            "expression": "NEUTRE",
            "csv_id": 9220,
            "video_name": "DIVERS_BOOK_AD_01_0001"
        },
        {
            "name": "667",
            "score": "0.828",
            "index": 50,
            "selectedWords": [
                "enthousiaste",
                "convaincue"
            ],
            "freeResponses": [],
            "nbPlayClick": 2,
            "expression": "ENTHOUSIASTE",
            "csv_id": 667,
            "video_name": "DIVERS_PARL_ENTHOUSIASTE_AD_01_0003"
        },
        {
            "name": "12241",
            "score": "0.998",
            "index": 51,
            "selectedWords": [
                "neutre",
                "fade"
            ],
            "freeResponses": [],
            "nbPlayClick": 1,
            "expression": "NEUTRE",
            "csv_id": 12278,
            "video_name": "DIVERS_BOOK_AD_01_0001"
        },
        {
            "name": "2318",
            "score": "0.922",
            "index": 52,
            "selectedWords": [
                "incr\u00e9dule",
                "abasourdie"
            ],
            "freeResponses": [],
            "nbPlayClick": 1,
            "expression": "INCREDULE",
            "csv_id": 2318,
            "video_name": "DIVERS_PARL_INCREDULE_AD_01_0001"
        },
        {
            "name": "3685",
            "score": "0.950",
            "index": 53,
            "selectedWords": [
                "certaine",
                "r\u00e9fl\u00e9chie"
            ],
            "freeResponses": [],
            "nbPlayClick": 2,
            "expression": "NEUTRE",
            "csv_id": 3685,
            "video_name": "DIVERS_BOOK_AD_04_0002"
        },
        {
            "name": "7172",
            "score": "0.980",
            "index": 54,
            "selectedWords": [
                "inexpressive",
                "fade"
            ],
            "freeResponses": [],
            "nbPlayClick": 1,
            "expression": "NEUTRE",
            "csv_id": 7206,
            "video_name": "DIVERS_PARL_AD_03_0002"
        },
        {
            "name": "7216",
            "score": "0.981",
            "index": 55,
            "selectedWords": [
                "neutre",
                "fade"
            ],
            "freeResponses": [],
            "nbPlayClick": 1,
            "expression": "NEUTRE",
            "csv_id": 7250,
            "video_name": "DIVERS_BOOK_AD_04_0002"
        },
        {
            "name": "10851",
            "score": "0.994",
            "index": 56,
            "selectedWords": [
                "enthousiaste",
                "euphorique"
            ],
            "freeResponses": [],
            "nbPlayClick": 1,
            "expression": "ENTHOUSIASTE",
            "csv_id": 10885,
            "video_name": "DIVERS_BOOK_ENTHOUSIASTE_AD_01_0001"
        },
        {
            "name": "7123",
            "score": "0.980",
            "index": 57,
            "selectedWords": [
                "absente",
                "ennuy\u00e9e"
            ],
            "freeResponses": [],
            "nbPlayClick": 1,
            "expression": "PENSIF",
            "csv_id": 7157,
            "video_name": "DIVERS_PARL_PENSIF_AD_01_0002"
        },
        {
            "name": "9876",
            "score": "0.991",
            "index": 58,
            "selectedWords": [
                "certaine",
                "ferme"
            ],
            "freeResponses": [],
            "nbPlayClick": 2,
            "expression": "NEUTRE",
            "csv_id": 9910,
            "video_name": "DIVERS_PARL_AD_06_0003"
        },
        {
            "name": "2432",
            "score": "0.925",
            "index": 59,
            "selectedWords": [
                "d\u00e9pit\u00e9e",
                "d\u00e9courag\u00e9e"
            ],
            "freeResponses": [],
            "nbPlayClick": 1,
            "expression": "PENSIF",
            "csv_id": 2432,
            "video_name": "DIVERS_PARL_PENSIF_AD_01_0002"
        }
    ],
    "training": [
        {
            "name": "77",
            "score": "0.639",
            "index": 0,
            "selectedWords": [
                "neutre",
                "autre",
                "inexpressive"
            ],
            "freeResponses": [],
            "nbPlayClick": 2,
            "expression": "NEUTRE"
        }
    ],
    "filenameDate": "2023-08-30_15-34"
}