{
    "user": {
        "isProlific": true,
        "id": "5fbe7ab4ea05ba02da3d794c",
        "session": "64f1ab4c87050187ea607d39",
        "study": "64ef977375f88e4e1174dce0"
    },
    "userAgent": "Mozilla/5.0 (Windows NT 10.0; Win64; x64) AppleWebKit/537.36 (KHTML, like Gecko) Chrome/116.0.0.0 Safari/537.36",
    "landingDate": "2023-09-01T09:14:06.017Z",
    "startDate": "2023-09-01T09:16:31.483Z",
    "endDate": "2023-09-01T10:28:05.989Z",
    "reviews": [
        {
            "name": "7478",
            "score": "0.982",
            "index": 0,
            "selectedWords": [
                "ferme",
                "s\u00fbre"
            ],
            "freeResponses": [],
            "nbPlayClick": 1,
            "expression": "NEUTRE",
            "csv_id": 7512,
            "video_name": "DIVERS_PARL_AD_01_0001"
        },
        {
            "name": "6655",
            "score": "0.978",
            "index": 1,
            "selectedWords": [
                "enthousiaste",
                "neutre"
            ],
            "freeResponses": [],
            "nbPlayClick": 1,
            "expression": "RECONFORTANT",
            "csv_id": 6689,
            "video_name": "DIVERS_BOOK_RECONFORTANT_AD_01_0002"
        },
        {
            "name": "10805",
            "score": "0.994",
            "index": 2,
            "selectedWords": [
                "dubitative",
                "sinc\u00e8re"
            ],
            "freeResponses": [],
            "nbPlayClick": 3,
            "expression": "PENSIF",
            "csv_id": 10839,
            "video_name": "DIVERS_PARL_PENSIF_AD_01_0002"
        },
        {
            "name": "11550",
            "score": "0.996",
            "index": 3,
            "selectedWords": [
                "dubitative",
                "sceptique"
            ],
            "freeResponses": [],
            "nbPlayClick": 2,
            "response": "du",
            "expression": "PENSIF",
            "csv_id": 11587,
            "video_name": "DIVERS_BOOK_PENSIF_AD_01_0003"
        },
        {
            "name": "11197",
            "score": "0.995",
            "index": 4,
            "selectedWords": [
                "neutre",
                "infaillible"
            ],
            "freeResponses": [],
            "nbPlayClick": 1,
            "expression": "NEUTRE",
            "csv_id": 11231,
            "video_name": "DIVERS_BOOK_AD_03_0002"
        },
        {
            "name": "7108",
            "score": "0.980",
            "index": 5,
            "selectedWords": [
                "coquine",
                "enthousiaste"
            ],
            "freeResponses": [],
            "nbPlayClick": 2,
            "response": "coq",
            "expression": "ESPIEGLE",
            "csv_id": 7142,
            "video_name": "DIVERS_PARL_ESPIEGLE_AD_01_0001"
        },
        {
            "name": "10807",
            "score": "0.994",
            "index": 6,
            "selectedWords": [
                "en peine",
                "pein\u00e9e"
            ],
            "freeResponses": [],
            "nbPlayClick": 2,
            "expression": "NEUTRE",
            "csv_id": 10841,
            "video_name": "DIVERS_BOOK_AD_04_0002"
        },
        {
            "name": "5916",
            "score": "0.973",
            "index": 7,
            "selectedWords": [
                "en col\u00e8re",
                "incr\u00e9dule"
            ],
            "freeResponses": [],
            "nbPlayClick": 2,
            "expression": "SUPPLIANT",
            "csv_id": 5950,
            "video_name": "DIVERS_PARL_SUPPLIANT_AD_02_0001"
        },
        {
            "name": "9261",
            "score": "0.989",
            "index": 8,
            "selectedWords": [
                "d\u00e9termin\u00e9e",
                "d\u00e9cid\u00e9e"
            ],
            "freeResponses": [],
            "nbPlayClick": 1,
            "response": "d",
            "expression": "NEUTRE",
            "csv_id": 9295,
            "video_name": "DIVERS_PARL_AD_02_0002"
        },
        {
            "name": "5536",
            "score": "0.970",
            "index": 9,
            "selectedWords": [
                "apaisante",
                "neutre"
            ],
            "freeResponses": [],
            "nbPlayClick": 3,
            "expression": "DESOLE",
            "csv_id": 5570,
            "video_name": "DIVERS_PARL_DESOLE_AD_02_0002"
        },
        {
            "name": "1273",
            "score": "0.880",
            "index": 10,
            "selectedWords": [
                "abasourdie",
                "convaincue"
            ],
            "freeResponses": [],
            "nbPlayClick": 2,
            "expression": "NEUTRE",
            "csv_id": 1273,
            "video_name": "DIVERS_PARL_AD_05_0002"
        },
        {
            "name": "7615",
            "score": "0.983",
            "index": 11,
            "selectedWords": [
                "froide",
                "neutre"
            ],
            "freeResponses": [],
            "nbPlayClick": 1,
            "expression": "NEUTRE",
            "csv_id": 7649,
            "video_name": "DIVERS_BOOK_AD_03_0001"
        },
        {
            "name": "10626",
            "score": "0.993",
            "index": 12,
            "selectedWords": [
                "certaine",
                "convaincue"
            ],
            "freeResponses": [],
            "nbPlayClick": 1,
            "expression": "NEUTRE",
            "csv_id": 10660,
            "video_name": "DIVERS_BOOK_AD_04_0002"
        },
        {
            "name": "10618",
            "score": "0.993",
            "index": 13,
            "selectedWords": [
                "m\u00e9contente",
                "attrist\u00e9e"
            ],
            "freeResponses": [],
            "nbPlayClick": 1,
            "expression": "SUPPLIANT",
            "csv_id": 10652,
            "video_name": "DIVERS_BOOK_SUPPLIANT_AD_01_0002"
        },
        {
            "name": "10578",
            "score": "0.993",
            "index": 14,
            "selectedWords": [
                "convaincue",
                "certaine"
            ],
            "freeResponses": [],
            "nbPlayClick": 1,
            "expression": "NEUTRE",
            "csv_id": 10612,
            "video_name": "DIVERS_PARL_AD_05_0004"
        },
        {
            "name": "6189",
            "score": "0.975",
            "index": 15,
            "selectedWords": [
                "d\u00e9cid\u00e9e",
                "ferme"
            ],
            "freeResponses": [],
            "nbPlayClick": 4,
            "expression": "NEUTRE",
            "csv_id": 6223,
            "video_name": "DIVERS_PARL_AD_06_0002"
        },
        {
            "name": "1711",
            "score": "0.901",
            "index": 16,
            "selectedWords": [
                "attrist\u00e9e",
                "en peine"
            ],
            "freeResponses": [],
            "nbPlayClick": 1,
            "expression": "SUPPLIANT",
            "csv_id": 1711,
            "video_name": "DIVERS_PARL_SUPPLIANT_AD_02_0001"
        },
        {
            "name": "11361",
            "score": "0.995",
            "index": 17,
            "selectedWords": [
                "r\u00e9fl\u00e9chie",
                "r\u00e9fl\u00e9chissante"
            ],
            "freeResponses": [],
            "nbPlayClick": 2,
            "expression": "NEUTRE",
            "csv_id": 11395,
            "video_name": "DIVERS_BOOK_AD_03_0002"
        },
        {
            "name": "4688",
            "score": "0.963",
            "index": 18,
            "selectedWords": [
                "emball\u00e9e",
                "excit\u00e9e"
            ],
            "freeResponses": [],
            "nbPlayClick": 5,
            "expression": "ETONNE",
            "csv_id": 4722,
            "video_name": "DIVERS_BOOK_ETONNE_AD_03_0001"
        },
        {
            "name": "9166",
            "score": "0.989",
            "index": 19,
            "selectedWords": [
                "attrist\u00e9e",
                "d\u00e9termin\u00e9e"
            ],
            "freeResponses": [],
            "nbPlayClick": 1,
            "expression": "SUPPLIANT",
            "csv_id": 9200,
            "video_name": "DIVERS_PARL_SUPPLIANT_AD_02_0002"
        },
        {
            "name": "4854",
            "score": "0.964",
            "index": 20,
            "selectedWords": [
                "attrist\u00e9e",
                "effar\u00e9e"
            ],
            "freeResponses": [],
            "nbPlayClick": 1,
            "expression": "SUPPLIANT",
            "csv_id": 4888,
            "video_name": "DIVERS_PARL_SUPPLIANT_AD_02_0002"
        },
        {
            "name": "4912",
            "score": "0.965",
            "index": 21,
            "selectedWords": [
                "indign\u00e9e",
                "neutre"
            ],
            "freeResponses": [],
            "nbPlayClick": 1,
            "expression": "EVIDENCE",
            "csv_id": 4946,
            "video_name": "DIVERS_PARL_EVIDENCE_AD_01_0001"
        },
        {
            "name": "5746",
            "score": "0.972",
            "index": 22,
            "selectedWords": [
                "certaine",
                "consolatrice"
            ],
            "freeResponses": [],
            "nbPlayClick": 2,
            "expression": "DESOLE",
            "csv_id": 5780,
            "video_name": "DIVERS_PARL_DESOLE_AD_02_0002"
        },
        {
            "name": "7795",
            "score": "0.983",
            "index": 23,
            "selectedWords": [
                "euphorique",
                "notoire"
            ],
            "freeResponses": [],
            "nbPlayClick": 6,
            "expression": "INCREDULE",
            "csv_id": 7829,
            "video_name": "DIVERS_BOOK_INCREDULE_AD_01_0001"
        },
        {
            "name": "11404",
            "score": "0.995",
            "index": 24,
            "selectedWords": [
                "apaisante",
                "convaincue"
            ],
            "freeResponses": [],
            "nbPlayClick": 2,
            "expression": "NEUTRE",
            "csv_id": 11441,
            "video_name": "DIVERS_PARL_AD_03_0001"
        },
        {
            "name": "5087",
            "score": "0.967",
            "index": 25,
            "selectedWords": [
                "d\u00e9courag\u00e9e",
                "navr\u00e9e"
            ],
            "freeResponses": [],
            "nbPlayClick": 1,
            "expression": "DESOLE",
            "csv_id": 5121,
            "video_name": "DIVERS_BOOK_DESOLE_AD_03_0002"
        },
        {
            "name": "7614",
            "score": "0.983",
            "index": 26,
            "selectedWords": [
                "certaine",
                "d\u00e9termin\u00e9e"
            ],
            "freeResponses": [],
            "nbPlayClick": 2,
            "expression": "COLERE",
            "csv_id": 7648,
            "video_name": "DIVERS_PARL_COLERE_AD_01_0003"
        },
        {
            "name": "8933",
            "score": "0.988",
            "index": 27,
            "selectedWords": [
                "d\u00e9termin\u00e9e",
                "limpide"
            ],
            "freeResponses": [],
            "nbPlayClick": 1,
            "expression": "NEUTRE",
            "csv_id": 8967,
            "video_name": "DIVERS_BOOK_AD_04_0002"
        },
        {
            "name": "4139",
            "score": "0.956",
            "index": 28,
            "selectedWords": [
                "dubitative",
                "convaincue"
            ],
            "freeResponses": [],
            "nbPlayClick": 1,
            "expression": "NEUTRE",
            "csv_id": 4139,
            "video_name": "DIVERS_PARL_AD_04_0001"
        },
        {
            "name": "977",
            "score": "0.859",
            "index": 29,
            "selectedWords": [
                "neutre",
                "certaine"
            ],
            "freeResponses": [],
            "nbPlayClick": 4,
            "expression": "EVIDENCE",
            "csv_id": 977,
            "video_name": "DIVERS_PARL_EVIDENCE_AD_01_0001"
        },
        {
            "name": "9804",
            "score": "0.991",
            "index": 30,
            "selectedWords": [
                "convaincue",
                "indubitable"
            ],
            "freeResponses": [],
            "nbPlayClick": 1,
            "expression": "NEUTRE",
            "csv_id": 9838,
            "video_name": "DIVERS_PARL_AD_05_0003"
        },
        {
            "name": "6288",
            "score": "0.976",
            "index": 31,
            "selectedWords": [
                "bouillonnante",
                "contrari\u00e9e"
            ],
            "freeResponses": [],
            "nbPlayClick": 1,
            "expression": "COLERE",
            "csv_id": 6322,
            "video_name": "DIVERS_PARL_COLERE_AD_01_0003"
        },
        {
            "name": "4959",
            "score": "0.965",
            "index": 32,
            "selectedWords": [
                "enthousiaste",
                "perplexe"
            ],
            "freeResponses": [],
            "nbPlayClick": 1,
            "expression": "RECONFORTANT",
            "csv_id": 4993,
            "video_name": "DIVERS_BOOK_RECONFORTANT_AD_01_0004"
        },
        {
            "name": "10446",
            "score": "0.993",
            "index": 33,
            "selectedWords": [
                "coquine",
                "excit\u00e9e"
            ],
            "freeResponses": [],
            "nbPlayClick": 1,
            "expression": "ESPIEGLE",
            "csv_id": 10480,
            "video_name": "DIVERS_PARL_ESPIEGLE_AD_01_0001"
        },
        {
            "name": "11028",
            "score": "0.994",
            "index": 34,
            "selectedWords": [
                "d\u00e9termin\u00e9e",
                "ferme"
            ],
            "freeResponses": [],
            "nbPlayClick": 2,
            "response": "d",
            "expression": "NEUTRE",
            "csv_id": 11062,
            "video_name": "DIVERS_PARL_AD_02_0002"
        },
        {
            "name": "3131",
            "score": "0.941",
            "index": 35,
            "selectedWords": [
                "attrist\u00e9e",
                "larmoyante"
            ],
            "freeResponses": [],
            "nbPlayClick": 1,
            "response": "lar",
            "expression": "SUPPLIANT",
            "csv_id": 3131,
            "video_name": "ESTYLE_SUPPLIANT_AD_02_0001"
        },
        {
            "name": "9337",
            "score": "0.989",
            "index": 36,
            "selectedWords": [
                "ferme",
                "froide"
            ],
            "freeResponses": [],
            "nbPlayClick": 1,
            "expression": "NEUTRE",
            "csv_id": 9371,
            "video_name": "DIVERS_PARL_AD_01_0001"
        },
        {
            "name": "9359",
            "score": "0.989",
            "index": 37,
            "selectedWords": [
                "ferme",
                "tonique"
            ],
            "freeResponses": [],
            "nbPlayClick": 2,
            "response": "fe",
            "expression": "DESOLE",
            "csv_id": 9393,
            "video_name": "DIVERS_BOOK_DESOLE_AD_03_0002"
        },
        {
            "name": "5781",
            "score": "0.972",
            "index": 38,
            "selectedWords": [
                "neutre",
                "s\u00fbre"
            ],
            "freeResponses": [],
            "nbPlayClick": 2,
            "expression": "NEUTRE",
            "csv_id": 5815,
            "video_name": "DIVERS_BOOK_AD_03_0002"
        },
        {
            "name": "9429",
            "score": "0.990",
            "index": 39,
            "selectedWords": [
                "froide",
                "neutre"
            ],
            "freeResponses": [],
            "nbPlayClick": 2,
            "response": "fr",
            "expression": "PENSIF",
            "csv_id": 9463,
            "video_name": "DIVERS_PARL_PENSIF_AD_01_0002"
        },
        {
            "name": "9332",
            "score": "0.989",
            "index": 40,
            "selectedWords": [
                "attrist\u00e9e",
                "certaine"
            ],
            "freeResponses": [],
            "nbPlayClick": 1,
            "response": "cert",
            "expression": "SUPPLIANT",
            "csv_id": 9366,
            "video_name": "DIVERS_PARL_SUPPLIANT_AD_02_0001"
        },
        {
            "name": "11534",
            "score": "0.996",
            "index": 41,
            "selectedWords": [
                "dubitative",
                "intuitive"
            ],
            "freeResponses": [],
            "nbPlayClick": 1,
            "response": "du",
            "expression": "NEUTRE",
            "csv_id": 11571,
            "video_name": "DIVERS_PARL_AD_03_0001"
        },
        {
            "name": "6610",
            "score": "0.977",
            "index": 42,
            "selectedWords": [
                "coquine",
                "euphorique"
            ],
            "freeResponses": [],
            "nbPlayClick": 1,
            "response": "coq",
            "expression": "ESPIEGLE",
            "csv_id": 6644,
            "video_name": "DIVERS_PARL_ESPIEGLE_AD_01_0001"
        },
        {
            "name": "7265",
            "score": "0.981",
            "index": 43,
            "selectedWords": [
                "ardente",
                "neutre"
            ],
            "freeResponses": [],
            "nbPlayClick": 1,
            "expression": "ETONNE",
            "csv_id": 7299,
            "video_name": "DIVERS_BOOK_ETONNE_AD_01_0002"
        },
        {
            "name": "2651",
            "score": "0.930",
            "index": 44,
            "selectedWords": [
                "euphorique",
                "excit\u00e9e"
            ],
            "freeResponses": [],
            "nbPlayClick": 1,
            "expression": "INCREDULE",
            "csv_id": 2651,
            "video_name": "ESTYLE_INCREDULE_AD_02_0001"
        },
        {
            "name": "2264",
            "score": "0.920",
            "index": 45,
            "selectedWords": [
                "consolatrice",
                "convaincue"
            ],
            "freeResponses": [],
            "nbPlayClick": 1,
            "expression": "RECONFORTANT",
            "csv_id": 2264,
            "video_name": "DIVERS_PARL_RECONFORTANT_AD_02_0001"
        },
        {
            "name": "11136",
            "score": "0.995",
            "index": 46,
            "selectedWords": [
                "ferme",
                "terne"
            ],
            "freeResponses": [],
            "nbPlayClick": 1,
            "expression": "NEUTRE",
            "csv_id": 11170,
            "video_name": "DIVERS_PARL_AD_01_0006"
        },
        {
            "name": "7486",
            "score": "0.982",
            "index": 47,
            "selectedWords": [
                "limpide",
                "\u00e9loquente"
            ],
            "freeResponses": [],
            "nbPlayClick": 1,
            "expression": "NEUTRE",
            "csv_id": 7520,
            "video_name": "DIVERS_PARL_AD_06_0001"
        },
        {
            "name": "989",
            "score": "0.860",
            "index": 48,
            "selectedWords": [
                "d\u00e9termin\u00e9e",
                "neutre"
            ],
            "freeResponses": [],
            "nbPlayClick": 1,
            "response": "neu",
            "expression": "EVIDENCE",
            "csv_id": 989,
            "video_name": "DIVERS_BOOK_EVIDENCE_AD_01_0002"
        },
        {
            "name": "7392",
            "score": "0.981",
            "index": 49,
            "selectedWords": [
                "malicieuse",
                "maligne"
            ],
            "freeResponses": [],
            "nbPlayClick": 2,
            "response": "mali",
            "expression": "NEUTRE",
            "csv_id": 7426,
            "video_name": "DIVERS_BOOK_AD_01_0001"
        },
        {
            "name": "1250",
            "score": "0.878",
            "index": 50,
            "selectedWords": [
                "d\u00e9courag\u00e9e",
                "abasourdie"
            ],
            "freeResponses": [],
            "nbPlayClick": 2,
            "expression": "EVIDENCE",
            "csv_id": 1250,
            "video_name": "DIVERS_BOOK_EVIDENCE_AD_01_0002"
        },
        {
            "name": "11026",
            "score": "0.994",
            "index": 51,
            "selectedWords": [
                "pensive",
                "songeuse"
            ],
            "freeResponses": [],
            "nbPlayClick": 2,
            "response": "neu",
            "expression": "PENSIF",
            "csv_id": 11060,
            "video_name": "DIVERS_PARL_PENSIF_AD_01_0002"
        },
        {
            "name": "6570",
            "score": "0.977",
            "index": 52,
            "selectedWords": [
                "certaine",
                "s\u00fbre"
            ],
            "freeResponses": [],
            "nbPlayClick": 1,
            "response": "cert",
            "expression": "DESOLE",
            "csv_id": 6604,
            "video_name": "DIVERS_PARL_DESOLE_AD_01_0004"
        },
        {
            "name": "11777",
            "score": "0.996",
            "index": 53,
            "selectedWords": [
                "d\u00e9termin\u00e9e",
                "r\u00e9solue"
            ],
            "freeResponses": [],
            "nbPlayClick": 3,
            "response": "d",
            "expression": "NEUTRE",
            "csv_id": 11814,
            "video_name": "DIVERS_BOOK_AD_01_0001"
        },
        {
            "name": "1999",
            "score": "0.912",
            "index": 54,
            "selectedWords": [
                "neutre",
                "limpide"
            ],
            "freeResponses": [],
            "nbPlayClick": 1,
            "expression": "NEUTRE",
            "csv_id": 1999,
            "video_name": "DIVERS_BOOK_AD_04_0002"
        },
        {
            "name": "10840",
            "score": "0.994",
            "index": 55,
            "selectedWords": [
                "coquine",
                "autre",
                "autre",
                "autre",
                "autre",
                "maligne"
            ],
            "freeResponses": [],
            "nbPlayClick": 1,
            "expression": "ETONNE",
            "csv_id": 10874,
            "video_name": "DIVERS_PARL_ETONNE_AD_01_0001"
        },
        {
            "name": "9218",
            "score": "0.989",
            "index": 56,
            "selectedWords": [
                "neutre",
                "autre",
                "\u00e9berlu\u00e9e"
            ],
            "freeResponses": [],
            "nbPlayClick": 1,
            "expression": "NEUTRE",
            "csv_id": 9252,
            "video_name": "DIVERS_PARL_AD_02_0004"
        },
        {
            "name": "11140",
            "score": "0.995",
            "index": 57,
            "selectedWords": [
                "autre",
                "autre",
                "d\u00e9termin\u00e9e",
                "in\u00e9branlable"
            ],
            "freeResponses": [],
            "nbPlayClick": 3,
            "expression": "NEUTRE",
            "csv_id": 11174,
            "video_name": "DIVERS_BOOK_AD_03_0002"
        },
        {
            "name": "5210",
            "score": "0.968",
            "index": 58,
            "selectedWords": [
                "ferme",
                "terne"
            ],
            "freeResponses": [],
            "nbPlayClick": 1,
            "expression": "DETERMINE",
            "csv_id": 5244,
            "video_name": "DIVERS_PARL_DETERMINE_AD_01_0002"
        },
        {
            "name": "4298",
            "score": "0.958",
            "index": 59,
            "selectedWords": [
                "pensive",
                "songeuse"
            ],
            "freeResponses": [],
            "nbPlayClick": 1,
            "expression": "RECONFORTANT",
            "csv_id": 4298,
            "video_name": "DIVERS_PARL_RECONFORTANT_AD_02_0001"
        }
    ],
    "training": [
        {
            "name": "77",
            "score": "0.639",
            "index": 0,
            "selectedWords": [
                "d\u00e9termin\u00e9e",
                "autre",
                "autre",
                "autre",
                "autre",
                "autre",
                "autre",
                "autre",
                "autre",
                "\u00e9vidente"
            ],
            "freeResponses": [],
            "nbPlayClick": 2,
            "expression": "NEUTRE"
        }
    ],
    "filenameDate": "2023-09-01_20-28"
}