{
    "user": {
        "isProlific": true,
        "id": "5fc10a0a31a39e0a308b6194",
        "session": "654f4e4cb5ffd3ed99a691db",
        "study": "64ef977375f88e4e1174dce0"
    },
    "userAgent": "Mozilla/5.0 (Windows NT 10.0; Win64; x64; rv:109.0) Gecko/20100101 Firefox/117.0",
    "landingDate": "2023-11-11T09:50:43.510Z",
    "startDate": "2023-11-11T10:02:04.607Z",
    "endDate": "2023-11-11T11:50:51.343Z",
    "reviews": [
        {
            "name": "10284",
            "score": "0.992",
            "index": 0,
            "selectedWords": [
                "ennuy\u00e9e",
                "sceptique",
                "occup\u00e9e",
                "froide",
                "ferme",
                "irrit\u00e9e",
                "\u00e9vidente"
            ],
            "freeResponses": [],
            "nbPlayClick": 2,
            "response": "",
            "expression": "NEUTRE",
            "csv_id": 10318,
            "video_name": "DIVERS_PARL_AD_05_0002"
        },
        {
            "name": "8803",
            "score": "0.987",
            "index": 1,
            "selectedWords": [
                "afflig\u00e9e",
                "bouillonnante",
                "\u00e9nerv\u00e9e",
                "officielle",
                "s\u00fbre"
            ],
            "freeResponses": [],
            "nbPlayClick": 13,
            "expression": "DESOLE",
            "csv_id": 8837,
            "video_name": "DIVERS_PARL_DESOLE_AD_01_0004"
        },
        {
            "name": "1360",
            "score": "0.884",
            "index": 2,
            "selectedWords": [
                "\u00e9vidente",
                "autre",
                "autre",
                "ennuy\u00e9e",
                "contrari\u00e9e",
                "navr\u00e9e",
                "autre",
                "autre",
                "autre",
                "autre",
                "autre",
                "autre",
                "m\u00e9contente"
            ],
            "freeResponses": [],
            "nbPlayClick": 3,
            "expression": "EVIDENCE",
            "csv_id": 1360,
            "video_name": "DIVERS_PARL_EVIDENCE_AD_01_0001"
        },
        {
            "name": "10409",
            "score": "0.993",
            "index": 3,
            "selectedWords": [
                "en col\u00e8re",
                "irrit\u00e9e",
                "m\u00e9contente",
                "contrari\u00e9e",
                "autre",
                "autre",
                "autre",
                "autre",
                "ind\u00e9niable"
            ],
            "freeResponses": [],
            "nbPlayClick": 2,
            "expression": "NEUTRE",
            "csv_id": 10443,
            "video_name": "DIVERS_PARL_AD_02_0001"
        },
        {
            "name": "6279",
            "score": "0.976",
            "index": 4,
            "selectedWords": [
                "in\u00e9branlable",
                "certaine",
                "nette",
                "ferme",
                "autre",
                "autre",
                "autre",
                "autre",
                "enrag\u00e9e",
                "autre"
            ],
            "freeResponses": [],
            "nbPlayClick": 3,
            "expression": "EVIDENCE",
            "csv_id": 6313,
            "video_name": "DIVERS_PARL_EVIDENCE_AD_02_0002"
        },
        {
            "name": "3146",
            "score": "0.941",
            "index": 5,
            "selectedWords": [
                "pensive",
                "autre",
                "dubitative",
                "sceptique",
                "autre",
                "autre",
                "autre",
                "autre",
                "reconstituante",
                "pensante",
                "autre",
                "autre",
                "autre",
                "d\u00e9sorient\u00e9e"
            ],
            "freeResponses": [],
            "nbPlayClick": 1,
            "expression": "NEUTRE",
            "csv_id": 3146,
            "video_name": "DIVERS_PARL_AD_05_0001"
        },
        {
            "name": "6096",
            "score": "0.974",
            "index": 6,
            "selectedWords": [
                "espi\u00e8gle",
                "narquoise",
                "autre",
                "autre",
                "autre",
                "\u00e9bahie",
                "stup\u00e9faite",
                "\u00e9loquente",
                "autre",
                "euphorique",
                "emball\u00e9e",
                "transport\u00e9e"
            ],
            "freeResponses": [],
            "nbPlayClick": 3,
            "expression": "RECONFORTANT",
            "csv_id": 6130,
            "video_name": "DIVERS_BOOK_RECONFORTANT_AD_01_0004"
        },
        {
            "name": "10394",
            "score": "0.993",
            "index": 7,
            "selectedWords": [
                "pensive",
                "autre",
                "implorante",
                "autre",
                "autre",
                "autre",
                "d\u00e9sorient\u00e9e",
                "contrari\u00e9e",
                "emb\u00eat\u00e9e",
                "absente"
            ],
            "freeResponses": [],
            "nbPlayClick": 5,
            "expression": "NEUTRE",
            "csv_id": 10428,
            "video_name": "DIVERS_BOOK_AD_03_0002"
        },
        {
            "name": "7469",
            "score": "0.982",
            "index": 8,
            "selectedWords": [
                "d\u00e9sol\u00e9e",
                "autre",
                "autre",
                "consolante",
                "consolatrice",
                "pr\u00e9occup\u00e9e",
                "autre",
                "autre",
                "autre",
                "autre",
                "autre",
                "attrist\u00e9e",
                "emb\u00eat\u00e9e"
            ],
            "freeResponses": [],
            "nbPlayClick": 2,
            "expression": "DESOLE",
            "csv_id": 7503,
            "video_name": "DIVERS_PARL_DESOLE_AD_01_0004"
        },
        {
            "name": "6511",
            "score": "0.977",
            "index": 9,
            "selectedWords": [
                "d\u00e9termin\u00e9e",
                "r\u00e9solue",
                "autre",
                "imp\u00e9n\u00e9trable",
                "atone",
                "ferme",
                "autre",
                "autre",
                "autre",
                "incontestable"
            ],
            "freeResponses": [],
            "nbPlayClick": 4,
            "expression": "INCREDULE",
            "csv_id": 6545,
            "video_name": "DIVERS_PARL_INCREDULE_AD_02_0003"
        },
        {
            "name": "4720",
            "score": "0.963",
            "index": 10,
            "selectedWords": [
                "suppliante",
                "larmoyante",
                "autre",
                "\u00e9berlu\u00e9e",
                "abasourdie",
                "autre",
                "autre",
                "autre",
                "ind\u00e9niable",
                "autre",
                "attrist\u00e9e",
                "afflig\u00e9e",
                "pr\u00e9occup\u00e9e"
            ],
            "freeResponses": [],
            "nbPlayClick": 2,
            "expression": "SUPPLIANT",
            "csv_id": 4754,
            "video_name": "DIVERS_PARL_SUPPLIANT_AD_02_0001"
        },
        {
            "name": "8298",
            "score": "0.985",
            "index": 11,
            "selectedWords": [
                "d\u00e9termin\u00e9e",
                "autre",
                "autre",
                "autre",
                "autre",
                "in\u00e9branlable",
                "autre",
                "autre",
                "hargneuse",
                "irrit\u00e9e",
                "autre",
                "autre",
                "autre",
                "autre",
                "autre",
                "agressive"
            ],
            "freeResponses": [],
            "nbPlayClick": 3,
            "expression": "NEUTRE",
            "csv_id": 8332,
            "video_name": "DIVERS_PARL_AD_03_0003"
        },
        {
            "name": "1443",
            "score": "0.888",
            "index": 12,
            "selectedWords": [
                "d\u00e9termin\u00e9e",
                "r\u00e9solue",
                "\u00e9nergique",
                "\u00e9nerv\u00e9e",
                "hargneuse",
                "ferme",
                "autre",
                "autre",
                "autre",
                "autre",
                "autre",
                "ennuy\u00e9e"
            ],
            "freeResponses": [],
            "nbPlayClick": 1,
            "expression": "COLERE",
            "csv_id": 1443,
            "video_name": "DIVERS_PARL_COLERE_AD_01_0003"
        },
        {
            "name": "12273",
            "score": "0.998",
            "index": 13,
            "selectedWords": [
                "neutre",
                "autre",
                "imp\u00e9n\u00e9trable",
                "atone",
                "inexpressive",
                "autre"
            ],
            "freeResponses": [],
            "nbPlayClick": 1,
            "expression": "NEUTRE",
            "csv_id": 12310,
            "video_name": "DIVERS_PARL_AD_02_0002"
        },
        {
            "name": "3558",
            "score": "0.948",
            "index": 14,
            "selectedWords": [
                "enthousiaste",
                "espi\u00e8gle",
                "narquoise",
                "\u00e9loquente",
                "emball\u00e9e"
            ],
            "freeResponses": [],
            "nbPlayClick": 1,
            "expression": "ENTHOUSIASTE",
            "csv_id": 3558,
            "video_name": "DIVERS_PARL_ENTHOUSIASTE_AD_01_0003"
        },
        {
            "name": "8778",
            "score": "0.987",
            "index": 15,
            "selectedWords": [
                "enthousiaste",
                "tonique",
                "transport\u00e9e",
                "passionn\u00e9e",
                "exalt\u00e9e",
                "autre",
                "autre",
                "d\u00e9lur\u00e9e",
                "passionn\u00e9e",
                "prostern\u00e9e"
            ],
            "freeResponses": [],
            "nbPlayClick": 2,
            "expression": "RECONFORTANT",
            "csv_id": 8812,
            "video_name": "DIVERS_BOOK_RECONFORTANT_AD_01_0004"
        },
        {
            "name": "2472",
            "score": "0.926",
            "index": 16,
            "selectedWords": [
                "autre",
                "inexpressive",
                "autre",
                "autre",
                "autre",
                "autre",
                "ennuy\u00e9e",
                "officielle",
                "neutre",
                "sceptique"
            ],
            "freeResponses": [],
            "nbPlayClick": 2,
            "expression": "NEUTRE",
            "csv_id": 2472,
            "video_name": "DIVERS_BOOK_AD_01_0001"
        },
        {
            "name": "1757",
            "score": "0.903",
            "index": 17,
            "selectedWords": [
                "agressive",
                "certaine",
                "contrari\u00e9e",
                "fac\u00e9tieuse",
                "ferme",
                "manifeste",
                "m\u00e9contente",
                "narquoise",
                "nette",
                "s\u00fbre"
            ],
            "freeResponses": [],
            "nbPlayClick": 2,
            "expression": "NEUTRE",
            "csv_id": 1757,
            "video_name": "DIVERS_PARL_AD_06_0004"
        },
        {
            "name": "9045",
            "score": "0.988",
            "index": 18,
            "selectedWords": [
                "pensive",
                "\u00e9vidente",
                "dubitative",
                "m\u00e9fiante",
                "autre",
                "officielle",
                "sceptique"
            ],
            "freeResponses": [],
            "nbPlayClick": 4,
            "expression": "NEUTRE",
            "csv_id": 9079,
            "video_name": "DIVERS_PARL_AD_04_0003"
        },
        {
            "name": "6961",
            "score": "0.979",
            "index": 19,
            "selectedWords": [
                "enthousiaste",
                "tonique",
                "vivifiante",
                "encourageante",
                "convaincue",
                "emball\u00e9e",
                "exalt\u00e9e",
                "passionn\u00e9e"
            ],
            "freeResponses": [],
            "nbPlayClick": 1,
            "expression": "ENTHOUSIASTE",
            "csv_id": 6995,
            "video_name": "DIVERS_PARL_ENTHOUSIASTE_AD_02_0001"
        },
        {
            "name": "10837",
            "score": "0.994",
            "index": 20,
            "selectedWords": [
                "occup\u00e9e",
                "autre",
                "autre",
                "atone",
                "froide",
                "autre",
                "ennuy\u00e9e",
                "autre",
                "autre",
                "sceptique",
                "autre",
                "autre",
                "autre",
                "autre",
                "autre",
                "autre",
                "officielle"
            ],
            "freeResponses": [],
            "nbPlayClick": 1,
            "expression": "NEUTRE",
            "csv_id": 10871,
            "video_name": "DIVERS_PARL_AD_04_0002"
        },
        {
            "name": "842",
            "score": "0.847",
            "index": 21,
            "selectedWords": [
                "d\u00e9termin\u00e9e",
                "r\u00e9solue",
                "d\u00e9cid\u00e9e",
                "nette",
                "terne",
                "autre",
                "autre",
                "autre",
                "autre",
                "atone"
            ],
            "freeResponses": [],
            "nbPlayClick": 4,
            "expression": "INCREDULE",
            "csv_id": 842,
            "video_name": "DIVERS_BOOK_INCREDULE_AD_01_0001"
        },
        {
            "name": "11817",
            "score": "0.997",
            "index": 22,
            "selectedWords": [
                "bouillonnante",
                "agressive",
                "froide",
                "autre",
                "autre",
                "autre",
                "autre",
                "autre",
                "enrag\u00e9e",
                "irrit\u00e9e",
                "m\u00e9contente",
                "ferme"
            ],
            "freeResponses": [],
            "nbPlayClick": 6,
            "expression": "NEUTRE",
            "csv_id": 11854,
            "video_name": "DIVERS_PARL_AD_01_0005"
        },
        {
            "name": "4617",
            "score": "0.962",
            "index": 23,
            "selectedWords": [
                "\u00e9vidente",
                "irr\u00e9cusable",
                "s\u00fbre",
                "nette",
                "autre",
                "apaisante",
                "consolante",
                "autre",
                "autre"
            ],
            "freeResponses": [],
            "nbPlayClick": 5,
            "expression": "EVIDENCE",
            "csv_id": 4651,
            "video_name": "DIVERS_PARL_EVIDENCE_AD_01_0001"
        },
        {
            "name": "6932",
            "score": "0.979",
            "index": 24,
            "selectedWords": [
                "s\u00fbre",
                "certaine",
                "manifeste",
                "convaincue",
                "sinc\u00e8re",
                "autre",
                "autre",
                "consolante",
                "autre",
                "autre",
                "d\u00e9cid\u00e9e",
                "ferme",
                "rus\u00e9e"
            ],
            "freeResponses": [],
            "nbPlayClick": 3,
            "expression": "NEUTRE",
            "csv_id": 6966,
            "video_name": "DIVERS_PARL_AD_01_0004"
        },
        {
            "name": "6913",
            "score": "0.979",
            "index": 25,
            "selectedWords": [
                "incr\u00e9dule",
                "intuitive",
                "autre",
                "\u00e9berlu\u00e9e",
                "autre",
                "malicieuse",
                "narquoise",
                "rageuse",
                "autre"
            ],
            "freeResponses": [],
            "nbPlayClick": 1,
            "expression": "RECONFORTANT",
            "csv_id": 6947,
            "video_name": "DIVERS_BOOK_RECONFORTANT_AD_01_0004"
        },
        {
            "name": "6256",
            "score": "0.975",
            "index": 26,
            "selectedWords": [
                "d\u00e9termin\u00e9e",
                "manifeste",
                "convaincue",
                "s\u00fbre",
                "autre",
                "autre",
                "autre",
                "vivifiante",
                "encourageante",
                "\u00e9loquente"
            ],
            "freeResponses": [],
            "nbPlayClick": 1,
            "expression": "NEUTRE",
            "csv_id": 6290,
            "video_name": "DIVERS_PARL_AD_04_0002"
        },
        {
            "name": "7358",
            "score": "0.981",
            "index": 27,
            "selectedWords": [
                "neutre",
                "autre",
                "dubitative",
                "sceptique",
                "froide"
            ],
            "freeResponses": [],
            "nbPlayClick": 2,
            "expression": "NEUTRE",
            "csv_id": 7392,
            "video_name": "DIVERS_PARL_AD_02_0003"
        },
        {
            "name": "9425",
            "score": "0.990",
            "index": 28,
            "selectedWords": [
                "d\u00e9termin\u00e9e",
                "r\u00e9solue",
                "autre",
                "autre",
                "inexpressive",
                "froide",
                "autre",
                "ennuy\u00e9e",
                "autre",
                "ferme"
            ],
            "freeResponses": [],
            "nbPlayClick": 1,
            "response": "ferm",
            "expression": "NEUTRE",
            "csv_id": 9459,
            "video_name": "DIVERS_PARL_AD_05_0004"
        },
        {
            "name": "11265",
            "score": "0.995",
            "index": 29,
            "selectedWords": [
                "convaincue",
                "emball\u00e9e",
                "excit\u00e9e",
                "passionn\u00e9e",
                "euphorique",
                "autre",
                "autre",
                "r\u00eaveuse",
                "enthousiaste"
            ],
            "freeResponses": [],
            "nbPlayClick": 1,
            "expression": "ENTHOUSIASTE",
            "csv_id": 11299,
            "video_name": "DIVERS_BOOK_ENTHOUSIASTE_AD_01_0001"
        },
        {
            "name": "2073",
            "score": "0.914",
            "index": 30,
            "selectedWords": [
                "enthousiaste",
                "ardente",
                "convaincue"
            ],
            "freeResponses": [],
            "nbPlayClick": 2,
            "response": "convai",
            "expression": "DETERMINE",
            "csv_id": 2073,
            "video_name": "DIVERS_BOOK_DETERMINE_AD_03_0001"
        },
        {
            "name": "8816",
            "score": "0.988",
            "index": 31,
            "selectedWords": [
                "ennuy\u00e9e",
                "atone",
                "agressive",
                "froide"
            ],
            "freeResponses": [],
            "nbPlayClick": 3,
            "response": "",
            "expression": "NEUTRE",
            "csv_id": 8850,
            "video_name": "DIVERS_BOOK_AD_03_0002"
        },
        {
            "name": "12135",
            "score": "0.997",
            "index": 32,
            "selectedWords": [
                "neutre",
                "autre",
                "\u00e9loquente",
                "autre",
                "autre",
                "autre",
                "d\u00e9cid\u00e9e",
                "nette",
                "manifeste"
            ],
            "freeResponses": [],
            "nbPlayClick": 1,
            "response": "\u00e9lo",
            "expression": "NEUTRE",
            "csv_id": 12172,
            "video_name": "DIVERS_BOOK_AD_03_0002"
        },
        {
            "name": "9355",
            "score": "0.989",
            "index": 33,
            "selectedWords": [
                "agressive",
                "ardente",
                "en col\u00e8re",
                "en rogne"
            ],
            "freeResponses": [],
            "nbPlayClick": 1,
            "expression": "NEUTRE",
            "csv_id": 9389,
            "video_name": "DIVERS_PARL_AD_02_0004"
        },
        {
            "name": "3987",
            "score": "0.954",
            "index": 34,
            "selectedWords": [
                "suppliante",
                "implorante",
                "sinc\u00e8re",
                "passionn\u00e9e",
                "autre",
                "d\u00e9termin\u00e9e"
            ],
            "freeResponses": [],
            "nbPlayClick": 2,
            "response": "d\u00e9t",
            "expression": "NEUTRE",
            "csv_id": 3987,
            "video_name": "DIVERS_PARL_AD_05_0002"
        },
        {
            "name": "5358",
            "score": "0.969",
            "index": 35,
            "selectedWords": [
                "narquoise",
                "taquine",
                "espi\u00e8gle"
            ],
            "freeResponses": [],
            "nbPlayClick": 2,
            "response": "es",
            "expression": "ESPIEGLE",
            "csv_id": 5392,
            "video_name": "DIVERS_PARL_ESPIEGLE_AD_01_0001"
        },
        {
            "name": "9135",
            "score": "0.989",
            "index": 36,
            "selectedWords": [
                "agressive",
                "froide",
                "autre",
                "nette"
            ],
            "freeResponses": [],
            "nbPlayClick": 1,
            "response": "net",
            "expression": "NEUTRE",
            "csv_id": 9169,
            "video_name": "DIVERS_PARL_AD_03_0003"
        },
        {
            "name": "12040",
            "score": "0.997",
            "index": 37,
            "selectedWords": [
                "pensive",
                "m\u00e9ditative",
                "r\u00e9solue",
                "autre",
                "dubitative"
            ],
            "freeResponses": [],
            "nbPlayClick": 2,
            "expression": "NEUTRE",
            "csv_id": 12077,
            "video_name": "DIVERS_PARL_AD_01_0006"
        },
        {
            "name": "9437",
            "score": "0.990",
            "index": 38,
            "selectedWords": [
                "\u00e9vidente",
                "irr\u00e9cusable",
                "notoire",
                "ferme",
                "autre"
            ],
            "freeResponses": [],
            "nbPlayClick": 1,
            "expression": "NEUTRE",
            "csv_id": 9471,
            "video_name": "DIVERS_PARL_AD_06_0001"
        },
        {
            "name": "4818",
            "score": "0.964",
            "index": 39,
            "selectedWords": [
                "narquoise",
                "malicieuse",
                "autre"
            ],
            "freeResponses": [],
            "nbPlayClick": 1,
            "expression": "RECONFORTANT",
            "csv_id": 4852,
            "video_name": "DIVERS_PARL_RECONFORTANT_AD_02_0001"
        },
        {
            "name": "12383",
            "score": "0.999",
            "index": 40,
            "selectedWords": [
                "neutre",
                "autre",
                "atone",
                "dubitative",
                "autre",
                "ennuy\u00e9e"
            ],
            "freeResponses": [],
            "nbPlayClick": 2,
            "response": "ato",
            "expression": "NEUTRE",
            "csv_id": 12420,
            "video_name": "DIVERS_BOOK_AD_03_0001"
        },
        {
            "name": "8272",
            "score": "0.985",
            "index": 41,
            "selectedWords": [
                "espi\u00e8gle",
                "taquine",
                "tonique",
                "coquine"
            ],
            "freeResponses": [],
            "nbPlayClick": 1,
            "expression": "ESPIEGLE",
            "csv_id": 8306,
            "video_name": "DIVERS_PARL_ESPIEGLE_AD_01_0001"
        },
        {
            "name": "918",
            "score": "0.854",
            "index": 42,
            "selectedWords": [
                "enthousiaste",
                "euphorique",
                "exalt\u00e9e"
            ],
            "freeResponses": [],
            "nbPlayClick": 2,
            "expression": "ENTHOUSIASTE",
            "csv_id": 918,
            "video_name": "DIVERS_PARL_ENTHOUSIASTE_AD_01_0003"
        },
        {
            "name": "12147",
            "score": "0.997",
            "index": 43,
            "selectedWords": [
                "pensive",
                "r\u00eaveuse",
                "autre",
                "autre",
                "autre",
                "autre",
                "autre",
                "autre",
                "reconstituante",
                "pensante"
            ],
            "freeResponses": [],
            "nbPlayClick": 1,
            "expression": "PENSIF",
            "csv_id": 12184,
            "video_name": "DIVERS_BOOK_PENSIF_AD_01_0003"
        },
        {
            "name": "5171",
            "score": "0.967",
            "index": 44,
            "selectedWords": [
                "en col\u00e8re",
                "irrit\u00e9e",
                "narquoise"
            ],
            "freeResponses": [],
            "nbPlayClick": 1,
            "response": "narq",
            "expression": "COLERE",
            "csv_id": 5205,
            "video_name": "DIVERS_PARL_COLERE_AD_02_0002"
        },
        {
            "name": "10859",
            "score": "0.994",
            "index": 45,
            "selectedWords": [
                "pensive",
                "songeuse",
                "pensante",
                "encourageante"
            ],
            "freeResponses": [],
            "nbPlayClick": 1,
            "expression": "NEUTRE",
            "csv_id": 10893,
            "video_name": "DIVERS_PARL_AD_03_0001"
        },
        {
            "name": "7062",
            "score": "0.980",
            "index": 46,
            "selectedWords": [
                "\u00e9vidente",
                "irr\u00e9cusable",
                "certaine",
                "r\u00e9fl\u00e9chie"
            ],
            "freeResponses": [],
            "nbPlayClick": 1,
            "expression": "NEUTRE",
            "csv_id": 7096,
            "video_name": "DIVERS_PARL_AD_01_0004"
        },
        {
            "name": "12294",
            "score": "0.998",
            "index": 47,
            "selectedWords": [
                "absente",
                "autre",
                "autre",
                "atone"
            ],
            "freeResponses": [],
            "nbPlayClick": 1,
            "expression": "NEUTRE",
            "csv_id": 12331,
            "video_name": "DIVERS_PARL_AD_03_0001"
        },
        {
            "name": "8516",
            "score": "0.986",
            "index": 48,
            "selectedWords": [
                "autre",
                "autre",
                "autre",
                "autre",
                "autre",
                "autre",
                "autre",
                "autre",
                "autre",
                "autre",
                "officielle",
                "\u00e9loquente",
                "tonique"
            ],
            "freeResponses": [],
            "nbPlayClick": 1,
            "response": "toni",
            "expression": "NEUTRE",
            "csv_id": 8550,
            "video_name": "DIVERS_PARL_AD_04_0002"
        },
        {
            "name": "9889",
            "score": "0.991",
            "index": 49,
            "selectedWords": [
                "r\u00e9solue",
                "r\u00e9fl\u00e9chie",
                "nette",
                "ferme"
            ],
            "freeResponses": [],
            "nbPlayClick": 1,
            "response": "r\u00e9s",
            "expression": "NEUTRE",
            "csv_id": 9923,
            "video_name": "DIVERS_PARL_AD_02_0003"
        },
        {
            "name": "5343",
            "score": "0.969",
            "index": 50,
            "selectedWords": [
                "agressive",
                "ennuy\u00e9e",
                "froide",
                "narquoise"
            ],
            "freeResponses": [],
            "nbPlayClick": 2,
            "response": "nar",
            "expression": "NEUTRE",
            "csv_id": 5377,
            "video_name": "DIVERS_PARL_AD_06_0004"
        },
        {
            "name": "12245",
            "score": "0.998",
            "index": 51,
            "selectedWords": [
                "neutre",
                "notoire",
                "manifeste",
                "terne"
            ],
            "freeResponses": [],
            "nbPlayClick": 2,
            "response": "ter",
            "expression": "NEUTRE",
            "csv_id": 12282,
            "video_name": "DIVERS_PARL_AD_01_0005"
        },
        {
            "name": "10163",
            "score": "0.992",
            "index": 52,
            "selectedWords": [
                "agressive",
                "froide",
                "contrari\u00e9e"
            ],
            "freeResponses": [],
            "nbPlayClick": 2,
            "response": "",
            "expression": "NEUTRE",
            "csv_id": 10197,
            "video_name": "DIVERS_PARL_AD_01_0005"
        },
        {
            "name": "11205",
            "score": "0.995",
            "index": 53,
            "selectedWords": [
                "\u00e9vidente",
                "neutre",
                "autre",
                "d\u00e9sol\u00e9e"
            ],
            "freeResponses": [],
            "nbPlayClick": 2,
            "response": "d\u00e9s",
            "expression": "NEUTRE",
            "csv_id": 11239,
            "video_name": "DIVERS_BOOK_AD_01_0001"
        },
        {
            "name": "4895",
            "score": "0.965",
            "index": 54,
            "selectedWords": [
                "narquoise",
                "certaine",
                "d\u00e9termin\u00e9e",
                "malicieuse"
            ],
            "freeResponses": [],
            "nbPlayClick": 1,
            "response": "malic",
            "expression": "RECONFORTANT",
            "csv_id": 4929,
            "video_name": "DIVERS_BOOK_RECONFORTANT_AD_01_0004"
        },
        {
            "name": "11137",
            "score": "0.995",
            "index": 55,
            "selectedWords": [
                "ennuy\u00e9e",
                "froide",
                "ferme",
                "terne"
            ],
            "freeResponses": [],
            "nbPlayClick": 1,
            "response": "ter",
            "expression": "NEUTRE",
            "csv_id": 11171,
            "video_name": "DIVERS_PARL_AD_02_0004"
        },
        {
            "name": "12182",
            "score": "0.998",
            "index": 56,
            "selectedWords": [
                "d\u00e9termin\u00e9e",
                "agressive",
                "froide",
                "rageuse",
                "courrouc\u00e9e"
            ],
            "freeResponses": [],
            "nbPlayClick": 1,
            "response": "agre",
            "expression": "COLERE",
            "csv_id": 12219,
            "video_name": "DIVERS_PARL_COLERE_AD_01_0004"
        },
        {
            "name": "4642",
            "score": "0.962",
            "index": 57,
            "selectedWords": [
                "\u00e9vidente",
                "incontestable",
                "certaine"
            ],
            "freeResponses": [],
            "nbPlayClick": 2,
            "expression": "EVIDENCE",
            "csv_id": 4676,
            "video_name": "DIVERS_BOOK_EVIDENCE_AD_01_0002"
        },
        {
            "name": "8794",
            "score": "0.987",
            "index": 58,
            "selectedWords": [
                "d\u00e9termin\u00e9e",
                "manifeste",
                "convaincue"
            ],
            "freeResponses": [],
            "nbPlayClick": 1,
            "expression": "NEUTRE",
            "csv_id": 8828,
            "video_name": "DIVERS_PARL_AD_05_0004"
        },
        {
            "name": "10206",
            "score": "0.992",
            "index": 59,
            "selectedWords": [
                "\u00e9tonn\u00e9e",
                "h\u00e9b\u00e9t\u00e9e",
                "r\u00eaveuse"
            ],
            "freeResponses": [],
            "nbPlayClick": 1,
            "response": "r\u00ea",
            "expression": "ETONNE",
            "csv_id": 10240,
            "video_name": "DIVERS_BOOK_ETONNE_AD_01_0002"
        }
    ],
    "training": [
        {
            "name": "77",
            "score": "0.639",
            "index": 0,
            "selectedWords": [
                "inexpressive",
                "imp\u00e9n\u00e9trable",
                "ferme",
                "s\u00fbre"
            ],
            "freeResponses": [],
            "nbPlayClick": 37,
            "response": "s\u00fb",
            "expression": "NEUTRE"
        }
    ],
    "filenameDate": "2023-11-11_12-50"
}