{
    "user": {
        "isProlific": true,
        "id": "5fc6a65816726c35aa46666d",
        "session": "64fb6e261e6e62778dbb61aa",
        "study": "64ef977375f88e4e1174dce0"
    },
    "userAgent": "Mozilla/5.0 (Windows NT 10.0; Win64; x64) AppleWebKit/537.36 (KHTML, like Gecko) Chrome/116.0.0.0 Safari/537.36",
    "landingDate": "2023-09-08T18:56:36.278Z",
    "startDate": "2023-09-08T18:59:33.924Z",
    "endDate": "2023-09-08T20:10:12.492Z",
    "reviews": [
        {
            "name": "11188",
            "score": "0.995",
            "index": 0,
            "selectedWords": [
                "neutre",
                "limpide",
                "autre",
                "autre",
                "autre",
                "atone"
            ],
            "freeResponses": [],
            "nbPlayClick": 3,
            "expression": "NEUTRE",
            "csv_id": 11222,
            "video_name": "DIVERS_PARL_AD_01_0005"
        },
        {
            "name": "10829",
            "score": "0.994",
            "index": 1,
            "selectedWords": [
                "autre",
                "dubitative",
                "autre",
                "autre",
                "autre",
                "autre",
                "autre",
                "pensante"
            ],
            "freeResponses": [],
            "nbPlayClick": 2,
            "expression": "PENSIF",
            "csv_id": 10863,
            "video_name": "DIVERS_PARL_PENSIF_AD_01_0002"
        },
        {
            "name": "8059",
            "score": "0.984",
            "index": 2,
            "selectedWords": [
                "neutre",
                "tonique"
            ],
            "freeResponses": [],
            "nbPlayClick": 2,
            "expression": "NEUTRE",
            "csv_id": 8093,
            "video_name": "DIVERS_PARL_AD_01_0004"
        },
        {
            "name": "5226",
            "score": "0.968",
            "index": 3,
            "selectedWords": [
                "d\u00e9termin\u00e9e",
                "r\u00e9solue",
                "d\u00e9cid\u00e9e",
                "opini\u00e2tre"
            ],
            "freeResponses": [],
            "nbPlayClick": 1,
            "expression": "NEUTRE",
            "csv_id": 5260,
            "video_name": "DIVERS_PARL_AD_06_0002"
        },
        {
            "name": "11853",
            "score": "0.997",
            "index": 4,
            "selectedWords": [
                "enthousiaste",
                "tonique",
                "terne"
            ],
            "freeResponses": [],
            "nbPlayClick": 1,
            "expression": "NEUTRE",
            "csv_id": 11890,
            "video_name": "DIVERS_BOOK_AD_01_0001"
        },
        {
            "name": "4253",
            "score": "0.957",
            "index": 5,
            "selectedWords": [
                "en col\u00e8re",
                "irrit\u00e9e",
                "agit\u00e9e"
            ],
            "freeResponses": [],
            "nbPlayClick": 2,
            "expression": "ENTHOUSIASTE",
            "csv_id": 4253,
            "video_name": "DIVERS_PARL_ENTHOUSIASTE_AD_01_0003"
        },
        {
            "name": "11366",
            "score": "0.995",
            "index": 6,
            "selectedWords": [
                "enthousiaste",
                "triomphale"
            ],
            "freeResponses": [],
            "nbPlayClick": 3,
            "expression": "ENTHOUSIASTE",
            "csv_id": 11400,
            "video_name": "DIVERS_PARL_ENTHOUSIASTE_AD_02_0001"
        },
        {
            "name": "4990",
            "score": "0.966",
            "index": 7,
            "selectedWords": [
                "enthousiaste",
                "euphorique",
                "excit\u00e9e"
            ],
            "freeResponses": [],
            "nbPlayClick": 3,
            "expression": "ENTHOUSIASTE",
            "csv_id": 5024,
            "video_name": "DIVERS_BOOK_ENTHOUSIASTE_AD_01_0004"
        },
        {
            "name": "6904",
            "score": "0.979",
            "index": 8,
            "selectedWords": [
                "neutre",
                "limpide",
                "ardente"
            ],
            "freeResponses": [],
            "nbPlayClick": 2,
            "expression": "NEUTRE",
            "csv_id": 6938,
            "video_name": "DIVERS_PARL_AD_05_0002"
        },
        {
            "name": "7037",
            "score": "0.980",
            "index": 9,
            "selectedWords": [
                "neutre",
                "s\u00fbre",
                "nette"
            ],
            "freeResponses": [],
            "nbPlayClick": 1,
            "expression": "NEUTRE",
            "csv_id": 7071,
            "video_name": "DIVERS_BOOK_AD_01_0002"
        },
        {
            "name": "9338",
            "score": "0.989",
            "index": 10,
            "selectedWords": [
                "enthousiaste",
                "coquine"
            ],
            "freeResponses": [],
            "nbPlayClick": 2,
            "expression": "ENTHOUSIASTE",
            "csv_id": 9372,
            "video_name": "DIVERS_BOOK_ENTHOUSIASTE_AD_01_0001"
        },
        {
            "name": "9908",
            "score": "0.991",
            "index": 11,
            "selectedWords": [
                "\u00e9tonn\u00e9e",
                "autre",
                "implorante"
            ],
            "freeResponses": [],
            "nbPlayClick": 2,
            "expression": "SUPPLIANT",
            "csv_id": 9942,
            "video_name": "DIVERS_PARL_SUPPLIANT_AD_02_0001"
        },
        {
            "name": "8270",
            "score": "0.985",
            "index": 12,
            "selectedWords": [
                "neutre",
                "limpide",
                "officielle"
            ],
            "freeResponses": [],
            "nbPlayClick": 1,
            "expression": "NEUTRE",
            "csv_id": 8304,
            "video_name": "DIVERS_PARL_AD_05_0001"
        },
        {
            "name": "9536",
            "score": "0.990",
            "index": 13,
            "selectedWords": [
                "neutre",
                "s\u00fbre"
            ],
            "freeResponses": [],
            "nbPlayClick": 1,
            "expression": "NEUTRE",
            "csv_id": 9570,
            "video_name": "DIVERS_BOOK_AD_01_0001"
        },
        {
            "name": "11433",
            "score": "0.995",
            "index": 14,
            "selectedWords": [
                "neutre",
                "notoire",
                "ferme"
            ],
            "freeResponses": [],
            "nbPlayClick": 1,
            "expression": "NEUTRE",
            "csv_id": 11470,
            "video_name": "DIVERS_PARL_AD_04_0001"
        },
        {
            "name": "8070",
            "score": "0.985",
            "index": 15,
            "selectedWords": [
                "neutre",
                "limpide",
                "intuitive"
            ],
            "freeResponses": [],
            "nbPlayClick": 1,
            "expression": "NEUTRE",
            "csv_id": 8104,
            "video_name": "DIVERS_PARL_AD_01_0004"
        },
        {
            "name": "11018",
            "score": "0.994",
            "index": 16,
            "selectedWords": [
                "neutre",
                "limpide"
            ],
            "freeResponses": [],
            "nbPlayClick": 4,
            "expression": "NEUTRE",
            "csv_id": 11052,
            "video_name": "DIVERS_BOOK_AD_03_0001"
        },
        {
            "name": "1969",
            "score": "0.911",
            "index": 17,
            "selectedWords": [
                "\u00e9tonn\u00e9e",
                "autre",
                "dubitative"
            ],
            "freeResponses": [],
            "nbPlayClick": 2,
            "expression": "NEUTRE",
            "csv_id": 1969,
            "video_name": "DIVERS_PARL_AD_06_0001"
        },
        {
            "name": "11307",
            "score": "0.995",
            "index": 18,
            "selectedWords": [
                "neutre",
                "autre",
                "autre",
                "inexpressive"
            ],
            "freeResponses": [],
            "nbPlayClick": 1,
            "expression": "NEUTRE",
            "csv_id": 11341,
            "video_name": "DIVERS_PARL_AD_02_0003"
        },
        {
            "name": "9414",
            "score": "0.990",
            "index": 19,
            "selectedWords": [
                "\u00e9vidente",
                "prouv\u00e9e"
            ],
            "freeResponses": [],
            "nbPlayClick": 3,
            "expression": "SUPPLIANT",
            "csv_id": 9448,
            "video_name": "DIVERS_PARL_SUPPLIANT_AD_02_0001"
        },
        {
            "name": "4970",
            "score": "0.965",
            "index": 20,
            "selectedWords": [
                "autre",
                "dubitative",
                "autre",
                "atone"
            ],
            "freeResponses": [],
            "nbPlayClick": 1,
            "expression": "PENSIF",
            "csv_id": 5004,
            "video_name": "DIVERS_BOOK_PENSIF_AD_03_0002"
        },
        {
            "name": "10767",
            "score": "0.994",
            "index": 21,
            "selectedWords": [
                "autre",
                "autre",
                "apaisante",
                "stimulante"
            ],
            "freeResponses": [],
            "nbPlayClick": 2,
            "expression": "NEUTRE",
            "csv_id": 10801,
            "video_name": "DIVERS_BOOK_AD_01_0001"
        },
        {
            "name": "7719",
            "score": "0.983",
            "index": 22,
            "selectedWords": [
                "autre",
                "inexpressive",
                "terne"
            ],
            "freeResponses": [],
            "nbPlayClick": 1,
            "expression": "PENSIF",
            "csv_id": 7753,
            "video_name": "DIVERS_PARL_PENSIF_AD_01_0002"
        },
        {
            "name": "1314",
            "score": "0.882",
            "index": 23,
            "selectedWords": [
                "autre",
                "autre",
                "apaisante",
                "pensante"
            ],
            "freeResponses": [],
            "nbPlayClick": 2,
            "expression": "DESOLE",
            "csv_id": 1314,
            "video_name": "DIVERS_PARL_DESOLE_AD_01_0004"
        },
        {
            "name": "2552",
            "score": "0.928",
            "index": 24,
            "selectedWords": [
                "autre",
                "autre",
                "consolante",
                "autre",
                "autre",
                "enrag\u00e9e"
            ],
            "freeResponses": [],
            "nbPlayClick": 2,
            "expression": "RECONFORTANT",
            "csv_id": 2552,
            "video_name": "DIVERS_PARL_RECONFORTANT_AD_02_0001"
        },
        {
            "name": "6778",
            "score": "0.978",
            "index": 25,
            "selectedWords": [
                "autre",
                "autre",
                "apaisante",
                "pensante"
            ],
            "freeResponses": [],
            "nbPlayClick": 1,
            "expression": "RECONFORTANT",
            "csv_id": 6812,
            "video_name": "DIVERS_BOOK_RECONFORTANT_AD_03_0002"
        },
        {
            "name": "4229",
            "score": "0.957",
            "index": 26,
            "selectedWords": [
                "neutre",
                "certaine"
            ],
            "freeResponses": [],
            "nbPlayClick": 2,
            "expression": "NEUTRE",
            "csv_id": 4229,
            "video_name": "DIVERS_PARL_AD_03_0004"
        },
        {
            "name": "8946",
            "score": "0.988",
            "index": 27,
            "selectedWords": [
                "neutre",
                "limpide"
            ],
            "freeResponses": [],
            "nbPlayClick": 4,
            "expression": "NEUTRE",
            "csv_id": 8980,
            "video_name": "DIVERS_BOOK_AD_03_0001"
        },
        {
            "name": "11852",
            "score": "0.997",
            "index": 28,
            "selectedWords": [
                "autre",
                "autre",
                "autre",
                "vivifiante",
                "stimulante"
            ],
            "freeResponses": [],
            "nbPlayClick": 3,
            "expression": "ESPIEGLE",
            "csv_id": 11889,
            "video_name": "DIVERS_PARL_ESPIEGLE_AD_01_0001"
        },
        {
            "name": "6590",
            "score": "0.977",
            "index": 29,
            "selectedWords": [
                "neutre",
                "limpide",
                "officielle"
            ],
            "freeResponses": [],
            "nbPlayClick": 1,
            "expression": "NEUTRE",
            "csv_id": 6624,
            "video_name": "DIVERS_PARL_AD_06_0001"
        },
        {
            "name": "7194",
            "score": "0.981",
            "index": 30,
            "selectedWords": [
                "enthousiaste",
                "\u00e9loquente"
            ],
            "freeResponses": [],
            "nbPlayClick": 1,
            "expression": "EVIDENCE",
            "csv_id": 7228,
            "video_name": "DIVERS_PARL_EVIDENCE_AD_01_0001"
        },
        {
            "name": "2181",
            "score": "0.917",
            "index": 31,
            "selectedWords": [
                "\u00e9tonn\u00e9e",
                "nette",
                "ferme"
            ],
            "freeResponses": [],
            "nbPlayClick": 1,
            "expression": "NEUTRE",
            "csv_id": 2181,
            "video_name": "DIVERS_PARL_AD_05_0003"
        },
        {
            "name": "7639",
            "score": "0.983",
            "index": 32,
            "selectedWords": [
                "neutre",
                "patente"
            ],
            "freeResponses": [],
            "nbPlayClick": 1,
            "expression": "INCREDULE",
            "csv_id": 7673,
            "video_name": "DIVERS_PARL_INCREDULE_AD_02_0003"
        },
        {
            "name": "7114",
            "score": "0.980",
            "index": 33,
            "selectedWords": [
                "en col\u00e8re",
                "\u00e9nerv\u00e9e"
            ],
            "freeResponses": [],
            "nbPlayClick": 1,
            "expression": "NEUTRE",
            "csv_id": 7148,
            "video_name": "DIVERS_PARL_AD_06_0001"
        },
        {
            "name": "2643",
            "score": "0.930",
            "index": 34,
            "selectedWords": [
                "autre",
                "autre",
                "autre",
                "autre",
                "autre",
                "autre",
                "autre",
                "r\u00e9fl\u00e9chissante",
                "m\u00e9ditative"
            ],
            "freeResponses": [],
            "nbPlayClick": 2,
            "expression": "COLERE",
            "csv_id": 2643,
            "video_name": "DIVERS_PARL_COLERE_AD_02_0002"
        },
        {
            "name": "9584",
            "score": "0.990",
            "index": 35,
            "selectedWords": [
                "neutre",
                "certaine"
            ],
            "freeResponses": [],
            "nbPlayClick": 1,
            "expression": "PENSIF",
            "csv_id": 9618,
            "video_name": "DIVERS_PARL_PENSIF_AD_01_0002"
        },
        {
            "name": "7264",
            "score": "0.981",
            "index": 36,
            "selectedWords": [
                "\u00e9vidente",
                "patente",
                "certaine"
            ],
            "freeResponses": [],
            "nbPlayClick": 2,
            "expression": "NEUTRE",
            "csv_id": 7298,
            "video_name": "DIVERS_PARL_AD_03_0003"
        },
        {
            "name": "10918",
            "score": "0.994",
            "index": 37,
            "selectedWords": [
                "enthousiaste",
                "tonique",
                "notoire"
            ],
            "freeResponses": [],
            "nbPlayClick": 1,
            "expression": "SUPPLIANT",
            "csv_id": 10952,
            "video_name": "DIVERS_BOOK_SUPPLIANT_AD_01_0002"
        },
        {
            "name": "4567",
            "score": "0.961",
            "index": 38,
            "selectedWords": [
                "autre",
                "fac\u00e9tieuse",
                "mutine"
            ],
            "freeResponses": [],
            "nbPlayClick": 2,
            "expression": "EVIDENCE",
            "csv_id": 4601,
            "video_name": "DIVERS_BOOK_EVIDENCE_AD_01_0002"
        },
        {
            "name": "9852",
            "score": "0.991",
            "index": 39,
            "selectedWords": [
                "\u00e9tonn\u00e9e",
                "sinc\u00e8re",
                "ardente"
            ],
            "freeResponses": [],
            "nbPlayClick": 1,
            "expression": "DETERMINE",
            "csv_id": 9886,
            "video_name": "DIVERS_BOOK_DETERMINE_AD_03_0001"
        },
        {
            "name": "9025",
            "score": "0.988",
            "index": 40,
            "selectedWords": [
                "espi\u00e8gle",
                "autre",
                "in\u00e9branlable"
            ],
            "freeResponses": [],
            "nbPlayClick": 1,
            "expression": "NEUTRE",
            "csv_id": 9059,
            "video_name": "DIVERS_BOOK_AD_01_0002"
        },
        {
            "name": "3560",
            "score": "0.948",
            "index": 41,
            "selectedWords": [
                "incr\u00e9dule",
                "convaincue",
                "coquine"
            ],
            "freeResponses": [],
            "nbPlayClick": 2,
            "expression": "NEUTRE",
            "csv_id": 3560,
            "video_name": "DIVERS_BOOK_AD_03_0002"
        },
        {
            "name": "385",
            "score": "0.786",
            "index": 42,
            "selectedWords": [
                "neutre",
                "limpide",
                "froide"
            ],
            "freeResponses": [],
            "nbPlayClick": 1,
            "expression": "DESOLE",
            "csv_id": 385,
            "video_name": "DIVERS_BOOK_DESOLE_AD_03_0002"
        },
        {
            "name": "8922",
            "score": "0.988",
            "index": 43,
            "selectedWords": [
                "autre",
                "autre",
                "autre",
                "vivifiante",
                "stimulante"
            ],
            "freeResponses": [],
            "nbPlayClick": 2,
            "expression": "ESPIEGLE",
            "csv_id": 8956,
            "video_name": "DIVERS_BOOK_ESPIEGLE_AD_03_0001"
        },
        {
            "name": "10594",
            "score": "0.993",
            "index": 44,
            "selectedWords": [
                "neutre",
                "patente",
                "ind\u00e9niable"
            ],
            "freeResponses": [],
            "nbPlayClick": 1,
            "expression": "PENSIF",
            "csv_id": 10628,
            "video_name": "DIVERS_PARL_PENSIF_AD_01_0002"
        },
        {
            "name": "4964",
            "score": "0.965",
            "index": 45,
            "selectedWords": [
                "autre",
                "autre",
                "d\u00e9lur\u00e9e",
                "taquine"
            ],
            "freeResponses": [],
            "nbPlayClick": 3,
            "expression": "INCREDULE",
            "csv_id": 4998,
            "video_name": "DIVERS_BOOK_INCREDULE_AD_01_0001"
        },
        {
            "name": "10217",
            "score": "0.992",
            "index": 46,
            "selectedWords": [
                "enthousiaste",
                "triomphale",
                "excit\u00e9e"
            ],
            "freeResponses": [],
            "nbPlayClick": 1,
            "expression": "ESPIEGLE",
            "csv_id": 10251,
            "video_name": "DIVERS_BOOK_ESPIEGLE_AD_03_0001"
        },
        {
            "name": "9361",
            "score": "0.990",
            "index": 47,
            "selectedWords": [
                "\u00e9vidente",
                "indubitable"
            ],
            "freeResponses": [],
            "nbPlayClick": 1,
            "expression": "SUPPLIANT",
            "csv_id": 9395,
            "video_name": "DIVERS_PARL_SUPPLIANT_AD_02_0001"
        },
        {
            "name": "4630",
            "score": "0.962",
            "index": 48,
            "selectedWords": [
                "neutre",
                "patente"
            ],
            "freeResponses": [],
            "nbPlayClick": 2,
            "expression": "NEUTRE",
            "csv_id": 4664,
            "video_name": "DIVERS_PARL_AD_06_0002"
        },
        {
            "name": "3714",
            "score": "0.950",
            "index": 49,
            "selectedWords": [
                "pensive",
                "r\u00e9fl\u00e9chie"
            ],
            "freeResponses": [],
            "nbPlayClick": 1,
            "expression": "INCREDULE",
            "csv_id": 3714,
            "video_name": "DIVERS_BOOK_INCREDULE_AD_01_0001"
        },
        {
            "name": "1485",
            "score": "0.890",
            "index": 50,
            "selectedWords": [
                "neutre",
                "certaine"
            ],
            "freeResponses": [],
            "nbPlayClick": 2,
            "expression": "ETONNE",
            "csv_id": 1485,
            "video_name": "DIVERS_BOOK_ETONNE_AD_01_0004"
        },
        {
            "name": "5704",
            "score": "0.972",
            "index": 51,
            "selectedWords": [
                "neutre",
                "limpide",
                "intuitive"
            ],
            "freeResponses": [],
            "nbPlayClick": 1,
            "expression": "NEUTRE",
            "csv_id": 5738,
            "video_name": "DIVERS_PARL_AD_02_0001"
        },
        {
            "name": "9697",
            "score": "0.991",
            "index": 52,
            "selectedWords": [
                "\u00e9vidente",
                "autre",
                "autre",
                "\u00e9bahie"
            ],
            "freeResponses": [],
            "nbPlayClick": 2,
            "expression": "NEUTRE",
            "csv_id": 9731,
            "video_name": "DIVERS_PARL_AD_02_0003"
        },
        {
            "name": "4081",
            "score": "0.955",
            "index": 53,
            "selectedWords": [
                "\u00e9tonn\u00e9e",
                "rageuse"
            ],
            "freeResponses": [],
            "nbPlayClick": 1,
            "expression": "ETONNE",
            "csv_id": 4081,
            "video_name": "DIVERS_BOOK_ETONNE_AD_01_0004"
        },
        {
            "name": "10713",
            "score": "0.994",
            "index": 54,
            "selectedWords": [
                "\u00e9tonn\u00e9e",
                "nette"
            ],
            "freeResponses": [],
            "nbPlayClick": 1,
            "expression": "NEUTRE",
            "csv_id": 10747,
            "video_name": "DIVERS_PARL_AD_06_0004"
        },
        {
            "name": "4769",
            "score": "0.964",
            "index": 55,
            "selectedWords": [
                "neutre",
                "certaine"
            ],
            "freeResponses": [],
            "nbPlayClick": 1,
            "expression": "NEUTRE",
            "csv_id": 4803,
            "video_name": "DIVERS_BOOK_AD_03_0002"
        },
        {
            "name": "11953",
            "score": "0.997",
            "index": 56,
            "selectedWords": [
                "neutre",
                "s\u00fbre"
            ],
            "freeResponses": [],
            "nbPlayClick": 1,
            "expression": "NEUTRE",
            "csv_id": 11990,
            "video_name": "DIVERS_PARL_AD_02_0001"
        },
        {
            "name": "4645",
            "score": "0.962",
            "index": 57,
            "selectedWords": [
                "neutre",
                "limpide"
            ],
            "freeResponses": [],
            "nbPlayClick": 1,
            "expression": "NEUTRE",
            "csv_id": 4679,
            "video_name": "DIVERS_PARL_AD_05_0004"
        },
        {
            "name": "4792",
            "score": "0.964",
            "index": 58,
            "selectedWords": [
                "neutre",
                "s\u00fbre"
            ],
            "freeResponses": [],
            "nbPlayClick": 1,
            "expression": "DETERMINE",
            "csv_id": 4826,
            "video_name": "DIVERS_PARL_DETERMINE_AD_01_0002"
        },
        {
            "name": "1142",
            "score": "0.871",
            "index": 59,
            "selectedWords": [
                "enthousiaste",
                "tonique"
            ],
            "freeResponses": [],
            "nbPlayClick": 1,
            "expression": "RECONFORTANT",
            "csv_id": 1142,
            "video_name": "DIVERS_BOOK_RECONFORTANT_AD_03_0002"
        }
    ],
    "training": [
        {
            "name": "77",
            "score": "0.639",
            "index": 0,
            "selectedWords": [
                "neutre",
                "certaine",
                "nette"
            ],
            "freeResponses": [],
            "nbPlayClick": 3,
            "expression": "NEUTRE"
        }
    ],
    "filenameDate": "2023-09-08_22-10"
}