{
    "user": {
        "isProlific": true,
        "id": "5fd95188fb7c30215f20465c",
        "session": "659437389b4e5046d3de7043",
        "study": "64ef977375f88e4e1174dce0"
    },
    "userAgent": "Mozilla/5.0 (Macintosh; Intel Mac OS X 10.15; rv:120.0) Gecko/20100101 Firefox/120.0",
    "landingDate": "2024-01-02T16:19:49.483Z",
    "startDate": "2024-01-02T16:22:33.688Z",
    "endDate": "2024-01-02T17:09:49.387Z",
    "reviews": [
        {
            "name": "2555",
            "score": "0.928",
            "index": 0,
            "selectedWords": [
                "autre",
                "tonique"
            ],
            "freeResponses": [
                "agac\u00e9e"
            ],
            "nbPlayClick": 1,
            "response": "",
            "expression": "EVIDENCE",
            "csv_id": 2555,
            "video_name": "DIVERS_PARL_EVIDENCE_AD_01_0001"
        },
        {
            "name": "4545",
            "score": "0.961",
            "index": 1,
            "selectedWords": [
                "convaincue",
                "narquoise"
            ],
            "freeResponses": [],
            "nbPlayClick": 1,
            "response": "",
            "expression": "NEUTRE",
            "csv_id": 4579,
            "video_name": "DIVERS_PARL_AD_03_0003"
        },
        {
            "name": "7535",
            "score": "0.982",
            "index": 2,
            "selectedWords": [
                "narquoise",
                "incr\u00e9dule"
            ],
            "freeResponses": [],
            "nbPlayClick": 4,
            "response": "nar",
            "expression": "INCREDULE",
            "csv_id": 7569,
            "video_name": "DIVERS_BOOK_INCREDULE_AD_01_0001"
        },
        {
            "name": "7758",
            "score": "0.983",
            "index": 3,
            "selectedWords": [
                "neutre",
                "autre",
                "inexpressive"
            ],
            "freeResponses": [],
            "nbPlayClick": 2,
            "expression": "NEUTRE",
            "csv_id": 7792,
            "video_name": "DIVERS_PARL_AD_05_0001"
        },
        {
            "name": "3061",
            "score": "0.939",
            "index": 4,
            "selectedWords": [
                "dubitative",
                "pensive",
                "autre"
            ],
            "freeResponses": [],
            "nbPlayClick": 2,
            "response": "pens",
            "expression": "PENSIF",
            "csv_id": 3061,
            "video_name": "DIVERS_PARL_PENSIF_AD_01_0002"
        },
        {
            "name": "1271",
            "score": "0.879",
            "index": 5,
            "selectedWords": [
                "r\u00e9confortante",
                "consolatrice",
                "autre"
            ],
            "freeResponses": [],
            "nbPlayClick": 1,
            "expression": "RECONFORTANT",
            "csv_id": 1271,
            "video_name": "DIVERS_PARL_RECONFORTANT_AD_02_0001"
        },
        {
            "name": "3228",
            "score": "0.942",
            "index": 6,
            "selectedWords": [
                "narquoise",
                "s\u00fbre"
            ],
            "freeResponses": [],
            "nbPlayClick": 1,
            "expression": "PENSIF",
            "csv_id": 3228,
            "video_name": "DIVERS_BOOK_PENSIF_AD_03_0002"
        },
        {
            "name": "6412",
            "score": "0.976",
            "index": 7,
            "selectedWords": [
                "irrit\u00e9e",
                "afflig\u00e9e"
            ],
            "freeResponses": [],
            "nbPlayClick": 2,
            "expression": "INCREDULE",
            "csv_id": 6446,
            "video_name": "DIVERS_BOOK_INCREDULE_AD_01_0001"
        },
        {
            "name": "10060",
            "score": "0.992",
            "index": 8,
            "selectedWords": [
                "certaine",
                "ferme"
            ],
            "freeResponses": [],
            "nbPlayClick": 1,
            "expression": "NEUTRE",
            "csv_id": 10094,
            "video_name": "DIVERS_PARL_AD_04_0003"
        },
        {
            "name": "12142",
            "score": "0.997",
            "index": 9,
            "selectedWords": [
                "neutre",
                "s\u00fbre"
            ],
            "freeResponses": [],
            "nbPlayClick": 2,
            "expression": "NEUTRE",
            "csv_id": 12179,
            "video_name": "DIVERS_PARL_AD_02_0004"
        },
        {
            "name": "11786",
            "score": "0.996",
            "index": 10,
            "selectedWords": [
                "s\u00fbre",
                "neutre"
            ],
            "freeResponses": [],
            "nbPlayClick": 1,
            "response": "neu",
            "expression": "NEUTRE",
            "csv_id": 11823,
            "video_name": "DIVERS_PARL_AD_05_0002"
        },
        {
            "name": "10221",
            "score": "0.992",
            "index": 11,
            "selectedWords": [
                "certaine",
                "convaincue"
            ],
            "freeResponses": [],
            "nbPlayClick": 1,
            "response": "cert",
            "expression": "NEUTRE",
            "csv_id": 10255,
            "video_name": "DIVERS_PARL_AD_02_0002"
        },
        {
            "name": "7281",
            "score": "0.981",
            "index": 12,
            "selectedWords": [
                "enthousiaste",
                "autre",
                "emball\u00e9e"
            ],
            "freeResponses": [],
            "nbPlayClick": 1,
            "response": "ent",
            "expression": "ENTHOUSIASTE",
            "csv_id": 7315,
            "video_name": "DIVERS_PARL_ENTHOUSIASTE_AD_02_0001"
        },
        {
            "name": "11164",
            "score": "0.995",
            "index": 13,
            "selectedWords": [
                "neutre",
                "inexpressive"
            ],
            "freeResponses": [],
            "nbPlayClick": 1,
            "response": "inex",
            "expression": "NEUTRE",
            "csv_id": 11198,
            "video_name": "DIVERS_BOOK_AD_01_0002"
        },
        {
            "name": "7562",
            "score": "0.982",
            "index": 14,
            "selectedWords": [
                "fac\u00e9tieuse",
                "malicieuse"
            ],
            "freeResponses": [],
            "nbPlayClick": 1,
            "expression": "RECONFORTANT",
            "csv_id": 7596,
            "video_name": "DIVERS_BOOK_RECONFORTANT_AD_01_0004"
        },
        {
            "name": "5811",
            "score": "0.973",
            "index": 15,
            "selectedWords": [
                "enthousiaste",
                "tonique"
            ],
            "freeResponses": [],
            "nbPlayClick": 1,
            "expression": "ENTHOUSIASTE",
            "csv_id": 5845,
            "video_name": "DIVERS_PARL_ENTHOUSIASTE_AD_01_0003"
        },
        {
            "name": "10322",
            "score": "0.993",
            "index": 16,
            "selectedWords": [
                "courrouc\u00e9e",
                "ferme"
            ],
            "freeResponses": [],
            "nbPlayClick": 1,
            "expression": "COLERE",
            "csv_id": 10356,
            "video_name": "DIVERS_PARL_COLERE_AD_01_0004"
        },
        {
            "name": "692",
            "score": "0.830",
            "index": 17,
            "selectedWords": [
                "afflig\u00e9e",
                "autre",
                "ind\u00e9niable"
            ],
            "freeResponses": [],
            "nbPlayClick": 2,
            "expression": "SUPPLIANT",
            "csv_id": 692,
            "video_name": "DIVERS_PARL_SUPPLIANT_AD_02_0002"
        },
        {
            "name": "9431",
            "score": "0.990",
            "index": 18,
            "selectedWords": [
                "neutre",
                "inexpressive"
            ],
            "freeResponses": [],
            "nbPlayClick": 2,
            "response": "inex",
            "expression": "NEUTRE",
            "csv_id": 9465,
            "video_name": "DIVERS_BOOK_AD_01_0002"
        },
        {
            "name": "6904",
            "score": "0.979",
            "index": 19,
            "selectedWords": [
                "certaine",
                "s\u00fbre"
            ],
            "freeResponses": [],
            "nbPlayClick": 1,
            "response": "",
            "expression": "NEUTRE",
            "csv_id": 6938,
            "video_name": "DIVERS_PARL_AD_05_0002"
        },
        {
            "name": "1819",
            "score": "0.906",
            "index": 20,
            "selectedWords": [
                "narquoise",
                "finaude"
            ],
            "freeResponses": [],
            "nbPlayClick": 1,
            "response": "nar",
            "expression": "ENTHOUSIASTE",
            "csv_id": 1819,
            "video_name": "DIVERS_PARL_ENTHOUSIASTE_AD_01_0003"
        },
        {
            "name": "8779",
            "score": "0.987",
            "index": 21,
            "selectedWords": [
                "courrouc\u00e9e",
                "m\u00e9contente"
            ],
            "freeResponses": [],
            "nbPlayClick": 1,
            "expression": "COLERE",
            "csv_id": 8813,
            "video_name": "DIVERS_PARL_COLERE_AD_01_0003"
        },
        {
            "name": "7344",
            "score": "0.981",
            "index": 22,
            "selectedWords": [
                "z\u00e9l\u00e9e"
            ],
            "freeResponses": [
                "hautaine"
            ],
            "nbPlayClick": 1,
            "response": "hautaine",
            "expression": "SUPPLIANT",
            "csv_id": 7378,
            "video_name": "DIVERS_BOOK_SUPPLIANT_AD_01_0004"
        },
        {
            "name": "788",
            "score": "0.841",
            "index": 23,
            "selectedWords": [
                "malicieuse",
                "taquine"
            ],
            "freeResponses": [],
            "nbPlayClick": 1,
            "response": "mali",
            "expression": "ENTHOUSIASTE",
            "csv_id": 788,
            "video_name": "DIVERS_PARL_ENTHOUSIASTE_AD_01_0003"
        },
        {
            "name": "7181",
            "score": "0.980",
            "index": 24,
            "selectedWords": [
                "enthousiaste",
                "tonique"
            ],
            "freeResponses": [],
            "nbPlayClick": 1,
            "response": "ent",
            "expression": "ENTHOUSIASTE",
            "csv_id": 7215,
            "video_name": "DIVERS_BOOK_ENTHOUSIASTE_AD_01_0001"
        },
        {
            "name": "6138",
            "score": "0.975",
            "index": 25,
            "selectedWords": [
                "inexpressive",
                "fade"
            ],
            "freeResponses": [],
            "nbPlayClick": 2,
            "response": "inex",
            "expression": "NEUTRE",
            "csv_id": 6172,
            "video_name": "DIVERS_PARL_AD_04_0003"
        },
        {
            "name": "11905",
            "score": "0.997",
            "index": 26,
            "selectedWords": [
                "fade",
                "atone"
            ],
            "freeResponses": [],
            "nbPlayClick": 1,
            "response": "ato",
            "expression": "NEUTRE",
            "csv_id": 11942,
            "video_name": "DIVERS_PARL_AD_05_0004"
        },
        {
            "name": "5939",
            "score": "0.973",
            "index": 27,
            "selectedWords": [
                "enthousiaste",
                "tonique"
            ],
            "freeResponses": [],
            "nbPlayClick": 1,
            "expression": "ENTHOUSIASTE",
            "csv_id": 5973,
            "video_name": "DIVERS_BOOK_ENTHOUSIASTE_AD_01_0001"
        },
        {
            "name": "6380",
            "score": "0.976",
            "index": 28,
            "selectedWords": [
                "d\u00e9termin\u00e9e",
                "ferme"
            ],
            "freeResponses": [],
            "nbPlayClick": 1,
            "response": "d\u00e9t",
            "expression": "NEUTRE",
            "csv_id": 6414,
            "video_name": "DIVERS_PARL_AD_01_0004"
        },
        {
            "name": "9435",
            "score": "0.990",
            "index": 29,
            "selectedWords": [
                "inexpressive",
                "neutre"
            ],
            "freeResponses": [],
            "nbPlayClick": 2,
            "response": "neu",
            "expression": "NEUTRE",
            "csv_id": 9469,
            "video_name": "DIVERS_PARL_AD_02_0002"
        },
        {
            "name": "619",
            "score": "0.823",
            "index": 30,
            "selectedWords": [
                "narquoise",
                "ennuy\u00e9e"
            ],
            "freeResponses": [],
            "nbPlayClick": 2,
            "expression": "DESOLE",
            "csv_id": 619,
            "video_name": "DIVERS_PARL_DESOLE_AD_02_0002"
        },
        {
            "name": "11773",
            "score": "0.996",
            "index": 31,
            "selectedWords": [
                "convaincue",
                "sinc\u00e8re"
            ],
            "freeResponses": [],
            "nbPlayClick": 2,
            "expression": "NEUTRE",
            "csv_id": 11810,
            "video_name": "DIVERS_PARL_AD_02_0004"
        },
        {
            "name": "2592",
            "score": "0.929",
            "index": 32,
            "selectedWords": [
                "irrit\u00e9e",
                "dubitative"
            ],
            "freeResponses": [],
            "nbPlayClick": 1,
            "response": "irr",
            "expression": "EVIDENCE",
            "csv_id": 2592,
            "video_name": "DIVERS_PARL_EVIDENCE_AD_01_0001"
        },
        {
            "name": "6974",
            "score": "0.979",
            "index": 33,
            "selectedWords": [
                "courrouc\u00e9e",
                "certaine"
            ],
            "freeResponses": [],
            "nbPlayClick": 2,
            "expression": "NEUTRE",
            "csv_id": 7008,
            "video_name": "DIVERS_PARL_AD_06_0001"
        },
        {
            "name": "10760",
            "score": "0.994",
            "index": 34,
            "selectedWords": [
                "neutre",
                "inexpressive"
            ],
            "freeResponses": [],
            "nbPlayClick": 1,
            "response": "ine",
            "expression": "NEUTRE",
            "csv_id": 10794,
            "video_name": "DIVERS_BOOK_AD_04_0001"
        },
        {
            "name": "2008",
            "score": "0.912",
            "index": 35,
            "selectedWords": [
                "\u00e9tonn\u00e9e"
            ],
            "freeResponses": [
                "agac\u00e9e"
            ],
            "nbPlayClick": 2,
            "response": "\u00e9t",
            "expression": "EVIDENCE",
            "csv_id": 2008,
            "video_name": "DIVERS_PARL_EVIDENCE_AD_02_0002"
        },
        {
            "name": "10675",
            "score": "0.994",
            "index": 36,
            "selectedWords": [
                "certaine",
                "s\u00fbre"
            ],
            "freeResponses": [],
            "nbPlayClick": 1,
            "response": "cert",
            "expression": "NEUTRE",
            "csv_id": 10709,
            "video_name": "DIVERS_PARL_AD_01_0006"
        },
        {
            "name": "2216",
            "score": "0.918",
            "index": 37,
            "selectedWords": [
                "encourageante",
                "r\u00e9confortante"
            ],
            "freeResponses": [],
            "nbPlayClick": 1,
            "expression": "RECONFORTANT",
            "csv_id": 2216,
            "video_name": "DIVERS_PARL_RECONFORTANT_AD_02_0001"
        },
        {
            "name": "12014",
            "score": "0.997",
            "index": 38,
            "selectedWords": [
                "convaincue"
            ],
            "freeResponses": [
                "hautaine"
            ],
            "nbPlayClick": 2,
            "response": "hautaine",
            "expression": "NEUTRE",
            "csv_id": 12051,
            "video_name": "DIVERS_BOOK_AD_04_0001"
        },
        {
            "name": "3124",
            "score": "0.941",
            "index": 39,
            "selectedWords": [
                "narquoise",
                "fac\u00e9tieuse"
            ],
            "freeResponses": [],
            "nbPlayClick": 1,
            "response": "nar",
            "expression": "ESPIEGLE",
            "csv_id": 3124,
            "video_name": "DIVERS_PARL_ESPIEGLE_AD_01_0001"
        },
        {
            "name": "7187",
            "score": "0.980",
            "index": 40,
            "selectedWords": [
                "certaine",
                "contrari\u00e9e"
            ],
            "freeResponses": [],
            "nbPlayClick": 1,
            "response": "cert",
            "expression": "NEUTRE",
            "csv_id": 7221,
            "video_name": "DIVERS_PARL_AD_02_0004"
        },
        {
            "name": "1370",
            "score": "0.884",
            "index": 41,
            "selectedWords": [
                "d\u00e9cid\u00e9e"
            ],
            "freeResponses": [
                "impatiente"
            ],
            "nbPlayClick": 1,
            "response": "impatiente",
            "expression": "EVIDENCE",
            "csv_id": 1370,
            "video_name": "DIVERS_PARL_EVIDENCE_AD_01_0001"
        },
        {
            "name": "4388",
            "score": "0.959",
            "index": 42,
            "selectedWords": [
                "courrouc\u00e9e",
                "irrit\u00e9e"
            ],
            "freeResponses": [],
            "nbPlayClick": 1,
            "expression": "NEUTRE",
            "csv_id": 4388,
            "video_name": "DIVERS_PARL_AD_01_0005"
        },
        {
            "name": "3091",
            "score": "0.940",
            "index": 43,
            "selectedWords": [
                "neutre",
                "inexpressive"
            ],
            "freeResponses": [],
            "nbPlayClick": 2,
            "response": "ine",
            "expression": "NEUTRE",
            "csv_id": 3091,
            "video_name": "DIVERS_PARL_AD_01_0004"
        },
        {
            "name": "5654",
            "score": "0.971",
            "index": 44,
            "selectedWords": [
                "certaine",
                "opini\u00e2tre"
            ],
            "freeResponses": [],
            "nbPlayClick": 1,
            "response": "cert",
            "expression": "NEUTRE",
            "csv_id": 5688,
            "video_name": "DIVERS_PARL_AD_06_0002"
        },
        {
            "name": "10104",
            "score": "0.992",
            "index": 45,
            "selectedWords": [
                "ennuy\u00e9e",
                "inexpressive"
            ],
            "freeResponses": [],
            "nbPlayClick": 2,
            "response": "inex",
            "expression": "NEUTRE",
            "csv_id": 10138,
            "video_name": "DIVERS_BOOK_AD_03_0001"
        },
        {
            "name": "9807",
            "score": "0.991",
            "index": 46,
            "selectedWords": [
                "tonique"
            ],
            "freeResponses": [
                "press\u00e9e"
            ],
            "nbPlayClick": 1,
            "response": "press\u00e9e",
            "expression": "DETERMINE",
            "csv_id": 9841,
            "video_name": "DIVERS_PARL_DETERMINE_AD_01_0004"
        },
        {
            "name": "11609",
            "score": "0.996",
            "index": 47,
            "selectedWords": [
                "certaine",
                "implorante"
            ],
            "freeResponses": [],
            "nbPlayClick": 1,
            "response": "cert",
            "expression": "SUPPLIANT",
            "csv_id": 11646,
            "video_name": "DIVERS_PARL_SUPPLIANT_AD_02_0002"
        },
        {
            "name": "6255",
            "score": "0.975",
            "index": 48,
            "selectedWords": [
                "dubitative",
                "m\u00e9fiante"
            ],
            "freeResponses": [],
            "nbPlayClick": 1,
            "response": "dub",
            "expression": "NEUTRE",
            "csv_id": 6289,
            "video_name": "DIVERS_PARL_AD_04_0004"
        },
        {
            "name": "9429",
            "score": "0.990",
            "index": 49,
            "selectedWords": [
                "incr\u00e9dule",
                "atone"
            ],
            "freeResponses": [],
            "nbPlayClick": 1,
            "expression": "PENSIF",
            "csv_id": 9463,
            "video_name": "DIVERS_PARL_PENSIF_AD_01_0002"
        },
        {
            "name": "12088",
            "score": "0.997",
            "index": 50,
            "selectedWords": [
                "neutre",
                "autre",
                "inexpressive"
            ],
            "freeResponses": [],
            "nbPlayClick": 1,
            "expression": "NEUTRE",
            "csv_id": 12125,
            "video_name": "DIVERS_BOOK_AD_01_0002"
        },
        {
            "name": "9712",
            "score": "0.991",
            "index": 51,
            "selectedWords": [
                "narquoise",
                "afflig\u00e9e"
            ],
            "freeResponses": [],
            "nbPlayClick": 1,
            "response": "narqu",
            "expression": "NEUTRE",
            "csv_id": 9746,
            "video_name": "DIVERS_PARL_AD_04_0001"
        },
        {
            "name": "5104",
            "score": "0.967",
            "index": 52,
            "selectedWords": [
                "inexpressive",
                "terne"
            ],
            "freeResponses": [],
            "nbPlayClick": 1,
            "expression": "DESOLE",
            "csv_id": 5138,
            "video_name": "DIVERS_PARL_DESOLE_AD_01_0004"
        },
        {
            "name": "9108",
            "score": "0.989",
            "index": 53,
            "selectedWords": [
                "incr\u00e9dule",
                "indiscutable"
            ],
            "freeResponses": [],
            "nbPlayClick": 3,
            "expression": "NEUTRE",
            "csv_id": 9142,
            "video_name": "DIVERS_BOOK_AD_03_0001"
        },
        {
            "name": "3289",
            "score": "0.943",
            "index": 54,
            "selectedWords": [
                "afflig\u00e9e",
                "navr\u00e9e"
            ],
            "freeResponses": [],
            "nbPlayClick": 1,
            "response": "nav",
            "expression": "RECONFORTANT",
            "csv_id": 3289,
            "video_name": "DIVERS_PARL_RECONFORTANT_AD_02_0001"
        },
        {
            "name": "4076",
            "score": "0.955",
            "index": 55,
            "selectedWords": [
                "neutre",
                "s\u00fbre"
            ],
            "freeResponses": [],
            "nbPlayClick": 1,
            "expression": "NEUTRE",
            "csv_id": 4076,
            "video_name": "DIVERS_PARL_AD_04_0002"
        },
        {
            "name": "6099",
            "score": "0.974",
            "index": 56,
            "selectedWords": [
                "autre",
                "imp\u00e9n\u00e9trable",
                "inexpressive"
            ],
            "freeResponses": [],
            "nbPlayClick": 2,
            "response": "inex",
            "expression": "DESOLE",
            "csv_id": 6133,
            "video_name": "DIVERS_BOOK_DESOLE_AD_03_0002"
        },
        {
            "name": "10001",
            "score": "0.992",
            "index": 57,
            "selectedWords": [
                "narquoise",
                "emball\u00e9e"
            ],
            "freeResponses": [],
            "nbPlayClick": 1,
            "response": "nar",
            "expression": "ESPIEGLE",
            "csv_id": 10035,
            "video_name": "DIVERS_BOOK_ESPIEGLE_AD_03_0001"
        },
        {
            "name": "12269",
            "score": "0.998",
            "index": 58,
            "selectedWords": [
                "afflig\u00e9e",
                "s\u00fbre"
            ],
            "freeResponses": [],
            "nbPlayClick": 1,
            "expression": "NEUTRE",
            "csv_id": 12306,
            "video_name": "DIVERS_PARL_AD_02_0003"
        },
        {
            "name": "4926",
            "score": "0.965",
            "index": 59,
            "selectedWords": [
                "certaine",
                "d\u00e9termin\u00e9e"
            ],
            "freeResponses": [],
            "nbPlayClick": 1,
            "response": "cert",
            "expression": "NEUTRE",
            "csv_id": 4960,
            "video_name": "DIVERS_PARL_AD_05_0003"
        }
    ],
    "training": [
        {
            "name": "77",
            "score": "0.639",
            "index": 0,
            "selectedWords": [
                "autre",
                "inexpressive",
                "neutre"
            ],
            "freeResponses": [],
            "nbPlayClick": 2,
            "expression": "NEUTRE"
        }
    ],
    "filenameDate": "2024-01-02_18-9"
}