{
    "user": {
        "isProlific": true,
        "id": "5ff5c418427939071226d204",
        "session": "64f067688fb0ae17bf073efb",
        "study": "64ef977375f88e4e1174dce0"
    },
    "userAgent": "Mozilla/5.0 (Windows NT 10.0; Win64; x64) AppleWebKit/537.36 (KHTML, like Gecko) Chrome/116.0.0.0 Safari/537.36 Edg/116.0.1938.62",
    "landingDate": "2023-08-31T10:12:08.973Z",
    "startDate": "2023-08-31T10:13:33.909Z",
    "endDate": "2023-08-31T10:52:51.419Z",
    "reviews": [
        {
            "name": "10726",
            "score": "0.994",
            "index": 0,
            "selectedWords": [
                "espi\u00e8gle",
                "malicieuse",
                "maligne"
            ],
            "freeResponses": [],
            "nbPlayClick": 1,
            "expression": "ESPIEGLE",
            "csv_id": 10760,
            "video_name": "DIVERS_PARL_ESPIEGLE_AD_01_0001"
        },
        {
            "name": "2698",
            "score": "0.932",
            "index": 1,
            "selectedWords": [
                "d\u00e9sol\u00e9e",
                "fade",
                "d\u00e9pit\u00e9e"
            ],
            "freeResponses": [],
            "nbPlayClick": 1,
            "expression": "DESOLE",
            "csv_id": 2698,
            "video_name": "DIVERS_PARL_DESOLE_AD_02_0002"
        },
        {
            "name": "4764",
            "score": "0.964",
            "index": 2,
            "selectedWords": [
                "neutre",
                "autre",
                "autre",
                "inexpressive"
            ],
            "freeResponses": [],
            "nbPlayClick": 1,
            "expression": "NEUTRE",
            "csv_id": 4798,
            "video_name": "DIVERS_BOOK_AD_03_0001"
        },
        {
            "name": "11750",
            "score": "0.996",
            "index": 3,
            "selectedWords": [
                "autre",
                "autre",
                "\u00e9bahie",
                "autre",
                "autre",
                "autre",
                "autre",
                "autre",
                "autre",
                "d\u00e9cid\u00e9e"
            ],
            "freeResponses": [],
            "nbPlayClick": 2,
            "expression": "NEUTRE",
            "csv_id": 11787,
            "video_name": "DIVERS_BOOK_AD_03_0002"
        },
        {
            "name": "6311",
            "score": "0.976",
            "index": 4,
            "selectedWords": [
                "\u00e9tonn\u00e9e",
                "interloqu\u00e9e"
            ],
            "freeResponses": [],
            "nbPlayClick": 1,
            "expression": "ETONNE",
            "csv_id": 6345,
            "video_name": "DIVERS_BOOK_ETONNE_AD_01_0002"
        },
        {
            "name": "10194",
            "score": "0.992",
            "index": 5,
            "selectedWords": [
                "neutre",
                "autre",
                "autre",
                "inexpressive"
            ],
            "freeResponses": [],
            "nbPlayClick": 1,
            "expression": "NEUTRE",
            "csv_id": 10228,
            "video_name": "DIVERS_BOOK_AD_01_0001"
        },
        {
            "name": "5006",
            "score": "0.966",
            "index": 6,
            "selectedWords": [
                "d\u00e9termin\u00e9e",
                "r\u00e9solue",
                "\u00e9nergique"
            ],
            "freeResponses": [],
            "nbPlayClick": 1,
            "expression": "NEUTRE",
            "csv_id": 5040,
            "video_name": "DIVERS_PARL_AD_01_0006"
        },
        {
            "name": "2763",
            "score": "0.933",
            "index": 7,
            "selectedWords": [
                "autre",
                "inexpressive",
                "fade",
                "absente"
            ],
            "freeResponses": [],
            "nbPlayClick": 2,
            "expression": "NEUTRE",
            "csv_id": 2763,
            "video_name": "DIVERS_PARL_AD_03_0001"
        },
        {
            "name": "11785",
            "score": "0.996",
            "index": 8,
            "selectedWords": [
                "d\u00e9termin\u00e9e",
                "r\u00e9solue",
                "passionn\u00e9e",
                "bouillonnante"
            ],
            "freeResponses": [],
            "nbPlayClick": 2,
            "expression": "DETERMINE",
            "csv_id": 11822,
            "video_name": "DIVERS_PARL_DETERMINE_AD_01_0004"
        },
        {
            "name": "5836",
            "score": "0.973",
            "index": 9,
            "selectedWords": [
                "neutre",
                "autre",
                "autre",
                "inexpressive"
            ],
            "freeResponses": [],
            "nbPlayClick": 1,
            "expression": "NEUTRE",
            "csv_id": 5870,
            "video_name": "DIVERS_PARL_AD_06_0001"
        },
        {
            "name": "1788",
            "score": "0.904",
            "index": 10,
            "selectedWords": [
                "neutre",
                "s\u00fbre",
                "nette"
            ],
            "freeResponses": [],
            "nbPlayClick": 1,
            "expression": "NEUTRE",
            "csv_id": 1788,
            "video_name": "DIVERS_PARL_AD_01_0000"
        },
        {
            "name": "11915",
            "score": "0.997",
            "index": 11,
            "selectedWords": [
                "\u00e9tonn\u00e9e",
                "autre",
                "\u00e9berlu\u00e9e"
            ],
            "freeResponses": [],
            "nbPlayClick": 1,
            "expression": "ETONNE",
            "csv_id": 11952,
            "video_name": "DIVERS_PARL_ETONNE_AD_01_0001"
        },
        {
            "name": "308",
            "score": "0.766",
            "index": 12,
            "selectedWords": [
                "autre",
                "autre",
                "autre",
                "autre",
                "ennuy\u00e9e",
                "contrari\u00e9e"
            ],
            "freeResponses": [],
            "nbPlayClick": 1,
            "expression": "COLERE",
            "csv_id": 308,
            "video_name": "DIVERS_PARL_COLERE_AD_01_0003"
        },
        {
            "name": "9051",
            "score": "0.988",
            "index": 13,
            "selectedWords": [
                "enthousiaste",
                "euphorique",
                "exalt\u00e9e",
                "triomphale"
            ],
            "freeResponses": [],
            "nbPlayClick": 1,
            "response": "tromphante",
            "expression": "ENTHOUSIASTE",
            "csv_id": 9085,
            "video_name": "DIVERS_PARL_ENTHOUSIASTE_AD_02_0001"
        },
        {
            "name": "1843",
            "score": "0.906",
            "index": 14,
            "selectedWords": [
                "\u00e9vidente",
                "prouv\u00e9e",
                "s\u00fbre"
            ],
            "freeResponses": [],
            "nbPlayClick": 1,
            "expression": "NEUTRE",
            "csv_id": 1843,
            "video_name": "DIVERS_PARL_AD_02_0001"
        },
        {
            "name": "11595",
            "score": "0.996",
            "index": 15,
            "selectedWords": [
                "\u00e9vidente",
                "irr\u00e9cusable",
                "in\u00e9branlable"
            ],
            "freeResponses": [],
            "nbPlayClick": 1,
            "expression": "NEUTRE",
            "csv_id": 11632,
            "video_name": "DIVERS_PARL_AD_02_0004"
        },
        {
            "name": "918",
            "score": "0.854",
            "index": 16,
            "selectedWords": [
                "enthousiaste",
                "tonique"
            ],
            "freeResponses": [],
            "nbPlayClick": 1,
            "expression": "ENTHOUSIASTE",
            "csv_id": 918,
            "video_name": "DIVERS_PARL_ENTHOUSIASTE_AD_01_0003"
        },
        {
            "name": "6828",
            "score": "0.979",
            "index": 17,
            "selectedWords": [
                "espi\u00e8gle",
                "narquoise"
            ],
            "freeResponses": [],
            "nbPlayClick": 1,
            "expression": "INCREDULE",
            "csv_id": 6862,
            "video_name": "DIVERS_PARL_INCREDULE_AD_01_0001"
        },
        {
            "name": "1410",
            "score": "0.886",
            "index": 18,
            "selectedWords": [
                "\u00e9vidente",
                "manifeste",
                "r\u00e9fl\u00e9chie"
            ],
            "freeResponses": [],
            "nbPlayClick": 1,
            "expression": "DETERMINE",
            "csv_id": 1410,
            "video_name": "DIVERS_PARL_DETERMINE_AD_01_0002"
        },
        {
            "name": "11441",
            "score": "0.995",
            "index": 19,
            "selectedWords": [
                "autre",
                "dubitative",
                "sceptique"
            ],
            "freeResponses": [],
            "nbPlayClick": 1,
            "expression": "NEUTRE",
            "csv_id": 11478,
            "video_name": "DIVERS_PARL_AD_01_0006"
        },
        {
            "name": "11682",
            "score": "0.996",
            "index": 20,
            "selectedWords": [
                "neutre",
                "certaine",
                "manifeste"
            ],
            "freeResponses": [],
            "nbPlayClick": 1,
            "expression": "NEUTRE",
            "csv_id": 11719,
            "video_name": "DIVERS_PARL_AD_02_0001"
        },
        {
            "name": "10286",
            "score": "0.992",
            "index": 21,
            "selectedWords": [
                "neutre",
                "autre",
                "autre",
                "inexpressive"
            ],
            "freeResponses": [],
            "nbPlayClick": 1,
            "expression": "NEUTRE",
            "csv_id": 10320,
            "video_name": "DIVERS_PARL_AD_04_0001"
        },
        {
            "name": "4435",
            "score": "0.960",
            "index": 22,
            "selectedWords": [
                "d\u00e9termin\u00e9e",
                "r\u00e9solue"
            ],
            "freeResponses": [],
            "nbPlayClick": 1,
            "expression": "NEUTRE",
            "csv_id": 4469,
            "video_name": "DIVERS_PARL_AD_05_0003"
        },
        {
            "name": "11602",
            "score": "0.996",
            "index": 23,
            "selectedWords": [
                "\u00e9vidente",
                "manifeste",
                "convaincue"
            ],
            "freeResponses": [],
            "nbPlayClick": 1,
            "expression": "NEUTRE",
            "csv_id": 11639,
            "video_name": "DIVERS_PARL_AD_03_0003"
        },
        {
            "name": "10359",
            "score": "0.993",
            "index": 24,
            "selectedWords": [
                "autre",
                "autre",
                "autre",
                "autre",
                "autre",
                "autre",
                "autre",
                "autre",
                "autre",
                "autre",
                "autre",
                "autre",
                "certaine",
                "convaincue"
            ],
            "freeResponses": [],
            "nbPlayClick": 2,
            "response": "conv",
            "expression": "NEUTRE",
            "csv_id": 10393,
            "video_name": "DIVERS_PARL_AD_03_0002"
        },
        {
            "name": "6351",
            "score": "0.976",
            "index": 25,
            "selectedWords": [
                "en col\u00e8re",
                "hargneuse",
                "m\u00e9contente"
            ],
            "freeResponses": [],
            "nbPlayClick": 1,
            "expression": "COLERE",
            "csv_id": 6385,
            "video_name": "DIVERS_PARL_COLERE_AD_01_0004"
        },
        {
            "name": "9645",
            "score": "0.990",
            "index": 26,
            "selectedWords": [
                "autre",
                "autre",
                "autre",
                "autre",
                "autre",
                "songeuse",
                "autre",
                "autre",
                "autre",
                "autre",
                "autre",
                "sceptique"
            ],
            "freeResponses": [],
            "nbPlayClick": 2,
            "expression": "NEUTRE",
            "csv_id": 9679,
            "video_name": "DIVERS_BOOK_AD_01_0002"
        },
        {
            "name": "9969",
            "score": "0.992",
            "index": 27,
            "selectedWords": [
                "neutre",
                "s\u00fbre"
            ],
            "freeResponses": [],
            "nbPlayClick": 1,
            "expression": "NEUTRE",
            "csv_id": 10003,
            "video_name": "DIVERS_BOOK_AD_01_0002"
        },
        {
            "name": "11167",
            "score": "0.995",
            "index": 28,
            "selectedWords": [
                "\u00e9vidente",
                "incontestable",
                "certaine"
            ],
            "freeResponses": [],
            "nbPlayClick": 1,
            "expression": "NEUTRE",
            "csv_id": 11201,
            "video_name": "DIVERS_PARL_AD_05_0003"
        },
        {
            "name": "2574",
            "score": "0.928",
            "index": 29,
            "selectedWords": [
                "neutre",
                "tonique",
                "\u00e9loquente"
            ],
            "freeResponses": [],
            "nbPlayClick": 1,
            "expression": "NEUTRE",
            "csv_id": 2574,
            "video_name": "DIVERS_PARL_AD_01_0000"
        },
        {
            "name": "9997",
            "score": "0.992",
            "index": 30,
            "selectedWords": [
                "d\u00e9termin\u00e9e",
                "r\u00e9fl\u00e9chie",
                "tonique"
            ],
            "freeResponses": [],
            "nbPlayClick": 1,
            "expression": "NEUTRE",
            "csv_id": 10031,
            "video_name": "DIVERS_PARL_AD_05_0001"
        },
        {
            "name": "10252",
            "score": "0.992",
            "index": 31,
            "selectedWords": [
                "d\u00e9sol\u00e9e",
                "autre",
                "autre",
                "autre",
                "autre",
                "attrist\u00e9e"
            ],
            "freeResponses": [],
            "nbPlayClick": 1,
            "expression": "DESOLE",
            "csv_id": 10286,
            "video_name": "DIVERS_BOOK_DESOLE_AD_03_0002"
        },
        {
            "name": "9965",
            "score": "0.992",
            "index": 32,
            "selectedWords": [
                "espi\u00e8gle",
                "taquine"
            ],
            "freeResponses": [],
            "nbPlayClick": 1,
            "expression": "ESPIEGLE",
            "csv_id": 9999,
            "video_name": "DIVERS_BOOK_ESPIEGLE_AD_03_0001"
        },
        {
            "name": "10138",
            "score": "0.992",
            "index": 33,
            "selectedWords": [
                "neutre",
                "limpide"
            ],
            "freeResponses": [],
            "nbPlayClick": 1,
            "expression": "NEUTRE",
            "csv_id": 10172,
            "video_name": "DIVERS_PARL_AD_04_0003"
        },
        {
            "name": "8074",
            "score": "0.985",
            "index": 34,
            "selectedWords": [
                "d\u00e9termin\u00e9e",
                "autre",
                "autre",
                "autre",
                "autre",
                "autre",
                "autre",
                "hargneuse"
            ],
            "freeResponses": [],
            "nbPlayClick": 1,
            "expression": "COLERE",
            "csv_id": 8108,
            "video_name": "DIVERS_PARL_COLERE_AD_01_0004"
        },
        {
            "name": "5068",
            "score": "0.966",
            "index": 35,
            "selectedWords": [
                "songeuse",
                "pensante"
            ],
            "freeResponses": [],
            "nbPlayClick": 1,
            "response": "songeuse",
            "expression": "PENSIF",
            "csv_id": 5102,
            "video_name": "DIVERS_BOOK_PENSIF_AD_01_0003"
        },
        {
            "name": "11294",
            "score": "0.995",
            "index": 36,
            "selectedWords": [
                "\u00e9vidente",
                "incontestable"
            ],
            "freeResponses": [],
            "nbPlayClick": 1,
            "expression": "NEUTRE",
            "csv_id": 11328,
            "video_name": "DIVERS_PARL_AD_02_0001"
        },
        {
            "name": "4594",
            "score": "0.962",
            "index": 37,
            "selectedWords": [
                "pensive",
                "r\u00e9fl\u00e9chie",
                "manifeste"
            ],
            "freeResponses": [],
            "nbPlayClick": 2,
            "expression": "NEUTRE",
            "csv_id": 4628,
            "video_name": "DIVERS_BOOK_AD_01_0002"
        },
        {
            "name": "10973",
            "score": "0.994",
            "index": 38,
            "selectedWords": [
                "autre",
                "autre",
                "autre",
                "autre",
                "autre",
                "autre",
                "d\u00e9cid\u00e9e",
                "\u00e9nergique"
            ],
            "freeResponses": [],
            "nbPlayClick": 1,
            "expression": "EVIDENCE",
            "csv_id": 11007,
            "video_name": "DIVERS_BOOK_EVIDENCE_AD_01_0002"
        },
        {
            "name": "10996",
            "score": "0.994",
            "index": 39,
            "selectedWords": [
                "fac\u00e9tieuse",
                "narquoise"
            ],
            "freeResponses": [],
            "nbPlayClick": 1,
            "expression": "INCREDULE",
            "csv_id": 11030,
            "video_name": "DIVERS_BOOK_INCREDULE_AD_01_0001"
        },
        {
            "name": "3612",
            "score": "0.948",
            "index": 40,
            "selectedWords": [
                "neutre",
                "s\u00fbre",
                "r\u00e9fl\u00e9chie"
            ],
            "freeResponses": [],
            "nbPlayClick": 1,
            "expression": "NEUTRE",
            "csv_id": 3612,
            "video_name": "DIVERS_PARL_AD_04_0002"
        },
        {
            "name": "11825",
            "score": "0.997",
            "index": 41,
            "selectedWords": [
                "neutre",
                "s\u00fbre",
                "manifeste"
            ],
            "freeResponses": [],
            "nbPlayClick": 1,
            "expression": "NEUTRE",
            "csv_id": 11862,
            "video_name": "DIVERS_PARL_AD_02_0004"
        },
        {
            "name": "4155",
            "score": "0.956",
            "index": 42,
            "selectedWords": [
                "irrit\u00e9e",
                "m\u00e9contente",
                "indign\u00e9e"
            ],
            "freeResponses": [],
            "nbPlayClick": 1,
            "expression": "DETERMINE",
            "csv_id": 4155,
            "video_name": "DIVERS_PARL_DETERMINE_AD_01_0004"
        },
        {
            "name": "11346",
            "score": "0.995",
            "index": 43,
            "selectedWords": [
                "neutre",
                "notoire",
                "manifeste"
            ],
            "freeResponses": [],
            "nbPlayClick": 1,
            "expression": "NEUTRE",
            "csv_id": 11380,
            "video_name": "DIVERS_BOOK_AD_03_0001"
        },
        {
            "name": "255",
            "score": "0.747",
            "index": 44,
            "selectedWords": [
                "d\u00e9termin\u00e9e",
                "autre",
                "\u00e9berlu\u00e9e",
                "autre",
                "autre",
                "suppliante"
            ],
            "freeResponses": [],
            "nbPlayClick": 1,
            "response": "suppl",
            "expression": "EVIDENCE",
            "csv_id": 255,
            "video_name": "DIVERS_PARL_EVIDENCE_AD_01_0001"
        },
        {
            "name": "10982",
            "score": "0.994",
            "index": 45,
            "selectedWords": [
                "\u00e9vidente",
                "autre",
                "autre",
                "autre",
                "autre",
                "autre",
                "stup\u00e9faite"
            ],
            "freeResponses": [],
            "nbPlayClick": 1,
            "expression": "EVIDENCE",
            "csv_id": 11016,
            "video_name": "DIVERS_PARL_EVIDENCE_AD_02_0002"
        },
        {
            "name": "11501",
            "score": "0.996",
            "index": 46,
            "selectedWords": [
                "attrist\u00e9e",
                "afflig\u00e9e",
                "pein\u00e9e"
            ],
            "freeResponses": [],
            "nbPlayClick": 1,
            "response": "attr",
            "expression": "SUPPLIANT",
            "csv_id": 11538,
            "video_name": "DIVERS_PARL_SUPPLIANT_AD_02_0001"
        },
        {
            "name": "6562",
            "score": "0.977",
            "index": 47,
            "selectedWords": [
                "neutre"
            ],
            "freeResponses": [
                "pos\u00e9e"
            ],
            "nbPlayClick": 1,
            "response": "pos\u00e9e",
            "expression": "NEUTRE",
            "csv_id": 6596,
            "video_name": "DIVERS_PARL_AD_04_0002"
        },
        {
            "name": "8552",
            "score": "0.987",
            "index": 48,
            "selectedWords": [
                "ennuy\u00e9e",
                "d\u00e9pit\u00e9e",
                "absente"
            ],
            "freeResponses": [],
            "nbPlayClick": 2,
            "response": "ennu",
            "expression": "DESOLE",
            "csv_id": 8586,
            "video_name": "DIVERS_PARL_DESOLE_AD_02_0002"
        },
        {
            "name": "12086",
            "score": "0.997",
            "index": 49,
            "selectedWords": [
                "\u00e9vidente",
                "manifeste",
                "convaincue"
            ],
            "freeResponses": [],
            "nbPlayClick": 1,
            "expression": "NEUTRE",
            "csv_id": 12123,
            "video_name": "DIVERS_BOOK_AD_03_0001"
        },
        {
            "name": "3243",
            "score": "0.943",
            "index": 50,
            "selectedWords": [
                "\u00e9vidente",
                "indubitable",
                "certaine"
            ],
            "freeResponses": [],
            "nbPlayClick": 1,
            "expression": "SUPPLIANT",
            "csv_id": 3243,
            "video_name": "DIVERS_PARL_SUPPLIANT_AD_02_0002"
        },
        {
            "name": "5525",
            "score": "0.970",
            "index": 51,
            "selectedWords": [
                "\u00e9vidente",
                "manifeste",
                "convaincue",
                "s\u00fbre",
                "certaine"
            ],
            "freeResponses": [],
            "nbPlayClick": 1,
            "expression": "NEUTRE",
            "csv_id": 5559,
            "video_name": "DIVERS_PARL_AD_04_0002"
        },
        {
            "name": "12309",
            "score": "0.998",
            "index": 52,
            "selectedWords": [
                "songeuse",
                "pensante"
            ],
            "freeResponses": [],
            "nbPlayClick": 1,
            "response": "son",
            "expression": "PENSIF",
            "csv_id": 12346,
            "video_name": "DIVERS_BOOK_PENSIF_AD_01_0003"
        },
        {
            "name": "2863",
            "score": "0.935",
            "index": 53,
            "selectedWords": [
                "\u00e9vidente",
                "manifeste",
                "convaincue"
            ],
            "freeResponses": [],
            "nbPlayClick": 1,
            "expression": "RECONFORTANT",
            "csv_id": 2863,
            "video_name": "DIVERS_PARL_RECONFORTANT_AD_02_0001"
        },
        {
            "name": "9385",
            "score": "0.990",
            "index": 54,
            "selectedWords": [
                "neutre",
                "s\u00fbre",
                "r\u00e9fl\u00e9chie"
            ],
            "freeResponses": [],
            "nbPlayClick": 1,
            "expression": "NEUTRE",
            "csv_id": 9419,
            "video_name": "DIVERS_BOOK_AD_04_0002"
        },
        {
            "name": "7205",
            "score": "0.981",
            "index": 55,
            "selectedWords": [
                "d\u00e9termin\u00e9e",
                "r\u00e9solue"
            ],
            "freeResponses": [],
            "nbPlayClick": 1,
            "expression": "NEUTRE",
            "csv_id": 7239,
            "video_name": "DIVERS_PARL_AD_03_0001"
        },
        {
            "name": "11639",
            "score": "0.996",
            "index": 56,
            "selectedWords": [
                "manifeste",
                "convaincue",
                "indiscutable"
            ],
            "freeResponses": [],
            "nbPlayClick": 2,
            "expression": "NEUTRE",
            "csv_id": 11676,
            "video_name": "DIVERS_PARL_AD_01_0006"
        },
        {
            "name": "5580",
            "score": "0.971",
            "index": 57,
            "selectedWords": [
                "d\u00e9termin\u00e9e",
                "r\u00e9solue",
                "convaincue"
            ],
            "freeResponses": [],
            "nbPlayClick": 2,
            "expression": "NEUTRE",
            "csv_id": 5614,
            "video_name": "DIVERS_PARL_AD_02_0002"
        },
        {
            "name": "6776",
            "score": "0.978",
            "index": 58,
            "selectedWords": [
                "neutre",
                "tonique",
                "\u00e9loquente"
            ],
            "freeResponses": [],
            "nbPlayClick": 1,
            "expression": "NEUTRE",
            "csv_id": 6810,
            "video_name": "DIVERS_PARL_AD_05_0004"
        },
        {
            "name": "1573",
            "score": "0.895",
            "index": 59,
            "selectedWords": [
                "d\u00e9termin\u00e9e",
                "manifeste",
                "convaincue",
                "s\u00fbre"
            ],
            "freeResponses": [],
            "nbPlayClick": 1,
            "response": "\u00e9v",
            "expression": "EVIDENCE",
            "csv_id": 1573,
            "video_name": "DIVERS_BOOK_EVIDENCE_AD_01_0002"
        }
    ],
    "training": [
        {
            "name": "77",
            "score": "0.639",
            "index": 0,
            "selectedWords": [
                "neutre",
                "certaine"
            ],
            "freeResponses": [],
            "nbPlayClick": 2,
            "expression": "NEUTRE"
        }
    ],
    "filenameDate": "2023-08-31_12-52"
}