{
    "user": {
        "isProlific": true,
        "id": "601a6ef33baef928c7a81195",
        "session": "658dcfd296f07ee4f769531e",
        "study": "64ef977375f88e4e1174dce0"
    },
    "userAgent": "Mozilla/5.0 (Windows NT 10.0; Win64; x64) AppleWebKit/537.36 (KHTML, like Gecko) Chrome/120.0.0.0 Safari/537.36",
    "landingDate": "2023-12-28T19:43:53.106Z",
    "startDate": "2023-12-28T19:48:37.827Z",
    "endDate": "2023-12-28T20:11:23.140Z",
    "reviews": [
        {
            "name": "5576",
            "score": "0.971",
            "index": 0,
            "selectedWords": [
                "neutre",
                "certaine"
            ],
            "freeResponses": [],
            "nbPlayClick": 1,
            "expression": "NEUTRE",
            "csv_id": 5610,
            "video_name": "DIVERS_PARL_AD_02_0002"
        },
        {
            "name": "10200",
            "score": "0.992",
            "index": 1,
            "selectedWords": [
                "neutre",
                "limpide"
            ],
            "freeResponses": [],
            "nbPlayClick": 1,
            "expression": "NEUTRE",
            "csv_id": 10234,
            "video_name": "DIVERS_BOOK_AD_04_0002"
        },
        {
            "name": "6130",
            "score": "0.975",
            "index": 2,
            "selectedWords": [
                "d\u00e9termin\u00e9e",
                "manifeste"
            ],
            "freeResponses": [],
            "nbPlayClick": 1,
            "expression": "NEUTRE",
            "csv_id": 6164,
            "video_name": "DIVERS_PARL_AD_06_0004"
        },
        {
            "name": "2573",
            "score": "0.928",
            "index": 3,
            "selectedWords": [
                "enthousiaste",
                "tonique"
            ],
            "freeResponses": [],
            "nbPlayClick": 1,
            "expression": "ENTHOUSIASTE",
            "csv_id": 2573,
            "video_name": "DIVERS_PARL_ENTHOUSIASTE_AD_01_0003"
        },
        {
            "name": "10956",
            "score": "0.994",
            "index": 4,
            "selectedWords": [
                "espi\u00e8gle",
                "malicieuse"
            ],
            "freeResponses": [],
            "nbPlayClick": 1,
            "expression": "ESPIEGLE",
            "csv_id": 10990,
            "video_name": "DIVERS_PARL_ESPIEGLE_AD_01_0001"
        },
        {
            "name": "7892",
            "score": "0.984",
            "index": 5,
            "selectedWords": [
                "neutre",
                "autre",
                "absente"
            ],
            "freeResponses": [],
            "nbPlayClick": 2,
            "expression": "NEUTRE",
            "csv_id": 7926,
            "video_name": "DIVERS_PARL_AD_06_0003"
        },
        {
            "name": "5597",
            "score": "0.971",
            "index": 6,
            "selectedWords": [
                "espi\u00e8gle",
                "malicieuse"
            ],
            "freeResponses": [],
            "nbPlayClick": 1,
            "expression": "ENTHOUSIASTE",
            "csv_id": 5631,
            "video_name": "DIVERS_BOOK_ENTHOUSIASTE_AD_01_0001"
        },
        {
            "name": "7715",
            "score": "0.983",
            "index": 7,
            "selectedWords": [
                "\u00e9vidente",
                "indubitable"
            ],
            "freeResponses": [],
            "nbPlayClick": 1,
            "expression": "NEUTRE",
            "csv_id": 7749,
            "video_name": "DIVERS_PARL_AD_03_0003"
        },
        {
            "name": "3692",
            "score": "0.950",
            "index": 8,
            "selectedWords": [
                "autre",
                "dubitative",
                "sceptique"
            ],
            "freeResponses": [],
            "nbPlayClick": 2,
            "expression": "INCREDULE",
            "csv_id": 3692,
            "video_name": "DIVERS_BOOK_INCREDULE_AD_01_0001"
        },
        {
            "name": "5397",
            "score": "0.969",
            "index": 9,
            "selectedWords": [
                "en col\u00e8re",
                "irrit\u00e9e"
            ],
            "freeResponses": [],
            "nbPlayClick": 1,
            "expression": "COLERE",
            "csv_id": 5431,
            "video_name": "DIVERS_PARL_COLERE_AD_02_0002"
        },
        {
            "name": "5541",
            "score": "0.970",
            "index": 10,
            "selectedWords": [
                "d\u00e9sol\u00e9e",
                "afflig\u00e9e"
            ],
            "freeResponses": [],
            "nbPlayClick": 1,
            "expression": "RECONFORTANT",
            "csv_id": 5575,
            "video_name": "DIVERS_PARL_RECONFORTANT_AD_02_0001"
        },
        {
            "name": "4244",
            "score": "0.957",
            "index": 11,
            "selectedWords": [
                "encourageante",
                "vivifiante"
            ],
            "freeResponses": [],
            "nbPlayClick": 2,
            "expression": "ENTHOUSIASTE",
            "csv_id": 4244,
            "video_name": "DIVERS_PARL_ENTHOUSIASTE_AD_02_0001"
        },
        {
            "name": "9727",
            "score": "0.991",
            "index": 12,
            "selectedWords": [
                "neutre",
                "notoire"
            ],
            "freeResponses": [],
            "nbPlayClick": 1,
            "expression": "NEUTRE",
            "csv_id": 9761,
            "video_name": "DIVERS_PARL_AD_01_0006"
        },
        {
            "name": "6086",
            "score": "0.974",
            "index": 13,
            "selectedWords": [
                "d\u00e9sol\u00e9e",
                "attrist\u00e9e"
            ],
            "freeResponses": [],
            "nbPlayClick": 2,
            "expression": "RECONFORTANT",
            "csv_id": 6120,
            "video_name": "DIVERS_PARL_RECONFORTANT_AD_02_0001"
        },
        {
            "name": "11258",
            "score": "0.995",
            "index": 14,
            "selectedWords": [
                "d\u00e9termin\u00e9e",
                "manifeste"
            ],
            "freeResponses": [],
            "nbPlayClick": 1,
            "expression": "NEUTRE",
            "csv_id": 11292,
            "video_name": "DIVERS_PARL_AD_06_0002"
        },
        {
            "name": "11900",
            "score": "0.997",
            "index": 15,
            "selectedWords": [
                "\u00e9vidente",
                "patente"
            ],
            "freeResponses": [],
            "nbPlayClick": 1,
            "expression": "NEUTRE",
            "csv_id": 11937,
            "video_name": "DIVERS_BOOK_AD_01_0002"
        },
        {
            "name": "5744",
            "score": "0.972",
            "index": 16,
            "selectedWords": [
                "coquine",
                "nette"
            ],
            "freeResponses": [],
            "nbPlayClick": 1,
            "expression": "EVIDENCE",
            "csv_id": 5778,
            "video_name": "DIVERS_BOOK_EVIDENCE_AD_01_0002"
        },
        {
            "name": "10312",
            "score": "0.993",
            "index": 17,
            "selectedWords": [
                "finaude",
                "fac\u00e9tieuse"
            ],
            "freeResponses": [],
            "nbPlayClick": 1,
            "expression": "NEUTRE",
            "csv_id": 10346,
            "video_name": "DIVERS_PARL_AD_01_0006"
        },
        {
            "name": "9133",
            "score": "0.989",
            "index": 18,
            "selectedWords": [
                "neutre",
                "limpide"
            ],
            "freeResponses": [],
            "nbPlayClick": 1,
            "expression": "NEUTRE",
            "csv_id": 9167,
            "video_name": "DIVERS_BOOK_AD_01_0002"
        },
        {
            "name": "6685",
            "score": "0.978",
            "index": 19,
            "selectedWords": [
                "suppliante",
                "implorante"
            ],
            "freeResponses": [],
            "nbPlayClick": 1,
            "expression": "SUPPLIANT",
            "csv_id": 6719,
            "video_name": "DIVERS_PARL_SUPPLIANT_AD_02_0001"
        },
        {
            "name": "9251",
            "score": "0.989",
            "index": 20,
            "selectedWords": [
                "\u00e9tonn\u00e9e",
                "d\u00e9concert\u00e9e"
            ],
            "freeResponses": [],
            "nbPlayClick": 1,
            "expression": "ETONNE",
            "csv_id": 9285,
            "video_name": "DIVERS_BOOK_ETONNE_AD_01_0004"
        },
        {
            "name": "11451",
            "score": "0.996",
            "index": 21,
            "selectedWords": [
                "d\u00e9sol\u00e9e",
                "afflig\u00e9e"
            ],
            "freeResponses": [],
            "nbPlayClick": 1,
            "expression": "SUPPLIANT",
            "csv_id": 11488,
            "video_name": "DIVERS_PARL_SUPPLIANT_AD_02_0002"
        },
        {
            "name": "10509",
            "score": "0.993",
            "index": 22,
            "selectedWords": [
                "d\u00e9termin\u00e9e",
                "r\u00e9solue"
            ],
            "freeResponses": [],
            "nbPlayClick": 1,
            "expression": "COLERE",
            "csv_id": 10543,
            "video_name": "DIVERS_PARL_COLERE_AD_01_0004"
        },
        {
            "name": "6793",
            "score": "0.978",
            "index": 23,
            "selectedWords": [
                "neutre",
                "autre",
                "autre",
                "inexpressive"
            ],
            "freeResponses": [],
            "nbPlayClick": 1,
            "expression": "NEUTRE",
            "csv_id": 6827,
            "video_name": "DIVERS_BOOK_AD_03_0001"
        },
        {
            "name": "3578",
            "score": "0.948",
            "index": 24,
            "selectedWords": [
                "enthousiaste",
                "tonique"
            ],
            "freeResponses": [],
            "nbPlayClick": 1,
            "expression": "ENTHOUSIASTE",
            "csv_id": 3578,
            "video_name": "DIVERS_PARL_ENTHOUSIASTE_AD_01_0003"
        },
        {
            "name": "6459",
            "score": "0.977",
            "index": 25,
            "selectedWords": [
                "autre",
                "autre",
                "autre",
                "abasourdie",
                "autre",
                "autre",
                "autre",
                "ennuy\u00e9e"
            ],
            "freeResponses": [],
            "nbPlayClick": 1,
            "expression": "INCREDULE",
            "csv_id": 6493,
            "video_name": "DIVERS_PARL_INCREDULE_AD_02_0003"
        },
        {
            "name": "5516",
            "score": "0.970",
            "index": 26,
            "selectedWords": [
                "d\u00e9termin\u00e9e",
                "manifeste"
            ],
            "freeResponses": [],
            "nbPlayClick": 1,
            "expression": "NEUTRE",
            "csv_id": 5550,
            "video_name": "DIVERS_PARL_AD_06_0001"
        },
        {
            "name": "11858",
            "score": "0.997",
            "index": 27,
            "selectedWords": [
                "\u00e9tonn\u00e9e",
                "nette"
            ],
            "freeResponses": [],
            "nbPlayClick": 1,
            "expression": "NEUTRE",
            "csv_id": 11895,
            "video_name": "DIVERS_PARL_AD_02_0002"
        },
        {
            "name": "11642",
            "score": "0.996",
            "index": 28,
            "selectedWords": [
                "incr\u00e9dule",
                "autre",
                "autre",
                "autre",
                "autre",
                "autre",
                "finaude"
            ],
            "freeResponses": [],
            "nbPlayClick": 1,
            "expression": "INCREDULE",
            "csv_id": 11679,
            "video_name": "DIVERS_BOOK_INCREDULE_AD_01_0001"
        },
        {
            "name": "10435",
            "score": "0.993",
            "index": 29,
            "selectedWords": [
                "enthousiaste",
                "tonique"
            ],
            "freeResponses": [],
            "nbPlayClick": 1,
            "expression": "ENTHOUSIASTE",
            "csv_id": 10469,
            "video_name": "DIVERS_BOOK_ENTHOUSIASTE_AD_01_0001"
        },
        {
            "name": "5896",
            "score": "0.973",
            "index": 30,
            "selectedWords": [
                "froide",
                "autre",
                "autre",
                "autre",
                "autre",
                "atone"
            ],
            "freeResponses": [],
            "nbPlayClick": 1,
            "expression": "NEUTRE",
            "csv_id": 5930,
            "video_name": "DIVERS_PARL_AD_06_0001"
        },
        {
            "name": "2520",
            "score": "0.927",
            "index": 31,
            "selectedWords": [
                "\u00e9vidente",
                "incontestable"
            ],
            "freeResponses": [],
            "nbPlayClick": 1,
            "expression": "NEUTRE",
            "csv_id": 2520,
            "video_name": "DIVERS_PARL_AD_05_0003"
        },
        {
            "name": "5480",
            "score": "0.970",
            "index": 32,
            "selectedWords": [
                "autre",
                "autre",
                "autre",
                "autre",
                "autre",
                "autre",
                "ind\u00e9niable",
                "notoire"
            ],
            "freeResponses": [],
            "nbPlayClick": 1,
            "expression": "EVIDENCE",
            "csv_id": 5514,
            "video_name": "DIVERS_BOOK_EVIDENCE_AD_01_0002"
        },
        {
            "name": "10822",
            "score": "0.994",
            "index": 33,
            "selectedWords": [
                "neutre",
                "certaine"
            ],
            "freeResponses": [],
            "nbPlayClick": 1,
            "expression": "NEUTRE",
            "csv_id": 10856,
            "video_name": "DIVERS_PARL_AD_04_0001"
        },
        {
            "name": "4846",
            "score": "0.964",
            "index": 34,
            "selectedWords": [
                "r\u00e9confortante",
                "encourageante"
            ],
            "freeResponses": [],
            "nbPlayClick": 1,
            "expression": "EVIDENCE",
            "csv_id": 4880,
            "video_name": "DIVERS_PARL_EVIDENCE_AD_02_0002"
        },
        {
            "name": "11036",
            "score": "0.994",
            "index": 35,
            "selectedWords": [
                "neutre",
                "limpide"
            ],
            "freeResponses": [],
            "nbPlayClick": 1,
            "expression": "NEUTRE",
            "csv_id": 11070,
            "video_name": "DIVERS_BOOK_AD_03_0001"
        },
        {
            "name": "3955",
            "score": "0.953",
            "index": 36,
            "selectedWords": [
                "d\u00e9termin\u00e9e",
                "manifeste"
            ],
            "freeResponses": [],
            "nbPlayClick": 1,
            "expression": "INCREDULE",
            "csv_id": 3955,
            "video_name": "DIVERS_PARL_INCREDULE_AD_01_0001"
        },
        {
            "name": "3392",
            "score": "0.945",
            "index": 37,
            "selectedWords": [
                "autre",
                "autre",
                "atone",
                "sinc\u00e8re"
            ],
            "freeResponses": [],
            "nbPlayClick": 1,
            "expression": "EVIDENCE",
            "csv_id": 3392,
            "video_name": "DIVERS_BOOK_EVIDENCE_AD_01_0002"
        },
        {
            "name": "5677",
            "score": "0.971",
            "index": 38,
            "selectedWords": [
                "autre",
                "autre",
                "autre",
                "autre",
                "autre",
                "opini\u00e2tre",
                "autre",
                "ind\u00e9niable"
            ],
            "freeResponses": [],
            "nbPlayClick": 1,
            "expression": "COLERE",
            "csv_id": 5711,
            "video_name": "DIVERS_PARL_COLERE_AD_01_0003"
        },
        {
            "name": "8093",
            "score": "0.985",
            "index": 39,
            "selectedWords": [
                "neutre",
                "autre",
                "autre",
                "inexpressive"
            ],
            "freeResponses": [],
            "nbPlayClick": 1,
            "expression": "NEUTRE",
            "csv_id": 8127,
            "video_name": "DIVERS_BOOK_AD_04_0002"
        },
        {
            "name": "5089",
            "score": "0.967",
            "index": 40,
            "selectedWords": [
                "neutre",
                "autre",
                "autre",
                "autre",
                "vivifiante"
            ],
            "freeResponses": [],
            "nbPlayClick": 1,
            "expression": "NEUTRE",
            "csv_id": 5123,
            "video_name": "DIVERS_PARL_AD_03_0004"
        },
        {
            "name": "7016",
            "score": "0.980",
            "index": 41,
            "selectedWords": [
                "suppliante",
                "consolante"
            ],
            "freeResponses": [],
            "nbPlayClick": 1,
            "expression": "SUPPLIANT",
            "csv_id": 7050,
            "video_name": "DIVERS_PARL_SUPPLIANT_AD_02_0002"
        },
        {
            "name": "8001",
            "score": "0.984",
            "index": 42,
            "selectedWords": [
                "enthousiaste",
                "tonique"
            ],
            "freeResponses": [],
            "nbPlayClick": 1,
            "expression": "ENTHOUSIASTE",
            "csv_id": 8035,
            "video_name": "DIVERS_BOOK_ENTHOUSIASTE_AD_01_0004"
        },
        {
            "name": "5128",
            "score": "0.967",
            "index": 43,
            "selectedWords": [
                "neutre",
                "certaine"
            ],
            "freeResponses": [],
            "nbPlayClick": 1,
            "expression": "NEUTRE",
            "csv_id": 5162,
            "video_name": "DIVERS_BOOK_AD_04_0001"
        },
        {
            "name": "4796",
            "score": "0.964",
            "index": 44,
            "selectedWords": [
                "pensive",
                "r\u00e9fl\u00e9chissante"
            ],
            "freeResponses": [],
            "nbPlayClick": 1,
            "expression": "NEUTRE",
            "csv_id": 4830,
            "video_name": "DIVERS_PARL_AD_05_0001"
        },
        {
            "name": "6609",
            "score": "0.977",
            "index": 45,
            "selectedWords": [
                "neutre",
                "autre",
                "autre",
                "inexpressive"
            ],
            "freeResponses": [],
            "nbPlayClick": 1,
            "expression": "NEUTRE",
            "csv_id": 6643,
            "video_name": "DIVERS_BOOK_AD_04_0001"
        },
        {
            "name": "532",
            "score": "0.810",
            "index": 46,
            "selectedWords": [
                "\u00e9vidente",
                "patente"
            ],
            "freeResponses": [],
            "nbPlayClick": 1,
            "expression": "INCREDULE",
            "csv_id": 532,
            "video_name": "DIVERS_PARL_INCREDULE_AD_01_0001"
        },
        {
            "name": "10829",
            "score": "0.994",
            "index": 47,
            "selectedWords": [
                "pensive",
                "autre",
                "dubitative"
            ],
            "freeResponses": [],
            "nbPlayClick": 1,
            "expression": "PENSIF",
            "csv_id": 10863,
            "video_name": "DIVERS_PARL_PENSIF_AD_01_0002"
        },
        {
            "name": "11283",
            "score": "0.995",
            "index": 48,
            "selectedWords": [
                "\u00e9tonn\u00e9e",
                "autre",
                "dubitative"
            ],
            "freeResponses": [],
            "nbPlayClick": 1,
            "expression": "PENSIF",
            "csv_id": 11317,
            "video_name": "DIVERS_BOOK_PENSIF_AD_03_0002"
        },
        {
            "name": "7326",
            "score": "0.981",
            "index": 49,
            "selectedWords": [
                "d\u00e9termin\u00e9e",
                "manifeste"
            ],
            "freeResponses": [],
            "nbPlayClick": 1,
            "expression": "NEUTRE",
            "csv_id": 7360,
            "video_name": "DIVERS_PARL_AD_03_0003"
        },
        {
            "name": "8814",
            "score": "0.988",
            "index": 50,
            "selectedWords": [
                "d\u00e9termin\u00e9e",
                "r\u00e9solue"
            ],
            "freeResponses": [],
            "nbPlayClick": 1,
            "expression": "ENTHOUSIASTE",
            "csv_id": 8848,
            "video_name": "DIVERS_PARL_ENTHOUSIASTE_AD_01_0003"
        },
        {
            "name": "4654",
            "score": "0.962",
            "index": 51,
            "selectedWords": [
                "neutre",
                "limpide"
            ],
            "freeResponses": [],
            "nbPlayClick": 1,
            "expression": "NEUTRE",
            "csv_id": 4688,
            "video_name": "DIVERS_PARL_AD_01_0004"
        },
        {
            "name": "10234",
            "score": "0.992",
            "index": 52,
            "selectedWords": [
                "d\u00e9termin\u00e9e",
                "r\u00e9solue"
            ],
            "freeResponses": [],
            "nbPlayClick": 1,
            "expression": "NEUTRE",
            "csv_id": 10268,
            "video_name": "DIVERS_BOOK_AD_03_0002"
        },
        {
            "name": "2533",
            "score": "0.928",
            "index": 53,
            "selectedWords": [
                "neutre",
                "s\u00fbre"
            ],
            "freeResponses": [],
            "nbPlayClick": 1,
            "expression": "NEUTRE",
            "csv_id": 2533,
            "video_name": "DIVERS_PARL_AD_03_0002"
        },
        {
            "name": "7426",
            "score": "0.982",
            "index": 54,
            "selectedWords": [
                "d\u00e9termin\u00e9e",
                "autre",
                "autre",
                "inexpressive"
            ],
            "freeResponses": [],
            "nbPlayClick": 1,
            "expression": "NEUTRE",
            "csv_id": 7460,
            "video_name": "DIVERS_PARL_AD_03_0004"
        },
        {
            "name": "11372",
            "score": "0.995",
            "index": 55,
            "selectedWords": [
                "d\u00e9termin\u00e9e",
                "manifeste"
            ],
            "freeResponses": [],
            "nbPlayClick": 1,
            "expression": "NEUTRE",
            "csv_id": 11406,
            "video_name": "DIVERS_PARL_AD_01_0006"
        },
        {
            "name": "1663",
            "score": "0.899",
            "index": 56,
            "selectedWords": [
                "pensive",
                "r\u00e9fl\u00e9chissante"
            ],
            "freeResponses": [],
            "nbPlayClick": 1,
            "expression": "PENSIF",
            "csv_id": 1663,
            "video_name": "DIVERS_PARL_PENSIF_AD_01_0002"
        },
        {
            "name": "11469",
            "score": "0.996",
            "index": 57,
            "selectedWords": [
                "neutre",
                "certaine"
            ],
            "freeResponses": [],
            "nbPlayClick": 1,
            "expression": "NEUTRE",
            "csv_id": 11506,
            "video_name": "DIVERS_PARL_AD_03_0004"
        },
        {
            "name": "9301",
            "score": "0.989",
            "index": 58,
            "selectedWords": [
                "d\u00e9termin\u00e9e",
                "autre",
                "imp\u00e9n\u00e9trable"
            ],
            "freeResponses": [],
            "nbPlayClick": 1,
            "expression": "NEUTRE",
            "csv_id": 9335,
            "video_name": "DIVERS_PARL_AD_06_0004"
        },
        {
            "name": "11204",
            "score": "0.995",
            "index": 59,
            "selectedWords": [
                "neutre",
                "autre",
                "imp\u00e9n\u00e9trable"
            ],
            "freeResponses": [],
            "nbPlayClick": 1,
            "expression": "NEUTRE",
            "csv_id": 11238,
            "video_name": "DIVERS_BOOK_AD_04_0002"
        }
    ],
    "training": [
        {
            "name": "77",
            "score": "0.639",
            "index": 0,
            "selectedWords": [
                "d\u00e9termin\u00e9e",
                "certaine",
                "s\u00fbre",
                "limpide",
                "\u00e9nergique",
                "d\u00e9cid\u00e9e",
                "ferme",
                "convaincue",
                "ind\u00e9niable",
                "\u00e9vidente",
                "tonique",
                "atone",
                "convaincue"
            ],
            "freeResponses": [],
            "nbPlayClick": 2,
            "expression": "NEUTRE"
        }
    ],
    "filenameDate": "2023-12-28_21-11"
}