{
    "user": {
        "isProlific": true,
        "id": "605749f1b1d298588597cac7",
        "session": "64f0d6627cf93aca5a9120e5",
        "study": "64ef977375f88e4e1174dce0"
    },
    "userAgent": "Mozilla/5.0 (Macintosh; Intel Mac OS X 10_15_7) AppleWebKit/537.36 (KHTML, like Gecko) Chrome/116.0.0.0 Safari/537.36",
    "landingDate": "2023-08-31T18:08:19.312Z",
    "startDate": "2023-08-31T18:09:36.291Z",
    "endDate": "2023-08-31T18:59:04.254Z",
    "reviews": [
        {
            "name": "9618",
            "score": "0.990",
            "index": 0,
            "selectedWords": [
                "autre",
                "dubitative",
                "sceptique"
            ],
            "freeResponses": [
                "D\u00e9motiv\u00e9e"
            ],
            "nbPlayClick": 1,
            "response": "D\u00e9motiv\u00e9e",
            "expression": "SUPPLIANT",
            "csv_id": 9652,
            "video_name": "DIVERS_PARL_SUPPLIANT_AD_02_0001"
        },
        {
            "name": "6913",
            "score": "0.979",
            "index": 1,
            "selectedWords": [
                "pensive",
                "r\u00e9fl\u00e9chissante",
                "pr\u00e9occup\u00e9e"
            ],
            "freeResponses": [],
            "nbPlayClick": 1,
            "expression": "RECONFORTANT",
            "csv_id": 6947,
            "video_name": "DIVERS_BOOK_RECONFORTANT_AD_01_0004"
        },
        {
            "name": "7710",
            "score": "0.983",
            "index": 2,
            "selectedWords": [
                "incr\u00e9dule",
                "dubitative"
            ],
            "freeResponses": [],
            "nbPlayClick": 2,
            "response": "\u00e9ton",
            "expression": "INCREDULE",
            "csv_id": 7744,
            "video_name": "DIVERS_BOOK_INCREDULE_AD_01_0001"
        },
        {
            "name": "12360",
            "score": "0.999",
            "index": 3,
            "selectedWords": [
                "d\u00e9termin\u00e9e",
                "imp\u00e9n\u00e9trable",
                "officielle"
            ],
            "freeResponses": [],
            "nbPlayClick": 1,
            "expression": "ETONNE",
            "csv_id": 12397,
            "video_name": "DIVERS_PARL_ETONNE_AD_01_0001"
        },
        {
            "name": "7387",
            "score": "0.981",
            "index": 4,
            "selectedWords": [
                "d\u00e9termin\u00e9e",
                "manifeste",
                "convaincue",
                "s\u00fbre",
                "afflig\u00e9e"
            ],
            "freeResponses": [],
            "nbPlayClick": 1,
            "response": "",
            "expression": "NEUTRE",
            "csv_id": 7421,
            "video_name": "DIVERS_PARL_AD_03_0003"
        },
        {
            "name": "10253",
            "score": "0.992",
            "index": 5,
            "selectedWords": [
                "nette",
                "s\u00fbre"
            ],
            "freeResponses": [],
            "nbPlayClick": 2,
            "response": "s\u00fb",
            "expression": "NEUTRE",
            "csv_id": 10287,
            "video_name": "DIVERS_PARL_AD_04_0004"
        },
        {
            "name": "9827",
            "score": "0.991",
            "index": 6,
            "selectedWords": [
                "\u00e9tonn\u00e9e",
                "dubitative",
                "d\u00e9pit\u00e9e"
            ],
            "freeResponses": [],
            "nbPlayClick": 1,
            "response": "\u00e9tonn",
            "expression": "ETONNE",
            "csv_id": 9861,
            "video_name": "DIVERS_PARL_ETONNE_AD_01_0001"
        },
        {
            "name": "7850",
            "score": "0.984",
            "index": 7,
            "selectedWords": [
                "d\u00e9termin\u00e9e",
                "autre",
                "imp\u00e9n\u00e9trable",
                "s\u00fbre"
            ],
            "freeResponses": [],
            "nbPlayClick": 2,
            "response": "s\u00fbre",
            "expression": "NEUTRE",
            "csv_id": 7884,
            "video_name": "DIVERS_PARL_AD_02_0004"
        },
        {
            "name": "6782",
            "score": "0.978",
            "index": 8,
            "selectedWords": [
                "s\u00fbre",
                "r\u00e9fl\u00e9chie",
                "d\u00e9cid\u00e9e"
            ],
            "freeResponses": [],
            "nbPlayClick": 2,
            "response": "s\u00fbre",
            "expression": "NEUTRE",
            "csv_id": 6816,
            "video_name": "DIVERS_PARL_AD_02_0004"
        },
        {
            "name": "6100",
            "score": "0.974",
            "index": 9,
            "selectedWords": [
                "certaine",
                "ferme"
            ],
            "freeResponses": [
                "Moralisatrice"
            ],
            "nbPlayClick": 1,
            "response": "Moralisatrice",
            "expression": "NEUTRE",
            "csv_id": 6134,
            "video_name": "DIVERS_PARL_AD_04_0002"
        },
        {
            "name": "8093",
            "score": "0.985",
            "index": 10,
            "selectedWords": [
                "d\u00e9termin\u00e9e",
                "r\u00e9fl\u00e9chie"
            ],
            "freeResponses": [
                "Appliqu\u00e9e"
            ],
            "nbPlayClick": 1,
            "response": "Appliqu\u00e9e",
            "expression": "NEUTRE",
            "csv_id": 8127,
            "video_name": "DIVERS_BOOK_AD_04_0002"
        },
        {
            "name": "5050",
            "score": "0.966",
            "index": 11,
            "selectedWords": [
                "entreprenante",
                "r\u00e9fl\u00e9chissante"
            ],
            "freeResponses": [],
            "nbPlayClick": 2,
            "expression": "NEUTRE",
            "csv_id": 5084,
            "video_name": "DIVERS_PARL_AD_04_0004"
        },
        {
            "name": "12208",
            "score": "0.998",
            "index": 12,
            "selectedWords": [
                "certaine",
                "manifeste"
            ],
            "freeResponses": [],
            "nbPlayClick": 2,
            "expression": "NEUTRE",
            "csv_id": 12245,
            "video_name": "DIVERS_PARL_AD_02_0002"
        },
        {
            "name": "667",
            "score": "0.828",
            "index": 13,
            "selectedWords": [
                "enthousiaste",
                "euphorique"
            ],
            "freeResponses": [
                "Int\u00e9ress\u00e9e"
            ],
            "nbPlayClick": 1,
            "response": "Interress\u00e9e",
            "expression": "ENTHOUSIASTE",
            "csv_id": 667,
            "video_name": "DIVERS_PARL_ENTHOUSIASTE_AD_01_0003"
        },
        {
            "name": "5048",
            "score": "0.966",
            "index": 14,
            "selectedWords": [
                "espi\u00e8gle",
                "malicieuse"
            ],
            "freeResponses": [],
            "nbPlayClick": 2,
            "expression": "RECONFORTANT",
            "csv_id": 5082,
            "video_name": "DIVERS_BOOK_RECONFORTANT_AD_03_0002"
        },
        {
            "name": "9661",
            "score": "0.991",
            "index": 15,
            "selectedWords": [
                "d\u00e9sorient\u00e9e",
                "ennuy\u00e9e",
                "irrit\u00e9e"
            ],
            "freeResponses": [],
            "nbPlayClick": 2,
            "expression": "ENTHOUSIASTE",
            "csv_id": 9695,
            "video_name": "DIVERS_PARL_ENTHOUSIASTE_AD_02_0001"
        },
        {
            "name": "10426",
            "score": "0.993",
            "index": 16,
            "selectedWords": [
                "espi\u00e8gle",
                "narquoise",
                "ferme",
                "taquine"
            ],
            "freeResponses": [],
            "nbPlayClick": 1,
            "response": "taqui",
            "expression": "EVIDENCE",
            "csv_id": 10460,
            "video_name": "DIVERS_PARL_EVIDENCE_AD_02_0002"
        },
        {
            "name": "5740",
            "score": "0.972",
            "index": 17,
            "selectedWords": [
                "d\u00e9termin\u00e9e",
                "enthousiaste"
            ],
            "freeResponses": [],
            "nbPlayClick": 2,
            "response": "enth",
            "expression": "RECONFORTANT",
            "csv_id": 5774,
            "video_name": "DIVERS_BOOK_RECONFORTANT_AD_03_0002"
        },
        {
            "name": "10617",
            "score": "0.993",
            "index": 18,
            "selectedWords": [
                "imp\u00e9n\u00e9trable",
                "s\u00fbre"
            ],
            "freeResponses": [],
            "nbPlayClick": 1,
            "response": "s\u00fbre",
            "expression": "NEUTRE",
            "csv_id": 10651,
            "video_name": "DIVERS_PARL_AD_03_0004"
        },
        {
            "name": "8190",
            "score": "0.985",
            "index": 19,
            "selectedWords": [
                "\u00e9vidente",
                "convaincue"
            ],
            "freeResponses": [],
            "nbPlayClick": 1,
            "expression": "EVIDENCE",
            "csv_id": 8224,
            "video_name": "DIVERS_BOOK_EVIDENCE_AD_01_0002"
        },
        {
            "name": "12141",
            "score": "0.997",
            "index": 20,
            "selectedWords": [
                "convaincue",
                "officielle"
            ],
            "freeResponses": [],
            "nbPlayClick": 1,
            "expression": "NEUTRE",
            "csv_id": 12178,
            "video_name": "DIVERS_PARL_AD_02_0003"
        },
        {
            "name": "8486",
            "score": "0.986",
            "index": 21,
            "selectedWords": [
                "neutre",
                "certaine"
            ],
            "freeResponses": [],
            "nbPlayClick": 1,
            "expression": "NEUTRE",
            "csv_id": 8520,
            "video_name": "DIVERS_PARL_AD_05_0001"
        },
        {
            "name": "9436",
            "score": "0.990",
            "index": 22,
            "selectedWords": [
                "neutre",
                "certaine",
                "manifeste"
            ],
            "freeResponses": [],
            "nbPlayClick": 1,
            "expression": "NEUTRE",
            "csv_id": 9470,
            "video_name": "DIVERS_BOOK_AD_01_0001"
        },
        {
            "name": "11386",
            "score": "0.995",
            "index": 23,
            "selectedWords": [
                "d\u00e9termin\u00e9e"
            ],
            "freeResponses": [
                "concentr\u00e9e"
            ],
            "nbPlayClick": 1,
            "response": "concentr\u00e9e",
            "expression": "NEUTRE",
            "csv_id": 11420,
            "video_name": "DIVERS_PARL_AD_04_0001"
        },
        {
            "name": "11935",
            "score": "0.997",
            "index": 24,
            "selectedWords": [
                "\u00e9vidente",
                "convaincue"
            ],
            "freeResponses": [],
            "nbPlayClick": 1,
            "expression": "NEUTRE",
            "csv_id": 11972,
            "video_name": "DIVERS_PARL_AD_01_0006"
        },
        {
            "name": "11764",
            "score": "0.996",
            "index": 25,
            "selectedWords": [
                "d\u00e9termin\u00e9e",
                "r\u00e9fl\u00e9chie",
                "manifeste"
            ],
            "freeResponses": [],
            "nbPlayClick": 1,
            "response": "ma",
            "expression": "NEUTRE",
            "csv_id": 11801,
            "video_name": "DIVERS_PARL_AD_02_0004"
        },
        {
            "name": "6487",
            "score": "0.977",
            "index": 26,
            "selectedWords": [
                "en rogne",
                "m\u00e9contente",
                "d\u00e9termin\u00e9e",
                "s\u00fbre"
            ],
            "freeResponses": [],
            "nbPlayClick": 1,
            "response": "s\u00fbre",
            "expression": "COLERE",
            "csv_id": 6521,
            "video_name": "DIVERS_PARL_COLERE_AD_02_0002"
        },
        {
            "name": "9714",
            "score": "0.991",
            "index": 27,
            "selectedWords": [
                "\u00e9vidente",
                "ennuy\u00e9e"
            ],
            "freeResponses": [],
            "nbPlayClick": 2,
            "expression": "NEUTRE",
            "csv_id": 9748,
            "video_name": "DIVERS_BOOK_AD_03_0001"
        },
        {
            "name": "11530",
            "score": "0.996",
            "index": 28,
            "selectedWords": [
                "d\u00e9termin\u00e9e",
                "manifeste",
                "s\u00fbre"
            ],
            "freeResponses": [],
            "nbPlayClick": 1,
            "response": "s\u00fb",
            "expression": "NEUTRE",
            "csv_id": 11567,
            "video_name": "DIVERS_PARL_AD_03_0003"
        },
        {
            "name": "12396",
            "score": "0.999",
            "index": 29,
            "selectedWords": [
                "\u00e9tonn\u00e9e",
                "abasourdie"
            ],
            "freeResponses": [],
            "nbPlayClick": 2,
            "response": "\u00e9t",
            "expression": "ETONNE",
            "csv_id": 12433,
            "video_name": "DIVERS_BOOK_ETONNE_AD_01_0002"
        },
        {
            "name": "7190",
            "score": "0.981",
            "index": 30,
            "selectedWords": [
                "d\u00e9termin\u00e9e",
                "r\u00e9solue",
                "entreprenante"
            ],
            "freeResponses": [],
            "nbPlayClick": 1,
            "expression": "NEUTRE",
            "csv_id": 7224,
            "video_name": "DIVERS_PARL_AD_06_0004"
        },
        {
            "name": "3770",
            "score": "0.951",
            "index": 31,
            "selectedWords": [
                "d\u00e9termin\u00e9e",
                "r\u00e9fl\u00e9chie",
                "s\u00fbre"
            ],
            "freeResponses": [],
            "nbPlayClick": 1,
            "expression": "NEUTRE",
            "csv_id": 3770,
            "video_name": "DIVERS_PARL_AD_03_0002"
        },
        {
            "name": "9165",
            "score": "0.989",
            "index": 32,
            "selectedWords": [
                "bouillonnante",
                "emball\u00e9e"
            ],
            "freeResponses": [],
            "nbPlayClick": 2,
            "expression": "ENTHOUSIASTE",
            "csv_id": 9199,
            "video_name": "DIVERS_BOOK_ENTHOUSIASTE_AD_01_0004"
        },
        {
            "name": "1897",
            "score": "0.908",
            "index": 33,
            "selectedWords": [
                "d\u00e9termin\u00e9e",
                "r\u00e9fl\u00e9chie"
            ],
            "freeResponses": [
                "concise"
            ],
            "nbPlayClick": 1,
            "response": "concise",
            "expression": "DETERMINE",
            "csv_id": 1897,
            "video_name": "DIVERS_PARL_DETERMINE_AD_01_0004"
        },
        {
            "name": "9187",
            "score": "0.989",
            "index": 34,
            "selectedWords": [
                "convaincue",
                "incontestable",
                "manifeste"
            ],
            "freeResponses": [],
            "nbPlayClick": 1,
            "expression": "NEUTRE",
            "csv_id": 9221,
            "video_name": "DIVERS_PARL_AD_02_0003"
        },
        {
            "name": "6394",
            "score": "0.976",
            "index": 35,
            "selectedWords": [
                "enthousiaste",
                "autre",
                "\u00e9loquente"
            ],
            "freeResponses": [],
            "nbPlayClick": 1,
            "response": "\u00e9lo",
            "expression": "NEUTRE",
            "csv_id": 6428,
            "video_name": "DIVERS_PARL_AD_04_0004"
        },
        {
            "name": "3727",
            "score": "0.950",
            "index": 36,
            "selectedWords": [
                "d\u00e9pit\u00e9e"
            ],
            "freeResponses": [
                "d\u00e9motiv\u00e9e",
                "inqui\u00e8te"
            ],
            "nbPlayClick": 1,
            "response": "inqui\u00e8te",
            "expression": "SUPPLIANT",
            "csv_id": 3727,
            "video_name": "DIVERS_BOOK_SUPPLIANT_AD_01_0004"
        },
        {
            "name": "9376",
            "score": "0.990",
            "index": 37,
            "selectedWords": [
                "ferme",
                "d\u00e9cid\u00e9e"
            ],
            "freeResponses": [],
            "nbPlayClick": 1,
            "response": "fe",
            "expression": "COLERE",
            "csv_id": 9410,
            "video_name": "DIVERS_PARL_COLERE_AD_01_0004"
        },
        {
            "name": "5817",
            "score": "0.973",
            "index": 38,
            "selectedWords": [
                "enthousiaste"
            ],
            "freeResponses": [
                "int\u00e9ress\u00e9e"
            ],
            "nbPlayClick": 1,
            "response": "int\u00e9ress\u00e9e",
            "expression": "ENTHOUSIASTE",
            "csv_id": 5851,
            "video_name": "DIVERS_PARL_ENTHOUSIASTE_AD_01_0003"
        },
        {
            "name": "11845",
            "score": "0.997",
            "index": 39,
            "selectedWords": [
                "encourageante",
                "certaine"
            ],
            "freeResponses": [
                "Impliqu\u00e9e"
            ],
            "nbPlayClick": 1,
            "response": "Impliqu\u00e9e",
            "expression": "NEUTRE",
            "csv_id": 11882,
            "video_name": "DIVERS_PARL_AD_04_0002"
        },
        {
            "name": "6199",
            "score": "0.975",
            "index": 40,
            "selectedWords": [
                "manifeste",
                "convaincue",
                "nette"
            ],
            "freeResponses": [],
            "nbPlayClick": 1,
            "expression": "NEUTRE",
            "csv_id": 6233,
            "video_name": "DIVERS_PARL_AD_04_0002"
        },
        {
            "name": "6323",
            "score": "0.976",
            "index": 41,
            "selectedWords": [
                "irrit\u00e9e"
            ],
            "freeResponses": [
                "moralisatrice"
            ],
            "nbPlayClick": 1,
            "response": "moralisatrice",
            "expression": "NEUTRE",
            "csv_id": 6357,
            "video_name": "DIVERS_PARL_AD_01_0004"
        },
        {
            "name": "6189",
            "score": "0.975",
            "index": 42,
            "selectedWords": [
                "d\u00e9termin\u00e9e",
                "r\u00e9fl\u00e9chie",
                "infaillible"
            ],
            "freeResponses": [],
            "nbPlayClick": 1,
            "expression": "NEUTRE",
            "csv_id": 6223,
            "video_name": "DIVERS_PARL_AD_06_0002"
        },
        {
            "name": "1252",
            "score": "0.878",
            "index": 43,
            "selectedWords": [
                "certaine",
                "d\u00e9termin\u00e9e"
            ],
            "freeResponses": [],
            "nbPlayClick": 1,
            "response": "d\u00e9",
            "expression": "NEUTRE",
            "csv_id": 1252,
            "video_name": "DIVERS_PARL_AD_06_0003"
        },
        {
            "name": "10418",
            "score": "0.993",
            "index": 44,
            "selectedWords": [
                "\u00e9vidente",
                "d\u00e9cid\u00e9e",
                "emball\u00e9e"
            ],
            "freeResponses": [],
            "nbPlayClick": 1,
            "expression": "NEUTRE",
            "csv_id": 10452,
            "video_name": "DIVERS_BOOK_AD_03_0001"
        },
        {
            "name": "9078",
            "score": "0.989",
            "index": 45,
            "selectedWords": [
                "narquoise"
            ],
            "freeResponses": [
                "moqueuse"
            ],
            "nbPlayClick": 1,
            "response": "moqueuse",
            "expression": "ESPIEGLE",
            "csv_id": 9112,
            "video_name": "DIVERS_PARL_ESPIEGLE_AD_01_0001"
        },
        {
            "name": "7033",
            "score": "0.980",
            "index": 46,
            "selectedWords": [
                "in\u00e9branlable"
            ],
            "freeResponses": [
                "th\u00e9atrale"
            ],
            "nbPlayClick": 1,
            "response": "th\u00e9atrale",
            "expression": "SUPPLIANT",
            "csv_id": 7067,
            "video_name": "DIVERS_PARL_SUPPLIANT_AD_02_0002"
        },
        {
            "name": "5664",
            "score": "0.971",
            "index": 47,
            "selectedWords": [
                "d\u00e9termin\u00e9e",
                "r\u00e9solue",
                "convaincue"
            ],
            "freeResponses": [],
            "nbPlayClick": 1,
            "expression": "NEUTRE",
            "csv_id": 5698,
            "video_name": "DIVERS_PARL_AD_04_0004"
        },
        {
            "name": "7276",
            "score": "0.981",
            "index": 48,
            "selectedWords": [
                "d\u00e9termin\u00e9e",
                "r\u00e9solue",
                "convaincue"
            ],
            "freeResponses": [],
            "nbPlayClick": 1,
            "expression": "NEUTRE",
            "csv_id": 7310,
            "video_name": "DIVERS_PARL_AD_05_0001"
        },
        {
            "name": "11806",
            "score": "0.996",
            "index": 49,
            "selectedWords": [
                "confuse"
            ],
            "freeResponses": [
                "surprise",
                "Etonn\u00e9e"
            ],
            "nbPlayClick": 1,
            "response": "Etonn\u00e9e",
            "expression": "ETONNE",
            "csv_id": 11843,
            "video_name": "DIVERS_BOOK_ETONNE_AD_03_0001"
        },
        {
            "name": "9640",
            "score": "0.990",
            "index": 50,
            "selectedWords": [
                "enthousiaste"
            ],
            "freeResponses": [
                "impliqu\u00e9e"
            ],
            "nbPlayClick": 1,
            "response": "impliqu\u00e9e",
            "expression": "ENTHOUSIASTE",
            "csv_id": 9674,
            "video_name": "DIVERS_BOOK_ENTHOUSIASTE_AD_01_0004"
        },
        {
            "name": "11581",
            "score": "0.996",
            "index": 51,
            "selectedWords": [
                "convaincue",
                "r\u00e9fl\u00e9chie"
            ],
            "freeResponses": [
                "s\u00e9rieuse"
            ],
            "nbPlayClick": 1,
            "response": "s\u00e9rieuse",
            "expression": "NEUTRE",
            "csv_id": 11618,
            "video_name": "DIVERS_PARL_AD_02_0004"
        },
        {
            "name": "8699",
            "score": "0.987",
            "index": 52,
            "selectedWords": [
                "d\u00e9termin\u00e9e",
                "autre",
                "imp\u00e9n\u00e9trable"
            ],
            "freeResponses": [],
            "nbPlayClick": 1,
            "response": "d\u00e9t",
            "expression": "NEUTRE",
            "csv_id": 8733,
            "video_name": "DIVERS_PARL_AD_06_0003"
        },
        {
            "name": "7692",
            "score": "0.983",
            "index": 53,
            "selectedWords": [
                "d\u00e9pit\u00e9e",
                "froide"
            ],
            "freeResponses": [
                "d\u00e9\u00e7ue"
            ],
            "nbPlayClick": 1,
            "response": "d\u00e9\u00e7ue",
            "expression": "NEUTRE",
            "csv_id": 7726,
            "video_name": "DIVERS_PARL_AD_01_0002"
        },
        {
            "name": "9092",
            "score": "0.989",
            "index": 54,
            "selectedWords": [
                "d\u00e9termin\u00e9e",
                "r\u00e9fl\u00e9chie",
                "tonique"
            ],
            "freeResponses": [],
            "nbPlayClick": 1,
            "expression": "NEUTRE",
            "csv_id": 9126,
            "video_name": "DIVERS_PARL_AD_01_0002"
        },
        {
            "name": "3681",
            "score": "0.950",
            "index": 55,
            "selectedWords": [
                "\u00e9tonn\u00e9e",
                "dubitative"
            ],
            "freeResponses": [],
            "nbPlayClick": 1,
            "response": "dub",
            "expression": "ETONNE",
            "csv_id": 3681,
            "video_name": "DIVERS_PARL_ETONNE_AD_01_0001"
        },
        {
            "name": "2538",
            "score": "0.928",
            "index": 56,
            "selectedWords": [
                "r\u00e9fl\u00e9chie",
                "nette",
                "patente"
            ],
            "freeResponses": [],
            "nbPlayClick": 1,
            "response": "r\u00e9fl",
            "expression": "EVIDENCE",
            "csv_id": 2538,
            "video_name": "DIVERS_PARL_EVIDENCE_AD_01_0001"
        },
        {
            "name": "9026",
            "score": "0.988",
            "index": 57,
            "selectedWords": [
                "d\u00e9termin\u00e9e",
                "convaincue",
                "encourageante"
            ],
            "freeResponses": [],
            "nbPlayClick": 1,
            "expression": "NEUTRE",
            "csv_id": 9060,
            "video_name": "DIVERS_PARL_AD_02_0003"
        },
        {
            "name": "5073",
            "score": "0.966",
            "index": 58,
            "selectedWords": [
                "convaincue",
                "encourageante",
                "certaine"
            ],
            "freeResponses": [],
            "nbPlayClick": 2,
            "response": "encour",
            "expression": "NEUTRE",
            "csv_id": 5107,
            "video_name": "DIVERS_PARL_AD_05_0003"
        },
        {
            "name": "7349",
            "score": "0.981",
            "index": 59,
            "selectedWords": [
                "d\u00e9sol\u00e9e",
                "consolante",
                "d\u00e9termin\u00e9e",
                "pr\u00e9occup\u00e9e"
            ],
            "freeResponses": [],
            "nbPlayClick": 1,
            "response": "pr\u00e9",
            "expression": "NEUTRE",
            "csv_id": 7383,
            "video_name": "DIVERS_PARL_AD_03_0002"
        }
    ],
    "training": [
        {
            "name": "77",
            "score": "0.639",
            "index": 0,
            "selectedWords": [
                "d\u00e9termin\u00e9e",
                "r\u00e9fl\u00e9chie",
                "s\u00fbre"
            ],
            "freeResponses": [],
            "nbPlayClick": 1,
            "expression": "NEUTRE"
        }
    ],
    "filenameDate": "2023-08-31_20-59"
}