{
    "user": {
        "isProlific": true,
        "id": "6076d4cc78a872c605a3f1e9",
        "session": "650202986aada96d7df54df8",
        "study": "64ef977375f88e4e1174dce0"
    },
    "userAgent": "Mozilla/5.0 (Windows NT 10.0; Win64; x64; rv:109.0) Gecko/20100101 Firefox/117.0",
    "landingDate": "2023-09-13T18:42:48.987Z",
    "startDate": "2023-09-13T18:44:30.918Z",
    "endDate": "2023-09-13T19:02:26.811Z",
    "reviews": [
        {
            "name": "5520",
            "score": "0.970",
            "index": 0,
            "selectedWords": [
                "enthousiaste",
                "tonique",
                "transport\u00e9e"
            ],
            "freeResponses": [],
            "nbPlayClick": 1,
            "expression": "ENTHOUSIASTE",
            "csv_id": 5554,
            "video_name": "DIVERS_BOOK_ENTHOUSIASTE_AD_01_0001"
        },
        {
            "name": "5460",
            "score": "0.970",
            "index": 1,
            "selectedWords": [
                "neutre",
                "limpide",
                "autre"
            ],
            "freeResponses": [],
            "nbPlayClick": 1,
            "expression": "NEUTRE",
            "csv_id": 5494,
            "video_name": "DIVERS_PARL_AD_03_0001"
        },
        {
            "name": "6547",
            "score": "0.977",
            "index": 2,
            "selectedWords": [
                "pensive",
                "m\u00e9ditative",
                "pensante"
            ],
            "freeResponses": [],
            "nbPlayClick": 2,
            "expression": "DESOLE",
            "csv_id": 6581,
            "video_name": "DIVERS_PARL_DESOLE_AD_02_0002"
        },
        {
            "name": "10057",
            "score": "0.992",
            "index": 3,
            "selectedWords": [
                "espi\u00e8gle",
                "fac\u00e9tieuse"
            ],
            "freeResponses": [],
            "nbPlayClick": 1,
            "expression": "NEUTRE",
            "csv_id": 10091,
            "video_name": "DIVERS_BOOK_AD_03_0001"
        },
        {
            "name": "11583",
            "score": "0.996",
            "index": 4,
            "selectedWords": [
                "d\u00e9termin\u00e9e",
                "manifeste",
                "prouv\u00e9e",
                "indubitable"
            ],
            "freeResponses": [],
            "nbPlayClick": 1,
            "expression": "NEUTRE",
            "csv_id": 11620,
            "video_name": "DIVERS_PARL_AD_05_0004"
        },
        {
            "name": "11947",
            "score": "0.997",
            "index": 5,
            "selectedWords": [
                "neutre",
                "patente",
                "nette"
            ],
            "freeResponses": [],
            "nbPlayClick": 1,
            "expression": "NEUTRE",
            "csv_id": 11984,
            "video_name": "DIVERS_BOOK_AD_03_0002"
        },
        {
            "name": "11877",
            "score": "0.997",
            "index": 6,
            "selectedWords": [
                "\u00e9tonn\u00e9e",
                "autre",
                "dubitative",
                "autre",
                "ennuy\u00e9e"
            ],
            "freeResponses": [],
            "nbPlayClick": 1,
            "expression": "ETONNE",
            "csv_id": 11914,
            "video_name": "DIVERS_PARL_ETONNE_AD_01_0001"
        },
        {
            "name": "5209",
            "score": "0.968",
            "index": 7,
            "selectedWords": [
                "neutre",
                "autre",
                "autre",
                "inexpressive",
                "atone"
            ],
            "freeResponses": [],
            "nbPlayClick": 1,
            "expression": "NEUTRE",
            "csv_id": 5243,
            "video_name": "DIVERS_BOOK_AD_03_0001"
        },
        {
            "name": "9569",
            "score": "0.990",
            "index": 8,
            "selectedWords": [
                "\u00e9tonn\u00e9e",
                "r\u00e9fl\u00e9chie",
                "autre",
                "dubitative"
            ],
            "freeResponses": [],
            "nbPlayClick": 1,
            "expression": "NEUTRE",
            "csv_id": 9603,
            "video_name": "DIVERS_PARL_AD_04_0003"
        },
        {
            "name": "7269",
            "score": "0.981",
            "index": 9,
            "selectedWords": [
                "espi\u00e8gle",
                "narquoise",
                "finaude"
            ],
            "freeResponses": [],
            "nbPlayClick": 1,
            "expression": "NEUTRE",
            "csv_id": 7303,
            "video_name": "DIVERS_PARL_AD_01_0005"
        },
        {
            "name": "11856",
            "score": "0.997",
            "index": 10,
            "selectedWords": [
                "d\u00e9sol\u00e9e",
                "nette",
                "s\u00fbre"
            ],
            "freeResponses": [],
            "nbPlayClick": 1,
            "expression": "SUPPLIANT",
            "csv_id": 11893,
            "video_name": "DIVERS_PARL_SUPPLIANT_AD_02_0002"
        },
        {
            "name": "12194",
            "score": "0.998",
            "index": 11,
            "selectedWords": [
                "neutre",
                "limpide"
            ],
            "freeResponses": [],
            "nbPlayClick": 1,
            "expression": "NEUTRE",
            "csv_id": 12231,
            "video_name": "DIVERS_BOOK_AD_03_0002"
        },
        {
            "name": "10085",
            "score": "0.992",
            "index": 12,
            "selectedWords": [
                "autre",
                "autre",
                "autre",
                "autre",
                "autre",
                "interloqu\u00e9e",
                "d\u00e9concert\u00e9e"
            ],
            "freeResponses": [
                "h\u00e9sitante"
            ],
            "nbPlayClick": 1,
            "response": "h\u00e9sitante",
            "expression": "PENSIF",
            "csv_id": 10119,
            "video_name": "DIVERS_PARL_PENSIF_AD_01_0002"
        },
        {
            "name": "10089",
            "score": "0.992",
            "index": 13,
            "selectedWords": [
                "en col\u00e8re",
                "irrit\u00e9e",
                "m\u00e9contente"
            ],
            "freeResponses": [],
            "nbPlayClick": 1,
            "expression": "COLERE",
            "csv_id": 10123,
            "video_name": "DIVERS_PARL_COLERE_AD_02_0002"
        },
        {
            "name": "2608",
            "score": "0.929",
            "index": 14,
            "selectedWords": [
                "\u00e9vidente",
                "irr\u00e9cusable",
                "ind\u00e9niable"
            ],
            "freeResponses": [],
            "nbPlayClick": 1,
            "expression": "EVIDENCE",
            "csv_id": 2608,
            "video_name": "DIVERS_PARL_EVIDENCE_AD_02_0002"
        },
        {
            "name": "11399",
            "score": "0.995",
            "index": 15,
            "selectedWords": [
                "enthousiaste",
                "triomphale",
                "emball\u00e9e"
            ],
            "freeResponses": [],
            "nbPlayClick": 1,
            "expression": "ESPIEGLE",
            "csv_id": 11433,
            "video_name": "DIVERS_PARL_ESPIEGLE_AD_01_0001"
        },
        {
            "name": "1049",
            "score": "0.864",
            "index": 16,
            "selectedWords": [
                "d\u00e9termin\u00e9e",
                "r\u00e9solue"
            ],
            "freeResponses": [],
            "nbPlayClick": 1,
            "expression": "DETERMINE",
            "csv_id": 1049,
            "video_name": "DIVERS_BOOK_DETERMINE_AD_03_0001"
        },
        {
            "name": "3913",
            "score": "0.953",
            "index": 17,
            "selectedWords": [
                "neutre",
                "limpide"
            ],
            "freeResponses": [],
            "nbPlayClick": 1,
            "expression": "NEUTRE",
            "csv_id": 3913,
            "video_name": "DIVERS_BOOK_AD_01_0002"
        },
        {
            "name": "7257",
            "score": "0.981",
            "index": 18,
            "selectedWords": [
                "autre",
                "dubitative",
                "indign\u00e9e",
                "autre"
            ],
            "freeResponses": [],
            "nbPlayClick": 1,
            "expression": "NEUTRE",
            "csv_id": 7291,
            "video_name": "DIVERS_PARL_AD_05_0003"
        },
        {
            "name": "11137",
            "score": "0.995",
            "index": 19,
            "selectedWords": [
                "neutre",
                "autre",
                "dubitative",
                "sceptique"
            ],
            "freeResponses": [],
            "nbPlayClick": 2,
            "expression": "NEUTRE",
            "csv_id": 11171,
            "video_name": "DIVERS_PARL_AD_02_0004"
        },
        {
            "name": "11730",
            "score": "0.996",
            "index": 20,
            "selectedWords": [
                "d\u00e9termin\u00e9e",
                "autre",
                "autre",
                "autre",
                "d\u00e9lur\u00e9e"
            ],
            "freeResponses": [],
            "nbPlayClick": 3,
            "expression": "COLERE",
            "csv_id": 11767,
            "video_name": "DIVERS_PARL_COLERE_AD_01_0003"
        },
        {
            "name": "10693",
            "score": "0.994",
            "index": 21,
            "selectedWords": [
                "\u00e9tonn\u00e9e",
                "autre",
                "autre",
                "autre",
                "songeuse"
            ],
            "freeResponses": [],
            "nbPlayClick": 2,
            "expression": "NEUTRE",
            "csv_id": 10727,
            "video_name": "DIVERS_PARL_AD_01_0005"
        },
        {
            "name": "1944",
            "score": "0.910",
            "index": 22,
            "selectedWords": [
                "\u00e9vidente",
                "irr\u00e9cusable"
            ],
            "freeResponses": [],
            "nbPlayClick": 1,
            "expression": "DETERMINE",
            "csv_id": 1944,
            "video_name": "DIVERS_PARL_DETERMINE_AD_01_0002"
        },
        {
            "name": "11623",
            "score": "0.996",
            "index": 23,
            "selectedWords": [
                "neutre",
                "limpide"
            ],
            "freeResponses": [],
            "nbPlayClick": 1,
            "expression": "NEUTRE",
            "csv_id": 11660,
            "video_name": "DIVERS_BOOK_AD_01_0001"
        },
        {
            "name": "10431",
            "score": "0.993",
            "index": 24,
            "selectedWords": [
                "neutre",
                "limpide"
            ],
            "freeResponses": [],
            "nbPlayClick": 1,
            "expression": "NEUTRE",
            "csv_id": 10465,
            "video_name": "DIVERS_BOOK_AD_01_0002"
        },
        {
            "name": "12126",
            "score": "0.997",
            "index": 25,
            "selectedWords": [
                "neutre",
                "limpide",
                "autre",
                "autre",
                "autre",
                "atone"
            ],
            "freeResponses": [],
            "nbPlayClick": 1,
            "expression": "NEUTRE",
            "csv_id": 12163,
            "video_name": "DIVERS_BOOK_AD_04_0001"
        },
        {
            "name": "10236",
            "score": "0.992",
            "index": 26,
            "selectedWords": [
                "pensive",
                "r\u00e9fl\u00e9chie",
                "manifeste"
            ],
            "freeResponses": [],
            "nbPlayClick": 1,
            "expression": "NEUTRE",
            "csv_id": 10270,
            "video_name": "DIVERS_PARL_AD_04_0004"
        },
        {
            "name": "4524",
            "score": "0.961",
            "index": 27,
            "selectedWords": [
                "\u00e9vidente",
                "incontestable"
            ],
            "freeResponses": [],
            "nbPlayClick": 1,
            "expression": "NEUTRE",
            "csv_id": 4558,
            "video_name": "DIVERS_PARL_AD_03_0003"
        },
        {
            "name": "10681",
            "score": "0.994",
            "index": 28,
            "selectedWords": [
                "autre",
                "imp\u00e9n\u00e9trable",
                "autre",
                "in\u00e9branlable",
                "indubitable"
            ],
            "freeResponses": [],
            "nbPlayClick": 1,
            "expression": "NEUTRE",
            "csv_id": 10715,
            "video_name": "DIVERS_PARL_AD_04_0003"
        },
        {
            "name": "9146",
            "score": "0.989",
            "index": 29,
            "selectedWords": [
                "\u00e9vidente",
                "irr\u00e9cusable"
            ],
            "freeResponses": [],
            "nbPlayClick": 1,
            "expression": "NEUTRE",
            "csv_id": 9180,
            "video_name": "DIVERS_PARL_AD_02_0001"
        },
        {
            "name": "4257",
            "score": "0.957",
            "index": 30,
            "selectedWords": [
                "\u00e9tonn\u00e9e",
                "autre",
                "dubitative"
            ],
            "freeResponses": [],
            "nbPlayClick": 1,
            "expression": "INCREDULE",
            "csv_id": 4257,
            "video_name": "DIVERS_BOOK_INCREDULE_AD_01_0001"
        },
        {
            "name": "9254",
            "score": "0.989",
            "index": 31,
            "selectedWords": [
                "neutre",
                "limpide"
            ],
            "freeResponses": [],
            "nbPlayClick": 1,
            "expression": "NEUTRE",
            "csv_id": 9288,
            "video_name": "DIVERS_PARL_AD_06_0002"
        },
        {
            "name": "6110",
            "score": "0.975",
            "index": 32,
            "selectedWords": [
                "neutre",
                "limpide"
            ],
            "freeResponses": [],
            "nbPlayClick": 1,
            "expression": "NEUTRE",
            "csv_id": 6144,
            "video_name": "DIVERS_BOOK_AD_01_0002"
        },
        {
            "name": "3709",
            "score": "0.950",
            "index": 33,
            "selectedWords": [
                "enthousiaste",
                "triomphale"
            ],
            "freeResponses": [],
            "nbPlayClick": 1,
            "expression": "ENTHOUSIASTE",
            "csv_id": 3709,
            "video_name": "DIVERS_PARL_ENTHOUSIASTE_AD_02_0001"
        },
        {
            "name": "1540",
            "score": "0.893",
            "index": 34,
            "selectedWords": [
                "\u00e9tonn\u00e9e",
                "autre",
                "fac\u00e9tieuse"
            ],
            "freeResponses": [],
            "nbPlayClick": 1,
            "expression": "ESPIEGLE",
            "csv_id": 1540,
            "video_name": "DIVERS_BOOK_ESPIEGLE_AD_03_0001"
        },
        {
            "name": "10055",
            "score": "0.992",
            "index": 35,
            "selectedWords": [
                "autre",
                "dubitative",
                "indign\u00e9e",
                "agit\u00e9e"
            ],
            "freeResponses": [],
            "nbPlayClick": 1,
            "expression": "SUPPLIANT",
            "csv_id": 10089,
            "video_name": "DIVERS_PARL_SUPPLIANT_AD_02_0001"
        },
        {
            "name": "9584",
            "score": "0.990",
            "index": 36,
            "selectedWords": [
                "autre",
                "autre",
                "autre",
                "autre",
                "autre",
                "autre",
                "autre",
                "r\u00e9fl\u00e9chissante",
                "autre",
                "autre",
                "autre",
                "sceptique"
            ],
            "freeResponses": [],
            "nbPlayClick": 1,
            "expression": "PENSIF",
            "csv_id": 9618,
            "video_name": "DIVERS_PARL_PENSIF_AD_01_0002"
        },
        {
            "name": "3473",
            "score": "0.946",
            "index": 37,
            "selectedWords": [
                "enthousiaste",
                "triomphale"
            ],
            "freeResponses": [],
            "nbPlayClick": 1,
            "expression": "ESPIEGLE",
            "csv_id": 3473,
            "video_name": "DIVERS_PARL_ESPIEGLE_AD_01_0001"
        },
        {
            "name": "11971",
            "score": "0.997",
            "index": 38,
            "selectedWords": [
                "d\u00e9termin\u00e9e",
                "autre",
                "autre",
                "autre",
                "autre",
                "autre",
                "autre",
                "incontestable"
            ],
            "freeResponses": [],
            "nbPlayClick": 1,
            "expression": "COLERE",
            "csv_id": 12008,
            "video_name": "DIVERS_PARL_COLERE_AD_02_0002"
        },
        {
            "name": "9794",
            "score": "0.991",
            "index": 39,
            "selectedWords": [
                "neutre",
                "limpide"
            ],
            "freeResponses": [],
            "nbPlayClick": 1,
            "expression": "NEUTRE",
            "csv_id": 9828,
            "video_name": "DIVERS_PARL_AD_02_0001"
        },
        {
            "name": "3244",
            "score": "0.943",
            "index": 40,
            "selectedWords": [
                "\u00e9tonn\u00e9e",
                "autre",
                "autre",
                "autre",
                "songeuse"
            ],
            "freeResponses": [],
            "nbPlayClick": 1,
            "expression": "INCREDULE",
            "csv_id": 3244,
            "video_name": "DIVERS_BOOK_INCREDULE_AD_01_0001"
        },
        {
            "name": "8685",
            "score": "0.987",
            "index": 41,
            "selectedWords": [
                "atone",
                "terne"
            ],
            "freeResponses": [],
            "nbPlayClick": 1,
            "response": "aton",
            "expression": "NEUTRE",
            "csv_id": 8719,
            "video_name": "DIVERS_PARL_AD_04_0001"
        },
        {
            "name": "11347",
            "score": "0.995",
            "index": 42,
            "selectedWords": [
                "enthousiaste",
                "euphorique",
                "exalt\u00e9e"
            ],
            "freeResponses": [],
            "nbPlayClick": 1,
            "expression": "ENTHOUSIASTE",
            "csv_id": 11381,
            "video_name": "DIVERS_BOOK_ENTHOUSIASTE_AD_01_0001"
        },
        {
            "name": "10187",
            "score": "0.992",
            "index": 43,
            "selectedWords": [
                "incr\u00e9dule",
                "dubitative"
            ],
            "freeResponses": [],
            "nbPlayClick": 1,
            "expression": "NEUTRE",
            "csv_id": 10221,
            "video_name": "DIVERS_BOOK_AD_03_0001"
        },
        {
            "name": "9028",
            "score": "0.988",
            "index": 44,
            "selectedWords": [
                "neutre",
                "atone"
            ],
            "freeResponses": [],
            "nbPlayClick": 1,
            "response": "aton",
            "expression": "NEUTRE",
            "csv_id": 9062,
            "video_name": "DIVERS_BOOK_AD_03_0001"
        },
        {
            "name": "8558",
            "score": "0.987",
            "index": 45,
            "selectedWords": [
                "d\u00e9termin\u00e9e",
                "manifeste"
            ],
            "freeResponses": [],
            "nbPlayClick": 1,
            "expression": "NEUTRE",
            "csv_id": 8592,
            "video_name": "DIVERS_PARL_AD_01_0005"
        },
        {
            "name": "1157",
            "score": "0.872",
            "index": 46,
            "selectedWords": [
                "autre",
                "imp\u00e9n\u00e9trable",
                "tonique",
                "limpide"
            ],
            "freeResponses": [],
            "nbPlayClick": 1,
            "expression": "NEUTRE",
            "csv_id": 1157,
            "video_name": "DIVERS_PARL_AD_04_0004"
        },
        {
            "name": "4782",
            "score": "0.964",
            "index": 47,
            "selectedWords": [
                "enthousiaste",
                "triomphale"
            ],
            "freeResponses": [],
            "nbPlayClick": 1,
            "expression": "ESPIEGLE",
            "csv_id": 4816,
            "video_name": "DIVERS_PARL_ESPIEGLE_AD_01_0001"
        },
        {
            "name": "6975",
            "score": "0.979",
            "index": 48,
            "selectedWords": [
                "\u00e9tonn\u00e9e",
                "rageuse"
            ],
            "freeResponses": [],
            "nbPlayClick": 1,
            "expression": "NEUTRE",
            "csv_id": 7009,
            "video_name": "DIVERS_PARL_AD_01_0005"
        },
        {
            "name": "2633",
            "score": "0.930",
            "index": 49,
            "selectedWords": [
                "afflig\u00e9e",
                "contrari\u00e9e"
            ],
            "freeResponses": [],
            "nbPlayClick": 2,
            "expression": "EVIDENCE",
            "csv_id": 2633,
            "video_name": "DIVERS_PARL_EVIDENCE_AD_02_0002"
        },
        {
            "name": "7177",
            "score": "0.980",
            "index": 50,
            "selectedWords": [
                "\u00e9tonn\u00e9e",
                "courrouc\u00e9e"
            ],
            "freeResponses": [],
            "nbPlayClick": 1,
            "response": "",
            "expression": "ETONNE",
            "csv_id": 7211,
            "video_name": "DIVERS_BOOK_ETONNE_AD_01_0002"
        },
        {
            "name": "8945",
            "score": "0.988",
            "index": 51,
            "selectedWords": [
                "neutre",
                "limpide"
            ],
            "freeResponses": [],
            "nbPlayClick": 1,
            "expression": "NEUTRE",
            "csv_id": 8979,
            "video_name": "DIVERS_BOOK_AD_01_0001"
        },
        {
            "name": "10421",
            "score": "0.993",
            "index": 52,
            "selectedWords": [
                "neutre",
                "atone"
            ],
            "freeResponses": [],
            "nbPlayClick": 1,
            "response": "",
            "expression": "NEUTRE",
            "csv_id": 10455,
            "video_name": "DIVERS_PARL_AD_05_0001"
        },
        {
            "name": "1684",
            "score": "0.900",
            "index": 53,
            "selectedWords": [
                "autre",
                "dubitative",
                "indign\u00e9e"
            ],
            "freeResponses": [],
            "nbPlayClick": 1,
            "expression": "INCREDULE",
            "csv_id": 1684,
            "video_name": "DIVERS_PARL_INCREDULE_AD_01_0001"
        },
        {
            "name": "11798",
            "score": "0.996",
            "index": 54,
            "selectedWords": [
                "autre",
                "inexpressive",
                "froide"
            ],
            "freeResponses": [],
            "nbPlayClick": 1,
            "expression": "NEUTRE",
            "csv_id": 11835,
            "video_name": "DIVERS_PARL_AD_01_0005"
        },
        {
            "name": "12299",
            "score": "0.998",
            "index": 55,
            "selectedWords": [
                "autre",
                "dubitative",
                "sceptique",
                "opini\u00e2tre"
            ],
            "freeResponses": [],
            "nbPlayClick": 1,
            "expression": "PENSIF",
            "csv_id": 12336,
            "video_name": "DIVERS_PARL_PENSIF_AD_01_0002"
        },
        {
            "name": "8394",
            "score": "0.986",
            "index": 56,
            "selectedWords": [
                "espi\u00e8gle",
                "fac\u00e9tieuse",
                "finaude"
            ],
            "freeResponses": [],
            "nbPlayClick": 1,
            "expression": "ESPIEGLE",
            "csv_id": 8428,
            "video_name": "DIVERS_PARL_ESPIEGLE_AD_01_0001"
        },
        {
            "name": "10789",
            "score": "0.994",
            "index": 57,
            "selectedWords": [
                "neutre",
                "limpide"
            ],
            "freeResponses": [],
            "nbPlayClick": 1,
            "expression": "NEUTRE",
            "csv_id": 10823,
            "video_name": "DIVERS_PARL_AD_02_0003"
        },
        {
            "name": "7231",
            "score": "0.981",
            "index": 58,
            "selectedWords": [
                "enthousiaste",
                "euphorique"
            ],
            "freeResponses": [],
            "nbPlayClick": 1,
            "expression": "ENTHOUSIASTE",
            "csv_id": 7265,
            "video_name": "DIVERS_BOOK_ENTHOUSIASTE_AD_01_0001"
        },
        {
            "name": "5633",
            "score": "0.971",
            "index": 59,
            "selectedWords": [
                "autre",
                "fac\u00e9tieuse"
            ],
            "freeResponses": [
                "Motiv\u00e9e"
            ],
            "nbPlayClick": 1,
            "response": "Motiv\u00e9e",
            "expression": "ESPIEGLE",
            "csv_id": 5667,
            "video_name": "DIVERS_BOOK_ESPIEGLE_AD_03_0001"
        }
    ],
    "training": [
        {
            "name": "77",
            "score": "0.639",
            "index": 0,
            "selectedWords": [
                "\u00e9vidente",
                "indubitable",
                "certaine",
                "tonique"
            ],
            "freeResponses": [],
            "nbPlayClick": 2,
            "expression": "NEUTRE"
        }
    ],
    "filenameDate": "2023-09-13_21-2"
}