{
    "user": {
        "isProlific": true,
        "id": "60958da3263538125e8cb59e",
        "session": "661e7ba71847a08133f365dc",
        "study": "64ef977375f88e4e1174dce0"
    },
    "userAgent": "Mozilla/5.0 (Windows NT 10.0; Win64; x64) AppleWebKit/537.36 (KHTML, like Gecko) Chrome/123.0.0.0 Safari/537.36",
    "landingDate": "2024-04-16T13:22:55.336Z",
    "startDate": "2024-04-16T13:24:14.734Z",
    "endDate": "2024-04-16T13:40:44.424Z",
    "reviews": [
        {
            "name": "10114",
            "score": "0.992",
            "index": 0,
            "selectedWords": [
                "pensive",
                "r\u00e9fl\u00e9chie",
                "nette"
            ],
            "freeResponses": [],
            "nbPlayClick": 2,
            "expression": "NEUTRE",
            "csv_id": 10148,
            "video_name": "DIVERS_BOOK_AD_04_0002"
        },
        {
            "name": "9716",
            "score": "0.991",
            "index": 1,
            "selectedWords": [
                "enthousiaste",
                "euphorique"
            ],
            "freeResponses": [],
            "nbPlayClick": 1,
            "expression": "RECONFORTANT",
            "csv_id": 9750,
            "video_name": "DIVERS_BOOK_RECONFORTANT_AD_01_0002"
        },
        {
            "name": "6053",
            "score": "0.974",
            "index": 2,
            "selectedWords": [
                "suppliante",
                "larmoyante"
            ],
            "freeResponses": [],
            "nbPlayClick": 1,
            "expression": "SUPPLIANT",
            "csv_id": 6087,
            "video_name": "DIVERS_BOOK_SUPPLIANT_AD_01_0004"
        },
        {
            "name": "5726",
            "score": "0.972",
            "index": 3,
            "selectedWords": [
                "neutre",
                "limpide"
            ],
            "freeResponses": [],
            "nbPlayClick": 1,
            "expression": "NEUTRE",
            "csv_id": 5760,
            "video_name": "DIVERS_BOOK_AD_01_0002"
        },
        {
            "name": "4635",
            "score": "0.962",
            "index": 4,
            "selectedWords": [
                "neutre",
                "certaine"
            ],
            "freeResponses": [],
            "nbPlayClick": 1,
            "expression": "NEUTRE",
            "csv_id": 4669,
            "video_name": "DIVERS_PARL_AD_06_0004"
        },
        {
            "name": "8696",
            "score": "0.987",
            "index": 5,
            "selectedWords": [
                "autre",
                "autre",
                "atone",
                "autre",
                "attrist\u00e9e"
            ],
            "freeResponses": [],
            "nbPlayClick": 1,
            "expression": "DESOLE",
            "csv_id": 8730,
            "video_name": "DIVERS_PARL_DESOLE_AD_02_0002"
        },
        {
            "name": "10000",
            "score": "0.992",
            "index": 6,
            "selectedWords": [
                "d\u00e9termin\u00e9e",
                "autre",
                "autre",
                "autre",
                "autre",
                "in\u00e9branlable"
            ],
            "freeResponses": [],
            "nbPlayClick": 1,
            "expression": "NEUTRE",
            "csv_id": 10034,
            "video_name": "DIVERS_PARL_AD_02_0002"
        },
        {
            "name": "8541",
            "score": "0.987",
            "index": 7,
            "selectedWords": [
                "enthousiaste",
                "triomphale"
            ],
            "freeResponses": [],
            "nbPlayClick": 1,
            "expression": "RECONFORTANT",
            "csv_id": 8575,
            "video_name": "DIVERS_BOOK_RECONFORTANT_AD_01_0004"
        },
        {
            "name": "2565",
            "score": "0.928",
            "index": 8,
            "selectedWords": [
                "\u00e9vidente",
                "patente",
                "certaine"
            ],
            "freeResponses": [],
            "nbPlayClick": 2,
            "expression": "EVIDENCE",
            "csv_id": 2565,
            "video_name": "DIVERS_PARL_EVIDENCE_AD_01_0001"
        },
        {
            "name": "9931",
            "score": "0.991",
            "index": 9,
            "selectedWords": [
                "\u00e9vidente",
                "autre",
                "autre",
                "autre",
                "autre",
                "autre",
                "autre",
                "autre",
                "autre",
                "autre",
                "autre",
                "d\u00e9pit\u00e9e"
            ],
            "freeResponses": [],
            "nbPlayClick": 1,
            "expression": "NEUTRE",
            "csv_id": 9965,
            "video_name": "DIVERS_PARL_AD_03_0002"
        },
        {
            "name": "6669",
            "score": "0.978",
            "index": 10,
            "selectedWords": [
                "d\u00e9termin\u00e9e",
                "r\u00e9fl\u00e9chie"
            ],
            "freeResponses": [],
            "nbPlayClick": 1,
            "expression": "NEUTRE",
            "csv_id": 6703,
            "video_name": "DIVERS_PARL_AD_03_0001"
        },
        {
            "name": "928",
            "score": "0.854",
            "index": 11,
            "selectedWords": [
                "d\u00e9termin\u00e9e",
                "transport\u00e9e"
            ],
            "freeResponses": [],
            "nbPlayClick": 1,
            "expression": "ENTHOUSIASTE",
            "csv_id": 928,
            "video_name": "DIVERS_PARL_ENTHOUSIASTE_AD_01_0003"
        },
        {
            "name": "10834",
            "score": "0.994",
            "index": 12,
            "selectedWords": [
                "d\u00e9termin\u00e9e",
                "r\u00e9solue"
            ],
            "freeResponses": [],
            "nbPlayClick": 1,
            "expression": "DETERMINE",
            "csv_id": 10868,
            "video_name": "DIVERS_PARL_DETERMINE_AD_01_0004"
        },
        {
            "name": "10749",
            "score": "0.994",
            "index": 13,
            "selectedWords": [
                "enthousiaste",
                "coquine"
            ],
            "freeResponses": [],
            "nbPlayClick": 1,
            "expression": "ESPIEGLE",
            "csv_id": 10783,
            "video_name": "DIVERS_BOOK_ESPIEGLE_AD_03_0001"
        },
        {
            "name": "10342",
            "score": "0.993",
            "index": 14,
            "selectedWords": [
                "neutre",
                "s\u00fbre"
            ],
            "freeResponses": [],
            "nbPlayClick": 1,
            "expression": "NEUTRE",
            "csv_id": 10376,
            "video_name": "DIVERS_PARL_AD_03_0001"
        },
        {
            "name": "11925",
            "score": "0.997",
            "index": 15,
            "selectedWords": [
                "d\u00e9termin\u00e9e",
                "manifeste"
            ],
            "freeResponses": [],
            "nbPlayClick": 1,
            "expression": "NEUTRE",
            "csv_id": 11962,
            "video_name": "DIVERS_PARL_AD_06_0001"
        },
        {
            "name": "11392",
            "score": "0.995",
            "index": 16,
            "selectedWords": [
                "d\u00e9termin\u00e9e",
                "r\u00e9fl\u00e9chie"
            ],
            "freeResponses": [],
            "nbPlayClick": 1,
            "expression": "NEUTRE",
            "csv_id": 11426,
            "video_name": "DIVERS_PARL_AD_03_0004"
        },
        {
            "name": "9326",
            "score": "0.989",
            "index": 17,
            "selectedWords": [
                "enthousiaste",
                "euphorique",
                "excit\u00e9e"
            ],
            "freeResponses": [],
            "nbPlayClick": 1,
            "expression": "ENTHOUSIASTE",
            "csv_id": 9360,
            "video_name": "DIVERS_BOOK_ENTHOUSIASTE_AD_01_0004"
        },
        {
            "name": "7557",
            "score": "0.982",
            "index": 18,
            "selectedWords": [
                "d\u00e9termin\u00e9e",
                "r\u00e9solue"
            ],
            "freeResponses": [],
            "nbPlayClick": 1,
            "expression": "NEUTRE",
            "csv_id": 7591,
            "video_name": "DIVERS_PARL_AD_04_0002"
        },
        {
            "name": "8116",
            "score": "0.985",
            "index": 19,
            "selectedWords": [
                "d\u00e9sol\u00e9e",
                "r\u00e9fl\u00e9chie"
            ],
            "freeResponses": [],
            "nbPlayClick": 1,
            "expression": "SUPPLIANT",
            "csv_id": 8150,
            "video_name": "DIVERS_PARL_SUPPLIANT_AD_02_0002"
        },
        {
            "name": "7284",
            "score": "0.981",
            "index": 20,
            "selectedWords": [
                "en col\u00e8re",
                "irrit\u00e9e"
            ],
            "freeResponses": [],
            "nbPlayClick": 1,
            "expression": "COLERE",
            "csv_id": 7318,
            "video_name": "DIVERS_PARL_COLERE_AD_02_0002"
        },
        {
            "name": "9476",
            "score": "0.990",
            "index": 21,
            "selectedWords": [
                "espi\u00e8gle",
                "taquine",
                "terne"
            ],
            "freeResponses": [],
            "nbPlayClick": 1,
            "expression": "NEUTRE",
            "csv_id": 9510,
            "video_name": "DIVERS_BOOK_AD_04_0001"
        },
        {
            "name": "2825",
            "score": "0.934",
            "index": 22,
            "selectedWords": [
                "neutre",
                "certaine"
            ],
            "freeResponses": [],
            "nbPlayClick": 1,
            "expression": "NEUTRE",
            "csv_id": 2825,
            "video_name": "DIVERS_PARL_AD_04_0001"
        },
        {
            "name": "12052",
            "score": "0.997",
            "index": 23,
            "selectedWords": [
                "neutre",
                "limpide"
            ],
            "freeResponses": [],
            "nbPlayClick": 1,
            "expression": "NEUTRE",
            "csv_id": 12089,
            "video_name": "DIVERS_PARL_AD_04_0001"
        },
        {
            "name": "12167",
            "score": "0.998",
            "index": 24,
            "selectedWords": [
                "pensive",
                "songeuse"
            ],
            "freeResponses": [],
            "nbPlayClick": 1,
            "expression": "PENSIF",
            "csv_id": 12204,
            "video_name": "DIVERS_PARL_PENSIF_AD_01_0002"
        },
        {
            "name": "8283",
            "score": "0.985",
            "index": 25,
            "selectedWords": [
                "d\u00e9termin\u00e9e",
                "r\u00e9fl\u00e9chie"
            ],
            "freeResponses": [],
            "nbPlayClick": 1,
            "expression": "NEUTRE",
            "csv_id": 8317,
            "video_name": "DIVERS_PARL_AD_03_0002"
        },
        {
            "name": "10645",
            "score": "0.993",
            "index": 26,
            "selectedWords": [
                "neutre",
                "limpide"
            ],
            "freeResponses": [],
            "nbPlayClick": 1,
            "expression": "NEUTRE",
            "csv_id": 10679,
            "video_name": "DIVERS_PARL_AD_06_0004"
        },
        {
            "name": "12030",
            "score": "0.997",
            "index": 27,
            "selectedWords": [
                "enthousiaste",
                "triomphale"
            ],
            "freeResponses": [],
            "nbPlayClick": 1,
            "expression": "ENTHOUSIASTE",
            "csv_id": 12067,
            "video_name": "DIVERS_PARL_ENTHOUSIASTE_AD_02_0001"
        },
        {
            "name": "312",
            "score": "0.767",
            "index": 28,
            "selectedWords": [
                "d\u00e9termin\u00e9e",
                "r\u00e9solue"
            ],
            "freeResponses": [],
            "nbPlayClick": 1,
            "expression": "NEUTRE",
            "csv_id": 312,
            "video_name": "DIVERS_PARL_AD_04_0004"
        },
        {
            "name": "8492",
            "score": "0.986",
            "index": 29,
            "selectedWords": [
                "neutre",
                "limpide"
            ],
            "freeResponses": [],
            "nbPlayClick": 1,
            "expression": "NEUTRE",
            "csv_id": 8526,
            "video_name": "DIVERS_PARL_AD_05_0001"
        },
        {
            "name": "5428",
            "score": "0.969",
            "index": 30,
            "selectedWords": [
                "\u00e9vidente",
                "indubitable"
            ],
            "freeResponses": [],
            "nbPlayClick": 1,
            "expression": "NEUTRE",
            "csv_id": 5462,
            "video_name": "DIVERS_BOOK_AD_04_0002"
        },
        {
            "name": "1888",
            "score": "0.908",
            "index": 31,
            "selectedWords": [
                "espi\u00e8gle",
                "malicieuse"
            ],
            "freeResponses": [],
            "nbPlayClick": 1,
            "expression": "ESPIEGLE",
            "csv_id": 1888,
            "video_name": "DIVERS_PARL_ESPIEGLE_AD_01_0001"
        },
        {
            "name": "8995",
            "score": "0.988",
            "index": 32,
            "selectedWords": [
                "d\u00e9sol\u00e9e",
                "autre",
                "autre",
                "consolante"
            ],
            "freeResponses": [],
            "nbPlayClick": 1,
            "expression": "SUPPLIANT",
            "csv_id": 9029,
            "video_name": "DIVERS_BOOK_SUPPLIANT_AD_01_0002"
        },
        {
            "name": "12221",
            "score": "0.998",
            "index": 33,
            "selectedWords": [
                "pensive",
                "r\u00e9fl\u00e9chissante"
            ],
            "freeResponses": [],
            "nbPlayClick": 1,
            "expression": "PENSIF",
            "csv_id": 12258,
            "video_name": "DIVERS_PARL_PENSIF_AD_01_0002"
        },
        {
            "name": "11708",
            "score": "0.996",
            "index": 34,
            "selectedWords": [
                "neutre",
                "limpide"
            ],
            "freeResponses": [],
            "nbPlayClick": 1,
            "expression": "NEUTRE",
            "csv_id": 11745,
            "video_name": "DIVERS_PARL_AD_02_0003"
        },
        {
            "name": "8998",
            "score": "0.988",
            "index": 35,
            "selectedWords": [
                "\u00e9tonn\u00e9e",
                "autre",
                "autre",
                "autre",
                "estomaqu\u00e9e"
            ],
            "freeResponses": [],
            "nbPlayClick": 1,
            "expression": "ETONNE",
            "csv_id": 9032,
            "video_name": "DIVERS_BOOK_ETONNE_AD_01_0004"
        },
        {
            "name": "11299",
            "score": "0.995",
            "index": 36,
            "selectedWords": [
                "d\u00e9termin\u00e9e",
                "autre",
                "autre",
                "autre",
                "autre",
                "autre",
                "autre",
                "autre",
                "autre",
                "autre",
                "autre",
                "d\u00e9cid\u00e9e"
            ],
            "freeResponses": [],
            "nbPlayClick": 1,
            "expression": "NEUTRE",
            "csv_id": 11333,
            "video_name": "DIVERS_PARL_AD_02_0003"
        },
        {
            "name": "4121",
            "score": "0.956",
            "index": 37,
            "selectedWords": [
                "enthousiaste",
                "triomphale"
            ],
            "freeResponses": [],
            "nbPlayClick": 1,
            "expression": "ENTHOUSIASTE",
            "csv_id": 4121,
            "video_name": "DIVERS_PARL_ENTHOUSIASTE_AD_01_0003"
        },
        {
            "name": "10167",
            "score": "0.992",
            "index": 38,
            "selectedWords": [
                "neutre",
                "certaine"
            ],
            "freeResponses": [],
            "nbPlayClick": 1,
            "expression": "NEUTRE",
            "csv_id": 10201,
            "video_name": "DIVERS_PARL_AD_04_0002"
        },
        {
            "name": "10656",
            "score": "0.994",
            "index": 39,
            "selectedWords": [
                "\u00e9tonn\u00e9e",
                "autre",
                "autre",
                "autre",
                "confuse"
            ],
            "freeResponses": [],
            "nbPlayClick": 3,
            "expression": "ETONNE",
            "csv_id": 10690,
            "video_name": "DIVERS_PARL_ETONNE_AD_01_0001"
        },
        {
            "name": "8394",
            "score": "0.986",
            "index": 40,
            "selectedWords": [
                "espi\u00e8gle",
                "malicieuse"
            ],
            "freeResponses": [],
            "nbPlayClick": 1,
            "expression": "ESPIEGLE",
            "csv_id": 8428,
            "video_name": "DIVERS_PARL_ESPIEGLE_AD_01_0001"
        },
        {
            "name": "10137",
            "score": "0.992",
            "index": 41,
            "selectedWords": [
                "neutre",
                "limpide"
            ],
            "freeResponses": [],
            "nbPlayClick": 1,
            "expression": "COLERE",
            "csv_id": 10171,
            "video_name": "DIVERS_PARL_COLERE_AD_01_0004"
        },
        {
            "name": "10889",
            "score": "0.994",
            "index": 42,
            "selectedWords": [
                "d\u00e9termin\u00e9e",
                "manifeste"
            ],
            "freeResponses": [],
            "nbPlayClick": 2,
            "expression": "NEUTRE",
            "csv_id": 10923,
            "video_name": "DIVERS_PARL_AD_02_0001"
        },
        {
            "name": "8028",
            "score": "0.984",
            "index": 43,
            "selectedWords": [
                "d\u00e9termin\u00e9e",
                "manifeste"
            ],
            "freeResponses": [],
            "nbPlayClick": 1,
            "expression": "NEUTRE",
            "csv_id": 8062,
            "video_name": "DIVERS_PARL_AD_02_0003"
        },
        {
            "name": "517",
            "score": "0.808",
            "index": 44,
            "selectedWords": [
                "incr\u00e9dule",
                "dubitative"
            ],
            "freeResponses": [],
            "nbPlayClick": 1,
            "expression": "EVIDENCE",
            "csv_id": 517,
            "video_name": "DIVERS_PARL_EVIDENCE_AD_02_0002"
        },
        {
            "name": "1881",
            "score": "0.908",
            "index": 45,
            "selectedWords": [
                "d\u00e9termin\u00e9e",
                "r\u00e9solue"
            ],
            "freeResponses": [],
            "nbPlayClick": 1,
            "expression": "NEUTRE",
            "csv_id": 1881,
            "video_name": "DIVERS_PARL_AD_04_0003"
        },
        {
            "name": "7885",
            "score": "0.984",
            "index": 46,
            "selectedWords": [
                "neutre",
                "notoire"
            ],
            "freeResponses": [],
            "nbPlayClick": 1,
            "expression": "DETERMINE",
            "csv_id": 7919,
            "video_name": "DIVERS_PARL_DETERMINE_AD_01_0002"
        },
        {
            "name": "10310",
            "score": "0.993",
            "index": 47,
            "selectedWords": [
                "d\u00e9termin\u00e9e",
                "manifeste"
            ],
            "freeResponses": [],
            "nbPlayClick": 1,
            "expression": "NEUTRE",
            "csv_id": 10344,
            "video_name": "DIVERS_PARL_AD_02_0004"
        },
        {
            "name": "3778",
            "score": "0.951",
            "index": 48,
            "selectedWords": [
                "d\u00e9termin\u00e9e",
                "r\u00e9solue"
            ],
            "freeResponses": [],
            "nbPlayClick": 1,
            "expression": "NEUTRE",
            "csv_id": 3778,
            "video_name": "DIVERS_PARL_AD_03_0002"
        },
        {
            "name": "7055",
            "score": "0.980",
            "index": 49,
            "selectedWords": [
                "neutre",
                "limpide"
            ],
            "freeResponses": [],
            "nbPlayClick": 1,
            "expression": "NEUTRE",
            "csv_id": 7089,
            "video_name": "DIVERS_PARL_AD_05_0001"
        },
        {
            "name": "6288",
            "score": "0.976",
            "index": 50,
            "selectedWords": [
                "en col\u00e8re",
                "irrit\u00e9e"
            ],
            "freeResponses": [],
            "nbPlayClick": 1,
            "expression": "COLERE",
            "csv_id": 6322,
            "video_name": "DIVERS_PARL_COLERE_AD_01_0003"
        },
        {
            "name": "5962",
            "score": "0.974",
            "index": 51,
            "selectedWords": [
                "neutre",
                "limpide"
            ],
            "freeResponses": [],
            "nbPlayClick": 1,
            "expression": "NEUTRE",
            "csv_id": 5996,
            "video_name": "DIVERS_PARL_AD_03_0002"
        },
        {
            "name": "7100",
            "score": "0.980",
            "index": 52,
            "selectedWords": [
                "incr\u00e9dule",
                "dubitative"
            ],
            "freeResponses": [],
            "nbPlayClick": 1,
            "expression": "EVIDENCE",
            "csv_id": 7134,
            "video_name": "DIVERS_BOOK_EVIDENCE_AD_01_0002"
        },
        {
            "name": "9180",
            "score": "0.989",
            "index": 53,
            "selectedWords": [
                "neutre",
                "limpide"
            ],
            "freeResponses": [],
            "nbPlayClick": 1,
            "expression": "NEUTRE",
            "csv_id": 9214,
            "video_name": "DIVERS_BOOK_AD_03_0001"
        },
        {
            "name": "5813",
            "score": "0.973",
            "index": 54,
            "selectedWords": [
                "\u00e9tonn\u00e9e",
                "autre",
                "autre",
                "\u00e9bahie"
            ],
            "freeResponses": [],
            "nbPlayClick": 1,
            "expression": "ETONNE",
            "csv_id": 5847,
            "video_name": "DIVERS_BOOK_ETONNE_AD_01_0002"
        },
        {
            "name": "3321",
            "score": "0.944",
            "index": 55,
            "selectedWords": [
                "d\u00e9termin\u00e9e",
                "manifeste"
            ],
            "freeResponses": [],
            "nbPlayClick": 1,
            "expression": "NEUTRE",
            "csv_id": 3321,
            "video_name": "DIVERS_PARL_AD_04_0004"
        },
        {
            "name": "4964",
            "score": "0.965",
            "index": 56,
            "selectedWords": [
                "incr\u00e9dule",
                "dubitative"
            ],
            "freeResponses": [],
            "nbPlayClick": 1,
            "expression": "INCREDULE",
            "csv_id": 4998,
            "video_name": "DIVERS_BOOK_INCREDULE_AD_01_0001"
        },
        {
            "name": "9562",
            "score": "0.990",
            "index": 57,
            "selectedWords": [
                "enthousiaste",
                "tonique"
            ],
            "freeResponses": [],
            "nbPlayClick": 1,
            "expression": "ENTHOUSIASTE",
            "csv_id": 9596,
            "video_name": "DIVERS_PARL_ENTHOUSIASTE_AD_01_0003"
        },
        {
            "name": "7335",
            "score": "0.981",
            "index": 58,
            "selectedWords": [
                "neutre",
                "limpide"
            ],
            "freeResponses": [],
            "nbPlayClick": 1,
            "expression": "NEUTRE",
            "csv_id": 7369,
            "video_name": "DIVERS_PARL_AD_06_0003"
        },
        {
            "name": "7220",
            "score": "0.981",
            "index": 59,
            "selectedWords": [
                "neutre",
                "certaine"
            ],
            "freeResponses": [],
            "nbPlayClick": 1,
            "expression": "DESOLE",
            "csv_id": 7254,
            "video_name": "DIVERS_PARL_DESOLE_AD_01_0004"
        }
    ],
    "training": [
        {
            "name": "77",
            "score": "0.639",
            "index": 0,
            "selectedWords": [
                "d\u00e9termin\u00e9e",
                "r\u00e9fl\u00e9chie"
            ],
            "freeResponses": [],
            "nbPlayClick": 1,
            "expression": "NEUTRE"
        }
    ],
    "filenameDate": "2024-04-16_15-40"
}