{
    "user": {
        "isProlific": true,
        "id": "609a4878c4ce278170505972",
        "session": "6513c91b5bc1055d0110d81f",
        "study": "64ef977375f88e4e1174dce0"
    },
    "userAgent": "Mozilla/5.0 (Windows NT 10.0; Win64; x64) AppleWebKit/537.36 (KHTML, like Gecko) Chrome/117.0.0.0 Safari/537.36 Edg/117.0.2045.43",
    "landingDate": "2023-09-27T06:18:44.023Z",
    "startDate": "2023-09-27T06:24:57.747Z",
    "endDate": "2023-09-27T07:18:11.032Z",
    "reviews": [
        {
            "name": "4723",
            "score": "0.963",
            "index": 0,
            "selectedWords": [
                "autre",
                "autre",
                "neutre",
                "notoire",
                "ferme"
            ],
            "freeResponses": [],
            "nbPlayClick": 3,
            "response": "neut",
            "expression": "NEUTRE",
            "csv_id": 4757,
            "video_name": "DIVERS_PARL_AD_03_0003"
        },
        {
            "name": "585",
            "score": "0.818",
            "index": 1,
            "selectedWords": [
                "r\u00e9confortante",
                "encourageante",
                "autre",
                "autre",
                "autre",
                "autre",
                "d\u00e9cid\u00e9e",
                "s\u00fbre"
            ],
            "freeResponses": [],
            "nbPlayClick": 1,
            "expression": "NEUTRE",
            "csv_id": 585,
            "video_name": "DIVERS_PARL_AD_01_0004"
        },
        {
            "name": "4094",
            "score": "0.955",
            "index": 2,
            "selectedWords": [
                "autre",
                "autre",
                "autre",
                "autre",
                "autre",
                "autre",
                "d\u00e9cid\u00e9e",
                "r\u00e9solue",
                "convaincue",
                "indiscutable",
                "notoire",
                "officielle",
                "froide"
            ],
            "freeResponses": [],
            "nbPlayClick": 3,
            "expression": "NEUTRE",
            "csv_id": 4094,
            "video_name": "DIVERS_PARL_AD_01_0000"
        },
        {
            "name": "1668",
            "score": "0.899",
            "index": 3,
            "selectedWords": [
                "autre",
                "autre",
                "autre",
                "malicieuse",
                "autre",
                "autre",
                "indign\u00e9e",
                "autre",
                "autre",
                "autre",
                "autre",
                "autre"
            ],
            "freeResponses": [],
            "nbPlayClick": 2,
            "expression": "NEUTRE",
            "csv_id": 1668,
            "video_name": "DIVERS_PARL_AD_06_0004"
        },
        {
            "name": "3091",
            "score": "0.940",
            "index": 4,
            "selectedWords": [
                "ferme",
                "nette"
            ],
            "freeResponses": [],
            "nbPlayClick": 3,
            "expression": "NEUTRE",
            "csv_id": 3091,
            "video_name": "DIVERS_PARL_AD_01_0004"
        },
        {
            "name": "6184",
            "score": "0.975",
            "index": 5,
            "selectedWords": [
                "officielle",
                "irr\u00e9cusable",
                "in\u00e9branlable",
                "nette",
                "infaillible",
                "\u00e9loquente"
            ],
            "freeResponses": [],
            "nbPlayClick": 1,
            "response": "off",
            "expression": "NEUTRE",
            "csv_id": 6218,
            "video_name": "DIVERS_PARL_AD_01_0001"
        },
        {
            "name": "6183",
            "score": "0.975",
            "index": 6,
            "selectedWords": [
                "neutre",
                "dubitative",
                "autre"
            ],
            "freeResponses": [],
            "nbPlayClick": 3,
            "response": "neut",
            "expression": "NEUTRE",
            "csv_id": 6217,
            "video_name": "DIVERS_PARL_AD_06_0001"
        },
        {
            "name": "8656",
            "score": "0.987",
            "index": 7,
            "selectedWords": [
                "froide",
                "inexpressive"
            ],
            "freeResponses": [],
            "nbPlayClick": 2,
            "expression": "NEUTRE",
            "csv_id": 8690,
            "video_name": "DIVERS_PARL_AD_06_0003"
        },
        {
            "name": "9712",
            "score": "0.991",
            "index": 8,
            "selectedWords": [
                "malicieuse",
                "autre",
                "autre",
                "inexpressive"
            ],
            "freeResponses": [],
            "nbPlayClick": 2,
            "expression": "NEUTRE",
            "csv_id": 9746,
            "video_name": "DIVERS_PARL_AD_04_0001"
        },
        {
            "name": "11101",
            "score": "0.995",
            "index": 9,
            "selectedWords": [
                "attrist\u00e9e",
                "inexpressive"
            ],
            "freeResponses": [],
            "nbPlayClick": 1,
            "response": "inex",
            "expression": "NEUTRE",
            "csv_id": 11135,
            "video_name": "DIVERS_PARL_AD_02_0003"
        },
        {
            "name": "4416",
            "score": "0.959",
            "index": 10,
            "selectedWords": [
                "autre",
                "autre",
                "autre",
                "autre",
                "encourageante",
                "autre",
                "autre",
                "autre",
                "autre",
                "convaincue",
                "narquoise"
            ],
            "freeResponses": [],
            "nbPlayClick": 1,
            "response": "na",
            "expression": "ESPIEGLE",
            "csv_id": 4416,
            "video_name": "DIVERS_BOOK_ESPIEGLE_AD_03_0001"
        },
        {
            "name": "11032",
            "score": "0.994",
            "index": 11,
            "selectedWords": [
                "officielle",
                "neutre",
                "inexpressive"
            ],
            "freeResponses": [],
            "nbPlayClick": 1,
            "response": "inex",
            "expression": "NEUTRE",
            "csv_id": 11066,
            "video_name": "DIVERS_PARL_AD_02_0001"
        },
        {
            "name": "2775",
            "score": "0.933",
            "index": 12,
            "selectedWords": [
                "inexpressive",
                "neutre",
                "autre",
                "dubitative"
            ],
            "freeResponses": [],
            "nbPlayClick": 1,
            "response": "neutr",
            "expression": "NEUTRE",
            "csv_id": 2775,
            "video_name": "DIVERS_PARL_AD_06_0004"
        },
        {
            "name": "2137",
            "score": "0.916",
            "index": 13,
            "selectedWords": [
                "enthousiaste",
                "r\u00e9confortante",
                "autre",
                "autre",
                "autre",
                "autre",
                "autre",
                "autre",
                "convaincue",
                "excit\u00e9e"
            ],
            "freeResponses": [],
            "nbPlayClick": 1,
            "response": "r\u00e9c",
            "expression": "RECONFORTANT",
            "csv_id": 2137,
            "video_name": "DIVERS_PARL_RECONFORTANT_AD_02_0001"
        },
        {
            "name": "6922",
            "score": "0.979",
            "index": 14,
            "selectedWords": [
                "narquoise"
            ],
            "freeResponses": [
                "Hautaine"
            ],
            "nbPlayClick": 3,
            "response": "Hautaine",
            "expression": "SUPPLIANT",
            "csv_id": 6956,
            "video_name": "DIVERS_PARL_SUPPLIANT_AD_02_0002"
        },
        {
            "name": "4428",
            "score": "0.960",
            "index": 15,
            "selectedWords": [
                "neutre",
                "inexpressive"
            ],
            "freeResponses": [],
            "nbPlayClick": 1,
            "response": "inex",
            "expression": "NEUTRE",
            "csv_id": 4462,
            "video_name": "DIVERS_PARL_AD_01_0000"
        },
        {
            "name": "5681",
            "score": "0.971",
            "index": 16,
            "selectedWords": [
                "d\u00e9termin\u00e9e",
                "autre",
                "r\u00e9fl\u00e9chie"
            ],
            "freeResponses": [],
            "nbPlayClick": 1,
            "response": "r\u00e9",
            "expression": "NEUTRE",
            "csv_id": 5715,
            "video_name": "DIVERS_PARL_AD_05_0004"
        },
        {
            "name": "9748",
            "score": "0.991",
            "index": 17,
            "selectedWords": [
                "dubitative",
                "narquoise"
            ],
            "freeResponses": [],
            "nbPlayClick": 1,
            "response": "nar",
            "expression": "INCREDULE",
            "csv_id": 9782,
            "video_name": "DIVERS_BOOK_INCREDULE_AD_01_0001"
        },
        {
            "name": "12016",
            "score": "0.997",
            "index": 18,
            "selectedWords": [
                "narquoise",
                "s\u00fbre",
                "autre",
                "autre",
                "autre"
            ],
            "freeResponses": [],
            "nbPlayClick": 3,
            "response": "s\u00fbre",
            "expression": "NEUTRE",
            "csv_id": 12053,
            "video_name": "DIVERS_PARL_AD_02_0002"
        },
        {
            "name": "11200",
            "score": "0.995",
            "index": 19,
            "selectedWords": [
                "enthousiaste",
                "d\u00e9termin\u00e9e",
                "r\u00e9solue",
                "passionn\u00e9e"
            ],
            "freeResponses": [],
            "nbPlayClick": 2,
            "response": "d\u00e9",
            "expression": "NEUTRE",
            "csv_id": 11234,
            "video_name": "DIVERS_BOOK_AD_01_0002"
        },
        {
            "name": "5602",
            "score": "0.971",
            "index": 20,
            "selectedWords": [
                "attrist\u00e9e",
                "afflig\u00e9e",
                "pein\u00e9e"
            ],
            "freeResponses": [],
            "nbPlayClick": 1,
            "response": "at",
            "expression": "DESOLE",
            "csv_id": 5636,
            "video_name": "DIVERS_PARL_DESOLE_AD_01_0004"
        },
        {
            "name": "5940",
            "score": "0.973",
            "index": 21,
            "selectedWords": [
                "enthousiaste",
                "\u00e9loquente",
                "excit\u00e9e",
                "passionn\u00e9e"
            ],
            "freeResponses": [],
            "nbPlayClick": 1,
            "expression": "NEUTRE",
            "csv_id": 5974,
            "video_name": "DIVERS_PARL_AD_05_0003"
        },
        {
            "name": "9291",
            "score": "0.989",
            "index": 22,
            "selectedWords": [
                "narquoise",
                "malicieuse",
                "maligne"
            ],
            "freeResponses": [],
            "nbPlayClick": 3,
            "response": "mal",
            "expression": "NEUTRE",
            "csv_id": 9325,
            "video_name": "DIVERS_PARL_AD_03_0004"
        },
        {
            "name": "10591",
            "score": "0.993",
            "index": 23,
            "selectedWords": [
                "inexpressive",
                "fade",
                "autre",
                "neutre"
            ],
            "freeResponses": [],
            "nbPlayClick": 2,
            "response": "neutr",
            "expression": "NEUTRE",
            "csv_id": 10625,
            "video_name": "DIVERS_BOOK_AD_01_0002"
        },
        {
            "name": "7341",
            "score": "0.981",
            "index": 24,
            "selectedWords": [
                "\u00e9tonn\u00e9e",
                "autre",
                "\u00e9berlu\u00e9e",
                "abasourdie",
                "stup\u00e9faite",
                "autre"
            ],
            "freeResponses": [],
            "nbPlayClick": 1,
            "expression": "ETONNE",
            "csv_id": 7375,
            "video_name": "DIVERS_BOOK_ETONNE_AD_01_0004"
        },
        {
            "name": "12294",
            "score": "0.998",
            "index": 25,
            "selectedWords": [
                "officielle",
                "inexpressive"
            ],
            "freeResponses": [],
            "nbPlayClick": 1,
            "response": "inex",
            "expression": "NEUTRE",
            "csv_id": 12331,
            "video_name": "DIVERS_PARL_AD_03_0001"
        },
        {
            "name": "11008",
            "score": "0.994",
            "index": 26,
            "selectedWords": [
                "neutre",
                "autre",
                "imp\u00e9n\u00e9trable"
            ],
            "freeResponses": [],
            "nbPlayClick": 1,
            "response": "froi",
            "expression": "NEUTRE",
            "csv_id": 11042,
            "video_name": "DIVERS_PARL_AD_01_0006"
        },
        {
            "name": "7933",
            "score": "0.984",
            "index": 27,
            "selectedWords": [
                "enthousiaste",
                "euphorique",
                "enflamm\u00e9e",
                "passionn\u00e9e"
            ],
            "freeResponses": [],
            "nbPlayClick": 1,
            "response": "ent",
            "expression": "ENTHOUSIASTE",
            "csv_id": 7967,
            "video_name": "DIVERS_BOOK_ENTHOUSIASTE_AD_01_0004"
        },
        {
            "name": "11894",
            "score": "0.997",
            "index": 28,
            "selectedWords": [
                "dubitative",
                "m\u00e9fiante",
                "sceptique"
            ],
            "freeResponses": [],
            "nbPlayClick": 3,
            "response": "dubit",
            "expression": "PENSIF",
            "csv_id": 11931,
            "video_name": "DIVERS_BOOK_PENSIF_AD_03_0002"
        },
        {
            "name": "10038",
            "score": "0.992",
            "index": 29,
            "selectedWords": [
                "s\u00fbre",
                "nette",
                "irr\u00e9cusable"
            ],
            "freeResponses": [],
            "nbPlayClick": 1,
            "response": "s\u00fb",
            "expression": "NEUTRE",
            "csv_id": 10072,
            "video_name": "DIVERS_PARL_AD_04_0002"
        },
        {
            "name": "2049",
            "score": "0.913",
            "index": 30,
            "selectedWords": [
                "autre",
                "dubitative",
                "sceptique",
                "autre",
                "autre"
            ],
            "freeResponses": [],
            "nbPlayClick": 2,
            "response": "mal",
            "expression": "PENSIF",
            "csv_id": 2049,
            "video_name": "DIVERS_PARL_PENSIF_AD_01_0002"
        },
        {
            "name": "7418",
            "score": "0.982",
            "index": 31,
            "selectedWords": [
                "neutre",
                "inexpressive"
            ],
            "freeResponses": [],
            "nbPlayClick": 3,
            "response": "inex",
            "expression": "NEUTRE",
            "csv_id": 7452,
            "video_name": "DIVERS_BOOK_AD_04_0001"
        },
        {
            "name": "6110",
            "score": "0.975",
            "index": 32,
            "selectedWords": [
                "r\u00e9fl\u00e9chie",
                "autre",
                "passionn\u00e9e",
                "\u00e9loquente"
            ],
            "freeResponses": [],
            "nbPlayClick": 1,
            "response": "passion",
            "expression": "NEUTRE",
            "csv_id": 6144,
            "video_name": "DIVERS_BOOK_AD_01_0002"
        },
        {
            "name": "10950",
            "score": "0.994",
            "index": 33,
            "selectedWords": [
                "m\u00e9fiante",
                "dubitative",
                "autre",
                "imp\u00e9n\u00e9trable"
            ],
            "freeResponses": [],
            "nbPlayClick": 1,
            "response": "m\u00e9",
            "expression": "NEUTRE",
            "csv_id": 10984,
            "video_name": "DIVERS_PARL_AD_02_0002"
        },
        {
            "name": "10897",
            "score": "0.994",
            "index": 34,
            "selectedWords": [
                "attrist\u00e9e",
                "afflig\u00e9e",
                "malheureuse"
            ],
            "freeResponses": [],
            "nbPlayClick": 1,
            "expression": "SUPPLIANT",
            "csv_id": 10931,
            "video_name": "DIVERS_PARL_SUPPLIANT_AD_02_0001"
        },
        {
            "name": "9773",
            "score": "0.991",
            "index": 35,
            "selectedWords": [
                "attrist\u00e9e",
                "navr\u00e9e"
            ],
            "freeResponses": [],
            "nbPlayClick": 1,
            "response": "men",
            "expression": "EVIDENCE",
            "csv_id": 9807,
            "video_name": "DIVERS_PARL_EVIDENCE_AD_02_0002"
        },
        {
            "name": "7461",
            "score": "0.982",
            "index": 36,
            "selectedWords": [
                "espi\u00e8gle"
            ],
            "freeResponses": [
                "Hautaine"
            ],
            "nbPlayClick": 1,
            "response": "Hautaine",
            "expression": "NEUTRE",
            "csv_id": 7495,
            "video_name": "DIVERS_PARL_AD_06_0001"
        },
        {
            "name": "6826",
            "score": "0.979",
            "index": 37,
            "selectedWords": [
                "d\u00e9termin\u00e9e",
                "in\u00e9branlable"
            ],
            "freeResponses": [],
            "nbPlayClick": 1,
            "response": "in\u00e9",
            "expression": "NEUTRE",
            "csv_id": 6860,
            "video_name": "DIVERS_PARL_AD_06_0004"
        },
        {
            "name": "6903",
            "score": "0.979",
            "index": 38,
            "selectedWords": [
                "contrari\u00e9e",
                "emb\u00eat\u00e9e"
            ],
            "freeResponses": [],
            "nbPlayClick": 1,
            "response": "malh",
            "expression": "SUPPLIANT",
            "csv_id": 6937,
            "video_name": "DIVERS_PARL_SUPPLIANT_AD_02_0002"
        },
        {
            "name": "8997",
            "score": "0.988",
            "index": 39,
            "selectedWords": [
                "autre",
                "autre",
                "apaisante",
                "\u00e9loquente"
            ],
            "freeResponses": [],
            "nbPlayClick": 2,
            "response": "\u00e9lo",
            "expression": "RECONFORTANT",
            "csv_id": 9031,
            "video_name": "DIVERS_BOOK_RECONFORTANT_AD_01_0002"
        },
        {
            "name": "6901",
            "score": "0.979",
            "index": 40,
            "selectedWords": [
                "autre",
                "autre",
                "autre",
                "autre",
                "autre",
                "f\u00e2ch\u00e9e",
                "in\u00e9branlable"
            ],
            "freeResponses": [
                "Hautaine"
            ],
            "nbPlayClick": 7,
            "response": "Hautaine",
            "expression": "NEUTRE",
            "csv_id": 6935,
            "video_name": "DIVERS_PARL_AD_06_0002"
        },
        {
            "name": "4594",
            "score": "0.962",
            "index": 41,
            "selectedWords": [
                "neutre",
                "autre",
                "autre",
                "autre",
                "autre",
                "autre",
                "encourageante"
            ],
            "freeResponses": [],
            "nbPlayClick": 2,
            "expression": "NEUTRE",
            "csv_id": 4628,
            "video_name": "DIVERS_BOOK_AD_01_0002"
        },
        {
            "name": "5972",
            "score": "0.974",
            "index": 42,
            "selectedWords": [
                "enthousiaste",
                "euphorique",
                "excit\u00e9e"
            ],
            "freeResponses": [],
            "nbPlayClick": 1,
            "expression": "ENTHOUSIASTE",
            "csv_id": 6006,
            "video_name": "DIVERS_BOOK_ENTHOUSIASTE_AD_01_0004"
        },
        {
            "name": "5938",
            "score": "0.973",
            "index": 43,
            "selectedWords": [
                "h\u00e9b\u00e9t\u00e9e",
                "autre",
                "autre",
                "autre",
                "autre",
                "autre",
                "autre",
                "attrist\u00e9e"
            ],
            "freeResponses": [],
            "nbPlayClick": 1,
            "expression": "RECONFORTANT",
            "csv_id": 5972,
            "video_name": "DIVERS_PARL_RECONFORTANT_AD_02_0001"
        },
        {
            "name": "8794",
            "score": "0.987",
            "index": 44,
            "selectedWords": [
                "officielle",
                "certaine",
                "manifeste",
                "convaincue"
            ],
            "freeResponses": [],
            "nbPlayClick": 1,
            "response": "offi",
            "expression": "NEUTRE",
            "csv_id": 8828,
            "video_name": "DIVERS_PARL_AD_05_0004"
        },
        {
            "name": "11545",
            "score": "0.996",
            "index": 45,
            "selectedWords": [
                "inexpressive",
                "fade",
                "froide"
            ],
            "freeResponses": [],
            "nbPlayClick": 1,
            "response": "froi",
            "expression": "NEUTRE",
            "csv_id": 11582,
            "video_name": "DIVERS_BOOK_AD_03_0001"
        },
        {
            "name": "5787",
            "score": "0.972",
            "index": 46,
            "selectedWords": [
                "neutre",
                "limpide"
            ],
            "freeResponses": [],
            "nbPlayClick": 1,
            "expression": "NEUTRE",
            "csv_id": 5821,
            "video_name": "DIVERS_PARL_AD_04_0001"
        },
        {
            "name": "11702",
            "score": "0.996",
            "index": 47,
            "selectedWords": [
                "dubitative",
                "autre",
                "autre",
                "autre",
                "autre",
                "autre",
                "autre",
                "autre",
                "autre",
                "d\u00e9sorient\u00e9e"
            ],
            "freeResponses": [],
            "nbPlayClick": 1,
            "response": "dub",
            "expression": "PENSIF",
            "csv_id": 11739,
            "video_name": "DIVERS_BOOK_PENSIF_AD_03_0002"
        },
        {
            "name": "8833",
            "score": "0.988",
            "index": 48,
            "selectedWords": [
                "autre",
                "autre",
                "autre",
                "excit\u00e9e",
                "autre",
                "officielle"
            ],
            "freeResponses": [],
            "nbPlayClick": 2,
            "response": "offi",
            "expression": "NEUTRE",
            "csv_id": 8867,
            "video_name": "DIVERS_PARL_AD_01_0005"
        },
        {
            "name": "11644",
            "score": "0.996",
            "index": 49,
            "selectedWords": [
                "\u00e9nerv\u00e9e",
                "en rogne",
                "rageuse"
            ],
            "freeResponses": [],
            "nbPlayClick": 2,
            "response": "\u00e9n",
            "expression": "COLERE",
            "csv_id": 11681,
            "video_name": "DIVERS_PARL_COLERE_AD_01_0003"
        },
        {
            "name": "11653",
            "score": "0.996",
            "index": 50,
            "selectedWords": [
                "autre",
                "malicieuse",
                "narquoise"
            ],
            "freeResponses": [],
            "nbPlayClick": 4,
            "response": "mali",
            "expression": "NEUTRE",
            "csv_id": 11690,
            "video_name": "DIVERS_PARL_AD_01_0005"
        },
        {
            "name": "12121",
            "score": "0.997",
            "index": 51,
            "selectedWords": [
                "dubitative",
                "autre",
                "m\u00e9fiante",
                "autre",
                "attrist\u00e9e"
            ],
            "freeResponses": [],
            "nbPlayClick": 1,
            "response": "dub",
            "expression": "PENSIF",
            "csv_id": 12158,
            "video_name": "DIVERS_BOOK_PENSIF_AD_01_0003"
        },
        {
            "name": "8771",
            "score": "0.987",
            "index": 52,
            "selectedWords": [
                "\u00e9tonn\u00e9e",
                "autre",
                "\u00e9berlu\u00e9e"
            ],
            "freeResponses": [],
            "nbPlayClick": 1,
            "response": "\u00e9t",
            "expression": "ETONNE",
            "csv_id": 8805,
            "video_name": "DIVERS_BOOK_ETONNE_AD_01_0002"
        },
        {
            "name": "10135",
            "score": "0.992",
            "index": 53,
            "selectedWords": [
                "officielle",
                "certaine",
                "s\u00fbre"
            ],
            "freeResponses": [],
            "nbPlayClick": 1,
            "response": "",
            "expression": "NEUTRE",
            "csv_id": 10169,
            "video_name": "DIVERS_PARL_AD_04_0004"
        },
        {
            "name": "9698",
            "score": "0.991",
            "index": 54,
            "selectedWords": [
                "convaincue",
                "r\u00e9fl\u00e9chie",
                "nette",
                "s\u00fbre"
            ],
            "freeResponses": [],
            "nbPlayClick": 1,
            "response": "conv",
            "expression": "NEUTRE",
            "csv_id": 9732,
            "video_name": "DIVERS_PARL_AD_04_0003"
        },
        {
            "name": "5280",
            "score": "0.968",
            "index": 55,
            "selectedWords": [
                "enthousiaste",
                "euphorique",
                "excit\u00e9e"
            ],
            "freeResponses": [],
            "nbPlayClick": 1,
            "response": "en",
            "expression": "ESPIEGLE",
            "csv_id": 5314,
            "video_name": "DIVERS_PARL_ESPIEGLE_AD_01_0001"
        },
        {
            "name": "9363",
            "score": "0.990",
            "index": 56,
            "selectedWords": [
                "\u00e9nerv\u00e9e",
                "\u00e9nergique",
                "rageuse"
            ],
            "freeResponses": [],
            "nbPlayClick": 1,
            "response": "\u00e9ner",
            "expression": "COLERE",
            "csv_id": 9397,
            "video_name": "DIVERS_PARL_COLERE_AD_02_0002"
        },
        {
            "name": "8715",
            "score": "0.987",
            "index": 57,
            "selectedWords": [
                "officielle",
                "neutre"
            ],
            "freeResponses": [],
            "nbPlayClick": 1,
            "response": "offi",
            "expression": "NEUTRE",
            "csv_id": 8749,
            "video_name": "DIVERS_PARL_AD_04_0001"
        },
        {
            "name": "11991",
            "score": "0.997",
            "index": 58,
            "selectedWords": [
                "\u00e9tonn\u00e9e",
                "autre",
                "\u00e9berlu\u00e9e"
            ],
            "freeResponses": [],
            "nbPlayClick": 1,
            "response": "\u00e9to",
            "expression": "ETONNE",
            "csv_id": 12028,
            "video_name": "DIVERS_BOOK_ETONNE_AD_01_0002"
        },
        {
            "name": "6495",
            "score": "0.977",
            "index": 59,
            "selectedWords": [
                "convaincue",
                "effar\u00e9e",
                "espi\u00e8gle",
                "interloqu\u00e9e",
                "m\u00e9contente"
            ],
            "freeResponses": [],
            "nbPlayClick": 1,
            "expression": "SUPPLIANT",
            "csv_id": 6529,
            "video_name": "DIVERS_PARL_SUPPLIANT_AD_02_0001"
        }
    ],
    "training": [
        {
            "name": "77",
            "score": "0.639",
            "index": 0,
            "selectedWords": [
                "inexpressive",
                "froide",
                "autre",
                "autre"
            ],
            "freeResponses": [],
            "nbPlayClick": 4,
            "expression": "NEUTRE"
        }
    ],
    "filenameDate": "2023-09-27_9-18"
}