{
    "user": {
        "isProlific": true,
        "id": "60b65205360a673c927216b9",
        "session": "650c489e6de6058af84e8586",
        "study": "64ef977375f88e4e1174dce0"
    },
    "userAgent": "Mozilla/5.0 (iPhone; CPU iPhone OS 16_6_1 like Mac OS X) AppleWebKit/605.1.15 (KHTML, like Gecko) Version/16.6 Mobile/15E148 Safari/604.1",
    "landingDate": "2023-09-21T13:44:36.762Z",
    "startDate": "2023-09-21T13:48:07.919Z",
    "endDate": "2023-09-21T14:50:01.497Z",
    "reviews": [
        {
            "name": "6607",
            "score": "0.977",
            "index": 0,
            "selectedWords": [
                "d\u00e9sorient\u00e9e",
                "coquine"
            ],
            "freeResponses": [],
            "nbPlayClick": 8,
            "expression": "ESPIEGLE",
            "csv_id": 6641,
            "video_name": "DIVERS_PARL_ESPIEGLE_AD_01_0001"
        },
        {
            "name": "3493",
            "score": "0.947",
            "index": 1,
            "selectedWords": [
                "certaine",
                "convaincue"
            ],
            "freeResponses": [],
            "nbPlayClick": 2,
            "expression": "NEUTRE",
            "csv_id": 3493,
            "video_name": "DIVERS_PARL_AD_03_0002"
        },
        {
            "name": "12323",
            "score": "0.998",
            "index": 2,
            "selectedWords": [
                "ferme",
                "\u00e9loquente"
            ],
            "freeResponses": [],
            "nbPlayClick": 2,
            "expression": "ETONNE",
            "csv_id": 12360,
            "video_name": "DIVERS_BOOK_ETONNE_AD_03_0001"
        },
        {
            "name": "9619",
            "score": "0.990",
            "index": 3,
            "selectedWords": [
                "dubitative",
                "pensante"
            ],
            "freeResponses": [],
            "nbPlayClick": 2,
            "expression": "PENSIF",
            "csv_id": 9653,
            "video_name": "DIVERS_PARL_PENSIF_AD_01_0002"
        },
        {
            "name": "4356",
            "score": "0.958",
            "index": 4,
            "selectedWords": [
                "encourageante",
                "manifeste"
            ],
            "freeResponses": [],
            "nbPlayClick": 1,
            "expression": "SUPPLIANT",
            "csv_id": 4356,
            "video_name": "DIVERS_PARL_SUPPLIANT_AD_02_0002"
        },
        {
            "name": "7347",
            "score": "0.981",
            "index": 5,
            "selectedWords": [
                "accabl\u00e9e",
                "d\u00e9concert\u00e9e"
            ],
            "freeResponses": [],
            "nbPlayClick": 1,
            "expression": "NEUTRE",
            "csv_id": 7381,
            "video_name": "DIVERS_PARL_AD_02_0003"
        },
        {
            "name": "12381",
            "score": "0.999",
            "index": 6,
            "selectedWords": [
                "limpide",
                "r\u00e9fl\u00e9chie"
            ],
            "freeResponses": [],
            "nbPlayClick": 1,
            "expression": "NEUTRE",
            "csv_id": 12418,
            "video_name": "DIVERS_BOOK_AD_03_0001"
        },
        {
            "name": "9332",
            "score": "0.989",
            "index": 7,
            "selectedWords": [
                "convaincue",
                "maligne"
            ],
            "freeResponses": [],
            "nbPlayClick": 1,
            "expression": "SUPPLIANT",
            "csv_id": 9366,
            "video_name": "DIVERS_PARL_SUPPLIANT_AD_02_0001"
        },
        {
            "name": "5207",
            "score": "0.968",
            "index": 8,
            "selectedWords": [
                "en rogne",
                "enflamm\u00e9e"
            ],
            "freeResponses": [],
            "nbPlayClick": 1,
            "expression": "COLERE",
            "csv_id": 5241,
            "video_name": "DIVERS_PARL_COLERE_AD_02_0002"
        },
        {
            "name": "11889",
            "score": "0.997",
            "index": 9,
            "selectedWords": [
                "interloqu\u00e9e",
                "pensante"
            ],
            "freeResponses": [],
            "nbPlayClick": 1,
            "expression": "ETONNE",
            "csv_id": 11926,
            "video_name": "DIVERS_PARL_ETONNE_AD_01_0001"
        },
        {
            "name": "10735",
            "score": "0.994",
            "index": 10,
            "selectedWords": [
                "encourageante",
                "m\u00e9ditative"
            ],
            "freeResponses": [],
            "nbPlayClick": 2,
            "expression": "NEUTRE",
            "csv_id": 10769,
            "video_name": "DIVERS_BOOK_AD_01_0002"
        },
        {
            "name": "9271",
            "score": "0.989",
            "index": 11,
            "selectedWords": [
                "agressive",
                "en rogne"
            ],
            "freeResponses": [],
            "nbPlayClick": 2,
            "expression": "COLERE",
            "csv_id": 9305,
            "video_name": "DIVERS_PARL_COLERE_AD_02_0002"
        },
        {
            "name": "6713",
            "score": "0.978",
            "index": 12,
            "selectedWords": [
                "\u00e9bahie",
                "apaisante"
            ],
            "freeResponses": [],
            "nbPlayClick": 3,
            "expression": "DESOLE",
            "csv_id": 6747,
            "video_name": "DIVERS_PARL_DESOLE_AD_01_0004"
        },
        {
            "name": "12169",
            "score": "0.998",
            "index": 13,
            "selectedWords": [
                "enthousiaste",
                "intuitive"
            ],
            "freeResponses": [],
            "nbPlayClick": 2,
            "expression": "ETONNE",
            "csv_id": 12206,
            "video_name": "DIVERS_BOOK_ETONNE_AD_03_0001"
        },
        {
            "name": "11684",
            "score": "0.996",
            "index": 14,
            "selectedWords": [
                "r\u00e9fl\u00e9chissante",
                "s\u00fbre"
            ],
            "freeResponses": [],
            "nbPlayClick": 1,
            "expression": "NEUTRE",
            "csv_id": 11721,
            "video_name": "DIVERS_BOOK_AD_01_0001"
        },
        {
            "name": "7191",
            "score": "0.981",
            "index": 15,
            "selectedWords": [
                "emball\u00e9e",
                "ferme"
            ],
            "freeResponses": [],
            "nbPlayClick": 2,
            "expression": "NEUTRE",
            "csv_id": 7225,
            "video_name": "DIVERS_PARL_AD_05_0002"
        },
        {
            "name": "5333",
            "score": "0.969",
            "index": 16,
            "selectedWords": [
                "inexpressive",
                "manifeste"
            ],
            "freeResponses": [],
            "nbPlayClick": 1,
            "expression": "NEUTRE",
            "csv_id": 5367,
            "video_name": "DIVERS_PARL_AD_03_0002"
        },
        {
            "name": "5650",
            "score": "0.971",
            "index": 17,
            "selectedWords": [
                "\u00e9nergique",
                "ferme"
            ],
            "freeResponses": [],
            "nbPlayClick": 1,
            "expression": "NEUTRE",
            "csv_id": 5684,
            "video_name": "DIVERS_PARL_AD_02_0002"
        },
        {
            "name": "4357",
            "score": "0.959",
            "index": 18,
            "selectedWords": [
                "vivifiante",
                "\u00e9loquente"
            ],
            "freeResponses": [],
            "nbPlayClick": 1,
            "expression": "RECONFORTANT",
            "csv_id": 4357,
            "video_name": "DIVERS_BOOK_RECONFORTANT_AD_01_0004"
        },
        {
            "name": "4724",
            "score": "0.963",
            "index": 19,
            "selectedWords": [
                "agit\u00e9e",
                "malicieuse"
            ],
            "freeResponses": [],
            "nbPlayClick": 1,
            "expression": "ESPIEGLE",
            "csv_id": 4758,
            "video_name": "DIVERS_PARL_ESPIEGLE_AD_01_0001"
        },
        {
            "name": "5192",
            "score": "0.967",
            "index": 20,
            "selectedWords": [
                "transport\u00e9e",
                "r\u00e9fl\u00e9chie"
            ],
            "freeResponses": [],
            "nbPlayClick": 1,
            "expression": "RECONFORTANT",
            "csv_id": 5226,
            "video_name": "DIVERS_BOOK_RECONFORTANT_AD_01_0002"
        },
        {
            "name": "4885",
            "score": "0.965",
            "index": 21,
            "selectedWords": [
                "stimulante",
                "certaine"
            ],
            "freeResponses": [],
            "nbPlayClick": 1,
            "expression": "DESOLE",
            "csv_id": 4919,
            "video_name": "DIVERS_PARL_DESOLE_AD_01_0004"
        },
        {
            "name": "7952",
            "score": "0.984",
            "index": 22,
            "selectedWords": [
                "en peine",
                "indiscutable"
            ],
            "freeResponses": [],
            "nbPlayClick": 1,
            "expression": "INCREDULE",
            "csv_id": 7986,
            "video_name": "DIVERS_PARL_INCREDULE_AD_02_0003"
        },
        {
            "name": "6801",
            "score": "0.979",
            "index": 23,
            "selectedWords": [
                "exalt\u00e9e",
                "limpide"
            ],
            "freeResponses": [],
            "nbPlayClick": 1,
            "expression": "ETONNE",
            "csv_id": 6835,
            "video_name": "DIVERS_BOOK_ETONNE_AD_03_0001"
        },
        {
            "name": "8509",
            "score": "0.986",
            "index": 24,
            "selectedWords": [
                "ferme",
                "neutre"
            ],
            "freeResponses": [],
            "nbPlayClick": 2,
            "expression": "NEUTRE",
            "csv_id": 8543,
            "video_name": "DIVERS_PARL_AD_03_0002"
        },
        {
            "name": "1988",
            "score": "0.911",
            "index": 25,
            "selectedWords": [
                "neutre",
                "sinc\u00e8re"
            ],
            "freeResponses": [],
            "nbPlayClick": 1,
            "expression": "NEUTRE",
            "csv_id": 1988,
            "video_name": "DIVERS_PARL_AD_06_0001"
        },
        {
            "name": "2338",
            "score": "0.922",
            "index": 26,
            "selectedWords": [
                "perplexe",
                "contrari\u00e9e"
            ],
            "freeResponses": [],
            "nbPlayClick": 1,
            "expression": "INCREDULE",
            "csv_id": 2338,
            "video_name": "DIVERS_BOOK_INCREDULE_AD_01_0001"
        },
        {
            "name": "5201",
            "score": "0.968",
            "index": 27,
            "selectedWords": [
                "r\u00e9confortante",
                "ferme"
            ],
            "freeResponses": [],
            "nbPlayClick": 1,
            "expression": "NEUTRE",
            "csv_id": 5235,
            "video_name": "DIVERS_PARL_AD_04_0003"
        },
        {
            "name": "12394",
            "score": "0.999",
            "index": 28,
            "selectedWords": [
                "confuse",
                "d\u00e9sorient\u00e9e"
            ],
            "freeResponses": [],
            "nbPlayClick": 1,
            "expression": "PENSIF",
            "csv_id": 12431,
            "video_name": "DIVERS_PARL_PENSIF_AD_01_0002"
        },
        {
            "name": "4126",
            "score": "0.956",
            "index": 29,
            "selectedWords": [
                "pensante",
                "perplexe"
            ],
            "freeResponses": [],
            "nbPlayClick": 2,
            "expression": "PENSIF",
            "csv_id": 4126,
            "video_name": "DIVERS_BOOK_PENSIF_AD_01_0003"
        },
        {
            "name": "6728",
            "score": "0.978",
            "index": 30,
            "selectedWords": [
                "neutre",
                "notoire"
            ],
            "freeResponses": [],
            "nbPlayClick": 2,
            "expression": "NEUTRE",
            "csv_id": 6762,
            "video_name": "DIVERS_BOOK_AD_01_0002"
        },
        {
            "name": "2974",
            "score": "0.938",
            "index": 31,
            "selectedWords": [
                "d\u00e9termin\u00e9e",
                "transport\u00e9e"
            ],
            "freeResponses": [],
            "nbPlayClick": 1,
            "expression": "DETERMINE",
            "csv_id": 2974,
            "video_name": "DIVERS_BOOK_DETERMINE_AD_03_0001"
        },
        {
            "name": "1986",
            "score": "0.911",
            "index": 32,
            "selectedWords": [
                "enthousiaste",
                "tonique"
            ],
            "freeResponses": [],
            "nbPlayClick": 1,
            "expression": "NEUTRE",
            "csv_id": 1986,
            "video_name": "DIVERS_PARL_AD_06_0002"
        },
        {
            "name": "3719",
            "score": "0.950",
            "index": 33,
            "selectedWords": [
                "apaisante",
                "d\u00e9cid\u00e9e"
            ],
            "freeResponses": [],
            "nbPlayClick": 1,
            "expression": "NEUTRE",
            "csv_id": 3719,
            "video_name": "DIVERS_PARL_AD_05_0002"
        },
        {
            "name": "6146",
            "score": "0.975",
            "index": 34,
            "selectedWords": [
                "neutre",
                "imp\u00e9n\u00e9trable"
            ],
            "freeResponses": [],
            "nbPlayClick": 1,
            "expression": "NEUTRE",
            "csv_id": 6180,
            "video_name": "DIVERS_PARL_AD_05_0001"
        },
        {
            "name": "3214",
            "score": "0.942",
            "index": 35,
            "selectedWords": [
                "froide",
                "neutre"
            ],
            "freeResponses": [],
            "nbPlayClick": 1,
            "expression": "DETERMINE",
            "csv_id": 3214,
            "video_name": "DIVERS_PARL_DETERMINE_AD_01_0002"
        },
        {
            "name": "11334",
            "score": "0.995",
            "index": 36,
            "selectedWords": [
                "d\u00e9termin\u00e9e",
                "manifeste"
            ],
            "freeResponses": [],
            "nbPlayClick": 2,
            "expression": "NEUTRE",
            "csv_id": 11368,
            "video_name": "DIVERS_PARL_AD_02_0004"
        },
        {
            "name": "6285",
            "score": "0.976",
            "index": 37,
            "selectedWords": [
                "r\u00eaveuse",
                "maligne"
            ],
            "freeResponses": [],
            "nbPlayClick": 1,
            "expression": "RECONFORTANT",
            "csv_id": 6319,
            "video_name": "DIVERS_BOOK_RECONFORTANT_AD_01_0002"
        },
        {
            "name": "2086",
            "score": "0.915",
            "index": 38,
            "selectedWords": [
                "fac\u00e9tieuse",
                "indign\u00e9e"
            ],
            "freeResponses": [],
            "nbPlayClick": 1,
            "expression": "INCREDULE",
            "csv_id": 2086,
            "video_name": "DIVERS_BOOK_INCREDULE_AD_01_0001"
        },
        {
            "name": "8812",
            "score": "0.988",
            "index": 39,
            "selectedWords": [
                "d\u00e9sol\u00e9e",
                "ferme"
            ],
            "freeResponses": [],
            "nbPlayClick": 6,
            "expression": "NEUTRE",
            "csv_id": 8846,
            "video_name": "DIVERS_PARL_AD_05_0002"
        },
        {
            "name": "3622",
            "score": "0.949",
            "index": 40,
            "selectedWords": [
                "notoire",
                "limpide"
            ],
            "freeResponses": [],
            "nbPlayClick": 1,
            "expression": "NEUTRE",
            "csv_id": 3622,
            "video_name": "DIVERS_PARL_AD_05_0003"
        },
        {
            "name": "4927",
            "score": "0.965",
            "index": 41,
            "selectedWords": [
                "enthousiaste",
                "autre",
                "autre",
                "\u00e9bahie"
            ],
            "freeResponses": [],
            "nbPlayClick": 2,
            "expression": "ETONNE",
            "csv_id": 4961,
            "video_name": "DIVERS_BOOK_ETONNE_AD_01_0002"
        },
        {
            "name": "9014",
            "score": "0.988",
            "index": 42,
            "selectedWords": [
                "apaisante",
                "certaine"
            ],
            "freeResponses": [],
            "nbPlayClick": 1,
            "expression": "NEUTRE",
            "csv_id": 9048,
            "video_name": "DIVERS_PARL_AD_05_0001"
        },
        {
            "name": "4251",
            "score": "0.957",
            "index": 43,
            "selectedWords": [
                "agit\u00e9e",
                "d\u00e9cid\u00e9e"
            ],
            "freeResponses": [],
            "nbPlayClick": 1,
            "expression": "ETONNE",
            "csv_id": 4251,
            "video_name": "ESTYLE_ETONNE_AD_02_0001"
        },
        {
            "name": "9900",
            "score": "0.991",
            "index": 44,
            "selectedWords": [
                "neutre",
                "s\u00fbre"
            ],
            "freeResponses": [],
            "nbPlayClick": 1,
            "expression": "NEUTRE",
            "csv_id": 9934,
            "video_name": "DIVERS_PARL_AD_06_0003"
        },
        {
            "name": "2132",
            "score": "0.916",
            "index": 45,
            "selectedWords": [
                "attrist\u00e9e",
                "d\u00e9courag\u00e9e"
            ],
            "freeResponses": [],
            "nbPlayClick": 2,
            "expression": "SUPPLIANT",
            "csv_id": 2132,
            "video_name": "DIVERS_PARL_SUPPLIANT_AD_02_0001"
        },
        {
            "name": "4160",
            "score": "0.956",
            "index": 46,
            "selectedWords": [
                "\u00e9vidente",
                "prouv\u00e9e"
            ],
            "freeResponses": [],
            "nbPlayClick": 2,
            "expression": "NEUTRE",
            "csv_id": 4160,
            "video_name": "DIVERS_PARL_AD_05_0004"
        },
        {
            "name": "12282",
            "score": "0.998",
            "index": 47,
            "selectedWords": [
                "ferme",
                "limpide"
            ],
            "freeResponses": [],
            "nbPlayClick": 1,
            "expression": "NEUTRE",
            "csv_id": 12319,
            "video_name": "DIVERS_BOOK_AD_01_0001"
        },
        {
            "name": "4814",
            "score": "0.964",
            "index": 48,
            "selectedWords": [
                "triomphale",
                "encourageante"
            ],
            "freeResponses": [],
            "nbPlayClick": 1,
            "expression": "DETERMINE",
            "csv_id": 4848,
            "video_name": "DIVERS_PARL_DETERMINE_AD_01_0004"
        },
        {
            "name": "6541",
            "score": "0.977",
            "index": 49,
            "selectedWords": [
                "inexpressive",
                "m\u00e9ditative"
            ],
            "freeResponses": [],
            "nbPlayClick": 2,
            "expression": "ETONNE",
            "csv_id": 6575,
            "video_name": "DIVERS_PARL_ETONNE_AD_01_0001"
        },
        {
            "name": "1574",
            "score": "0.895",
            "index": 50,
            "selectedWords": [
                "transport\u00e9e",
                "m\u00e9dus\u00e9e"
            ],
            "freeResponses": [],
            "nbPlayClick": 1,
            "expression": "INCREDULE",
            "csv_id": 1574,
            "video_name": "DIVERS_PARL_INCREDULE_AD_01_0001"
        },
        {
            "name": "6672",
            "score": "0.978",
            "index": 51,
            "selectedWords": [
                "neutre",
                "limpide"
            ],
            "freeResponses": [],
            "nbPlayClick": 1,
            "expression": "NEUTRE",
            "csv_id": 6706,
            "video_name": "DIVERS_PARL_AD_04_0001"
        },
        {
            "name": "9593",
            "score": "0.990",
            "index": 52,
            "selectedWords": [
                "enthousiaste",
                "autre",
                "imp\u00e9n\u00e9trable"
            ],
            "freeResponses": [],
            "nbPlayClick": 1,
            "expression": "NEUTRE",
            "csv_id": 9627,
            "video_name": "DIVERS_PARL_AD_01_0004"
        },
        {
            "name": "2546",
            "score": "0.928",
            "index": 53,
            "selectedWords": [
                "d\u00e9termin\u00e9e",
                "convaincue"
            ],
            "freeResponses": [],
            "nbPlayClick": 1,
            "expression": "DETERMINE",
            "csv_id": 2546,
            "video_name": "ESTYLE_DETERMINE_AD_02_0001"
        },
        {
            "name": "6593",
            "score": "0.977",
            "index": 54,
            "selectedWords": [
                "certaine",
                "encourageante"
            ],
            "freeResponses": [],
            "nbPlayClick": 2,
            "expression": "NEUTRE",
            "csv_id": 6627,
            "video_name": "DIVERS_PARL_AD_03_0002"
        },
        {
            "name": "12206",
            "score": "0.998",
            "index": 55,
            "selectedWords": [
                "d\u00e9termin\u00e9e",
                "in\u00e9branlable"
            ],
            "freeResponses": [],
            "nbPlayClick": 2,
            "expression": "NEUTRE",
            "csv_id": 12243,
            "video_name": "DIVERS_BOOK_AD_01_0002"
        },
        {
            "name": "7717",
            "score": "0.983",
            "index": 56,
            "selectedWords": [
                "infaillible",
                "hargneuse"
            ],
            "freeResponses": [],
            "nbPlayClick": 2,
            "expression": "ETONNE",
            "csv_id": 7751,
            "video_name": "DIVERS_BOOK_ETONNE_AD_01_0004"
        },
        {
            "name": "6743",
            "score": "0.978",
            "index": 57,
            "selectedWords": [
                "incontestable",
                "stimulante"
            ],
            "freeResponses": [],
            "nbPlayClick": 1,
            "expression": "DESOLE",
            "csv_id": 6777,
            "video_name": "DIVERS_PARL_DESOLE_AD_02_0002"
        },
        {
            "name": "1688",
            "score": "0.900",
            "index": 58,
            "selectedWords": [
                "d\u00e9termin\u00e9e",
                "r\u00e9solue"
            ],
            "freeResponses": [],
            "nbPlayClick": 1,
            "expression": "EVIDENCE",
            "csv_id": 1688,
            "video_name": "DIVERS_PARL_EVIDENCE_AD_02_0002"
        },
        {
            "name": "5917",
            "score": "0.973",
            "index": 59,
            "selectedWords": [
                "coquine",
                "r\u00eaveuse"
            ],
            "freeResponses": [],
            "nbPlayClick": 1,
            "expression": "ESPIEGLE",
            "csv_id": 5951,
            "video_name": "DIVERS_PARL_ESPIEGLE_AD_01_0001"
        }
    ],
    "training": [
        {
            "name": "77",
            "score": "0.639",
            "index": 0,
            "selectedWords": [
                "\u00e9vidente",
                "manifeste"
            ],
            "freeResponses": [],
            "nbPlayClick": 3,
            "expression": "NEUTRE"
        }
    ],
    "filenameDate": "2023-09-21_8-50"
}