{
    "user": {
        "isProlific": true,
        "id": "60caf4ce6643953cb44f8b55",
        "session": "65368f48f0d1c1607d366b0b",
        "study": "64ef977375f88e4e1174dce0"
    },
    "userAgent": "Mozilla/5.0 (Macintosh; Intel Mac OS X 10_15_7) AppleWebKit/605.1.15 (KHTML, like Gecko) Version/17.0 Safari/605.1.15",
    "landingDate": "2023-10-23T15:20:52.708Z",
    "startDate": "2023-10-23T15:21:56.110Z",
    "endDate": "2023-10-23T15:41:06.933Z",
    "reviews": [
        {
            "name": "10001",
            "score": "0.992",
            "index": 0,
            "selectedWords": [
                "incr\u00e9dule",
                "convaincue",
                "coquine"
            ],
            "freeResponses": [],
            "nbPlayClick": 5,
            "expression": "ESPIEGLE",
            "csv_id": 10035,
            "video_name": "DIVERS_BOOK_ESPIEGLE_AD_03_0001"
        },
        {
            "name": "4755",
            "score": "0.963",
            "index": 1,
            "selectedWords": [
                "autre",
                "dubitative",
                "sceptique",
                "\u00e9loquente",
                "autre",
                "estomaqu\u00e9e"
            ],
            "freeResponses": [],
            "nbPlayClick": 3,
            "expression": "INCREDULE",
            "csv_id": 4789,
            "video_name": "DIVERS_BOOK_INCREDULE_AD_01_0001"
        },
        {
            "name": "4953",
            "score": "0.965",
            "index": 2,
            "selectedWords": [
                "en col\u00e8re",
                "\u00e9nerv\u00e9e",
                "m\u00e9contente",
                "indign\u00e9e"
            ],
            "freeResponses": [],
            "nbPlayClick": 1,
            "expression": "COLERE",
            "csv_id": 4987,
            "video_name": "DIVERS_PARL_COLERE_AD_01_0003"
        },
        {
            "name": "2046",
            "score": "0.913",
            "index": 3,
            "selectedWords": [
                "espi\u00e8gle",
                "autre",
                "in\u00e9branlable",
                "certaine",
                "incontestable"
            ],
            "freeResponses": [],
            "nbPlayClick": 2,
            "expression": "NEUTRE",
            "csv_id": 2046,
            "video_name": "DIVERS_PARL_AD_03_0004"
        },
        {
            "name": "6232",
            "score": "0.975",
            "index": 4,
            "selectedWords": [
                "d\u00e9termin\u00e9e",
                "manifeste",
                "convaincue",
                "nette",
                "ferme"
            ],
            "freeResponses": [],
            "nbPlayClick": 1,
            "expression": "NEUTRE",
            "csv_id": 6266,
            "video_name": "DIVERS_PARL_AD_06_0002"
        },
        {
            "name": "8490",
            "score": "0.986",
            "index": 5,
            "selectedWords": [
                "autre",
                "dubitative",
                "autre",
                "autre",
                "autre",
                "abasourdie"
            ],
            "freeResponses": [],
            "nbPlayClick": 1,
            "expression": "NEUTRE",
            "csv_id": 8524,
            "video_name": "DIVERS_BOOK_AD_01_0001"
        },
        {
            "name": "11347",
            "score": "0.995",
            "index": 6,
            "selectedWords": [
                "enthousiaste",
                "euphorique",
                "enflamm\u00e9e",
                "transport\u00e9e"
            ],
            "freeResponses": [],
            "nbPlayClick": 3,
            "expression": "ENTHOUSIASTE",
            "csv_id": 11381,
            "video_name": "DIVERS_BOOK_ENTHOUSIASTE_AD_01_0001"
        },
        {
            "name": "6135",
            "score": "0.975",
            "index": 7,
            "selectedWords": [
                "d\u00e9sol\u00e9e",
                "autre",
                "imp\u00e9n\u00e9trable",
                "terne",
                "ferme"
            ],
            "freeResponses": [],
            "nbPlayClick": 1,
            "expression": "EVIDENCE",
            "csv_id": 6169,
            "video_name": "DIVERS_PARL_EVIDENCE_AD_02_0002"
        },
        {
            "name": "11848",
            "score": "0.997",
            "index": 8,
            "selectedWords": [
                "d\u00e9sol\u00e9e",
                "rageuse",
                "\u00e9nerv\u00e9e"
            ],
            "freeResponses": [],
            "nbPlayClick": 2,
            "expression": "SUPPLIANT",
            "csv_id": 11885,
            "video_name": "DIVERS_BOOK_SUPPLIANT_AD_01_0002"
        },
        {
            "name": "6328",
            "score": "0.976",
            "index": 9,
            "selectedWords": [
                "neutre",
                "certaine"
            ],
            "freeResponses": [],
            "nbPlayClick": 1,
            "expression": "NEUTRE",
            "csv_id": 6362,
            "video_name": "DIVERS_BOOK_AD_04_0002"
        },
        {
            "name": "9520",
            "score": "0.990",
            "index": 10,
            "selectedWords": [
                "espi\u00e8gle",
                "narquoise"
            ],
            "freeResponses": [],
            "nbPlayClick": 1,
            "expression": "INCREDULE",
            "csv_id": 9554,
            "video_name": "DIVERS_BOOK_INCREDULE_AD_01_0001"
        },
        {
            "name": "4406",
            "score": "0.959",
            "index": 11,
            "selectedWords": [
                "autre",
                "imp\u00e9n\u00e9trable",
                "agressive"
            ],
            "freeResponses": [],
            "nbPlayClick": 1,
            "expression": "INCREDULE",
            "csv_id": 4406,
            "video_name": "DIVERS_BOOK_INCREDULE_AD_01_0001"
        },
        {
            "name": "3220",
            "score": "0.942",
            "index": 12,
            "selectedWords": [
                "\u00e9tonn\u00e9e",
                "nette",
                "ferme"
            ],
            "freeResponses": [],
            "nbPlayClick": 2,
            "expression": "NEUTRE",
            "csv_id": 3220,
            "video_name": "DIVERS_BOOK_AD_04_0001"
        },
        {
            "name": "7786",
            "score": "0.983",
            "index": 13,
            "selectedWords": [
                "autre",
                "autre",
                "autre",
                "autre",
                "autre",
                "prostern\u00e9e",
                "autre",
                "hargneuse",
                "m\u00e9contente"
            ],
            "freeResponses": [],
            "nbPlayClick": 1,
            "expression": "NEUTRE",
            "csv_id": 7820,
            "video_name": "DIVERS_PARL_AD_03_0001"
        },
        {
            "name": "10709",
            "score": "0.994",
            "index": 14,
            "selectedWords": [
                "neutre",
                "limpide"
            ],
            "freeResponses": [],
            "nbPlayClick": 1,
            "expression": "NEUTRE",
            "csv_id": 10743,
            "video_name": "DIVERS_PARL_AD_04_0003"
        },
        {
            "name": "7765",
            "score": "0.983",
            "index": 15,
            "selectedWords": [
                "\u00e9vidente",
                "incontestable"
            ],
            "freeResponses": [],
            "nbPlayClick": 1,
            "expression": "NEUTRE",
            "csv_id": 7799,
            "video_name": "DIVERS_PARL_AD_03_0004"
        },
        {
            "name": "5731",
            "score": "0.972",
            "index": 16,
            "selectedWords": [
                "\u00e9vidente",
                "indubitable"
            ],
            "freeResponses": [],
            "nbPlayClick": 1,
            "expression": "NEUTRE",
            "csv_id": 5765,
            "video_name": "DIVERS_PARL_AD_01_0004"
        },
        {
            "name": "10243",
            "score": "0.992",
            "index": 17,
            "selectedWords": [
                "neutre",
                "tonique"
            ],
            "freeResponses": [],
            "nbPlayClick": 1,
            "expression": "NEUTRE",
            "csv_id": 10277,
            "video_name": "DIVERS_PARL_AD_05_0003"
        },
        {
            "name": "2419",
            "score": "0.924",
            "index": 18,
            "selectedWords": [
                "\u00e9tonn\u00e9e",
                "nette"
            ],
            "freeResponses": [],
            "nbPlayClick": 1,
            "expression": "NEUTRE",
            "csv_id": 2419,
            "video_name": "DIVERS_PARL_AD_04_0002"
        },
        {
            "name": "11682",
            "score": "0.996",
            "index": 19,
            "selectedWords": [
                "d\u00e9sol\u00e9e",
                "manifeste"
            ],
            "freeResponses": [],
            "nbPlayClick": 1,
            "expression": "NEUTRE",
            "csv_id": 11719,
            "video_name": "DIVERS_PARL_AD_02_0001"
        },
        {
            "name": "11203",
            "score": "0.995",
            "index": 20,
            "selectedWords": [
                "autre",
                "\u00e9berlu\u00e9e",
                "\u00e9bahie"
            ],
            "freeResponses": [],
            "nbPlayClick": 8,
            "expression": "NEUTRE",
            "csv_id": 11237,
            "video_name": "DIVERS_BOOK_AD_03_0002"
        },
        {
            "name": "11091",
            "score": "0.995",
            "index": 21,
            "selectedWords": [
                "neutre",
                "autre",
                "autre",
                "inexpressive"
            ],
            "freeResponses": [],
            "nbPlayClick": 2,
            "expression": "NEUTRE",
            "csv_id": 11125,
            "video_name": "DIVERS_BOOK_AD_01_0002"
        },
        {
            "name": "2664",
            "score": "0.931",
            "index": 22,
            "selectedWords": [
                "en col\u00e8re",
                "autre",
                "vivifiante"
            ],
            "freeResponses": [],
            "nbPlayClick": 1,
            "expression": "NEUTRE",
            "csv_id": 2664,
            "video_name": "DIVERS_PARL_AD_03_0002"
        },
        {
            "name": "5649",
            "score": "0.971",
            "index": 23,
            "selectedWords": [
                "\u00e9tonn\u00e9e",
                "autre",
                "fac\u00e9tieuse"
            ],
            "freeResponses": [],
            "nbPlayClick": 1,
            "expression": "ETONNE",
            "csv_id": 5683,
            "video_name": "DIVERS_BOOK_ETONNE_AD_01_0002"
        },
        {
            "name": "4630",
            "score": "0.962",
            "index": 24,
            "selectedWords": [
                "\u00e9vidente",
                "incontestable"
            ],
            "freeResponses": [],
            "nbPlayClick": 1,
            "expression": "NEUTRE",
            "csv_id": 4664,
            "video_name": "DIVERS_PARL_AD_06_0002"
        },
        {
            "name": "7317",
            "score": "0.981",
            "index": 25,
            "selectedWords": [
                "autre",
                "autre",
                "autre",
                "attrist\u00e9e",
                "accabl\u00e9e"
            ],
            "freeResponses": [],
            "nbPlayClick": 1,
            "expression": "SUPPLIANT",
            "csv_id": 7351,
            "video_name": "ESTYLE_SUPPLIANT_AD_02_0001"
        },
        {
            "name": "10024",
            "score": "0.992",
            "index": 26,
            "selectedWords": [
                "\u00e9tonn\u00e9e",
                "rageuse"
            ],
            "freeResponses": [],
            "nbPlayClick": 1,
            "expression": "ETONNE",
            "csv_id": 10058,
            "video_name": "DIVERS_PARL_ETONNE_AD_01_0001"
        },
        {
            "name": "11814",
            "score": "0.997",
            "index": 27,
            "selectedWords": [
                "neutre",
                "certaine"
            ],
            "freeResponses": [],
            "nbPlayClick": 1,
            "expression": "NEUTRE",
            "csv_id": 11851,
            "video_name": "DIVERS_PARL_AD_02_0002"
        },
        {
            "name": "2708",
            "score": "0.932",
            "index": 28,
            "selectedWords": [
                "d\u00e9termin\u00e9e",
                "manifeste"
            ],
            "freeResponses": [],
            "nbPlayClick": 1,
            "expression": "NEUTRE",
            "csv_id": 2708,
            "video_name": "DIVERS_PARL_AD_04_0004"
        },
        {
            "name": "10848",
            "score": "0.994",
            "index": 29,
            "selectedWords": [
                "\u00e9vidente",
                "indubitable"
            ],
            "freeResponses": [],
            "nbPlayClick": 1,
            "expression": "NEUTRE",
            "csv_id": 10882,
            "video_name": "DIVERS_PARL_AD_01_0006"
        },
        {
            "name": "3212",
            "score": "0.942",
            "index": 30,
            "selectedWords": [
                "en col\u00e8re",
                "d\u00e9termin\u00e9e"
            ],
            "freeResponses": [],
            "nbPlayClick": 1,
            "expression": "DETERMINE",
            "csv_id": 3212,
            "video_name": "DIVERS_PARL_DETERMINE_AD_01_0004"
        },
        {
            "name": "11580",
            "score": "0.996",
            "index": 31,
            "selectedWords": [
                "neutre",
                "s\u00fbre"
            ],
            "freeResponses": [],
            "nbPlayClick": 1,
            "expression": "NEUTRE",
            "csv_id": 11617,
            "video_name": "DIVERS_PARL_AD_02_0002"
        },
        {
            "name": "4467",
            "score": "0.960",
            "index": 32,
            "selectedWords": [
                "ardente",
                "froide"
            ],
            "freeResponses": [],
            "nbPlayClick": 1,
            "expression": "NEUTRE",
            "csv_id": 4501,
            "video_name": "DIVERS_PARL_AD_06_0003"
        },
        {
            "name": "341",
            "score": "0.774",
            "index": 33,
            "selectedWords": [
                "espi\u00e8gle",
                "narquoise"
            ],
            "freeResponses": [],
            "nbPlayClick": 1,
            "expression": "EVIDENCE",
            "csv_id": 341,
            "video_name": "DIVERS_PARL_EVIDENCE_AD_02_0002"
        },
        {
            "name": "3072",
            "score": "0.940",
            "index": 34,
            "selectedWords": [
                "\u00e9tonn\u00e9e",
                "rageuse",
                "en rogne",
                "irrit\u00e9e"
            ],
            "freeResponses": [],
            "nbPlayClick": 1,
            "expression": "INCREDULE",
            "csv_id": 3072,
            "video_name": "DIVERS_PARL_INCREDULE_AD_01_0001"
        },
        {
            "name": "2106",
            "score": "0.915",
            "index": 35,
            "selectedWords": [
                "\u00e9tonn\u00e9e",
                "rageuse"
            ],
            "freeResponses": [],
            "nbPlayClick": 1,
            "expression": "INCREDULE",
            "csv_id": 2106,
            "video_name": "DIVERS_BOOK_INCREDULE_AD_01_0001"
        },
        {
            "name": "9228",
            "score": "0.989",
            "index": 36,
            "selectedWords": [
                "\u00e9tonn\u00e9e",
                "dubitative"
            ],
            "freeResponses": [],
            "nbPlayClick": 1,
            "expression": "PENSIF",
            "csv_id": 9262,
            "video_name": "DIVERS_BOOK_PENSIF_AD_01_0003"
        },
        {
            "name": "3857",
            "score": "0.952",
            "index": 37,
            "selectedWords": [
                "neutre",
                "notoire"
            ],
            "freeResponses": [],
            "nbPlayClick": 1,
            "expression": "NEUTRE",
            "csv_id": 3857,
            "video_name": "DIVERS_BOOK_AD_04_0002"
        },
        {
            "name": "11967",
            "score": "0.997",
            "index": 38,
            "selectedWords": [
                "d\u00e9termin\u00e9e",
                "manifeste"
            ],
            "freeResponses": [],
            "nbPlayClick": 1,
            "expression": "NEUTRE",
            "csv_id": 12004,
            "video_name": "DIVERS_PARL_AD_01_0006"
        },
        {
            "name": "3142",
            "score": "0.941",
            "index": 39,
            "selectedWords": [
                "enthousiaste",
                "confuse"
            ],
            "freeResponses": [],
            "nbPlayClick": 2,
            "expression": "NEUTRE",
            "csv_id": 3142,
            "video_name": "DIVERS_BOOK_AD_03_0002"
        },
        {
            "name": "3580",
            "score": "0.948",
            "index": 40,
            "selectedWords": [
                "\u00e9nerv\u00e9e",
                "convaincue"
            ],
            "freeResponses": [],
            "nbPlayClick": 1,
            "response": "convaincu",
            "expression": "DETERMINE",
            "csv_id": 3580,
            "video_name": "DIVERS_PARL_DETERMINE_AD_01_0002"
        },
        {
            "name": "2204",
            "score": "0.918",
            "index": 41,
            "selectedWords": [
                "d\u00e9termin\u00e9e",
                "r\u00e9fl\u00e9chie"
            ],
            "freeResponses": [],
            "nbPlayClick": 1,
            "expression": "NEUTRE",
            "csv_id": 2204,
            "video_name": "DIVERS_PARL_AD_06_0004"
        },
        {
            "name": "1983",
            "score": "0.911",
            "index": 42,
            "selectedWords": [
                "agressive"
            ],
            "freeResponses": [
                "m\u00e9disante"
            ],
            "nbPlayClick": 1,
            "response": "",
            "expression": "NEUTRE",
            "csv_id": 1983,
            "video_name": "DIVERS_PARL_AD_05_0004"
        },
        {
            "name": "12036",
            "score": "0.997",
            "index": 43,
            "selectedWords": [
                "espi\u00e8gle",
                "narquoise",
                "autre"
            ],
            "freeResponses": [],
            "nbPlayClick": 1,
            "expression": "NEUTRE",
            "csv_id": 12073,
            "video_name": "DIVERS_PARL_AD_01_0006"
        },
        {
            "name": "10045",
            "score": "0.992",
            "index": 44,
            "selectedWords": [
                "d\u00e9termin\u00e9e",
                "manifeste"
            ],
            "freeResponses": [],
            "nbPlayClick": 1,
            "expression": "NEUTRE",
            "csv_id": 10079,
            "video_name": "DIVERS_PARL_AD_02_0003"
        },
        {
            "name": "3481",
            "score": "0.946",
            "index": 45,
            "selectedWords": [
                "sceptique",
                "autre",
                "dubitative"
            ],
            "freeResponses": [],
            "nbPlayClick": 1,
            "response": "sce",
            "expression": "INCREDULE",
            "csv_id": 3481,
            "video_name": "DIVERS_BOOK_INCREDULE_AD_01_0001"
        },
        {
            "name": "4472",
            "score": "0.960",
            "index": 46,
            "selectedWords": [
                "neutre",
                "s\u00fbre"
            ],
            "freeResponses": [],
            "nbPlayClick": 1,
            "expression": "NEUTRE",
            "csv_id": 4506,
            "video_name": "DIVERS_PARL_AD_06_0003"
        },
        {
            "name": "12144",
            "score": "0.997",
            "index": 47,
            "selectedWords": [
                "incr\u00e9dule",
                "dubitative"
            ],
            "freeResponses": [],
            "nbPlayClick": 1,
            "expression": "PENSIF",
            "csv_id": 12181,
            "video_name": "DIVERS_PARL_PENSIF_AD_01_0002"
        },
        {
            "name": "9088",
            "score": "0.989",
            "index": 48,
            "selectedWords": [
                "\u00e9vidente",
                "indubitable"
            ],
            "freeResponses": [],
            "nbPlayClick": 1,
            "expression": "NEUTRE",
            "csv_id": 9122,
            "video_name": "DIVERS_PARL_AD_06_0003"
        },
        {
            "name": "3731",
            "score": "0.950",
            "index": 49,
            "selectedWords": [
                "r\u00e9confortante",
                "encourageante"
            ],
            "freeResponses": [],
            "nbPlayClick": 1,
            "expression": "NEUTRE",
            "csv_id": 3731,
            "video_name": "DIVERS_PARL_AD_03_0004"
        },
        {
            "name": "7803",
            "score": "0.983",
            "index": 50,
            "selectedWords": [
                "r\u00e9confortante",
                "stimulante"
            ],
            "freeResponses": [],
            "nbPlayClick": 1,
            "expression": "NEUTRE",
            "csv_id": 7837,
            "video_name": "DIVERS_PARL_AD_05_0001"
        },
        {
            "name": "9021",
            "score": "0.988",
            "index": 51,
            "selectedWords": [
                "agressive",
                "froide"
            ],
            "freeResponses": [],
            "nbPlayClick": 1,
            "expression": "NEUTRE",
            "csv_id": 9055,
            "video_name": "DIVERS_BOOK_AD_03_0001"
        },
        {
            "name": "5300",
            "score": "0.968",
            "index": 52,
            "selectedWords": [
                "r\u00e9confortante",
                "apaisante"
            ],
            "freeResponses": [],
            "nbPlayClick": 1,
            "expression": "RECONFORTANT",
            "csv_id": 5334,
            "video_name": "DIVERS_PARL_RECONFORTANT_AD_02_0001"
        },
        {
            "name": "406",
            "score": "0.791",
            "index": 53,
            "selectedWords": [
                "d\u00e9termin\u00e9e",
                "manifeste"
            ],
            "freeResponses": [],
            "nbPlayClick": 1,
            "expression": "NEUTRE",
            "csv_id": 406,
            "video_name": "DIVERS_PARL_AD_05_0001"
        },
        {
            "name": "7993",
            "score": "0.984",
            "index": 54,
            "selectedWords": [
                "confuse"
            ],
            "freeResponses": [
                "r\u00eaveuse"
            ],
            "nbPlayClick": 1,
            "response": "reveuse",
            "expression": "PENSIF",
            "csv_id": 8027,
            "video_name": "DIVERS_PARL_PENSIF_AD_01_0002"
        },
        {
            "name": "9763",
            "score": "0.991",
            "index": 55,
            "selectedWords": [
                "d\u00e9termin\u00e9e",
                "autre",
                "imp\u00e9n\u00e9trable"
            ],
            "freeResponses": [],
            "nbPlayClick": 1,
            "expression": "NEUTRE",
            "csv_id": 9797,
            "video_name": "DIVERS_PARL_AD_05_0001"
        },
        {
            "name": "3286",
            "score": "0.943",
            "index": 56,
            "selectedWords": [
                "en col\u00e8re",
                "en rage"
            ],
            "freeResponses": [],
            "nbPlayClick": 1,
            "expression": "DETERMINE",
            "csv_id": 3286,
            "video_name": "ESTYLE_DETERMINE_AD_02_0001"
        },
        {
            "name": "5983",
            "score": "0.974",
            "index": 57,
            "selectedWords": [
                "narquoise",
                "rus\u00e9e"
            ],
            "freeResponses": [],
            "nbPlayClick": 1,
            "response": "narquois",
            "expression": "NEUTRE",
            "csv_id": 6017,
            "video_name": "DIVERS_PARL_AD_05_0003"
        },
        {
            "name": "8048",
            "score": "0.984",
            "index": 58,
            "selectedWords": [
                "\u00e9tonn\u00e9e",
                "rageuse"
            ],
            "freeResponses": [],
            "nbPlayClick": 1,
            "expression": "ESPIEGLE",
            "csv_id": 8082,
            "video_name": "DIVERS_BOOK_ESPIEGLE_AD_03_0001"
        },
        {
            "name": "5065",
            "score": "0.966",
            "index": 59,
            "selectedWords": [
                "\u00e9tonn\u00e9e",
                "coquine"
            ],
            "freeResponses": [],
            "nbPlayClick": 1,
            "expression": "INCREDULE",
            "csv_id": 5099,
            "video_name": "DIVERS_BOOK_INCREDULE_AD_01_0001"
        }
    ],
    "training": [
        {
            "name": "77",
            "score": "0.639",
            "index": 0,
            "selectedWords": [
                "pensive",
                "songeuse",
                "pr\u00e9occup\u00e9e",
                "accabl\u00e9e",
                "emb\u00eat\u00e9e",
                "indign\u00e9e"
            ],
            "freeResponses": [],
            "nbPlayClick": 2,
            "expression": "NEUTRE"
        }
    ],
    "filenameDate": "2023-10-23_17-41"
}