{
    "user": {
        "isProlific": true,
        "id": "60fcc09cb546eee814672f44",
        "session": "65915318312015473114d092",
        "study": "64ef977375f88e4e1174dce0"
    },
    "userAgent": "Mozilla/5.0 (Windows NT 10.0; Win64; x64) AppleWebKit/537.36 (KHTML, like Gecko) Chrome/120.0.0.0 Safari/537.36",
    "landingDate": "2023-12-31T11:40:48.776Z",
    "startDate": "2023-12-31T11:42:44.465Z",
    "endDate": "2023-12-31T12:09:39.426Z",
    "reviews": [
        {
            "name": "2497",
            "score": "0.926",
            "index": 0,
            "selectedWords": [
                "neutre",
                "s\u00fbre",
                "nette"
            ],
            "freeResponses": [],
            "nbPlayClick": 1,
            "expression": "NEUTRE",
            "csv_id": 2497,
            "video_name": "DIVERS_BOOK_AD_01_0001"
        },
        {
            "name": "4252",
            "score": "0.957",
            "index": 1,
            "selectedWords": [
                "\u00e9vidente",
                "autre",
                "implorante",
                "autre",
                "d\u00e9cid\u00e9e"
            ],
            "freeResponses": [],
            "nbPlayClick": 2,
            "expression": "SUPPLIANT",
            "csv_id": 4252,
            "video_name": "DIVERS_PARL_SUPPLIANT_AD_02_0002"
        },
        {
            "name": "8918",
            "score": "0.988",
            "index": 2,
            "selectedWords": [
                "neutre",
                "s\u00fbre"
            ],
            "freeResponses": [],
            "nbPlayClick": 2,
            "expression": "NEUTRE",
            "csv_id": 8952,
            "video_name": "DIVERS_PARL_AD_05_0001"
        },
        {
            "name": "11935",
            "score": "0.997",
            "index": 3,
            "selectedWords": [
                "\u00e9vidente",
                "manifeste"
            ],
            "freeResponses": [],
            "nbPlayClick": 1,
            "expression": "NEUTRE",
            "csv_id": 11972,
            "video_name": "DIVERS_PARL_AD_01_0006"
        },
        {
            "name": "5429",
            "score": "0.969",
            "index": 4,
            "selectedWords": [
                "espi\u00e8gle",
                "narquoise"
            ],
            "freeResponses": [],
            "nbPlayClick": 1,
            "expression": "EVIDENCE",
            "csv_id": 5463,
            "video_name": "DIVERS_PARL_EVIDENCE_AD_01_0001"
        },
        {
            "name": "10003",
            "score": "0.992",
            "index": 5,
            "selectedWords": [
                "espi\u00e8gle",
                "fac\u00e9tieuse"
            ],
            "freeResponses": [],
            "nbPlayClick": 1,
            "expression": "INCREDULE",
            "csv_id": 10037,
            "video_name": "DIVERS_BOOK_INCREDULE_AD_01_0001"
        },
        {
            "name": "3091",
            "score": "0.940",
            "index": 6,
            "selectedWords": [
                "d\u00e9termin\u00e9e",
                "r\u00e9solue"
            ],
            "freeResponses": [],
            "nbPlayClick": 1,
            "expression": "NEUTRE",
            "csv_id": 3091,
            "video_name": "DIVERS_PARL_AD_01_0004"
        },
        {
            "name": "5041",
            "score": "0.966",
            "index": 7,
            "selectedWords": [
                "\u00e9tonn\u00e9e",
                "sinc\u00e8re"
            ],
            "freeResponses": [],
            "nbPlayClick": 1,
            "expression": "RECONFORTANT",
            "csv_id": 5075,
            "video_name": "DIVERS_PARL_RECONFORTANT_AD_02_0001"
        },
        {
            "name": "5888",
            "score": "0.973",
            "index": 8,
            "selectedWords": [
                "pensive",
                "m\u00e9ditative"
            ],
            "freeResponses": [],
            "nbPlayClick": 1,
            "expression": "PENSIF",
            "csv_id": 5922,
            "video_name": "DIVERS_BOOK_PENSIF_AD_03_0002"
        },
        {
            "name": "1163",
            "score": "0.872",
            "index": 9,
            "selectedWords": [
                "\u00e9vidente",
                "indubitable",
                "in\u00e9branlable"
            ],
            "freeResponses": [],
            "nbPlayClick": 1,
            "expression": "NEUTRE",
            "csv_id": 1163,
            "video_name": "DIVERS_PARL_AD_06_0002"
        },
        {
            "name": "989",
            "score": "0.860",
            "index": 10,
            "selectedWords": [
                "neutre",
                "certaine"
            ],
            "freeResponses": [],
            "nbPlayClick": 1,
            "expression": "EVIDENCE",
            "csv_id": 989,
            "video_name": "DIVERS_BOOK_EVIDENCE_AD_01_0002"
        },
        {
            "name": "9980",
            "score": "0.992",
            "index": 11,
            "selectedWords": [
                "r\u00e9confortante",
                "encourageante"
            ],
            "freeResponses": [],
            "nbPlayClick": 1,
            "expression": "NEUTRE",
            "csv_id": 10014,
            "video_name": "DIVERS_PARL_AD_02_0002"
        },
        {
            "name": "6613",
            "score": "0.977",
            "index": 12,
            "selectedWords": [
                "espi\u00e8gle",
                "taquine"
            ],
            "freeResponses": [],
            "nbPlayClick": 2,
            "expression": "ENTHOUSIASTE",
            "csv_id": 6647,
            "video_name": "DIVERS_BOOK_ENTHOUSIASTE_AD_01_0004"
        },
        {
            "name": "10675",
            "score": "0.994",
            "index": 13,
            "selectedWords": [
                "neutre",
                "patente"
            ],
            "freeResponses": [],
            "nbPlayClick": 1,
            "expression": "NEUTRE",
            "csv_id": 10709,
            "video_name": "DIVERS_PARL_AD_01_0006"
        },
        {
            "name": "2744",
            "score": "0.933",
            "index": 14,
            "selectedWords": [
                "espi\u00e8gle",
                "taquine"
            ],
            "freeResponses": [],
            "nbPlayClick": 1,
            "expression": "ESPIEGLE",
            "csv_id": 2744,
            "video_name": "DIVERS_BOOK_ESPIEGLE_AD_03_0001"
        },
        {
            "name": "8665",
            "score": "0.987",
            "index": 15,
            "selectedWords": [
                "d\u00e9sol\u00e9e",
                "r\u00e9fl\u00e9chie"
            ],
            "freeResponses": [],
            "nbPlayClick": 2,
            "expression": "DESOLE",
            "csv_id": 8699,
            "video_name": "DIVERS_PARL_DESOLE_AD_01_0004"
        },
        {
            "name": "6985",
            "score": "0.979",
            "index": 16,
            "selectedWords": [
                "\u00e9tonn\u00e9e",
                "rageuse",
                "agit\u00e9e",
                "irrit\u00e9e"
            ],
            "freeResponses": [],
            "nbPlayClick": 1,
            "expression": "NEUTRE",
            "csv_id": 7019,
            "video_name": "DIVERS_PARL_AD_02_0004"
        },
        {
            "name": "509",
            "score": "0.806",
            "index": 17,
            "selectedWords": [
                "en col\u00e8re",
                "irrit\u00e9e"
            ],
            "freeResponses": [],
            "nbPlayClick": 1,
            "expression": "INCREDULE",
            "csv_id": 509,
            "video_name": "DIVERS_PARL_INCREDULE_AD_01_0001"
        },
        {
            "name": "815",
            "score": "0.844",
            "index": 18,
            "selectedWords": [
                "d\u00e9termin\u00e9e",
                "r\u00e9solue"
            ],
            "freeResponses": [],
            "nbPlayClick": 1,
            "expression": "NEUTRE",
            "csv_id": 815,
            "video_name": "ESTYLE_NEUTRE_AD_02_0001"
        },
        {
            "name": "1056",
            "score": "0.865",
            "index": 19,
            "selectedWords": [
                "en col\u00e8re",
                "\u00e9nerv\u00e9e",
                "f\u00e2ch\u00e9e"
            ],
            "freeResponses": [],
            "nbPlayClick": 1,
            "expression": "DETERMINE",
            "csv_id": 1056,
            "video_name": "DIVERS_PARL_DETERMINE_AD_01_0004"
        },
        {
            "name": "11848",
            "score": "0.997",
            "index": 20,
            "selectedWords": [
                "suppliante",
                "autre",
                "autre",
                "attrist\u00e9e",
                "navr\u00e9e"
            ],
            "freeResponses": [],
            "nbPlayClick": 1,
            "expression": "SUPPLIANT",
            "csv_id": 11885,
            "video_name": "DIVERS_BOOK_SUPPLIANT_AD_01_0002"
        },
        {
            "name": "9860",
            "score": "0.991",
            "index": 21,
            "selectedWords": [
                "neutre",
                "limpide"
            ],
            "freeResponses": [],
            "nbPlayClick": 2,
            "expression": "DESOLE",
            "csv_id": 9894,
            "video_name": "DIVERS_BOOK_DESOLE_AD_03_0002"
        },
        {
            "name": "6775",
            "score": "0.978",
            "index": 22,
            "selectedWords": [
                "r\u00e9confortante",
                "consolatrice"
            ],
            "freeResponses": [],
            "nbPlayClick": 1,
            "expression": "EVIDENCE",
            "csv_id": 6809,
            "video_name": "DIVERS_PARL_EVIDENCE_AD_01_0001"
        },
        {
            "name": "9614",
            "score": "0.990",
            "index": 23,
            "selectedWords": [
                "neutre",
                "s\u00fbre"
            ],
            "freeResponses": [],
            "nbPlayClick": 1,
            "expression": "NEUTRE",
            "csv_id": 9648,
            "video_name": "DIVERS_PARL_AD_02_0003"
        },
        {
            "name": "11877",
            "score": "0.997",
            "index": 24,
            "selectedWords": [
                "\u00e9tonn\u00e9e",
                "coquine",
                "tonique"
            ],
            "freeResponses": [],
            "nbPlayClick": 2,
            "expression": "ETONNE",
            "csv_id": 11914,
            "video_name": "DIVERS_PARL_ETONNE_AD_01_0001"
        },
        {
            "name": "8448",
            "score": "0.986",
            "index": 25,
            "selectedWords": [
                "neutre",
                "certaine"
            ],
            "freeResponses": [],
            "nbPlayClick": 1,
            "expression": "NEUTRE",
            "csv_id": 8482,
            "video_name": "DIVERS_BOOK_AD_01_0001"
        },
        {
            "name": "2774",
            "score": "0.933",
            "index": 26,
            "selectedWords": [
                "d\u00e9termin\u00e9e",
                "r\u00e9solue"
            ],
            "freeResponses": [],
            "nbPlayClick": 1,
            "expression": "NEUTRE",
            "csv_id": 2774,
            "video_name": "DIVERS_PARL_AD_06_0004"
        },
        {
            "name": "3857",
            "score": "0.952",
            "index": 27,
            "selectedWords": [
                "espi\u00e8gle",
                "fac\u00e9tieuse"
            ],
            "freeResponses": [],
            "nbPlayClick": 2,
            "expression": "NEUTRE",
            "csv_id": 3857,
            "video_name": "DIVERS_BOOK_AD_04_0002"
        },
        {
            "name": "3261",
            "score": "0.943",
            "index": 28,
            "selectedWords": [
                "neutre",
                "certaine"
            ],
            "freeResponses": [],
            "nbPlayClick": 1,
            "expression": "NEUTRE",
            "csv_id": 3261,
            "video_name": "DIVERS_PARL_AD_04_0001"
        },
        {
            "name": "6471",
            "score": "0.977",
            "index": 29,
            "selectedWords": [
                "enthousiaste",
                "\u00e9loquente"
            ],
            "freeResponses": [],
            "nbPlayClick": 1,
            "expression": "RECONFORTANT",
            "csv_id": 6505,
            "video_name": "DIVERS_BOOK_RECONFORTANT_AD_03_0002"
        },
        {
            "name": "8219",
            "score": "0.985",
            "index": 30,
            "selectedWords": [
                "neutre",
                "certaine"
            ],
            "freeResponses": [],
            "nbPlayClick": 1,
            "expression": "NEUTRE",
            "csv_id": 8253,
            "video_name": "DIVERS_PARL_AD_06_0003"
        },
        {
            "name": "12160",
            "score": "0.998",
            "index": 31,
            "selectedWords": [
                "\u00e9vidente",
                "incontestable"
            ],
            "freeResponses": [],
            "nbPlayClick": 1,
            "expression": "SUPPLIANT",
            "csv_id": 12197,
            "video_name": "DIVERS_BOOK_SUPPLIANT_AD_01_0004"
        },
        {
            "name": "6186",
            "score": "0.975",
            "index": 32,
            "selectedWords": [
                "\u00e9vidente",
                "manifeste"
            ],
            "freeResponses": [],
            "nbPlayClick": 2,
            "expression": "NEUTRE",
            "csv_id": 6220,
            "video_name": "DIVERS_PARL_AD_06_0003"
        },
        {
            "name": "5454",
            "score": "0.969",
            "index": 33,
            "selectedWords": [
                "d\u00e9termin\u00e9e",
                "r\u00e9solue"
            ],
            "freeResponses": [],
            "nbPlayClick": 1,
            "expression": "NEUTRE",
            "csv_id": 5488,
            "video_name": "DIVERS_PARL_AD_01_0001"
        },
        {
            "name": "6157",
            "score": "0.975",
            "index": 34,
            "selectedWords": [
                "pensive",
                "songeuse"
            ],
            "freeResponses": [],
            "nbPlayClick": 1,
            "expression": "NEUTRE",
            "csv_id": 6191,
            "video_name": "DIVERS_PARL_AD_03_0001"
        },
        {
            "name": "4576",
            "score": "0.962",
            "index": 35,
            "selectedWords": [
                "pensive",
                "r\u00e9fl\u00e9chissante"
            ],
            "freeResponses": [],
            "nbPlayClick": 1,
            "expression": "PENSIF",
            "csv_id": 4610,
            "video_name": "DIVERS_PARL_PENSIF_AD_01_0002"
        },
        {
            "name": "3253",
            "score": "0.943",
            "index": 36,
            "selectedWords": [
                "enthousiaste",
                "coquine"
            ],
            "freeResponses": [],
            "nbPlayClick": 1,
            "expression": "RECONFORTANT",
            "csv_id": 3253,
            "video_name": "DIVERS_PARL_RECONFORTANT_AD_02_0001"
        },
        {
            "name": "6670",
            "score": "0.978",
            "index": 37,
            "selectedWords": [
                "neutre",
                "limpide"
            ],
            "freeResponses": [],
            "nbPlayClick": 1,
            "expression": "NEUTRE",
            "csv_id": 6704,
            "video_name": "DIVERS_BOOK_AD_01_0001"
        },
        {
            "name": "3095",
            "score": "0.940",
            "index": 38,
            "selectedWords": [
                "\u00e9vidente",
                "indubitable"
            ],
            "freeResponses": [],
            "nbPlayClick": 1,
            "expression": "NEUTRE",
            "csv_id": 3095,
            "video_name": "DIVERS_PARL_AD_04_0002"
        },
        {
            "name": "9481",
            "score": "0.990",
            "index": 39,
            "selectedWords": [
                "neutre",
                "limpide"
            ],
            "freeResponses": [],
            "nbPlayClick": 1,
            "expression": "NEUTRE",
            "csv_id": 9515,
            "video_name": "DIVERS_PARL_AD_04_0001"
        },
        {
            "name": "11698",
            "score": "0.996",
            "index": 40,
            "selectedWords": [
                "suppliante",
                "implorante"
            ],
            "freeResponses": [],
            "nbPlayClick": 1,
            "expression": "SUPPLIANT",
            "csv_id": 11735,
            "video_name": "DIVERS_BOOK_SUPPLIANT_AD_01_0002"
        },
        {
            "name": "3045",
            "score": "0.939",
            "index": 41,
            "selectedWords": [
                "espi\u00e8gle",
                "mutine"
            ],
            "freeResponses": [],
            "nbPlayClick": 1,
            "expression": "ESPIEGLE",
            "csv_id": 3045,
            "video_name": "DIVERS_PARL_ESPIEGLE_AD_01_0001"
        },
        {
            "name": "3775",
            "score": "0.951",
            "index": 42,
            "selectedWords": [
                "neutre",
                "certaine"
            ],
            "freeResponses": [],
            "nbPlayClick": 1,
            "expression": "NEUTRE",
            "csv_id": 3775,
            "video_name": "DIVERS_PARL_AD_05_0001"
        },
        {
            "name": "4597",
            "score": "0.962",
            "index": 43,
            "selectedWords": [
                "d\u00e9termin\u00e9e",
                "r\u00e9solue"
            ],
            "freeResponses": [],
            "nbPlayClick": 1,
            "expression": "INCREDULE",
            "csv_id": 4631,
            "video_name": "DIVERS_PARL_INCREDULE_AD_01_0001"
        },
        {
            "name": "7642",
            "score": "0.983",
            "index": 44,
            "selectedWords": [
                "\u00e9vidente",
                "incontestable"
            ],
            "freeResponses": [],
            "nbPlayClick": 1,
            "expression": "NEUTRE",
            "csv_id": 7676,
            "video_name": "DIVERS_PARL_AD_05_0003"
        },
        {
            "name": "10754",
            "score": "0.994",
            "index": 45,
            "selectedWords": [
                "enthousiaste",
                "tonique"
            ],
            "freeResponses": [],
            "nbPlayClick": 1,
            "expression": "ENTHOUSIASTE",
            "csv_id": 10788,
            "video_name": "DIVERS_PARL_ENTHOUSIASTE_AD_01_0003"
        },
        {
            "name": "8130",
            "score": "0.985",
            "index": 46,
            "selectedWords": [
                "neutre",
                "certaine"
            ],
            "freeResponses": [],
            "nbPlayClick": 1,
            "expression": "NEUTRE",
            "csv_id": 8164,
            "video_name": "DIVERS_BOOK_AD_01_0002"
        },
        {
            "name": "12204",
            "score": "0.998",
            "index": 47,
            "selectedWords": [
                "pensive",
                "r\u00e9fl\u00e9chissante"
            ],
            "freeResponses": [],
            "nbPlayClick": 1,
            "expression": "PENSIF",
            "csv_id": 12241,
            "video_name": "DIVERS_BOOK_PENSIF_AD_03_0002"
        },
        {
            "name": "4261",
            "score": "0.957",
            "index": 48,
            "selectedWords": [
                "r\u00e9confortante",
                "apaisante"
            ],
            "freeResponses": [],
            "nbPlayClick": 2,
            "expression": "DESOLE",
            "csv_id": 4261,
            "video_name": "DIVERS_BOOK_DESOLE_AD_03_0002"
        },
        {
            "name": "12073",
            "score": "0.997",
            "index": 49,
            "selectedWords": [
                "\u00e9vidente",
                "manifeste"
            ],
            "freeResponses": [],
            "nbPlayClick": 1,
            "expression": "NEUTRE",
            "csv_id": 12110,
            "video_name": "DIVERS_PARL_AD_03_0002"
        },
        {
            "name": "11178",
            "score": "0.995",
            "index": 50,
            "selectedWords": [
                "d\u00e9termin\u00e9e",
                "r\u00e9solue"
            ],
            "freeResponses": [],
            "nbPlayClick": 1,
            "expression": "NEUTRE",
            "csv_id": 11212,
            "video_name": "DIVERS_PARL_AD_02_0002"
        },
        {
            "name": "7698",
            "score": "0.983",
            "index": 51,
            "selectedWords": [
                "d\u00e9termin\u00e9e",
                "r\u00e9solue"
            ],
            "freeResponses": [],
            "nbPlayClick": 1,
            "expression": "NEUTRE",
            "csv_id": 7732,
            "video_name": "DIVERS_PARL_AD_01_0002"
        },
        {
            "name": "2282",
            "score": "0.920",
            "index": 52,
            "selectedWords": [
                "\u00e9vidente",
                "incontestable"
            ],
            "freeResponses": [],
            "nbPlayClick": 1,
            "expression": "NEUTRE",
            "csv_id": 2282,
            "video_name": "DIVERS_PARL_AD_04_0001"
        },
        {
            "name": "7707",
            "score": "0.983",
            "index": 53,
            "selectedWords": [
                "\u00e9tonn\u00e9e",
                "rageuse"
            ],
            "freeResponses": [],
            "nbPlayClick": 1,
            "expression": "INCREDULE",
            "csv_id": 7741,
            "video_name": "DIVERS_BOOK_INCREDULE_AD_01_0001"
        },
        {
            "name": "8163",
            "score": "0.985",
            "index": 54,
            "selectedWords": [
                "neutre",
                "certaine"
            ],
            "freeResponses": [],
            "nbPlayClick": 1,
            "expression": "NEUTRE",
            "csv_id": 8197,
            "video_name": "DIVERS_PARL_AD_03_0001"
        },
        {
            "name": "2431",
            "score": "0.925",
            "index": 55,
            "selectedWords": [
                "\u00e9tonn\u00e9e",
                "rageuse"
            ],
            "freeResponses": [],
            "nbPlayClick": 1,
            "expression": "INCREDULE",
            "csv_id": 2431,
            "video_name": "ESTYLE_INCREDULE_AD_02_0001"
        },
        {
            "name": "11823",
            "score": "0.997",
            "index": 56,
            "selectedWords": [
                "\u00e9vidente",
                "manifeste"
            ],
            "freeResponses": [],
            "nbPlayClick": 1,
            "expression": "NEUTRE",
            "csv_id": 11860,
            "video_name": "DIVERS_PARL_AD_03_0002"
        },
        {
            "name": "9398",
            "score": "0.990",
            "index": 57,
            "selectedWords": [
                "neutre",
                "limpide"
            ],
            "freeResponses": [],
            "nbPlayClick": 1,
            "expression": "NEUTRE",
            "csv_id": 9432,
            "video_name": "DIVERS_BOOK_AD_01_0001"
        },
        {
            "name": "4995",
            "score": "0.966",
            "index": 58,
            "selectedWords": [
                "neutre",
                "certaine"
            ],
            "freeResponses": [],
            "nbPlayClick": 1,
            "expression": "NEUTRE",
            "csv_id": 5029,
            "video_name": "DIVERS_BOOK_AD_04_0001"
        },
        {
            "name": "3099",
            "score": "0.940",
            "index": 59,
            "selectedWords": [
                "neutre",
                "certaine"
            ],
            "freeResponses": [],
            "nbPlayClick": 1,
            "expression": "NEUTRE",
            "csv_id": 3099,
            "video_name": "DIVERS_BOOK_AD_04_0002"
        }
    ],
    "training": [
        {
            "name": "77",
            "score": "0.639",
            "index": 0,
            "selectedWords": [
                "d\u00e9termin\u00e9e",
                "manifeste",
                "ferme",
                "nette",
                "s\u00fbre"
            ],
            "freeResponses": [],
            "nbPlayClick": 1,
            "expression": "NEUTRE"
        }
    ],
    "filenameDate": "2023-12-31_12-9"
}