{
    "user": {
        "isProlific": true,
        "id": "60fd1a23caaeb903ded8ff03",
        "session": "652ed1aede3cf05f926c0ea7",
        "study": "64ef977375f88e4e1174dce0"
    },
    "userAgent": "Mozilla/5.0 (Windows NT 10.0; Win64; x64) AppleWebKit/537.36 (KHTML, like Gecko) Chrome/118.0.0.0 Safari/537.36",
    "landingDate": "2023-10-17T18:26:32.624Z",
    "startDate": "2023-10-17T18:28:02.709Z",
    "endDate": "2023-10-17T18:50:18.234Z",
    "reviews": [
        {
            "name": "7230",
            "score": "0.981",
            "index": 0,
            "selectedWords": [
                "autre",
                "inexpressive",
                "atone",
                "autre",
                "autre",
                "autre",
                "autre",
                "ennuy\u00e9e"
            ],
            "freeResponses": [],
            "nbPlayClick": 3,
            "expression": "DESOLE",
            "csv_id": 7264,
            "video_name": "DIVERS_PARL_DESOLE_AD_02_0002"
        },
        {
            "name": "11351",
            "score": "0.995",
            "index": 1,
            "selectedWords": [
                "\u00e9tonn\u00e9e",
                "sinc\u00e8re",
                "ardente",
                "sceptique"
            ],
            "freeResponses": [],
            "nbPlayClick": 3,
            "expression": "ETONNE",
            "csv_id": 11385,
            "video_name": "DIVERS_PARL_ETONNE_AD_01_0001"
        },
        {
            "name": "7912",
            "score": "0.984",
            "index": 2,
            "selectedWords": [
                "autre",
                "autre",
                "autre",
                "autre",
                "autre",
                "autre",
                "d\u00e9cid\u00e9e",
                "nette",
                "autre",
                "incontestable"
            ],
            "freeResponses": [],
            "nbPlayClick": 4,
            "expression": "NEUTRE",
            "csv_id": 7946,
            "video_name": "DIVERS_PARL_AD_03_0002"
        },
        {
            "name": "8123",
            "score": "0.985",
            "index": 3,
            "selectedWords": [
                "neutre",
                "notoire",
                "irr\u00e9cusable"
            ],
            "freeResponses": [],
            "nbPlayClick": 1,
            "expression": "NEUTRE",
            "csv_id": 8157,
            "video_name": "DIVERS_PARL_AD_06_0003"
        },
        {
            "name": "10701",
            "score": "0.994",
            "index": 4,
            "selectedWords": [
                "\u00e9vidente",
                "incontestable",
                "officielle",
                "s\u00fbre"
            ],
            "freeResponses": [],
            "nbPlayClick": 3,
            "expression": "NEUTRE",
            "csv_id": 10735,
            "video_name": "DIVERS_PARL_AD_01_0005"
        },
        {
            "name": "7754",
            "score": "0.983",
            "index": 5,
            "selectedWords": [
                "neutre",
                "certaine",
                "prouv\u00e9e"
            ],
            "freeResponses": [],
            "nbPlayClick": 2,
            "expression": "NEUTRE",
            "csv_id": 7788,
            "video_name": "DIVERS_PARL_AD_04_0004"
        },
        {
            "name": "8778",
            "score": "0.987",
            "index": 6,
            "selectedWords": [
                "r\u00e9confortante",
                "apaisante",
                "autre",
                "autre",
                "autre",
                "autre",
                "autre",
                "autre",
                "autre",
                "autre",
                "autre",
                "intuitive"
            ],
            "freeResponses": [],
            "nbPlayClick": 2,
            "expression": "RECONFORTANT",
            "csv_id": 8812,
            "video_name": "DIVERS_BOOK_RECONFORTANT_AD_01_0004"
        },
        {
            "name": "3755",
            "score": "0.951",
            "index": 7,
            "selectedWords": [
                "autre",
                "fac\u00e9tieuse",
                "autre",
                "opini\u00e2tre",
                "r\u00e9solue"
            ],
            "freeResponses": [],
            "nbPlayClick": 2,
            "expression": "DETERMINE",
            "csv_id": 3755,
            "video_name": "DIVERS_PARL_DETERMINE_AD_01_0002"
        },
        {
            "name": "11407",
            "score": "0.995",
            "index": 8,
            "selectedWords": [
                "dubitative",
                "autre",
                "autre",
                "autre",
                "ennuy\u00e9e"
            ],
            "freeResponses": [],
            "nbPlayClick": 4,
            "expression": "NEUTRE",
            "csv_id": 11444,
            "video_name": "DIVERS_BOOK_AD_03_0001"
        },
        {
            "name": "8907",
            "score": "0.988",
            "index": 9,
            "selectedWords": [
                "neutre",
                "limpide"
            ],
            "freeResponses": [],
            "nbPlayClick": 2,
            "expression": "NEUTRE",
            "csv_id": 8941,
            "video_name": "DIVERS_PARL_AD_03_0003"
        },
        {
            "name": "5202",
            "score": "0.968",
            "index": 10,
            "selectedWords": [
                "pensive",
                "r\u00e9fl\u00e9chie",
                "nette"
            ],
            "freeResponses": [],
            "nbPlayClick": 2,
            "expression": "PENSIF",
            "csv_id": 5236,
            "video_name": "DIVERS_PARL_PENSIF_AD_01_0002"
        },
        {
            "name": "10911",
            "score": "0.994",
            "index": 11,
            "selectedWords": [
                "autre",
                "imp\u00e9n\u00e9trable",
                "autre",
                "in\u00e9branlable"
            ],
            "freeResponses": [],
            "nbPlayClick": 1,
            "expression": "NEUTRE",
            "csv_id": 10945,
            "video_name": "DIVERS_PARL_AD_04_0003"
        },
        {
            "name": "7920",
            "score": "0.984",
            "index": 12,
            "selectedWords": [
                "suppliante",
                "autre",
                "dubitative"
            ],
            "freeResponses": [],
            "nbPlayClick": 1,
            "expression": "SUPPLIANT",
            "csv_id": 7954,
            "video_name": "DIVERS_PARL_SUPPLIANT_AD_02_0002"
        },
        {
            "name": "9421",
            "score": "0.990",
            "index": 13,
            "selectedWords": [
                "autre",
                "fac\u00e9tieuse",
                "narquoise",
                "taquine"
            ],
            "freeResponses": [],
            "nbPlayClick": 3,
            "expression": "ESPIEGLE",
            "csv_id": 9455,
            "video_name": "DIVERS_BOOK_ESPIEGLE_AD_03_0001"
        },
        {
            "name": "8899",
            "score": "0.988",
            "index": 14,
            "selectedWords": [
                "\u00e9tonn\u00e9e",
                "sinc\u00e8re",
                "perplexe"
            ],
            "freeResponses": [],
            "nbPlayClick": 1,
            "expression": "ETONNE",
            "csv_id": 8933,
            "video_name": "DIVERS_BOOK_ETONNE_AD_01_0002"
        },
        {
            "name": "9099",
            "score": "0.989",
            "index": 15,
            "selectedWords": [
                "neutre",
                "autre",
                "autre",
                "ennuy\u00e9e",
                "autre"
            ],
            "freeResponses": [],
            "nbPlayClick": 2,
            "expression": "NEUTRE",
            "csv_id": 9133,
            "video_name": "DIVERS_PARL_AD_03_0003"
        },
        {
            "name": "4455",
            "score": "0.960",
            "index": 16,
            "selectedWords": [
                "suppliante",
                "autre",
                "autre",
                "opini\u00e2tre"
            ],
            "freeResponses": [],
            "nbPlayClick": 1,
            "expression": "EVIDENCE",
            "csv_id": 4489,
            "video_name": "DIVERS_PARL_EVIDENCE_AD_02_0002"
        },
        {
            "name": "8865",
            "score": "0.988",
            "index": 17,
            "selectedWords": [
                "\u00e9vidente",
                "incontestable"
            ],
            "freeResponses": [],
            "nbPlayClick": 2,
            "expression": "NEUTRE",
            "csv_id": 8899,
            "video_name": "DIVERS_PARL_AD_01_0005"
        },
        {
            "name": "12274",
            "score": "0.998",
            "index": 18,
            "selectedWords": [
                "dubitative",
                "sceptique",
                "autre",
                "autre",
                "autre",
                "autre",
                "autre",
                "autre",
                "pensante"
            ],
            "freeResponses": [],
            "nbPlayClick": 1,
            "expression": "PENSIF",
            "csv_id": 12311,
            "video_name": "DIVERS_BOOK_PENSIF_AD_03_0002"
        },
        {
            "name": "9363",
            "score": "0.990",
            "index": 19,
            "selectedWords": [
                "\u00e9nerv\u00e9e",
                "autre",
                "autre",
                "autre",
                "autre",
                "autre",
                "autre",
                "autre",
                "autre",
                "irr\u00e9cusable"
            ],
            "freeResponses": [],
            "nbPlayClick": 1,
            "expression": "COLERE",
            "csv_id": 9397,
            "video_name": "DIVERS_PARL_COLERE_AD_02_0002"
        },
        {
            "name": "9091",
            "score": "0.989",
            "index": 20,
            "selectedWords": [
                "\u00e9vidente",
                "prouv\u00e9e"
            ],
            "freeResponses": [],
            "nbPlayClick": 1,
            "expression": "NEUTRE",
            "csv_id": 9125,
            "video_name": "DIVERS_PARL_AD_03_0002"
        },
        {
            "name": "8681",
            "score": "0.987",
            "index": 21,
            "selectedWords": [
                "r\u00e9solue",
                "entreprenante",
                "\u00e9nergique"
            ],
            "freeResponses": [],
            "nbPlayClick": 2,
            "expression": "EVIDENCE",
            "csv_id": 8715,
            "video_name": "DIVERS_PARL_EVIDENCE_AD_02_0002"
        },
        {
            "name": "1508",
            "score": "0.891",
            "index": 22,
            "selectedWords": [
                "neutre",
                "tonique"
            ],
            "freeResponses": [],
            "nbPlayClick": 1,
            "expression": "DETERMINE",
            "csv_id": 1508,
            "video_name": "DIVERS_PARL_DETERMINE_AD_01_0002"
        },
        {
            "name": "7576",
            "score": "0.982",
            "index": 23,
            "selectedWords": [
                "\u00e9vidente",
                "autre",
                "attrist\u00e9e"
            ],
            "freeResponses": [],
            "nbPlayClick": 2,
            "expression": "SUPPLIANT",
            "csv_id": 7610,
            "video_name": "DIVERS_PARL_SUPPLIANT_AD_02_0002"
        },
        {
            "name": "6238",
            "score": "0.975",
            "index": 24,
            "selectedWords": [
                "s\u00fbre",
                "autre",
                "autre",
                "autre",
                "autre",
                "opini\u00e2tre"
            ],
            "freeResponses": [],
            "nbPlayClick": 2,
            "expression": "SUPPLIANT",
            "csv_id": 6272,
            "video_name": "DIVERS_PARL_SUPPLIANT_AD_02_0001"
        },
        {
            "name": "12320",
            "score": "0.998",
            "index": 25,
            "selectedWords": [
                "pensive",
                "songeuse",
                "autre",
                "dubitative"
            ],
            "freeResponses": [],
            "nbPlayClick": 1,
            "expression": "PENSIF",
            "csv_id": 12357,
            "video_name": "DIVERS_BOOK_PENSIF_AD_01_0003"
        },
        {
            "name": "10715",
            "score": "0.994",
            "index": 26,
            "selectedWords": [
                "pensive",
                "autre",
                "imp\u00e9n\u00e9trable"
            ],
            "freeResponses": [],
            "nbPlayClick": 1,
            "expression": "PENSIF",
            "csv_id": 10749,
            "video_name": "DIVERS_BOOK_PENSIF_AD_01_0003"
        },
        {
            "name": "11105",
            "score": "0.995",
            "index": 27,
            "selectedWords": [
                "suppliante",
                "priante"
            ],
            "freeResponses": [],
            "nbPlayClick": 1,
            "expression": "SUPPLIANT",
            "csv_id": 11139,
            "video_name": "DIVERS_PARL_SUPPLIANT_AD_02_0001"
        },
        {
            "name": "4935",
            "score": "0.965",
            "index": 28,
            "selectedWords": [
                "d\u00e9sol\u00e9e",
                "nette",
                "s\u00fbre",
                "prouv\u00e9e"
            ],
            "freeResponses": [],
            "nbPlayClick": 1,
            "expression": "SUPPLIANT",
            "csv_id": 4969,
            "video_name": "DIVERS_PARL_SUPPLIANT_AD_02_0001"
        },
        {
            "name": "1226",
            "score": "0.876",
            "index": 29,
            "selectedWords": [
                "\u00e9vidente",
                "incontestable",
                "limpide"
            ],
            "freeResponses": [],
            "nbPlayClick": 1,
            "expression": "INCREDULE",
            "csv_id": 1226,
            "video_name": "DIVERS_PARL_INCREDULE_AD_02_0003"
        },
        {
            "name": "8040",
            "score": "0.984",
            "index": 30,
            "selectedWords": [
                "d\u00e9sol\u00e9e",
                "manifeste"
            ],
            "freeResponses": [],
            "nbPlayClick": 1,
            "expression": "SUPPLIANT",
            "csv_id": 8074,
            "video_name": "DIVERS_PARL_SUPPLIANT_AD_02_0002"
        },
        {
            "name": "7275",
            "score": "0.981",
            "index": 31,
            "selectedWords": [
                "r\u00e9confortante",
                "apaisante",
                "autre",
                "autre",
                "autre",
                "autre"
            ],
            "freeResponses": [],
            "nbPlayClick": 2,
            "expression": "RECONFORTANT",
            "csv_id": 7309,
            "video_name": "DIVERS_BOOK_RECONFORTANT_AD_01_0002"
        },
        {
            "name": "6393",
            "score": "0.976",
            "index": 32,
            "selectedWords": [
                "neutre",
                "s\u00fbre",
                "nette"
            ],
            "freeResponses": [],
            "nbPlayClick": 1,
            "expression": "NEUTRE",
            "csv_id": 6427,
            "video_name": "DIVERS_BOOK_AD_04_0002"
        },
        {
            "name": "6672",
            "score": "0.978",
            "index": 33,
            "selectedWords": [
                "\u00e9vidente",
                "incontestable",
                "certaine"
            ],
            "freeResponses": [],
            "nbPlayClick": 1,
            "expression": "NEUTRE",
            "csv_id": 6706,
            "video_name": "DIVERS_PARL_AD_04_0001"
        },
        {
            "name": "9495",
            "score": "0.990",
            "index": 34,
            "selectedWords": [
                "\u00e9vidente",
                "manifeste",
                "agit\u00e9e"
            ],
            "freeResponses": [],
            "nbPlayClick": 1,
            "expression": "NEUTRE",
            "csv_id": 9529,
            "video_name": "DIVERS_PARL_AD_06_0004"
        },
        {
            "name": "9998",
            "score": "0.992",
            "index": 35,
            "selectedWords": [
                "neutre",
                "s\u00fbre"
            ],
            "freeResponses": [],
            "nbPlayClick": 1,
            "expression": "NEUTRE",
            "csv_id": 10032,
            "video_name": "DIVERS_PARL_AD_05_0002"
        },
        {
            "name": "2117",
            "score": "0.916",
            "index": 36,
            "selectedWords": [
                "r\u00e9confortante",
                "apaisante"
            ],
            "freeResponses": [],
            "nbPlayClick": 1,
            "expression": "RECONFORTANT",
            "csv_id": 2117,
            "video_name": "DIVERS_BOOK_RECONFORTANT_AD_01_0004"
        },
        {
            "name": "4171",
            "score": "0.956",
            "index": 37,
            "selectedWords": [
                "r\u00e9confortante",
                "reconstituante"
            ],
            "freeResponses": [],
            "nbPlayClick": 1,
            "expression": "RECONFORTANT",
            "csv_id": 4171,
            "video_name": "DIVERS_PARL_RECONFORTANT_AD_02_0001"
        },
        {
            "name": "4330",
            "score": "0.958",
            "index": 38,
            "selectedWords": [
                "enthousiaste",
                "\u00e9loquente"
            ],
            "freeResponses": [],
            "nbPlayClick": 1,
            "expression": "RECONFORTANT",
            "csv_id": 4330,
            "video_name": "DIVERS_BOOK_RECONFORTANT_AD_03_0002"
        },
        {
            "name": "3314",
            "score": "0.944",
            "index": 39,
            "selectedWords": [
                "neutre",
                "autre",
                "imp\u00e9n\u00e9trable"
            ],
            "freeResponses": [],
            "nbPlayClick": 1,
            "expression": "NEUTRE",
            "csv_id": 3314,
            "video_name": "DIVERS_BOOK_AD_04_0002"
        },
        {
            "name": "7770",
            "score": "0.983",
            "index": 40,
            "selectedWords": [
                "\u00e9vidente",
                "autre",
                "autre",
                "ennuy\u00e9e"
            ],
            "freeResponses": [],
            "nbPlayClick": 1,
            "expression": "NEUTRE",
            "csv_id": 7804,
            "video_name": "DIVERS_PARL_AD_04_0003"
        },
        {
            "name": "4113",
            "score": "0.956",
            "index": 41,
            "selectedWords": [
                "neutre",
                "autre",
                "imp\u00e9n\u00e9trable"
            ],
            "freeResponses": [],
            "nbPlayClick": 1,
            "expression": "NEUTRE",
            "csv_id": 4113,
            "video_name": "DIVERS_PARL_AD_06_0004"
        },
        {
            "name": "2773",
            "score": "0.933",
            "index": 42,
            "selectedWords": [
                "\u00e9vidente",
                "autre",
                "autre",
                "autre",
                "autre",
                "autre",
                "autre",
                "indign\u00e9e"
            ],
            "freeResponses": [],
            "nbPlayClick": 1,
            "expression": "DETERMINE",
            "csv_id": 2773,
            "video_name": "DIVERS_PARL_DETERMINE_AD_01_0002"
        },
        {
            "name": "8147",
            "score": "0.985",
            "index": 43,
            "selectedWords": [
                "\u00e9vidente",
                "indubitable"
            ],
            "freeResponses": [],
            "nbPlayClick": 1,
            "expression": "NEUTRE",
            "csv_id": 8181,
            "video_name": "DIVERS_PARL_AD_01_0006"
        },
        {
            "name": "11991",
            "score": "0.997",
            "index": 44,
            "selectedWords": [
                "\u00e9tonn\u00e9e",
                "autre",
                "\u00e9berlu\u00e9e"
            ],
            "freeResponses": [],
            "nbPlayClick": 1,
            "expression": "ETONNE",
            "csv_id": 12028,
            "video_name": "DIVERS_BOOK_ETONNE_AD_01_0002"
        },
        {
            "name": "11556",
            "score": "0.996",
            "index": 45,
            "selectedWords": [
                "enthousiaste",
                "tonique"
            ],
            "freeResponses": [],
            "nbPlayClick": 1,
            "expression": "NEUTRE",
            "csv_id": 11593,
            "video_name": "DIVERS_PARL_AD_01_0004"
        },
        {
            "name": "7272",
            "score": "0.981",
            "index": 46,
            "selectedWords": [
                "neutre",
                "autre",
                "autre",
                "ennuy\u00e9e"
            ],
            "freeResponses": [],
            "nbPlayClick": 1,
            "expression": "DESOLE",
            "csv_id": 7306,
            "video_name": "DIVERS_PARL_DESOLE_AD_01_0004"
        },
        {
            "name": "3232",
            "score": "0.942",
            "index": 47,
            "selectedWords": [
                "incr\u00e9dule",
                "convaincue"
            ],
            "freeResponses": [],
            "nbPlayClick": 1,
            "expression": "SUPPLIANT",
            "csv_id": 3232,
            "video_name": "DIVERS_BOOK_SUPPLIANT_AD_01_0004"
        },
        {
            "name": "10986",
            "score": "0.994",
            "index": 48,
            "selectedWords": [
                "\u00e9vidente",
                "patente"
            ],
            "freeResponses": [],
            "nbPlayClick": 1,
            "expression": "NEUTRE",
            "csv_id": 11020,
            "video_name": "DIVERS_PARL_AD_02_0002"
        },
        {
            "name": "8343",
            "score": "0.986",
            "index": 49,
            "selectedWords": [
                "neutre",
                "s\u00fbre"
            ],
            "freeResponses": [],
            "nbPlayClick": 1,
            "expression": "NEUTRE",
            "csv_id": 8377,
            "video_name": "DIVERS_BOOK_AD_03_0002"
        },
        {
            "name": "12038",
            "score": "0.997",
            "index": 50,
            "selectedWords": [
                "\u00e9vidente",
                "autre",
                "autre",
                "inexpressive",
                "atone"
            ],
            "freeResponses": [],
            "nbPlayClick": 1,
            "expression": "NEUTRE",
            "csv_id": 12075,
            "video_name": "DIVERS_BOOK_AD_01_0001"
        },
        {
            "name": "6933",
            "score": "0.979",
            "index": 51,
            "selectedWords": [
                "r\u00e9confortante",
                "consolatrice",
                "autre"
            ],
            "freeResponses": [],
            "nbPlayClick": 1,
            "expression": "NEUTRE",
            "csv_id": 6967,
            "video_name": "DIVERS_PARL_AD_05_0004"
        },
        {
            "name": "12360",
            "score": "0.999",
            "index": 52,
            "selectedWords": [
                "\u00e9tonn\u00e9e",
                "autre",
                "vivifiante"
            ],
            "freeResponses": [],
            "nbPlayClick": 1,
            "expression": "ETONNE",
            "csv_id": 12397,
            "video_name": "DIVERS_PARL_ETONNE_AD_01_0001"
        },
        {
            "name": "9271",
            "score": "0.989",
            "index": 53,
            "selectedWords": [
                "en col\u00e8re",
                "irrit\u00e9e"
            ],
            "freeResponses": [],
            "nbPlayClick": 1,
            "expression": "COLERE",
            "csv_id": 9305,
            "video_name": "DIVERS_PARL_COLERE_AD_02_0002"
        },
        {
            "name": "11145",
            "score": "0.995",
            "index": 54,
            "selectedWords": [
                "d\u00e9termin\u00e9e",
                "r\u00e9solue"
            ],
            "freeResponses": [],
            "nbPlayClick": 1,
            "expression": "DETERMINE",
            "csv_id": 11179,
            "video_name": "DIVERS_PARL_DETERMINE_AD_01_0004"
        },
        {
            "name": "12084",
            "score": "0.997",
            "index": 55,
            "selectedWords": [
                "\u00e9vidente",
                "irr\u00e9cusable"
            ],
            "freeResponses": [],
            "nbPlayClick": 1,
            "expression": "NEUTRE",
            "csv_id": 12121,
            "video_name": "DIVERS_PARL_AD_06_0003"
        },
        {
            "name": "11968",
            "score": "0.997",
            "index": 56,
            "selectedWords": [
                "neutre",
                "limpide"
            ],
            "freeResponses": [],
            "nbPlayClick": 1,
            "expression": "NEUTRE",
            "csv_id": 12005,
            "video_name": "DIVERS_PARL_AD_02_0002"
        },
        {
            "name": "8459",
            "score": "0.986",
            "index": 57,
            "selectedWords": [
                "neutre",
                "autre",
                "autre",
                "ennuy\u00e9e"
            ],
            "freeResponses": [],
            "nbPlayClick": 1,
            "expression": "NEUTRE",
            "csv_id": 8493,
            "video_name": "DIVERS_PARL_AD_05_0001"
        },
        {
            "name": "3760",
            "score": "0.951",
            "index": 58,
            "selectedWords": [
                "en col\u00e8re",
                "\u00e9nerv\u00e9e"
            ],
            "freeResponses": [],
            "nbPlayClick": 1,
            "expression": "COLERE",
            "csv_id": 3760,
            "video_name": "DIVERS_PARL_COLERE_AD_02_0002"
        },
        {
            "name": "8748",
            "score": "0.987",
            "index": 59,
            "selectedWords": [
                "pensive",
                "r\u00e9fl\u00e9chissante"
            ],
            "freeResponses": [],
            "nbPlayClick": 1,
            "expression": "PENSIF",
            "csv_id": 8782,
            "video_name": "DIVERS_BOOK_PENSIF_AD_01_0003"
        }
    ],
    "training": [
        {
            "name": "77",
            "score": "0.639",
            "index": 0,
            "selectedWords": [
                "\u00e9vidente",
                "prouv\u00e9e",
                "s\u00fbre",
                "limpide"
            ],
            "freeResponses": [],
            "nbPlayClick": 3,
            "expression": "NEUTRE"
        }
    ],
    "filenameDate": "2023-10-17_20-50"
}