{
    "user": {
        "isProlific": true,
        "id": "61009b8d84bfd7086deec45a",
        "session": "65808fcbe50a6ecfaf4a0062",
        "study": "64ef977375f88e4e1174dce0"
    },
    "userAgent": "Mozilla/5.0 (Windows NT 10.0; Win64; x64) AppleWebKit/537.36 (KHTML, like Gecko) Chrome/120.0.0.0 Safari/537.36 Edg/120.0.0.0",
    "landingDate": "2023-12-18T18:30:45.043Z",
    "startDate": "2023-12-18T18:33:12.199Z",
    "endDate": "2023-12-18T19:01:09.769Z",
    "reviews": [
        {
            "name": "12134",
            "score": "0.997",
            "index": 0,
            "selectedWords": [
                "autre",
                "imp\u00e9n\u00e9trable",
                "froide",
                "autre",
                "autre",
                "autre",
                "opini\u00e2tre"
            ],
            "freeResponses": [],
            "nbPlayClick": 1,
            "expression": "NEUTRE",
            "csv_id": 12171,
            "video_name": "DIVERS_PARL_AD_05_0003"
        },
        {
            "name": "623",
            "score": "0.824",
            "index": 1,
            "selectedWords": [
                "\u00e9vidente",
                "indubitable",
                "notoire"
            ],
            "freeResponses": [],
            "nbPlayClick": 2,
            "expression": "EVIDENCE",
            "csv_id": 623,
            "video_name": "DIVERS_PARL_EVIDENCE_AD_02_0002"
        },
        {
            "name": "10466",
            "score": "0.993",
            "index": 2,
            "selectedWords": [
                "\u00e9vidente",
                "prouv\u00e9e",
                "notoire",
                "limpide"
            ],
            "freeResponses": [],
            "nbPlayClick": 2,
            "expression": "NEUTRE",
            "csv_id": 10500,
            "video_name": "DIVERS_PARL_AD_06_0003"
        },
        {
            "name": "1327",
            "score": "0.882",
            "index": 3,
            "selectedWords": [
                "sinc\u00e8re",
                "\u00e9loquente"
            ],
            "freeResponses": [],
            "nbPlayClick": 3,
            "expression": "NEUTRE",
            "csv_id": 1327,
            "video_name": "ESTYLE_NEUTRE_AD_02_0001"
        },
        {
            "name": "12100",
            "score": "0.997",
            "index": 4,
            "selectedWords": [
                "neutre",
                "s\u00fbre",
                "r\u00e9fl\u00e9chie",
                "autre",
                "imp\u00e9n\u00e9trable"
            ],
            "freeResponses": [],
            "nbPlayClick": 4,
            "expression": "NEUTRE",
            "csv_id": 12137,
            "video_name": "DIVERS_BOOK_AD_04_0001"
        },
        {
            "name": "1846",
            "score": "0.906",
            "index": 5,
            "selectedWords": [
                "d\u00e9termin\u00e9e",
                "r\u00e9solue",
                "convaincue"
            ],
            "freeResponses": [],
            "nbPlayClick": 3,
            "expression": "NEUTRE",
            "csv_id": 1846,
            "video_name": "DIVERS_PARL_AD_05_0003"
        },
        {
            "name": "9739",
            "score": "0.991",
            "index": 6,
            "selectedWords": [
                "d\u00e9sol\u00e9e",
                "\u00e9nerv\u00e9e",
                "irrit\u00e9e"
            ],
            "freeResponses": [],
            "nbPlayClick": 2,
            "expression": "INCREDULE",
            "csv_id": 9773,
            "video_name": "DIVERS_BOOK_INCREDULE_AD_01_0001"
        },
        {
            "name": "10024",
            "score": "0.992",
            "index": 7,
            "selectedWords": [
                "d\u00e9termin\u00e9e",
                "r\u00e9solue",
                "convaincue"
            ],
            "freeResponses": [],
            "nbPlayClick": 3,
            "expression": "ETONNE",
            "csv_id": 10058,
            "video_name": "DIVERS_PARL_ETONNE_AD_01_0001"
        },
        {
            "name": "12330",
            "score": "0.998",
            "index": 8,
            "selectedWords": [
                "incr\u00e9dule",
                "dubitative"
            ],
            "freeResponses": [],
            "nbPlayClick": 3,
            "expression": "NEUTRE",
            "csv_id": 12367,
            "video_name": "DIVERS_PARL_AD_05_0003"
        },
        {
            "name": "7961",
            "score": "0.984",
            "index": 9,
            "selectedWords": [
                "d\u00e9termin\u00e9e",
                "r\u00e9solue",
                "\u00e9nergique",
                "convaincue"
            ],
            "freeResponses": [],
            "nbPlayClick": 2,
            "expression": "COLERE",
            "csv_id": 7995,
            "video_name": "DIVERS_PARL_COLERE_AD_01_0004"
        },
        {
            "name": "10267",
            "score": "0.992",
            "index": 10,
            "selectedWords": [
                "neutre",
                "certaine",
                "indubitable",
                "officielle"
            ],
            "freeResponses": [],
            "nbPlayClick": 3,
            "expression": "NEUTRE",
            "csv_id": 10301,
            "video_name": "DIVERS_PARL_AD_06_0003"
        },
        {
            "name": "6147",
            "score": "0.975",
            "index": 11,
            "selectedWords": [
                "d\u00e9sol\u00e9e",
                "transport\u00e9e",
                "pr\u00e9occup\u00e9e"
            ],
            "freeResponses": [],
            "nbPlayClick": 2,
            "expression": "SUPPLIANT",
            "csv_id": 6181,
            "video_name": "ESTYLE_SUPPLIANT_AD_02_0001"
        },
        {
            "name": "2392",
            "score": "0.924",
            "index": 12,
            "selectedWords": [
                "incr\u00e9dule",
                "autre",
                "autre",
                "attrist\u00e9e",
                "navr\u00e9e"
            ],
            "freeResponses": [],
            "nbPlayClick": 3,
            "expression": "DESOLE",
            "csv_id": 2392,
            "video_name": "ESTYLE_DESOLE_AD_02_0001"
        },
        {
            "name": "5511",
            "score": "0.970",
            "index": 13,
            "selectedWords": [
                "r\u00e9fl\u00e9chie",
                "s\u00fbre"
            ],
            "freeResponses": [],
            "nbPlayClick": 3,
            "expression": "NEUTRE",
            "csv_id": 5545,
            "video_name": "DIVERS_PARL_AD_06_0001"
        },
        {
            "name": "9178",
            "score": "0.989",
            "index": 14,
            "selectedWords": [
                "d\u00e9termin\u00e9e",
                "r\u00e9solue"
            ],
            "freeResponses": [],
            "nbPlayClick": 3,
            "expression": "NEUTRE",
            "csv_id": 9212,
            "video_name": "DIVERS_BOOK_AD_03_0001"
        },
        {
            "name": "8110",
            "score": "0.985",
            "index": 15,
            "selectedWords": [
                "\u00e9vidente",
                "manifeste",
                "convaincue"
            ],
            "freeResponses": [],
            "nbPlayClick": 3,
            "expression": "NEUTRE",
            "csv_id": 8144,
            "video_name": "DIVERS_PARL_AD_03_0002"
        },
        {
            "name": "8861",
            "score": "0.988",
            "index": 16,
            "selectedWords": [
                "d\u00e9termin\u00e9e",
                "r\u00e9solue"
            ],
            "freeResponses": [],
            "nbPlayClick": 2,
            "expression": "NEUTRE",
            "csv_id": 8895,
            "video_name": "DIVERS_PARL_AD_01_0001"
        },
        {
            "name": "5346",
            "score": "0.969",
            "index": 17,
            "selectedWords": [
                "neutre",
                "patente",
                "nette"
            ],
            "freeResponses": [],
            "nbPlayClick": 2,
            "expression": "NEUTRE",
            "csv_id": 5380,
            "video_name": "DIVERS_PARL_AD_01_0005"
        },
        {
            "name": "3367",
            "score": "0.944",
            "index": 18,
            "selectedWords": [
                "priante",
                "ennuy\u00e9e"
            ],
            "freeResponses": [],
            "nbPlayClick": 3,
            "expression": "EVIDENCE",
            "csv_id": 3367,
            "video_name": "DIVERS_PARL_EVIDENCE_AD_02_0002"
        },
        {
            "name": "2717",
            "score": "0.932",
            "index": 19,
            "selectedWords": [
                "enthousiaste",
                "espi\u00e8gle"
            ],
            "freeResponses": [],
            "nbPlayClick": 2,
            "expression": "ENTHOUSIASTE",
            "csv_id": 2717,
            "video_name": "DIVERS_PARL_ENTHOUSIASTE_AD_02_0001"
        },
        {
            "name": "6547",
            "score": "0.977",
            "index": 20,
            "selectedWords": [
                "dubitative",
                "indign\u00e9e",
                "sceptique"
            ],
            "freeResponses": [],
            "nbPlayClick": 3,
            "expression": "DESOLE",
            "csv_id": 6581,
            "video_name": "DIVERS_PARL_DESOLE_AD_02_0002"
        },
        {
            "name": "136",
            "score": "0.696",
            "index": 21,
            "selectedWords": [
                "espi\u00e8gle",
                "fac\u00e9tieuse"
            ],
            "freeResponses": [],
            "nbPlayClick": 3,
            "expression": "ESPIEGLE",
            "csv_id": 136,
            "video_name": "DIVERS_PARL_ESPIEGLE_AD_01_0001"
        },
        {
            "name": "9239",
            "score": "0.989",
            "index": 22,
            "selectedWords": [
                "neutre",
                "s\u00fbre",
                "autre",
                "autre",
                "autre",
                "autre",
                "opini\u00e2tre"
            ],
            "freeResponses": [],
            "nbPlayClick": 2,
            "expression": "NEUTRE",
            "csv_id": 9273,
            "video_name": "DIVERS_PARL_AD_05_0002"
        },
        {
            "name": "3242",
            "score": "0.943",
            "index": 23,
            "selectedWords": [
                "d\u00e9sol\u00e9e",
                "autre",
                "dubitative"
            ],
            "freeResponses": [],
            "nbPlayClick": 3,
            "expression": "ETONNE",
            "csv_id": 3242,
            "video_name": "DIVERS_PARL_ETONNE_AD_01_0001"
        },
        {
            "name": "10008",
            "score": "0.992",
            "index": 24,
            "selectedWords": [
                "d\u00e9termin\u00e9e",
                "passionn\u00e9e",
                "opini\u00e2tre"
            ],
            "freeResponses": [],
            "nbPlayClick": 2,
            "expression": "DETERMINE",
            "csv_id": 10042,
            "video_name": "DIVERS_PARL_DETERMINE_AD_01_0004"
        },
        {
            "name": "5473",
            "score": "0.970",
            "index": 25,
            "selectedWords": [
                "neutre",
                "autre",
                "imp\u00e9n\u00e9trable"
            ],
            "freeResponses": [],
            "nbPlayClick": 3,
            "expression": "NEUTRE",
            "csv_id": 5507,
            "video_name": "DIVERS_BOOK_AD_03_0001"
        },
        {
            "name": "8927",
            "score": "0.988",
            "index": 26,
            "selectedWords": [
                "incr\u00e9dule",
                "sceptique"
            ],
            "freeResponses": [],
            "nbPlayClick": 3,
            "expression": "INCREDULE",
            "csv_id": 8961,
            "video_name": "DIVERS_BOOK_INCREDULE_AD_01_0001"
        },
        {
            "name": "4554",
            "score": "0.961",
            "index": 27,
            "selectedWords": [
                "espi\u00e8gle",
                "malicieuse"
            ],
            "freeResponses": [],
            "nbPlayClick": 3,
            "expression": "ESPIEGLE",
            "csv_id": 4588,
            "video_name": "DIVERS_BOOK_ESPIEGLE_AD_03_0001"
        },
        {
            "name": "2642",
            "score": "0.930",
            "index": 28,
            "selectedWords": [
                "d\u00e9termin\u00e9e",
                "autre",
                "autre",
                "autre",
                "narquoise"
            ],
            "freeResponses": [],
            "nbPlayClick": 4,
            "expression": "NEUTRE",
            "csv_id": 2642,
            "video_name": "DIVERS_PARL_AD_05_0003"
        },
        {
            "name": "5570",
            "score": "0.971",
            "index": 29,
            "selectedWords": [
                "incr\u00e9dule",
                "dubitative"
            ],
            "freeResponses": [],
            "nbPlayClick": 3,
            "expression": "INCREDULE",
            "csv_id": 5604,
            "video_name": "DIVERS_BOOK_INCREDULE_AD_01_0001"
        },
        {
            "name": "1942",
            "score": "0.910",
            "index": 30,
            "selectedWords": [
                "neutre",
                "notoire"
            ],
            "freeResponses": [],
            "nbPlayClick": 2,
            "expression": "NEUTRE",
            "csv_id": 1942,
            "video_name": "DIVERS_PARL_AD_04_0004"
        },
        {
            "name": "2171",
            "score": "0.917",
            "index": 31,
            "selectedWords": [
                "espi\u00e8gle",
                "malicieuse"
            ],
            "freeResponses": [],
            "nbPlayClick": 3,
            "expression": "ESPIEGLE",
            "csv_id": 2171,
            "video_name": "DIVERS_PARL_ESPIEGLE_AD_01_0001"
        },
        {
            "name": "5334",
            "score": "0.969",
            "index": 32,
            "selectedWords": [
                "incr\u00e9dule",
                "afflig\u00e9e"
            ],
            "freeResponses": [],
            "nbPlayClick": 3,
            "expression": "NEUTRE",
            "csv_id": 5368,
            "video_name": "DIVERS_PARL_AD_03_0001"
        },
        {
            "name": "9392",
            "score": "0.990",
            "index": 33,
            "selectedWords": [
                "d\u00e9termin\u00e9e",
                "r\u00e9solue"
            ],
            "freeResponses": [],
            "nbPlayClick": 3,
            "expression": "DETERMINE",
            "csv_id": 9426,
            "video_name": "DIVERS_BOOK_DETERMINE_AD_03_0001"
        },
        {
            "name": "11511",
            "score": "0.996",
            "index": 34,
            "selectedWords": [
                "incr\u00e9dule",
                "autre",
                "autre",
                "autre",
                "autre",
                "autre",
                "autre",
                "autre",
                "ind\u00e9niable"
            ],
            "freeResponses": [],
            "nbPlayClick": 3,
            "expression": "NEUTRE",
            "csv_id": 11548,
            "video_name": "DIVERS_BOOK_AD_03_0002"
        },
        {
            "name": "10759",
            "score": "0.994",
            "index": 35,
            "selectedWords": [
                "emb\u00eat\u00e9e",
                "contrari\u00e9e"
            ],
            "freeResponses": [],
            "nbPlayClick": 2,
            "expression": "NEUTRE",
            "csv_id": 10793,
            "video_name": "DIVERS_PARL_AD_04_0001"
        },
        {
            "name": "11446",
            "score": "0.996",
            "index": 36,
            "selectedWords": [
                "attrist\u00e9e",
                "en peine"
            ],
            "freeResponses": [],
            "nbPlayClick": 2,
            "expression": "SUPPLIANT",
            "csv_id": 11483,
            "video_name": "DIVERS_BOOK_SUPPLIANT_AD_01_0002"
        },
        {
            "name": "1068",
            "score": "0.866",
            "index": 37,
            "selectedWords": [
                "dubitative",
                "agressive"
            ],
            "freeResponses": [],
            "nbPlayClick": 3,
            "expression": "INCREDULE",
            "csv_id": 1068,
            "video_name": "DIVERS_BOOK_INCREDULE_AD_01_0001"
        },
        {
            "name": "2332",
            "score": "0.922",
            "index": 38,
            "selectedWords": [
                "d\u00e9sol\u00e9e",
                "agit\u00e9e"
            ],
            "freeResponses": [],
            "nbPlayClick": 2,
            "expression": "SUPPLIANT",
            "csv_id": 2332,
            "video_name": "DIVERS_PARL_SUPPLIANT_AD_02_0002"
        },
        {
            "name": "10891",
            "score": "0.994",
            "index": 39,
            "selectedWords": [
                "\u00e9berlu\u00e9e",
                "s\u00fbre"
            ],
            "freeResponses": [],
            "nbPlayClick": 4,
            "expression": "NEUTRE",
            "csv_id": 10925,
            "video_name": "DIVERS_PARL_AD_06_0003"
        },
        {
            "name": "6117",
            "score": "0.975",
            "index": 40,
            "selectedWords": [
                "d\u00e9termin\u00e9e",
                "\u00e9vidente"
            ],
            "freeResponses": [],
            "nbPlayClick": 3,
            "expression": "NEUTRE",
            "csv_id": 6151,
            "video_name": "DIVERS_PARL_AD_05_0002"
        },
        {
            "name": "9789",
            "score": "0.991",
            "index": 41,
            "selectedWords": [
                "d\u00e9sol\u00e9e",
                "dubitative"
            ],
            "freeResponses": [],
            "nbPlayClick": 2,
            "expression": "NEUTRE",
            "csv_id": 9823,
            "video_name": "DIVERS_PARL_AD_03_0001"
        },
        {
            "name": "11362",
            "score": "0.995",
            "index": 42,
            "selectedWords": [
                "sinc\u00e8re",
                "triomphale"
            ],
            "freeResponses": [],
            "nbPlayClick": 2,
            "expression": "NEUTRE",
            "csv_id": 11396,
            "video_name": "DIVERS_PARL_AD_04_0002"
        },
        {
            "name": "11061",
            "score": "0.994",
            "index": 43,
            "selectedWords": [
                "\u00e9vidente",
                "incontestable"
            ],
            "freeResponses": [],
            "nbPlayClick": 2,
            "expression": "NEUTRE",
            "csv_id": 11095,
            "video_name": "DIVERS_PARL_AD_03_0004"
        },
        {
            "name": "9873",
            "score": "0.991",
            "index": 44,
            "selectedWords": [
                "d\u00e9termin\u00e9e",
                "r\u00e9fl\u00e9chie"
            ],
            "freeResponses": [],
            "nbPlayClick": 2,
            "expression": "NEUTRE",
            "csv_id": 9907,
            "video_name": "DIVERS_PARL_AD_02_0002"
        },
        {
            "name": "5142",
            "score": "0.967",
            "index": 45,
            "selectedWords": [
                "d\u00e9termin\u00e9e",
                "d\u00e9pit\u00e9e"
            ],
            "freeResponses": [],
            "nbPlayClick": 2,
            "expression": "NEUTRE",
            "csv_id": 5176,
            "video_name": "DIVERS_PARL_AD_02_0004"
        },
        {
            "name": "4680",
            "score": "0.963",
            "index": 46,
            "selectedWords": [
                "neutre",
                "pensive"
            ],
            "freeResponses": [],
            "nbPlayClick": 3,
            "expression": "NEUTRE",
            "csv_id": 4714,
            "video_name": "DIVERS_PARL_AD_01_0002"
        },
        {
            "name": "12397",
            "score": "0.999",
            "index": 47,
            "selectedWords": [
                "h\u00e9b\u00e9t\u00e9e",
                "r\u00e9fl\u00e9chie"
            ],
            "freeResponses": [],
            "nbPlayClick": 2,
            "expression": "PENSIF",
            "csv_id": 12434,
            "video_name": "DIVERS_PARL_PENSIF_AD_01_0002"
        },
        {
            "name": "2417",
            "score": "0.924",
            "index": 48,
            "selectedWords": [
                "agressive",
                "dubitative"
            ],
            "freeResponses": [],
            "nbPlayClick": 2,
            "expression": "INCREDULE",
            "csv_id": 2417,
            "video_name": "DIVERS_BOOK_INCREDULE_AD_01_0001"
        },
        {
            "name": "2019",
            "score": "0.912",
            "index": 49,
            "selectedWords": [
                "espi\u00e8gle",
                "mutine"
            ],
            "freeResponses": [],
            "nbPlayClick": 3,
            "expression": "ESPIEGLE",
            "csv_id": 2019,
            "video_name": "DIVERS_PARL_ESPIEGLE_AD_01_0001"
        },
        {
            "name": "10636",
            "score": "0.993",
            "index": 50,
            "selectedWords": [
                "autre",
                "inexpressive",
                "terne"
            ],
            "freeResponses": [],
            "nbPlayClick": 3,
            "expression": "NEUTRE",
            "csv_id": 10670,
            "video_name": "DIVERS_BOOK_AD_04_0001"
        },
        {
            "name": "10368",
            "score": "0.993",
            "index": 51,
            "selectedWords": [
                "indign\u00e9e",
                "agressive"
            ],
            "freeResponses": [],
            "nbPlayClick": 2,
            "expression": "ETONNE",
            "csv_id": 10402,
            "video_name": "DIVERS_PARL_ETONNE_AD_01_0001"
        },
        {
            "name": "1056",
            "score": "0.865",
            "index": 52,
            "selectedWords": [
                "agressive",
                "en rogne"
            ],
            "freeResponses": [],
            "nbPlayClick": 2,
            "expression": "DETERMINE",
            "csv_id": 1056,
            "video_name": "DIVERS_PARL_DETERMINE_AD_01_0004"
        },
        {
            "name": "4346",
            "score": "0.958",
            "index": 53,
            "selectedWords": [
                "attrist\u00e9e",
                "larmoyante"
            ],
            "freeResponses": [],
            "nbPlayClick": 3,
            "expression": "SUPPLIANT",
            "csv_id": 4346,
            "video_name": "ESTYLE_SUPPLIANT_AD_02_0001"
        },
        {
            "name": "2049",
            "score": "0.913",
            "index": 54,
            "selectedWords": [
                "pensive",
                "d\u00e9courag\u00e9e"
            ],
            "freeResponses": [],
            "nbPlayClick": 4,
            "expression": "PENSIF",
            "csv_id": 2049,
            "video_name": "DIVERS_PARL_PENSIF_AD_01_0002"
        },
        {
            "name": "10741",
            "score": "0.994",
            "index": 55,
            "selectedWords": [
                "imp\u00e9n\u00e9trable",
                "terne"
            ],
            "freeResponses": [],
            "nbPlayClick": 4,
            "expression": "NEUTRE",
            "csv_id": 10775,
            "video_name": "DIVERS_BOOK_AD_04_0002"
        },
        {
            "name": "7284",
            "score": "0.981",
            "index": 56,
            "selectedWords": [
                "en col\u00e8re",
                "hargneuse"
            ],
            "freeResponses": [],
            "nbPlayClick": 2,
            "expression": "COLERE",
            "csv_id": 7318,
            "video_name": "DIVERS_PARL_COLERE_AD_02_0002"
        },
        {
            "name": "11112",
            "score": "0.995",
            "index": 57,
            "selectedWords": [
                "d\u00e9termin\u00e9e",
                "convaincue"
            ],
            "freeResponses": [],
            "nbPlayClick": 2,
            "expression": "DETERMINE",
            "csv_id": 11146,
            "video_name": "DIVERS_PARL_DETERMINE_AD_01_0004"
        },
        {
            "name": "9964",
            "score": "0.992",
            "index": 58,
            "selectedWords": [
                "apaisante",
                "encourageante"
            ],
            "freeResponses": [],
            "nbPlayClick": 2,
            "expression": "NEUTRE",
            "csv_id": 9998,
            "video_name": "DIVERS_PARL_AD_04_0002"
        },
        {
            "name": "5352",
            "score": "0.969",
            "index": 59,
            "selectedWords": [
                "autre",
                "terne",
                "accabl\u00e9e"
            ],
            "freeResponses": [],
            "nbPlayClick": 3,
            "expression": "DESOLE",
            "csv_id": 5386,
            "video_name": "DIVERS_PARL_DESOLE_AD_02_0002"
        }
    ],
    "training": [
        {
            "name": "77",
            "score": "0.639",
            "index": 0,
            "selectedWords": [
                "\u00e9vidente",
                "incontestable",
                "certaine",
                "autre",
                "imp\u00e9n\u00e9trable",
                "terne",
                "autre",
                "autre",
                "autre",
                "ennuy\u00e9e",
                "autre",
                "indiscutable",
                "autre",
                "autre",
                "d\u00e9cid\u00e9e",
                "r\u00e9solue",
                "autre",
                "autre",
                "indign\u00e9e",
                "convaincue"
            ],
            "freeResponses": [],
            "nbPlayClick": 2,
            "expression": "NEUTRE"
        }
    ],
    "filenameDate": "2023-12-18_14-1"
}