{
    "user": {
        "isProlific": true,
        "id": "6106f2d74cb69228567624f7",
        "session": "65ca33191bb936f5403cb680",
        "study": "64ef977375f88e4e1174dce0"
    },
    "userAgent": "Mozilla/5.0 (Windows NT 10.0; Win64; x64) AppleWebKit/537.36 (KHTML, like Gecko) Chrome/121.0.0.0 Safari/537.36",
    "landingDate": "2024-02-12T15:03:03.717Z",
    "startDate": "2024-02-12T15:03:53.626Z",
    "endDate": "2024-02-12T15:21:14.748Z",
    "reviews": [
        {
            "name": "3058",
            "score": "0.939",
            "index": 0,
            "selectedWords": [
                "autre",
                "imp\u00e9n\u00e9trable",
                "autre",
                "in\u00e9branlable"
            ],
            "freeResponses": [],
            "nbPlayClick": 2,
            "expression": "COLERE",
            "csv_id": 3058,
            "video_name": "DIVERS_PARL_COLERE_AD_01_0003"
        },
        {
            "name": "10186",
            "score": "0.992",
            "index": 1,
            "selectedWords": [
                "incr\u00e9dule",
                "autre",
                "\u00e9berlu\u00e9e"
            ],
            "freeResponses": [],
            "nbPlayClick": 2,
            "expression": "ETONNE",
            "csv_id": 10220,
            "video_name": "DIVERS_BOOK_ETONNE_AD_03_0001"
        },
        {
            "name": "7079",
            "score": "0.980",
            "index": 2,
            "selectedWords": [
                "atone",
                "inexpressive"
            ],
            "freeResponses": [],
            "nbPlayClick": 1,
            "expression": "NEUTRE",
            "csv_id": 7113,
            "video_name": "DIVERS_PARL_AD_06_0002"
        },
        {
            "name": "11522",
            "score": "0.996",
            "index": 3,
            "selectedWords": [
                "neutre",
                "autre",
                "autre",
                "absente"
            ],
            "freeResponses": [],
            "nbPlayClick": 2,
            "expression": "NEUTRE",
            "csv_id": 11559,
            "video_name": "DIVERS_BOOK_AD_04_0001"
        },
        {
            "name": "9008",
            "score": "0.988",
            "index": 4,
            "selectedWords": [
                "d\u00e9termin\u00e9e",
                "r\u00e9solue",
                "passionn\u00e9e"
            ],
            "freeResponses": [],
            "nbPlayClick": 1,
            "expression": "COLERE",
            "csv_id": 9042,
            "video_name": "DIVERS_PARL_COLERE_AD_02_0002"
        },
        {
            "name": "7456",
            "score": "0.982",
            "index": 5,
            "selectedWords": [
                "froide",
                "terne"
            ],
            "freeResponses": [],
            "nbPlayClick": 2,
            "expression": "NEUTRE",
            "csv_id": 7490,
            "video_name": "DIVERS_PARL_AD_06_0003"
        },
        {
            "name": "12349",
            "score": "0.998",
            "index": 6,
            "selectedWords": [
                "incr\u00e9dule",
                "autre",
                "enthousiaste"
            ],
            "freeResponses": [],
            "nbPlayClick": 1,
            "expression": "ETONNE",
            "csv_id": 12386,
            "video_name": "DIVERS_BOOK_ETONNE_AD_01_0004"
        },
        {
            "name": "7874",
            "score": "0.984",
            "index": 7,
            "selectedWords": [
                "ennuy\u00e9e",
                "atone"
            ],
            "freeResponses": [],
            "nbPlayClick": 1,
            "expression": "NEUTRE",
            "csv_id": 7908,
            "video_name": "DIVERS_BOOK_AD_03_0001"
        },
        {
            "name": "1163",
            "score": "0.872",
            "index": 8,
            "selectedWords": [
                "d\u00e9termin\u00e9e",
                "contrari\u00e9e"
            ],
            "freeResponses": [],
            "nbPlayClick": 1,
            "expression": "NEUTRE",
            "csv_id": 1163,
            "video_name": "DIVERS_PARL_AD_06_0002"
        },
        {
            "name": "10954",
            "score": "0.994",
            "index": 9,
            "selectedWords": [
                "neutre",
                "certaine"
            ],
            "freeResponses": [],
            "nbPlayClick": 1,
            "expression": "NEUTRE",
            "csv_id": 10988,
            "video_name": "DIVERS_PARL_AD_02_0003"
        },
        {
            "name": "8825",
            "score": "0.988",
            "index": 10,
            "selectedWords": [
                "absente",
                "atone"
            ],
            "freeResponses": [],
            "nbPlayClick": 1,
            "expression": "NEUTRE",
            "csv_id": 8859,
            "video_name": "DIVERS_BOOK_AD_04_0002"
        },
        {
            "name": "6403",
            "score": "0.976",
            "index": 11,
            "selectedWords": [
                "d\u00e9termin\u00e9e",
                "manifeste"
            ],
            "freeResponses": [],
            "nbPlayClick": 1,
            "expression": "NEUTRE",
            "csv_id": 6437,
            "video_name": "DIVERS_PARL_AD_06_0004"
        },
        {
            "name": "9787",
            "score": "0.991",
            "index": 12,
            "selectedWords": [
                "ind\u00e9niable",
                "intuitive"
            ],
            "freeResponses": [],
            "nbPlayClick": 3,
            "expression": "NEUTRE",
            "csv_id": 9821,
            "video_name": "DIVERS_BOOK_AD_01_0002"
        },
        {
            "name": "10561",
            "score": "0.993",
            "index": 13,
            "selectedWords": [
                "espi\u00e8gle",
                "malicieuse"
            ],
            "freeResponses": [],
            "nbPlayClick": 1,
            "expression": "ESPIEGLE",
            "csv_id": 10595,
            "video_name": "DIVERS_BOOK_ESPIEGLE_AD_03_0001"
        },
        {
            "name": "5980",
            "score": "0.974",
            "index": 14,
            "selectedWords": [
                "r\u00e9confortante",
                "apaisante"
            ],
            "freeResponses": [],
            "nbPlayClick": 1,
            "expression": "RECONFORTANT",
            "csv_id": 6014,
            "video_name": "DIVERS_BOOK_RECONFORTANT_AD_01_0002"
        },
        {
            "name": "12210",
            "score": "0.998",
            "index": 15,
            "selectedWords": [
                "suppliante",
                "priante"
            ],
            "freeResponses": [],
            "nbPlayClick": 1,
            "expression": "SUPPLIANT",
            "csv_id": 12247,
            "video_name": "DIVERS_BOOK_SUPPLIANT_AD_01_0002"
        },
        {
            "name": "7655",
            "score": "0.983",
            "index": 16,
            "selectedWords": [
                "pensive",
                "d\u00e9courag\u00e9e"
            ],
            "freeResponses": [],
            "nbPlayClick": 1,
            "expression": "NEUTRE",
            "csv_id": 7689,
            "video_name": "DIVERS_PARL_AD_02_0001"
        },
        {
            "name": "7853",
            "score": "0.984",
            "index": 17,
            "selectedWords": [
                "\u00e9vidente",
                "patente"
            ],
            "freeResponses": [],
            "nbPlayClick": 1,
            "expression": "NEUTRE",
            "csv_id": 7887,
            "video_name": "DIVERS_PARL_AD_03_0004"
        },
        {
            "name": "10785",
            "score": "0.994",
            "index": 18,
            "selectedWords": [
                "atone",
                "inexpressive"
            ],
            "freeResponses": [],
            "nbPlayClick": 1,
            "expression": "NEUTRE",
            "csv_id": 10819,
            "video_name": "DIVERS_PARL_AD_03_0003"
        },
        {
            "name": "5768",
            "score": "0.972",
            "index": 19,
            "selectedWords": [
                "pensive",
                "m\u00e9ditative"
            ],
            "freeResponses": [],
            "nbPlayClick": 1,
            "expression": "DESOLE",
            "csv_id": 5802,
            "video_name": "DIVERS_BOOK_DESOLE_AD_03_0002"
        },
        {
            "name": "4972",
            "score": "0.965",
            "index": 20,
            "selectedWords": [
                "suppliante",
                "afflig\u00e9e"
            ],
            "freeResponses": [],
            "nbPlayClick": 1,
            "expression": "SUPPLIANT",
            "csv_id": 5006,
            "video_name": "DIVERS_PARL_SUPPLIANT_AD_02_0002"
        },
        {
            "name": "8158",
            "score": "0.985",
            "index": 21,
            "selectedWords": [
                "d\u00e9termin\u00e9e",
                "manifeste"
            ],
            "freeResponses": [],
            "nbPlayClick": 1,
            "expression": "NEUTRE",
            "csv_id": 8192,
            "video_name": "DIVERS_PARL_AD_01_0002"
        },
        {
            "name": "3247",
            "score": "0.943",
            "index": 22,
            "selectedWords": [
                "\u00e9vidente",
                "irr\u00e9cusable"
            ],
            "freeResponses": [],
            "nbPlayClick": 1,
            "expression": "EVIDENCE",
            "csv_id": 3247,
            "video_name": "DIVERS_BOOK_EVIDENCE_AD_01_0002"
        },
        {
            "name": "12163",
            "score": "0.998",
            "index": 23,
            "selectedWords": [
                "neutre",
                "certaine"
            ],
            "freeResponses": [],
            "nbPlayClick": 1,
            "expression": "NEUTRE",
            "csv_id": 12200,
            "video_name": "DIVERS_PARL_AD_03_0002"
        },
        {
            "name": "10317",
            "score": "0.993",
            "index": 24,
            "selectedWords": [
                "suppliante",
                "larmoyante"
            ],
            "freeResponses": [],
            "nbPlayClick": 1,
            "expression": "SUPPLIANT",
            "csv_id": 10351,
            "video_name": "DIVERS_BOOK_SUPPLIANT_AD_01_0004"
        },
        {
            "name": "11526",
            "score": "0.996",
            "index": 25,
            "selectedWords": [
                "neutre",
                "autre",
                "imp\u00e9n\u00e9trable"
            ],
            "freeResponses": [],
            "nbPlayClick": 1,
            "expression": "NEUTRE",
            "csv_id": 11563,
            "video_name": "DIVERS_BOOK_AD_03_0002"
        },
        {
            "name": "3122",
            "score": "0.941",
            "index": 26,
            "selectedWords": [
                "\u00e9tonn\u00e9e",
                "autre",
                "pensive",
                "perplexe"
            ],
            "freeResponses": [],
            "nbPlayClick": 1,
            "expression": "NEUTRE",
            "csv_id": 3122,
            "video_name": "DIVERS_PARL_AD_01_0004"
        },
        {
            "name": "9153",
            "score": "0.989",
            "index": 27,
            "selectedWords": [
                "\u00e9tonn\u00e9e",
                "autre",
                "dubitative"
            ],
            "freeResponses": [],
            "nbPlayClick": 1,
            "expression": "NEUTRE",
            "csv_id": 9187,
            "video_name": "DIVERS_BOOK_AD_01_0002"
        },
        {
            "name": "5000",
            "score": "0.966",
            "index": 28,
            "selectedWords": [
                "\u00e9vidente",
                "incontestable"
            ],
            "freeResponses": [],
            "nbPlayClick": 1,
            "expression": "NEUTRE",
            "csv_id": 5034,
            "video_name": "DIVERS_PARL_AD_04_0003"
        },
        {
            "name": "11143",
            "score": "0.995",
            "index": 29,
            "selectedWords": [
                "neutre",
                "limpide"
            ],
            "freeResponses": [],
            "nbPlayClick": 1,
            "expression": "NEUTRE",
            "csv_id": 11177,
            "video_name": "DIVERS_BOOK_AD_03_0002"
        },
        {
            "name": "9281",
            "score": "0.989",
            "index": 30,
            "selectedWords": [
                "ennuy\u00e9e",
                "autre",
                "autre",
                "m\u00e9fiante"
            ],
            "freeResponses": [],
            "nbPlayClick": 2,
            "expression": "INCREDULE",
            "csv_id": 9315,
            "video_name": "DIVERS_BOOK_INCREDULE_AD_01_0001"
        },
        {
            "name": "4213",
            "score": "0.957",
            "index": 31,
            "selectedWords": [
                "espi\u00e8gle",
                "taquine"
            ],
            "freeResponses": [],
            "nbPlayClick": 1,
            "expression": "ESPIEGLE",
            "csv_id": 4213,
            "video_name": "DIVERS_PARL_ESPIEGLE_AD_01_0001"
        },
        {
            "name": "6128",
            "score": "0.975",
            "index": 32,
            "selectedWords": [
                "neutre",
                "autre",
                "atone"
            ],
            "freeResponses": [],
            "nbPlayClick": 1,
            "expression": "NEUTRE",
            "csv_id": 6162,
            "video_name": "DIVERS_PARL_AD_02_0004"
        },
        {
            "name": "7306",
            "score": "0.981",
            "index": 33,
            "selectedWords": [
                "d\u00e9termin\u00e9e",
                "r\u00e9solue"
            ],
            "freeResponses": [],
            "nbPlayClick": 1,
            "expression": "NEUTRE",
            "csv_id": 7340,
            "video_name": "DIVERS_PARL_AD_02_0001"
        },
        {
            "name": "11162",
            "score": "0.995",
            "index": 34,
            "selectedWords": [
                "suppliante",
                "implorante",
                "sinc\u00e8re"
            ],
            "freeResponses": [],
            "nbPlayClick": 1,
            "expression": "SUPPLIANT",
            "csv_id": 11196,
            "video_name": "DIVERS_PARL_SUPPLIANT_AD_02_0001"
        },
        {
            "name": "10927",
            "score": "0.994",
            "index": 35,
            "selectedWords": [
                "stimulante",
                "autre",
                "autre",
                "emball\u00e9e"
            ],
            "freeResponses": [],
            "nbPlayClick": 1,
            "expression": "ENTHOUSIASTE",
            "csv_id": 10961,
            "video_name": "DIVERS_PARL_ENTHOUSIASTE_AD_02_0001"
        },
        {
            "name": "8694",
            "score": "0.987",
            "index": 36,
            "selectedWords": [
                "d\u00e9termin\u00e9e",
                "agit\u00e9e"
            ],
            "freeResponses": [],
            "nbPlayClick": 1,
            "expression": "NEUTRE",
            "csv_id": 8728,
            "video_name": "DIVERS_PARL_AD_03_0002"
        },
        {
            "name": "3644",
            "score": "0.949",
            "index": 37,
            "selectedWords": [
                "enthousiaste",
                "triomphale"
            ],
            "freeResponses": [],
            "nbPlayClick": 1,
            "expression": "NEUTRE",
            "csv_id": 3644,
            "video_name": "DIVERS_PARL_AD_04_0002"
        },
        {
            "name": "8994",
            "score": "0.988",
            "index": 38,
            "selectedWords": [
                "suppliante",
                "mendiante",
                "\u00e9loquente"
            ],
            "freeResponses": [],
            "nbPlayClick": 1,
            "expression": "SUPPLIANT",
            "csv_id": 9028,
            "video_name": "DIVERS_PARL_SUPPLIANT_AD_02_0001"
        },
        {
            "name": "4309",
            "score": "0.958",
            "index": 39,
            "selectedWords": [
                "en col\u00e8re",
                "hargneuse",
                "rageuse",
                "froide"
            ],
            "freeResponses": [],
            "nbPlayClick": 1,
            "expression": "COLERE",
            "csv_id": 4309,
            "video_name": "DIVERS_PARL_COLERE_AD_02_0002"
        },
        {
            "name": "7161",
            "score": "0.980",
            "index": 40,
            "selectedWords": [
                "neutre",
                "patente"
            ],
            "freeResponses": [],
            "nbPlayClick": 1,
            "expression": "NEUTRE",
            "csv_id": 7195,
            "video_name": "DIVERS_PARL_AD_06_0001"
        },
        {
            "name": "10297",
            "score": "0.993",
            "index": 41,
            "selectedWords": [
                "incr\u00e9dule",
                "convaincue"
            ],
            "freeResponses": [],
            "nbPlayClick": 1,
            "expression": "ETONNE",
            "csv_id": 10331,
            "video_name": "DIVERS_BOOK_ETONNE_AD_03_0001"
        },
        {
            "name": "11311",
            "score": "0.995",
            "index": 42,
            "selectedWords": [
                "\u00e9vidente",
                "autre",
                "d\u00e9termin\u00e9e"
            ],
            "freeResponses": [],
            "nbPlayClick": 1,
            "expression": "NEUTRE",
            "csv_id": 11345,
            "video_name": "DIVERS_PARL_AD_05_0003"
        },
        {
            "name": "8502",
            "score": "0.986",
            "index": 43,
            "selectedWords": [
                "\u00e9vidente",
                "autre",
                "r\u00eaveuse",
                "autre",
                "r\u00e9confortante"
            ],
            "freeResponses": [],
            "nbPlayClick": 1,
            "response": "r\u00e9c",
            "expression": "RECONFORTANT",
            "csv_id": 8536,
            "video_name": "DIVERS_BOOK_RECONFORTANT_AD_03_0002"
        },
        {
            "name": "12339",
            "score": "0.998",
            "index": 44,
            "selectedWords": [
                "neutre",
                "limpide"
            ],
            "freeResponses": [],
            "nbPlayClick": 1,
            "expression": "NEUTRE",
            "csv_id": 12376,
            "video_name": "DIVERS_BOOK_AD_04_0001"
        },
        {
            "name": "6703",
            "score": "0.978",
            "index": 45,
            "selectedWords": [
                "pensive",
                "r\u00eaveuse"
            ],
            "freeResponses": [],
            "nbPlayClick": 1,
            "expression": "RECONFORTANT",
            "csv_id": 6737,
            "video_name": "DIVERS_BOOK_RECONFORTANT_AD_01_0004"
        },
        {
            "name": "6302",
            "score": "0.976",
            "index": 46,
            "selectedWords": [
                "d\u00e9termin\u00e9e",
                "manifeste",
                "convaincue"
            ],
            "freeResponses": [],
            "nbPlayClick": 1,
            "expression": "SUPPLIANT",
            "csv_id": 6336,
            "video_name": "DIVERS_PARL_SUPPLIANT_AD_02_0002"
        },
        {
            "name": "10631",
            "score": "0.993",
            "index": 47,
            "selectedWords": [
                "\u00e9vidente",
                "irr\u00e9cusable"
            ],
            "freeResponses": [],
            "nbPlayClick": 1,
            "expression": "DETERMINE",
            "csv_id": 10665,
            "video_name": "DIVERS_PARL_DETERMINE_AD_01_0002"
        },
        {
            "name": "3654",
            "score": "0.949",
            "index": 48,
            "selectedWords": [
                "pensive",
                "r\u00eaveuse"
            ],
            "freeResponses": [],
            "nbPlayClick": 1,
            "expression": "RECONFORTANT",
            "csv_id": 3654,
            "video_name": "DIVERS_PARL_RECONFORTANT_AD_02_0001"
        },
        {
            "name": "6407",
            "score": "0.976",
            "index": 49,
            "selectedWords": [
                "d\u00e9termin\u00e9e",
                "r\u00e9fl\u00e9chie"
            ],
            "freeResponses": [],
            "nbPlayClick": 1,
            "expression": "NEUTRE",
            "csv_id": 6441,
            "video_name": "DIVERS_PARL_AD_06_0001"
        },
        {
            "name": "3218",
            "score": "0.942",
            "index": 50,
            "selectedWords": [
                "dubitative",
                "autre",
                "fac\u00e9tieuse"
            ],
            "freeResponses": [],
            "nbPlayClick": 1,
            "expression": "INCREDULE",
            "csv_id": 3218,
            "video_name": "DIVERS_BOOK_INCREDULE_AD_01_0001"
        },
        {
            "name": "10370",
            "score": "0.993",
            "index": 51,
            "selectedWords": [
                "neutre",
                "patente"
            ],
            "freeResponses": [],
            "nbPlayClick": 1,
            "expression": "NEUTRE",
            "csv_id": 10404,
            "video_name": "DIVERS_BOOK_AD_01_0002"
        },
        {
            "name": "12016",
            "score": "0.997",
            "index": 52,
            "selectedWords": [
                "en col\u00e8re",
                "irrit\u00e9e"
            ],
            "freeResponses": [],
            "nbPlayClick": 1,
            "expression": "NEUTRE",
            "csv_id": 12053,
            "video_name": "DIVERS_PARL_AD_02_0002"
        },
        {
            "name": "11204",
            "score": "0.995",
            "index": 53,
            "selectedWords": [
                "\u00e9vidente",
                "manifeste"
            ],
            "freeResponses": [],
            "nbPlayClick": 1,
            "expression": "NEUTRE",
            "csv_id": 11238,
            "video_name": "DIVERS_BOOK_AD_04_0002"
        },
        {
            "name": "6503",
            "score": "0.977",
            "index": 54,
            "selectedWords": [
                "\u00e9vidente",
                "incontestable",
                "autre",
                "imp\u00e9n\u00e9trable"
            ],
            "freeResponses": [],
            "nbPlayClick": 1,
            "expression": "NEUTRE",
            "csv_id": 6537,
            "video_name": "DIVERS_PARL_AD_06_0004"
        },
        {
            "name": "7212",
            "score": "0.981",
            "index": 55,
            "selectedWords": [
                "d\u00e9termin\u00e9e",
                "autre",
                "imp\u00e9n\u00e9trable",
                "terne"
            ],
            "freeResponses": [],
            "nbPlayClick": 1,
            "expression": "NEUTRE",
            "csv_id": 7246,
            "video_name": "DIVERS_PARL_AD_01_0004"
        },
        {
            "name": "9442",
            "score": "0.990",
            "index": 56,
            "selectedWords": [
                "en col\u00e8re",
                "courrouc\u00e9e"
            ],
            "freeResponses": [],
            "nbPlayClick": 1,
            "expression": "NEUTRE",
            "csv_id": 9476,
            "video_name": "DIVERS_PARL_AD_03_0004"
        },
        {
            "name": "6283",
            "score": "0.976",
            "index": 57,
            "selectedWords": [
                "r\u00e9confortante",
                "encourageante"
            ],
            "freeResponses": [],
            "nbPlayClick": 1,
            "expression": "RECONFORTANT",
            "csv_id": 6317,
            "video_name": "DIVERS_PARL_RECONFORTANT_AD_02_0001"
        },
        {
            "name": "11018",
            "score": "0.994",
            "index": 58,
            "selectedWords": [
                "neutre",
                "patente",
                "nette"
            ],
            "freeResponses": [],
            "nbPlayClick": 1,
            "expression": "NEUTRE",
            "csv_id": 11052,
            "video_name": "DIVERS_BOOK_AD_03_0001"
        },
        {
            "name": "3737",
            "score": "0.950",
            "index": 59,
            "selectedWords": [
                "enthousiaste",
                "euphorique",
                "excit\u00e9e"
            ],
            "freeResponses": [],
            "nbPlayClick": 1,
            "expression": "ENTHOUSIASTE",
            "csv_id": 3737,
            "video_name": "DIVERS_PARL_ENTHOUSIASTE_AD_01_0003"
        }
    ],
    "training": [
        {
            "name": "77",
            "score": "0.639",
            "index": 0,
            "selectedWords": [
                "d\u00e9termin\u00e9e",
                "r\u00e9fl\u00e9chie",
                "infaillible",
                "convaincue"
            ],
            "freeResponses": [],
            "nbPlayClick": 1,
            "expression": "NEUTRE"
        }
    ],
    "filenameDate": "2024-02-12_16-21"
}