{
    "user": {
        "isProlific": true,
        "id": "6106934c9c5c86d587abee2a",
        "session": "650b5eb0e834e21e25e40473",
        "study": "64ef977375f88e4e1174dce0"
    },
    "userAgent": "Mozilla/5.0 (Windows NT 10.0; Win64; x64) AppleWebKit/537.36 (KHTML, like Gecko) Chrome/116.0.0.0 Safari/537.36",
    "landingDate": "2023-09-20T21:06:07.375Z",
    "startDate": "2023-09-20T21:09:09.215Z",
    "endDate": "2023-09-20T22:09:10.043Z",
    "reviews": [
        {
            "name": "11582",
            "score": "0.996",
            "index": 0,
            "selectedWords": [
                "dubitative",
                "d\u00e9pit\u00e9e",
                "ennuy\u00e9e",
                "occup\u00e9e",
                "pensante",
                "sceptique",
                "songeuse"
            ],
            "freeResponses": [],
            "nbPlayClick": 2,
            "response": "songe",
            "expression": "NEUTRE",
            "csv_id": 11619,
            "video_name": "DIVERS_PARL_AD_04_0002"
        },
        {
            "name": "10965",
            "score": "0.994",
            "index": 1,
            "selectedWords": [
                "absente",
                "terne",
                "s\u00fbre",
                "sid\u00e9r\u00e9e",
                "perplexe",
                "afflig\u00e9e",
                "certaine",
                "ennuy\u00e9e",
                "froide",
                "irr\u00e9cusable"
            ],
            "freeResponses": [],
            "nbPlayClick": 3,
            "expression": "NEUTRE",
            "csv_id": 10999,
            "video_name": "DIVERS_PARL_AD_04_0001"
        },
        {
            "name": "8657",
            "score": "0.987",
            "index": 2,
            "selectedWords": [
                "afflig\u00e9e",
                "certaine",
                "convaincue",
                "en col\u00e8re",
                "s\u00fbre",
                "sinc\u00e8re",
                "sceptique"
            ],
            "freeResponses": [],
            "nbPlayClick": 1,
            "response": "sinc\u00e8",
            "expression": "NEUTRE",
            "csv_id": 8691,
            "video_name": "DIVERS_PARL_AD_03_0003"
        },
        {
            "name": "2127",
            "score": "0.916",
            "index": 3,
            "selectedWords": [
                "perplexe",
                "sceptique",
                "contrari\u00e9e",
                "estomaqu\u00e9e",
                "furieuse",
                "\u00e9tonn\u00e9e"
            ],
            "freeResponses": [],
            "nbPlayClick": 1,
            "response": "sc",
            "expression": "INCREDULE",
            "csv_id": 2127,
            "video_name": "DIVERS_BOOK_INCREDULE_AD_01_0001"
        },
        {
            "name": "2506",
            "score": "0.927",
            "index": 4,
            "selectedWords": [
                "certaine",
                "d\u00e9pit\u00e9e",
                "convaincue",
                "ennuy\u00e9e",
                "ind\u00e9niable",
                "pr\u00e9occup\u00e9e",
                "\u00e9vidente"
            ],
            "freeResponses": [],
            "nbPlayClick": 2,
            "expression": "EVIDENCE",
            "csv_id": 2506,
            "video_name": "DIVERS_PARL_EVIDENCE_AD_02_0002"
        },
        {
            "name": "7104",
            "score": "0.980",
            "index": 5,
            "selectedWords": [
                "certaine",
                "s\u00fbre",
                "d\u00e9termin\u00e9e",
                "convaincue",
                "irrit\u00e9e"
            ],
            "freeResponses": [],
            "nbPlayClick": 1,
            "response": "d\u00e9te",
            "expression": "NEUTRE",
            "csv_id": 7138,
            "video_name": "DIVERS_PARL_AD_06_0002"
        },
        {
            "name": "8853",
            "score": "0.988",
            "index": 6,
            "selectedWords": [
                "en col\u00e8re",
                "irrit\u00e9e",
                "f\u00e2ch\u00e9e",
                "dubitative",
                "abasourdie",
                "stup\u00e9faite",
                "interloqu\u00e9e"
            ],
            "freeResponses": [],
            "nbPlayClick": 3,
            "expression": "INCREDULE",
            "csv_id": 8887,
            "video_name": "DIVERS_BOOK_INCREDULE_AD_01_0001"
        },
        {
            "name": "10839",
            "score": "0.994",
            "index": 7,
            "selectedWords": [
                "\u00e9vidente",
                "incontestable",
                "pr\u00e9occup\u00e9e",
                "contrari\u00e9e",
                "\u00e9loquente"
            ],
            "freeResponses": [],
            "nbPlayClick": 1,
            "response": "\u00e9vi",
            "expression": "NEUTRE",
            "csv_id": 10873,
            "video_name": "DIVERS_PARL_AD_02_0002"
        },
        {
            "name": "6514",
            "score": "0.977",
            "index": 8,
            "selectedWords": [
                "en col\u00e8re",
                "en rage",
                "f\u00e2ch\u00e9e",
                "agit\u00e9e",
                "r\u00e9solue",
                "d\u00e9cid\u00e9e",
                "ferme",
                "autre",
                "autre",
                "autre",
                "autre",
                "autre"
            ],
            "freeResponses": [],
            "nbPlayClick": 2,
            "expression": "COLERE",
            "csv_id": 6548,
            "video_name": "DIVERS_PARL_COLERE_AD_01_0003"
        },
        {
            "name": "3948",
            "score": "0.953",
            "index": 9,
            "selectedWords": [
                "d\u00e9sol\u00e9e",
                "transport\u00e9e",
                "pr\u00e9occup\u00e9e",
                "malheureuse",
                "en peine",
                "attrist\u00e9e",
                "implorante",
                "navr\u00e9e"
            ],
            "freeResponses": [],
            "nbPlayClick": 2,
            "expression": "DESOLE",
            "csv_id": 3948,
            "video_name": "DIVERS_BOOK_DESOLE_AD_03_0002"
        },
        {
            "name": "3594",
            "score": "0.948",
            "index": 10,
            "selectedWords": [
                "\u00e9loquente",
                "autre",
                "imp\u00e9n\u00e9trable",
                "atone",
                "s\u00fbre",
                "limpide",
                "officielle",
                "incontestable"
            ],
            "freeResponses": [],
            "nbPlayClick": 1,
            "response": "\u00e9lo",
            "expression": "NEUTRE",
            "csv_id": 3594,
            "video_name": "DIVERS_PARL_AD_06_0002"
        },
        {
            "name": "12289",
            "score": "0.998",
            "index": 11,
            "selectedWords": [
                "dubitative",
                "ennuy\u00e9e",
                "m\u00e9contente",
                "sceptique"
            ],
            "freeResponses": [],
            "nbPlayClick": 1,
            "response": "du",
            "expression": "NEUTRE",
            "csv_id": 12326,
            "video_name": "DIVERS_BOOK_AD_03_0002"
        },
        {
            "name": "10500",
            "score": "0.993",
            "index": 12,
            "selectedWords": [
                "neutre",
                "terne"
            ],
            "freeResponses": [],
            "nbPlayClick": 2,
            "response": "neut",
            "expression": "SUPPLIANT",
            "csv_id": 10534,
            "video_name": "DIVERS_BOOK_SUPPLIANT_AD_01_0002"
        },
        {
            "name": "12278",
            "score": "0.998",
            "index": 13,
            "selectedWords": [
                "autre",
                "\u00e9vidente",
                "manifeste",
                "prouv\u00e9e",
                "certaine",
                "autre",
                "convaincue",
                "indiscutable",
                "opini\u00e2tre",
                "entreprenante"
            ],
            "freeResponses": [],
            "nbPlayClick": 1,
            "response": "certai",
            "expression": "NEUTRE",
            "csv_id": 12315,
            "video_name": "DIVERS_PARL_AD_02_0001"
        },
        {
            "name": "10871",
            "score": "0.994",
            "index": 14,
            "selectedWords": [
                "neutre",
                "ennuy\u00e9e",
                "imp\u00e9n\u00e9trable",
                "perplexe"
            ],
            "freeResponses": [],
            "nbPlayClick": 1,
            "response": "enn",
            "expression": "NEUTRE",
            "csv_id": 10905,
            "video_name": "DIVERS_PARL_AD_04_0004"
        },
        {
            "name": "6165",
            "score": "0.975",
            "index": 15,
            "selectedWords": [
                "suppliante",
                "implorante",
                "autre",
                "attrist\u00e9e",
                "navr\u00e9e",
                "pein\u00e9e",
                "pr\u00e9occup\u00e9e",
                "sid\u00e9r\u00e9e"
            ],
            "freeResponses": [],
            "nbPlayClick": 1,
            "expression": "SUPPLIANT",
            "csv_id": 6199,
            "video_name": "DIVERS_PARL_SUPPLIANT_AD_02_0002"
        },
        {
            "name": "2970",
            "score": "0.938",
            "index": 16,
            "selectedWords": [
                "r\u00e9confortante",
                "reconstituante",
                "consolante",
                "autre",
                "autre",
                "autre",
                "intuitive",
                "limpide",
                "entreprenante"
            ],
            "freeResponses": [],
            "nbPlayClick": 2,
            "expression": "RECONFORTANT",
            "csv_id": 2970,
            "video_name": "DIVERS_PARL_RECONFORTANT_AD_02_0001"
        },
        {
            "name": "11896",
            "score": "0.997",
            "index": 17,
            "selectedWords": [
                "officielle",
                "certaine",
                "nette",
                "s\u00fbre",
                "convaincue"
            ],
            "freeResponses": [],
            "nbPlayClick": 1,
            "response": "s\u00fb",
            "expression": "NEUTRE",
            "csv_id": 11933,
            "video_name": "DIVERS_PARL_AD_01_0005"
        },
        {
            "name": "10049",
            "score": "0.992",
            "index": 18,
            "selectedWords": [
                "neutre",
                "ennuy\u00e9e",
                "froide",
                "terne"
            ],
            "freeResponses": [],
            "nbPlayClick": 2,
            "expression": "NEUTRE",
            "csv_id": 10083,
            "video_name": "DIVERS_BOOK_AD_04_0002"
        },
        {
            "name": "12196",
            "score": "0.998",
            "index": 19,
            "selectedWords": [
                "d\u00e9termin\u00e9e",
                "r\u00e9fl\u00e9chie",
                "s\u00fbre",
                "certaine",
                "incontestable",
                "reconstituante",
                "autre",
                "autre",
                "autre",
                "autre",
                "autre",
                "autre",
                "autre"
            ],
            "freeResponses": [],
            "nbPlayClick": 2,
            "expression": "NEUTRE",
            "csv_id": 12233,
            "video_name": "DIVERS_PARL_AD_02_0001"
        },
        {
            "name": "10327",
            "score": "0.993",
            "index": 20,
            "selectedWords": [
                "\u00e9vidente",
                "incontestable",
                "prouv\u00e9e",
                "ind\u00e9niable",
                "ferme",
                "autre",
                "autre",
                "officielle",
                "\u00e9vidente"
            ],
            "freeResponses": [],
            "nbPlayClick": 1,
            "response": "\u00e9v",
            "expression": "NEUTRE",
            "csv_id": 10361,
            "video_name": "DIVERS_PARL_AD_06_0003"
        },
        {
            "name": "11408",
            "score": "0.995",
            "index": 21,
            "selectedWords": [
                "reconstituante",
                "officielle",
                "neutre"
            ],
            "freeResponses": [],
            "nbPlayClick": 2,
            "response": "neutr",
            "expression": "NEUTRE",
            "csv_id": 11445,
            "video_name": "DIVERS_BOOK_AD_01_0001"
        },
        {
            "name": "3919",
            "score": "0.953",
            "index": 22,
            "selectedWords": [
                "r\u00e9confortante",
                "apaisante",
                "consolante",
                "autre",
                "autre",
                "in\u00e9branlable",
                "certaine",
                "autre",
                "autre"
            ],
            "freeResponses": [],
            "nbPlayClick": 1,
            "expression": "RECONFORTANT",
            "csv_id": 3919,
            "video_name": "DIVERS_PARL_RECONFORTANT_AD_02_0001"
        },
        {
            "name": "8272",
            "score": "0.985",
            "index": 23,
            "selectedWords": [
                "coquine",
                "espi\u00e8gle",
                "fac\u00e9tieuse",
                "excit\u00e9e",
                "exalt\u00e9e",
                "maligne",
                "malicieuse",
                "r\u00e9solue"
            ],
            "freeResponses": [],
            "nbPlayClick": 1,
            "response": "ma",
            "expression": "ESPIEGLE",
            "csv_id": 8306,
            "video_name": "DIVERS_PARL_ESPIEGLE_AD_01_0001"
        },
        {
            "name": "1874",
            "score": "0.907",
            "index": 24,
            "selectedWords": [
                "confuse",
                "dubitative",
                "perplexe",
                "d\u00e9courag\u00e9e",
                "d\u00e9pit\u00e9e"
            ],
            "freeResponses": [],
            "nbPlayClick": 1,
            "expression": "PENSIF",
            "csv_id": 1874,
            "video_name": "DIVERS_BOOK_PENSIF_AD_01_0003"
        },
        {
            "name": "10736",
            "score": "0.994",
            "index": 25,
            "selectedWords": [
                "en col\u00e8re",
                "irrit\u00e9e",
                "\u00e9loquente",
                "bouillonnante",
                "passionn\u00e9e"
            ],
            "freeResponses": [],
            "nbPlayClick": 1,
            "response": "\u00e9lo",
            "expression": "NEUTRE",
            "csv_id": 10770,
            "video_name": "DIVERS_PARL_AD_02_0002"
        },
        {
            "name": "3881",
            "score": "0.952",
            "index": 26,
            "selectedWords": [
                "\u00e9vidente",
                "songeuse",
                "r\u00eaveuse",
                "passionn\u00e9e"
            ],
            "freeResponses": [],
            "nbPlayClick": 1,
            "response": "r\u00ea",
            "expression": "RECONFORTANT",
            "csv_id": 3881,
            "video_name": "DIVERS_BOOK_RECONFORTANT_AD_01_0002"
        },
        {
            "name": "4231",
            "score": "0.957",
            "index": 27,
            "selectedWords": [
                "certaine",
                "encourageante",
                "incontestable",
                "r\u00e9solue"
            ],
            "freeResponses": [],
            "nbPlayClick": 3,
            "expression": "RECONFORTANT",
            "csv_id": 4231,
            "video_name": "DIVERS_PARL_RECONFORTANT_AD_02_0001"
        },
        {
            "name": "7827",
            "score": "0.984",
            "index": 28,
            "selectedWords": [
                "en col\u00e8re",
                "en rage",
                "m\u00e9contente",
                "indign\u00e9e",
                "agit\u00e9e",
                "manifeste",
                "convaincue",
                "r\u00e9solue",
                "opini\u00e2tre",
                "sinc\u00e8re",
                "pr\u00e9occup\u00e9e"
            ],
            "freeResponses": [],
            "nbPlayClick": 2,
            "expression": "NEUTRE",
            "csv_id": 7861,
            "video_name": "DIVERS_BOOK_AD_04_0002"
        },
        {
            "name": "5282",
            "score": "0.968",
            "index": 29,
            "selectedWords": [
                "autre",
                "autre",
                "autre",
                "certaine",
                "d\u00e9cid\u00e9e",
                "autre",
                "autre",
                "consolatrice",
                "autre",
                "autre",
                "incontestable"
            ],
            "freeResponses": [],
            "nbPlayClick": 1,
            "response": "",
            "expression": "NEUTRE",
            "csv_id": 5316,
            "video_name": "DIVERS_PARL_AD_06_0001"
        },
        {
            "name": "10494",
            "score": "0.993",
            "index": 30,
            "selectedWords": [
                "coquine",
                "espi\u00e8gle",
                "taquine",
                "enthousiaste",
                "exalt\u00e9e",
                "passionn\u00e9e"
            ],
            "freeResponses": [
                "blagueuse"
            ],
            "nbPlayClick": 1,
            "response": "pass",
            "expression": "ESPIEGLE",
            "csv_id": 10528,
            "video_name": "DIVERS_PARL_ESPIEGLE_AD_01_0001"
        },
        {
            "name": "9321",
            "score": "0.989",
            "index": 31,
            "selectedWords": [
                "incr\u00e9dule",
                "ennuy\u00e9e",
                "d\u00e9pit\u00e9e",
                "d\u00e9courag\u00e9e",
                "perplexe"
            ],
            "freeResponses": [],
            "nbPlayClick": 3,
            "response": "ennu",
            "expression": "EVIDENCE",
            "csv_id": 9355,
            "video_name": "DIVERS_BOOK_EVIDENCE_AD_01_0002"
        },
        {
            "name": "5139",
            "score": "0.967",
            "index": 32,
            "selectedWords": [
                "neutre",
                "certaine",
                "limpide",
                "officielle"
            ],
            "freeResponses": [],
            "nbPlayClick": 2,
            "response": "off",
            "expression": "NEUTRE",
            "csv_id": 5173,
            "video_name": "DIVERS_PARL_AD_01_0004"
        },
        {
            "name": "7988",
            "score": "0.984",
            "index": 33,
            "selectedWords": [
                "pensive",
                "songeuse",
                "m\u00e9ditative",
                "songeuse",
                "autre"
            ],
            "freeResponses": [],
            "nbPlayClick": 2,
            "response": "son",
            "expression": "NEUTRE",
            "csv_id": 8022,
            "video_name": "DIVERS_BOOK_AD_01_0001"
        },
        {
            "name": "9139",
            "score": "0.989",
            "index": 34,
            "selectedWords": [
                "\u00e9vidente",
                "interloqu\u00e9e",
                "abasourdie",
                "sid\u00e9r\u00e9e",
                "indign\u00e9e"
            ],
            "freeResponses": [],
            "nbPlayClick": 2,
            "response": "interl",
            "expression": "NEUTRE",
            "csv_id": 9173,
            "video_name": "DIVERS_BOOK_AD_03_0002"
        },
        {
            "name": "6880",
            "score": "0.979",
            "index": 35,
            "selectedWords": [
                "en col\u00e8re",
                "\u00e9nerv\u00e9e",
                "m\u00e9contente",
                "sid\u00e9r\u00e9e",
                "autre",
                "autre",
                "d\u00e9termin\u00e9e",
                "autre",
                "autre",
                "autre",
                "opini\u00e2tre",
                "convaincue",
                "indiscutable"
            ],
            "freeResponses": [],
            "nbPlayClick": 3,
            "response": "col\u00e8",
            "expression": "SUPPLIANT",
            "csv_id": 6914,
            "video_name": "DIVERS_PARL_SUPPLIANT_AD_02_0001"
        },
        {
            "name": "10752",
            "score": "0.994",
            "index": 36,
            "selectedWords": [],
            "freeResponses": [
                "fausse",
                "pas convaincue"
            ],
            "nbPlayClick": 2,
            "response": "pas convaincue",
            "expression": "SUPPLIANT",
            "csv_id": 10786,
            "video_name": "DIVERS_BOOK_SUPPLIANT_AD_01_0002"
        },
        {
            "name": "8624",
            "score": "0.987",
            "index": 37,
            "selectedWords": [
                "\u00e9vidente",
                "incontestable",
                "certaine",
                "s\u00fbre",
                "autre",
                "autre",
                "autre",
                "autre",
                "ennuy\u00e9e",
                "accabl\u00e9e"
            ],
            "freeResponses": [],
            "nbPlayClick": 2,
            "expression": "EVIDENCE",
            "csv_id": 8658,
            "video_name": "DIVERS_BOOK_EVIDENCE_AD_01_0002"
        },
        {
            "name": "6208",
            "score": "0.975",
            "index": 38,
            "selectedWords": [
                "en col\u00e8re",
                "hargneuse",
                "m\u00e9contente",
                "contrari\u00e9e",
                "d\u00e9pit\u00e9e",
                "d\u00e9termin\u00e9e",
                "r\u00e9solue",
                "convaincue"
            ],
            "freeResponses": [],
            "nbPlayClick": 1,
            "response": "d\u00e9t",
            "expression": "DETERMINE",
            "csv_id": 6242,
            "video_name": "DIVERS_PARL_DETERMINE_AD_01_0004"
        },
        {
            "name": "5263",
            "score": "0.968",
            "index": 39,
            "selectedWords": [
                "autre",
                "\u00e9nerv\u00e9e",
                "irrit\u00e9e",
                "m\u00e9contente",
                "indign\u00e9e",
                "sid\u00e9r\u00e9e",
                "estomaqu\u00e9e",
                "autre",
                "m\u00e9fiante"
            ],
            "freeResponses": [],
            "nbPlayClick": 2,
            "response": "sid",
            "expression": "COLERE",
            "csv_id": 5297,
            "video_name": "DIVERS_PARL_COLERE_AD_01_0004"
        },
        {
            "name": "8551",
            "score": "0.987",
            "index": 40,
            "selectedWords": [
                "irrit\u00e9e",
                "incontestable",
                "indign\u00e9e"
            ],
            "freeResponses": [
                "provocatrice"
            ],
            "nbPlayClick": 2,
            "response": "ind",
            "expression": "NEUTRE",
            "csv_id": 8585,
            "video_name": "DIVERS_PARL_AD_02_0001"
        },
        {
            "name": "4931",
            "score": "0.965",
            "index": 41,
            "selectedWords": [
                "d\u00e9termin\u00e9e",
                "r\u00e9solue",
                "d\u00e9cid\u00e9e",
                "entreprenante",
                "autre",
                "irrit\u00e9e",
                "autre",
                "autre"
            ],
            "freeResponses": [],
            "nbPlayClick": 1,
            "response": "irr",
            "expression": "DETERMINE",
            "csv_id": 4965,
            "video_name": "DIVERS_PARL_DETERMINE_AD_01_0004"
        },
        {
            "name": "7365",
            "score": "0.981",
            "index": 42,
            "selectedWords": [
                "perplexe",
                "accabl\u00e9e",
                "dubitative",
                "incr\u00e9dule"
            ],
            "freeResponses": [],
            "nbPlayClick": 2,
            "response": "perp",
            "expression": "ETONNE",
            "csv_id": 7399,
            "video_name": "DIVERS_PARL_ETONNE_AD_01_0001"
        },
        {
            "name": "6002",
            "score": "0.974",
            "index": 43,
            "selectedWords": [
                "\u00e9vidente",
                "incontestable",
                "certaine",
                "ind\u00e9niable",
                "ferme",
                "infaillible",
                "convaincue",
                "autre",
                "d\u00e9termin\u00e9e"
            ],
            "freeResponses": [],
            "nbPlayClick": 2,
            "response": "d\u00e9t",
            "expression": "EVIDENCE",
            "csv_id": 6036,
            "video_name": "DIVERS_BOOK_EVIDENCE_AD_01_0002"
        },
        {
            "name": "11129",
            "score": "0.995",
            "index": 44,
            "selectedWords": [
                "\u00e9vidente",
                "autre",
                "r\u00e9confortante",
                "apaisante",
                "d\u00e9pit\u00e9e"
            ],
            "freeResponses": [],
            "nbPlayClick": 1,
            "response": "apa",
            "expression": "NEUTRE",
            "csv_id": 11163,
            "video_name": "DIVERS_PARL_AD_03_0002"
        },
        {
            "name": "10849",
            "score": "0.994",
            "index": 45,
            "selectedWords": [
                "officielle",
                "limpide",
                "r\u00e9fl\u00e9chie"
            ],
            "freeResponses": [
                "humble"
            ],
            "nbPlayClick": 1,
            "response": "humble",
            "expression": "NEUTRE",
            "csv_id": 10883,
            "video_name": "DIVERS_PARL_AD_01_0005"
        },
        {
            "name": "7840",
            "score": "0.984",
            "index": 46,
            "selectedWords": [
                "d\u00e9termin\u00e9e",
                "en col\u00e8re",
                "irrit\u00e9e",
                "\u00e9nerv\u00e9e",
                "froide",
                "\u00e9loquente",
                "bouillonnante"
            ],
            "freeResponses": [
                "provocante"
            ],
            "nbPlayClick": 1,
            "response": "man",
            "expression": "NEUTRE",
            "csv_id": 7874,
            "video_name": "DIVERS_PARL_AD_03_0001"
        },
        {
            "name": "8892",
            "score": "0.988",
            "index": 47,
            "selectedWords": [
                "afflig\u00e9e",
                "abasourdie",
                "bouillonnante",
                "contrari\u00e9e"
            ],
            "freeResponses": [
                "sarcastique"
            ],
            "nbPlayClick": 3,
            "response": "sarcastique",
            "expression": "ESPIEGLE",
            "csv_id": 8926,
            "video_name": "DIVERS_PARL_ESPIEGLE_AD_01_0001"
        },
        {
            "name": "2661",
            "score": "0.931",
            "index": 48,
            "selectedWords": [
                "excit\u00e9e",
                "emball\u00e9e",
                "agressive",
                "d\u00e9termin\u00e9e",
                "r\u00e9solue"
            ],
            "freeResponses": [],
            "nbPlayClick": 1,
            "response": "d\u00e9t",
            "expression": "DETERMINE",
            "csv_id": 2661,
            "video_name": "DIVERS_PARL_DETERMINE_AD_01_0004"
        },
        {
            "name": "4012",
            "score": "0.954",
            "index": 49,
            "selectedWords": [
                "espi\u00e8gle",
                "fac\u00e9tieuse",
                "autre",
                "autre",
                "autre",
                "autre",
                "enthousiaste",
                "taquine"
            ],
            "freeResponses": [
                "blagueuse"
            ],
            "nbPlayClick": 2,
            "response": "entho",
            "expression": "ENTHOUSIASTE",
            "csv_id": 4012,
            "video_name": "DIVERS_PARL_ENTHOUSIASTE_AD_02_0001"
        },
        {
            "name": "5227",
            "score": "0.968",
            "index": 50,
            "selectedWords": [
                "exalt\u00e9e",
                "euphorique",
                "excit\u00e9e",
                "passionn\u00e9e",
                "autre"
            ],
            "freeResponses": [],
            "nbPlayClick": 1,
            "response": "",
            "expression": "ENTHOUSIASTE",
            "csv_id": 5261,
            "video_name": "DIVERS_BOOK_ENTHOUSIASTE_AD_01_0004"
        },
        {
            "name": "10966",
            "score": "0.994",
            "index": 51,
            "selectedWords": [
                "dubitative",
                "perplexe",
                "d\u00e9concert\u00e9e",
                "ennuy\u00e9e"
            ],
            "freeResponses": [
                "pr\u00e9cautionneuse "
            ],
            "nbPlayClick": 1,
            "response": "pr\u00e9cautionneuse ",
            "expression": "PENSIF",
            "csv_id": 11000,
            "video_name": "DIVERS_PARL_PENSIF_AD_01_0002"
        },
        {
            "name": "12378",
            "score": "0.999",
            "index": 52,
            "selectedWords": [
                "neutre",
                "limpide",
                "officielle"
            ],
            "freeResponses": [],
            "nbPlayClick": 2,
            "expression": "NEUTRE",
            "csv_id": 12415,
            "video_name": "DIVERS_BOOK_AD_04_0002"
        },
        {
            "name": "8544",
            "score": "0.987",
            "index": 53,
            "selectedWords": [
                "d\u00e9termin\u00e9e",
                "manifeste",
                "convaincue",
                "r\u00e9solue",
                "d\u00e9cid\u00e9e",
                "incontestable",
                "officielle",
                "in\u00e9branlable"
            ],
            "freeResponses": [],
            "nbPlayClick": 1,
            "response": "in\u00e9",
            "expression": "NEUTRE",
            "csv_id": 8578,
            "video_name": "DIVERS_PARL_AD_06_0001"
        },
        {
            "name": "11668",
            "score": "0.996",
            "index": 54,
            "selectedWords": [
                "\u00e9tonn\u00e9e",
                "autre",
                "dubitative",
                "indign\u00e9e",
                "sid\u00e9r\u00e9e",
                "d\u00e9concert\u00e9e",
                "stup\u00e9faite",
                "autre",
                "d\u00e9pit\u00e9e"
            ],
            "freeResponses": [],
            "nbPlayClick": 2,
            "response": "d\u00e9",
            "expression": "INCREDULE",
            "csv_id": 11705,
            "video_name": "DIVERS_BOOK_INCREDULE_AD_01_0001"
        },
        {
            "name": "6869",
            "score": "0.979",
            "index": 55,
            "selectedWords": [
                "attrist\u00e9e",
                "en peine",
                "autre",
                "autre",
                "autre",
                "songeuse",
                "autre",
                "sinc\u00e8re"
            ],
            "freeResponses": [
                "reconnaissante"
            ],
            "nbPlayClick": 1,
            "response": "sin",
            "expression": "DESOLE",
            "csv_id": 6903,
            "video_name": "DIVERS_PARL_DESOLE_AD_02_0002"
        },
        {
            "name": "5586",
            "score": "0.971",
            "index": 56,
            "selectedWords": [
                "abasourdie",
                "afflig\u00e9e",
                "d\u00e9concert\u00e9e",
                "d\u00e9pit\u00e9e",
                "effar\u00e9e",
                "indign\u00e9e",
                "f\u00e2ch\u00e9e",
                "m\u00e9contente",
                "autre",
                "perplexe"
            ],
            "freeResponses": [],
            "nbPlayClick": 1,
            "response": "perp",
            "expression": "ETONNE",
            "csv_id": 5620,
            "video_name": "DIVERS_BOOK_ETONNE_AD_03_0001"
        },
        {
            "name": "7964",
            "score": "0.984",
            "index": 57,
            "selectedWords": [
                "neutre",
                "certaine",
                "nette",
                "officielle",
                "inexpressive"
            ],
            "freeResponses": [],
            "nbPlayClick": 1,
            "response": "ine",
            "expression": "NEUTRE",
            "csv_id": 7998,
            "video_name": "DIVERS_PARL_AD_05_0001"
        },
        {
            "name": "9522",
            "score": "0.990",
            "index": 58,
            "selectedWords": [
                "en col\u00e8re",
                "irrit\u00e9e",
                "enrag\u00e9e",
                "indign\u00e9e",
                "perplexe",
                "sid\u00e9r\u00e9e",
                "stup\u00e9faite",
                "bouillonnante",
                "autre"
            ],
            "freeResponses": [],
            "nbPlayClick": 1,
            "response": "",
            "expression": "COLERE",
            "csv_id": 9556,
            "video_name": "DIVERS_PARL_COLERE_AD_01_0003"
        },
        {
            "name": "7072",
            "score": "0.980",
            "index": 59,
            "selectedWords": [
                "enthousiaste",
                "\u00e9nergique",
                "autre",
                "autre",
                "autre"
            ],
            "freeResponses": [
                "joyeuse",
                "satisfaite"
            ],
            "nbPlayClick": 2,
            "response": "satisfaite",
            "expression": "ENTHOUSIASTE",
            "csv_id": 7106,
            "video_name": "DIVERS_PARL_ENTHOUSIASTE_AD_01_0003"
        }
    ],
    "training": [
        {
            "name": "77",
            "score": "0.639",
            "index": 0,
            "selectedWords": [
                "d\u00e9termin\u00e9e",
                "autre",
                "autre",
                "autre",
                "autre",
                "autre",
                "certaine",
                "convaincue",
                "inexpressive",
                "neutre"
            ],
            "freeResponses": [],
            "nbPlayClick": 3,
            "expression": "NEUTRE"
        }
    ],
    "filenameDate": "2023-09-20_0-9"
}