{
    "user": {
        "isProlific": true,
        "id": "61081c458f83d8940d9f71b0",
        "session": "64f9dff96e1c80959fe0da8a",
        "study": "64ef977375f88e4e1174dce0"
    },
    "userAgent": "Mozilla/5.0 (Windows NT 10.0; Win64; x64) AppleWebKit/537.36 (KHTML, like Gecko) Chrome/116.0.0.0 Safari/537.36",
    "landingDate": "2023-09-07T14:54:18.089Z",
    "startDate": "2023-09-07T14:55:18.813Z",
    "endDate": "2023-09-07T15:33:17.086Z",
    "reviews": [
        {
            "name": "7563",
            "score": "0.982",
            "index": 0,
            "selectedWords": [
                "autre",
                "autre",
                "autre",
                "autre",
                "ennuy\u00e9e",
                "autre",
                "autre",
                "autre",
                "autre",
                "autre",
                "autre",
                "autre",
                "autre",
                "autre",
                "autre",
                "autre",
                "ferme"
            ],
            "freeResponses": [],
            "nbPlayClick": 4,
            "expression": "EVIDENCE",
            "csv_id": 7597,
            "video_name": "DIVERS_PARL_EVIDENCE_AD_02_0002"
        },
        {
            "name": "4281",
            "score": "0.958",
            "index": 1,
            "selectedWords": [
                "neutre",
                "autre",
                "autre",
                "ennuy\u00e9e"
            ],
            "freeResponses": [],
            "nbPlayClick": 3,
            "expression": "NEUTRE",
            "csv_id": 4281,
            "video_name": "DIVERS_PARL_AD_03_0003"
        },
        {
            "name": "5444",
            "score": "0.969",
            "index": 2,
            "selectedWords": [
                "dubitative",
                "autre",
                "autre",
                "autre",
                "songeuse"
            ],
            "freeResponses": [],
            "nbPlayClick": 3,
            "expression": "NEUTRE",
            "csv_id": 5478,
            "video_name": "DIVERS_BOOK_AD_04_0002"
        },
        {
            "name": "5830",
            "score": "0.973",
            "index": 3,
            "selectedWords": [
                "d\u00e9sol\u00e9e",
                "autre",
                "encourageante"
            ],
            "freeResponses": [],
            "nbPlayClick": 2,
            "response": "",
            "expression": "EVIDENCE",
            "csv_id": 5864,
            "video_name": "DIVERS_PARL_EVIDENCE_AD_01_0001"
        },
        {
            "name": "11758",
            "score": "0.996",
            "index": 4,
            "selectedWords": [
                "autre",
                "autre",
                "atone",
                "autre",
                "autre",
                "ennuy\u00e9e"
            ],
            "freeResponses": [],
            "nbPlayClick": 3,
            "expression": "NEUTRE",
            "csv_id": 11795,
            "video_name": "DIVERS_BOOK_AD_04_0001"
        },
        {
            "name": "12348",
            "score": "0.998",
            "index": 5,
            "selectedWords": [
                "autre",
                "autre",
                "autre",
                "autre",
                "autre",
                "stimulante",
                "autre",
                "autre",
                "autre",
                "autre",
                "autre",
                "r\u00e9fl\u00e9chissante"
            ],
            "freeResponses": [],
            "nbPlayClick": 3,
            "expression": "NEUTRE",
            "csv_id": 12385,
            "video_name": "DIVERS_BOOK_AD_04_0001"
        },
        {
            "name": "8481",
            "score": "0.986",
            "index": 6,
            "selectedWords": [
                "autre",
                "dubitative",
                "autre",
                "atone"
            ],
            "freeResponses": [],
            "nbPlayClick": 2,
            "expression": "NEUTRE",
            "csv_id": 8515,
            "video_name": "DIVERS_BOOK_AD_03_0002"
        },
        {
            "name": "1635",
            "score": "0.898",
            "index": 7,
            "selectedWords": [
                "autre",
                "dubitative",
                "sceptique"
            ],
            "freeResponses": [],
            "nbPlayClick": 1,
            "expression": "PENSIF",
            "csv_id": 1635,
            "video_name": "DIVERS_PARL_PENSIF_AD_01_0002"
        },
        {
            "name": "11843",
            "score": "0.997",
            "index": 8,
            "selectedWords": [
                "afflig\u00e9e",
                "en peine"
            ],
            "freeResponses": [],
            "nbPlayClick": 2,
            "expression": "SUPPLIANT",
            "csv_id": 11880,
            "video_name": "DIVERS_PARL_SUPPLIANT_AD_02_0002"
        },
        {
            "name": "11070",
            "score": "0.994",
            "index": 9,
            "selectedWords": [
                "autre",
                "autre",
                "autre",
                "autre",
                "autre",
                "interloqu\u00e9e",
                "autre",
                "m\u00e9fiante"
            ],
            "freeResponses": [],
            "nbPlayClick": 3,
            "expression": "NEUTRE",
            "csv_id": 11104,
            "video_name": "DIVERS_BOOK_AD_04_0002"
        },
        {
            "name": "5045",
            "score": "0.966",
            "index": 10,
            "selectedWords": [
                "autre",
                "autre",
                "autre",
                "malicieuse",
                "narquoise"
            ],
            "freeResponses": [],
            "nbPlayClick": 1,
            "expression": "EVIDENCE",
            "csv_id": 5079,
            "video_name": "DIVERS_PARL_EVIDENCE_AD_01_0001"
        },
        {
            "name": "8058",
            "score": "0.984",
            "index": 11,
            "selectedWords": [
                "autre",
                "autre",
                "autre",
                "vivifiante",
                "autre",
                "autre",
                "d\u00e9cid\u00e9e"
            ],
            "freeResponses": [],
            "nbPlayClick": 3,
            "expression": "NEUTRE",
            "csv_id": 8092,
            "video_name": "DIVERS_PARL_AD_01_0002"
        },
        {
            "name": "5947",
            "score": "0.973",
            "index": 12,
            "selectedWords": [
                "neutre",
                "autre",
                "autre",
                "ennuy\u00e9e"
            ],
            "freeResponses": [],
            "nbPlayClick": 1,
            "expression": "NEUTRE",
            "csv_id": 5981,
            "video_name": "DIVERS_BOOK_AD_03_0001"
        },
        {
            "name": "10445",
            "score": "0.993",
            "index": 13,
            "selectedWords": [
                "\u00e9tonn\u00e9e",
                "autre",
                "\u00e9berlu\u00e9e"
            ],
            "freeResponses": [],
            "nbPlayClick": 3,
            "expression": "ETONNE",
            "csv_id": 10479,
            "video_name": "DIVERS_BOOK_ETONNE_AD_01_0004"
        },
        {
            "name": "5696",
            "score": "0.972",
            "index": 14,
            "selectedWords": [
                "autre",
                "autre",
                "autre",
                "autre",
                "autre",
                "autre",
                "m\u00e9fiante",
                "autre",
                "autre",
                "autre",
                "autre",
                "autre",
                "autre",
                "autre",
                "certaine"
            ],
            "freeResponses": [],
            "nbPlayClick": 3,
            "expression": "DESOLE",
            "csv_id": 5730,
            "video_name": "DIVERS_PARL_DESOLE_AD_01_0004"
        },
        {
            "name": "2870",
            "score": "0.935",
            "index": 15,
            "selectedWords": [
                "dubitative",
                "autre",
                "autre",
                "autre",
                "ennuy\u00e9e"
            ],
            "freeResponses": [],
            "nbPlayClick": 3,
            "response": "dub",
            "expression": "INCREDULE",
            "csv_id": 2870,
            "video_name": "DIVERS_PARL_INCREDULE_AD_01_0001"
        },
        {
            "name": "3491",
            "score": "0.947",
            "index": 16,
            "selectedWords": [
                "autre",
                "autre",
                "autre",
                "autre",
                "ennuy\u00e9e",
                "contrari\u00e9e",
                "emb\u00eat\u00e9e"
            ],
            "freeResponses": [],
            "nbPlayClick": 2,
            "expression": "EVIDENCE",
            "csv_id": 3491,
            "video_name": "DIVERS_PARL_EVIDENCE_AD_02_0002"
        },
        {
            "name": "4554",
            "score": "0.961",
            "index": 17,
            "selectedWords": [
                "autre",
                "autre",
                "autre",
                "malicieuse",
                "narquoise",
                "autre"
            ],
            "freeResponses": [],
            "nbPlayClick": 1,
            "expression": "ESPIEGLE",
            "csv_id": 4588,
            "video_name": "DIVERS_BOOK_ESPIEGLE_AD_03_0001"
        },
        {
            "name": "9619",
            "score": "0.990",
            "index": 18,
            "selectedWords": [
                "autre",
                "dubitative",
                "sceptique",
                "autre",
                "autre",
                "ennuy\u00e9e"
            ],
            "freeResponses": [],
            "nbPlayClick": 2,
            "expression": "PENSIF",
            "csv_id": 9653,
            "video_name": "DIVERS_PARL_PENSIF_AD_01_0002"
        },
        {
            "name": "7260",
            "score": "0.981",
            "index": 19,
            "selectedWords": [
                "neutre",
                "autre",
                "autre",
                "inexpressive",
                "autre"
            ],
            "freeResponses": [],
            "nbPlayClick": 2,
            "expression": "NEUTRE",
            "csv_id": 7294,
            "video_name": "DIVERS_PARL_AD_03_0004"
        },
        {
            "name": "1050",
            "score": "0.864",
            "index": 20,
            "selectedWords": [
                "autre",
                "dubitative",
                "autre",
                "autre",
                "autre",
                "maligne",
                "autre",
                "autre",
                "autre",
                "autre",
                "autre",
                "autre"
            ],
            "freeResponses": [],
            "nbPlayClick": 3,
            "expression": "INCREDULE",
            "csv_id": 1050,
            "video_name": "DIVERS_PARL_INCREDULE_AD_01_0001"
        },
        {
            "name": "12008",
            "score": "0.997",
            "index": 21,
            "selectedWords": [
                "autre",
                "autre",
                "autre",
                "neutre",
                "s\u00fbre"
            ],
            "freeResponses": [],
            "nbPlayClick": 2,
            "response": "neu",
            "expression": "NEUTRE",
            "csv_id": 12045,
            "video_name": "DIVERS_PARL_AD_03_0002"
        },
        {
            "name": "2081",
            "score": "0.914",
            "index": 22,
            "selectedWords": [
                "autre",
                "autre",
                "autre",
                "autre",
                "autre",
                "autre",
                "d\u00e9cid\u00e9e",
                "autre",
                "incontestable",
                "autre",
                "autre",
                "autre",
                "autre"
            ],
            "freeResponses": [],
            "nbPlayClick": 1,
            "expression": "DETERMINE",
            "csv_id": 2081,
            "video_name": "DIVERS_PARL_DETERMINE_AD_01_0002"
        },
        {
            "name": "4682",
            "score": "0.963",
            "index": 23,
            "selectedWords": [
                "\u00e9vidente",
                "ennuy\u00e9e"
            ],
            "freeResponses": [],
            "nbPlayClick": 1,
            "expression": "DESOLE",
            "csv_id": 4716,
            "video_name": "DIVERS_PARL_DESOLE_AD_01_0004"
        },
        {
            "name": "5346",
            "score": "0.969",
            "index": 24,
            "selectedWords": [
                "neutre",
                "autre",
                "autre",
                "inexpressive"
            ],
            "freeResponses": [],
            "nbPlayClick": 2,
            "expression": "NEUTRE",
            "csv_id": 5380,
            "video_name": "DIVERS_PARL_AD_01_0005"
        },
        {
            "name": "2941",
            "score": "0.937",
            "index": 25,
            "selectedWords": [
                "autre",
                "autre",
                "autre",
                "autre",
                "autre",
                "autre",
                "autre",
                "autre",
                "autre",
                "autre",
                "autre",
                "autre",
                "r\u00eaveuse",
                "autre",
                "autre",
                "autre",
                "autre",
                "\u00e9nergique",
                "autre",
                "autre",
                "autre"
            ],
            "freeResponses": [],
            "nbPlayClick": 4,
            "expression": "RECONFORTANT",
            "csv_id": 2941,
            "video_name": "DIVERS_BOOK_RECONFORTANT_AD_03_0002"
        },
        {
            "name": "1850",
            "score": "0.906",
            "index": 26,
            "selectedWords": [
                "ferme",
                "tonique",
                "officielle"
            ],
            "freeResponses": [],
            "nbPlayClick": 1,
            "response": "off",
            "expression": "NEUTRE",
            "csv_id": 1850,
            "video_name": "DIVERS_PARL_AD_03_0002"
        },
        {
            "name": "11501",
            "score": "0.996",
            "index": 27,
            "selectedWords": [
                "d\u00e9sol\u00e9e",
                "autre",
                "autre",
                "autre",
                "autre",
                "autre",
                "autre",
                "autre",
                "navr\u00e9e",
                "pein\u00e9e"
            ],
            "freeResponses": [],
            "nbPlayClick": 2,
            "expression": "SUPPLIANT",
            "csv_id": 11538,
            "video_name": "DIVERS_PARL_SUPPLIANT_AD_02_0001"
        },
        {
            "name": "964",
            "score": "0.858",
            "index": 28,
            "selectedWords": [
                "\u00e9tonn\u00e9e",
                "autre",
                "autre",
                "autre",
                "autre",
                "abasourdie",
                "interloqu\u00e9e"
            ],
            "freeResponses": [],
            "nbPlayClick": 1,
            "expression": "ETONNE",
            "csv_id": 964,
            "video_name": "DIVERS_BOOK_ETONNE_AD_01_0004"
        },
        {
            "name": "4645",
            "score": "0.962",
            "index": 29,
            "selectedWords": [
                "neutre",
                "autre",
                "autre",
                "autre",
                "autre",
                "autre",
                "ferme"
            ],
            "freeResponses": [],
            "nbPlayClick": 2,
            "expression": "NEUTRE",
            "csv_id": 4679,
            "video_name": "DIVERS_PARL_AD_05_0004"
        },
        {
            "name": "4510",
            "score": "0.961",
            "index": 30,
            "selectedWords": [
                "autre",
                "autre",
                "autre",
                "autre",
                "ennuy\u00e9e",
                "autre",
                "autre",
                "autre",
                "autre",
                "autre",
                "autre",
                "autre",
                "m\u00e9contente"
            ],
            "freeResponses": [],
            "nbPlayClick": 3,
            "expression": "EVIDENCE",
            "csv_id": 4544,
            "video_name": "DIVERS_PARL_EVIDENCE_AD_02_0002"
        },
        {
            "name": "2436",
            "score": "0.925",
            "index": 31,
            "selectedWords": [
                "neutre",
                "s\u00fbre",
                "manifeste"
            ],
            "freeResponses": [],
            "nbPlayClick": 2,
            "expression": "NEUTRE",
            "csv_id": 2436,
            "video_name": "DIVERS_PARL_AD_04_0001"
        },
        {
            "name": "10717",
            "score": "0.994",
            "index": 32,
            "selectedWords": [
                "d\u00e9sol\u00e9e",
                "autre",
                "autre",
                "autre",
                "priante",
                "autre",
                "attrist\u00e9e",
                "contrari\u00e9e"
            ],
            "freeResponses": [],
            "nbPlayClick": 1,
            "expression": "SUPPLIANT",
            "csv_id": 10751,
            "video_name": "DIVERS_BOOK_SUPPLIANT_AD_01_0002"
        },
        {
            "name": "10795",
            "score": "0.994",
            "index": 33,
            "selectedWords": [
                "\u00e9tonn\u00e9e",
                "autre",
                "autre",
                "autre",
                "autre",
                "autre",
                "stup\u00e9faite",
                "interloqu\u00e9e"
            ],
            "freeResponses": [],
            "nbPlayClick": 2,
            "expression": "ETONNE",
            "csv_id": 10829,
            "video_name": "DIVERS_BOOK_ETONNE_AD_03_0001"
        },
        {
            "name": "10931",
            "score": "0.994",
            "index": 34,
            "selectedWords": [
                "\u00e9vidente",
                "autre",
                "autre",
                "autre",
                "autre",
                "autre",
                "autre",
                "autre",
                "autre",
                "m\u00e9contente"
            ],
            "freeResponses": [],
            "nbPlayClick": 2,
            "expression": "NEUTRE",
            "csv_id": 10965,
            "video_name": "DIVERS_PARL_AD_02_0002"
        },
        {
            "name": "4550",
            "score": "0.961",
            "index": 35,
            "selectedWords": [
                "d\u00e9termin\u00e9e",
                "r\u00e9fl\u00e9chie",
                "autre",
                "autre",
                "autre"
            ],
            "freeResponses": [],
            "nbPlayClick": 3,
            "expression": "DESOLE",
            "csv_id": 4584,
            "video_name": "DIVERS_PARL_DESOLE_AD_01_0004"
        },
        {
            "name": "2897",
            "score": "0.936",
            "index": 36,
            "selectedWords": [
                "enthousiaste",
                "tonique",
                "transport\u00e9e"
            ],
            "freeResponses": [],
            "nbPlayClick": 2,
            "expression": "ENTHOUSIASTE",
            "csv_id": 2897,
            "video_name": "DIVERS_BOOK_ENTHOUSIASTE_AD_01_0001"
        },
        {
            "name": "10071",
            "score": "0.992",
            "index": 37,
            "selectedWords": [
                "autre",
                "autre",
                "autre",
                "autre",
                "autre",
                "autre",
                "d\u00e9cid\u00e9e",
                "s\u00fbre",
                "limpide"
            ],
            "freeResponses": [],
            "nbPlayClick": 3,
            "response": "",
            "expression": "NEUTRE",
            "csv_id": 10105,
            "video_name": "DIVERS_PARL_AD_03_0001"
        },
        {
            "name": "9680",
            "score": "0.991",
            "index": 38,
            "selectedWords": [
                "\u00e9vidente",
                "autre",
                "autre",
                "autre",
                "autre",
                "autre",
                "autre",
                "autre",
                "autre",
                "autre",
                "d\u00e9cid\u00e9e"
            ],
            "freeResponses": [],
            "nbPlayClick": 1,
            "expression": "NEUTRE",
            "csv_id": 9714,
            "video_name": "DIVERS_PARL_AD_04_0003"
        },
        {
            "name": "7545",
            "score": "0.982",
            "index": 39,
            "selectedWords": [
                "\u00e9vidente",
                "autre",
                "autre",
                "autre",
                "autre",
                "autre",
                "autre",
                "autre",
                "autre",
                "autre",
                "autre",
                "autre",
                "autre",
                "autre",
                "autre",
                "autre",
                "intuitive"
            ],
            "freeResponses": [],
            "nbPlayClick": 2,
            "expression": "DETERMINE",
            "csv_id": 7579,
            "video_name": "DIVERS_PARL_DETERMINE_AD_01_0002"
        },
        {
            "name": "6717",
            "score": "0.978",
            "index": 40,
            "selectedWords": [
                "neutre",
                "officielle"
            ],
            "freeResponses": [],
            "nbPlayClick": 1,
            "response": "off",
            "expression": "NEUTRE",
            "csv_id": 6751,
            "video_name": "DIVERS_PARL_AD_04_0003"
        },
        {
            "name": "9857",
            "score": "0.991",
            "index": 41,
            "selectedWords": [
                "autre",
                "autre",
                "autre",
                "autre",
                "autre",
                "autre",
                "autre",
                "autre",
                "autre",
                "autre",
                "officielle",
                "autre",
                "autre",
                "r\u00e9solue",
                "r\u00e9fl\u00e9chie"
            ],
            "freeResponses": [],
            "nbPlayClick": 2,
            "expression": "NEUTRE",
            "csv_id": 9891,
            "video_name": "DIVERS_PARL_AD_03_0003"
        },
        {
            "name": "11808",
            "score": "0.996",
            "index": 42,
            "selectedWords": [
                "narquoise",
                "irrit\u00e9e",
                "autre"
            ],
            "freeResponses": [],
            "nbPlayClick": 1,
            "response": "",
            "expression": "COLERE",
            "csv_id": 11845,
            "video_name": "DIVERS_PARL_COLERE_AD_01_0004"
        },
        {
            "name": "10512",
            "score": "0.993",
            "index": 43,
            "selectedWords": [
                "coquine",
                "malicieuse"
            ],
            "freeResponses": [],
            "nbPlayClick": 1,
            "response": "coq",
            "expression": "ESPIEGLE",
            "csv_id": 10546,
            "video_name": "DIVERS_BOOK_ESPIEGLE_AD_03_0001"
        },
        {
            "name": "3941",
            "score": "0.953",
            "index": 44,
            "selectedWords": [
                "euphorique",
                "excit\u00e9e",
                "autre"
            ],
            "freeResponses": [],
            "nbPlayClick": 2,
            "expression": "ENTHOUSIASTE",
            "csv_id": 3941,
            "video_name": "ESTYLE_ENTHOUSIASTE_AD_02_0001"
        },
        {
            "name": "7183",
            "score": "0.980",
            "index": 45,
            "selectedWords": [
                "d\u00e9sol\u00e9e",
                "autre",
                "d\u00e9courag\u00e9e"
            ],
            "freeResponses": [],
            "nbPlayClick": 1,
            "expression": "DESOLE",
            "csv_id": 7217,
            "video_name": "DIVERS_PARL_DESOLE_AD_01_0004"
        },
        {
            "name": "8391",
            "score": "0.986",
            "index": 46,
            "selectedWords": [
                "en col\u00e8re",
                "irrit\u00e9e",
                "m\u00e9contente"
            ],
            "freeResponses": [],
            "nbPlayClick": 1,
            "expression": "COLERE",
            "csv_id": 8425,
            "video_name": "DIVERS_PARL_COLERE_AD_02_0002"
        },
        {
            "name": "9657",
            "score": "0.990",
            "index": 47,
            "selectedWords": [
                "d\u00e9sol\u00e9e",
                "autre",
                "implorante"
            ],
            "freeResponses": [],
            "nbPlayClick": 1,
            "expression": "SUPPLIANT",
            "csv_id": 9691,
            "video_name": "DIVERS_PARL_SUPPLIANT_AD_02_0002"
        },
        {
            "name": "8896",
            "score": "0.988",
            "index": 48,
            "selectedWords": [
                "r\u00e9confortante",
                "autre",
                "autre",
                "autre",
                "autre",
                "d\u00e9cid\u00e9e",
                "s\u00fbre"
            ],
            "freeResponses": [],
            "nbPlayClick": 2,
            "expression": "SUPPLIANT",
            "csv_id": 8930,
            "video_name": "DIVERS_PARL_SUPPLIANT_AD_02_0002"
        },
        {
            "name": "6273",
            "score": "0.976",
            "index": 49,
            "selectedWords": [
                "autre",
                "autre",
                "apaisante",
                "autre",
                "autre",
                "autre",
                "autre",
                "autre",
                "autre",
                "autre",
                "r\u00e9solue"
            ],
            "freeResponses": [],
            "nbPlayClick": 2,
            "expression": "RECONFORTANT",
            "csv_id": 6307,
            "video_name": "DIVERS_BOOK_RECONFORTANT_AD_01_0002"
        },
        {
            "name": "1182",
            "score": "0.874",
            "index": 50,
            "selectedWords": [
                "autre",
                "autre",
                "autre",
                "autre",
                "ennuy\u00e9e",
                "d\u00e9pit\u00e9e"
            ],
            "freeResponses": [],
            "nbPlayClick": 1,
            "expression": "EVIDENCE",
            "csv_id": 1182,
            "video_name": "DIVERS_PARL_EVIDENCE_AD_02_0002"
        },
        {
            "name": "10787",
            "score": "0.994",
            "index": 51,
            "selectedWords": [
                "s\u00fbre",
                "r\u00e9fl\u00e9chie",
                "manifeste"
            ],
            "freeResponses": [],
            "nbPlayClick": 1,
            "expression": "NEUTRE",
            "csv_id": 10821,
            "video_name": "DIVERS_PARL_AD_01_0002"
        },
        {
            "name": "2494",
            "score": "0.926",
            "index": 52,
            "selectedWords": [
                "\u00e9vidente",
                "autre",
                "autre",
                "autre",
                "autre",
                "autre",
                "consolatrice",
                "autre",
                "autre",
                "autre",
                "navr\u00e9e"
            ],
            "freeResponses": [],
            "nbPlayClick": 1,
            "expression": "RECONFORTANT",
            "csv_id": 2494,
            "video_name": "DIVERS_PARL_RECONFORTANT_AD_02_0001"
        },
        {
            "name": "8480",
            "score": "0.986",
            "index": 53,
            "selectedWords": [
                "neutre",
                "tonique"
            ],
            "freeResponses": [],
            "nbPlayClick": 1,
            "expression": "NEUTRE",
            "csv_id": 8514,
            "video_name": "DIVERS_PARL_AD_06_0002"
        },
        {
            "name": "11938",
            "score": "0.997",
            "index": 54,
            "selectedWords": [
                "autre",
                "dubitative",
                "autre",
                "autre",
                "autre",
                "autre",
                "r\u00e9fl\u00e9chissante"
            ],
            "freeResponses": [],
            "nbPlayClick": 2,
            "expression": "NEUTRE",
            "csv_id": 11975,
            "video_name": "DIVERS_PARL_AD_02_0003"
        },
        {
            "name": "12366",
            "score": "0.999",
            "index": 55,
            "selectedWords": [
                "autre",
                "autre",
                "autre",
                "autre",
                "autre",
                "autre",
                "autre",
                "autre",
                "pensante",
                "autre",
                "autre",
                "autre",
                "r\u00eaveuse",
                "autre"
            ],
            "freeResponses": [],
            "nbPlayClick": 2,
            "expression": "PENSIF",
            "csv_id": 12403,
            "video_name": "DIVERS_PARL_PENSIF_AD_01_0002"
        },
        {
            "name": "11883",
            "score": "0.997",
            "index": 56,
            "selectedWords": [
                "autre",
                "dubitative",
                "m\u00e9fiante",
                "autre",
                "autre"
            ],
            "freeResponses": [],
            "nbPlayClick": 2,
            "expression": "NEUTRE",
            "csv_id": 11920,
            "video_name": "DIVERS_PARL_AD_02_0001"
        },
        {
            "name": "282",
            "score": "0.757",
            "index": 57,
            "selectedWords": [
                "suppliante",
                "autre",
                "autre",
                "autre",
                "autre",
                "ennuy\u00e9e"
            ],
            "freeResponses": [],
            "nbPlayClick": 1,
            "expression": "EVIDENCE",
            "csv_id": 282,
            "video_name": "DIVERS_PARL_EVIDENCE_AD_02_0002"
        },
        {
            "name": "8062",
            "score": "0.984",
            "index": 58,
            "selectedWords": [
                "autre",
                "autre",
                "autre",
                "autre",
                "autre",
                "autre",
                "autre",
                "autre",
                "autre",
                "autre",
                "autre",
                "autre",
                "certaine",
                "autre",
                "autre",
                "autre",
                "convaincue"
            ],
            "freeResponses": [],
            "nbPlayClick": 3,
            "expression": "DETERMINE",
            "csv_id": 8096,
            "video_name": "DIVERS_PARL_DETERMINE_AD_01_0002"
        },
        {
            "name": "9861",
            "score": "0.991",
            "index": 59,
            "selectedWords": [
                "\u00e9vidente",
                "autre",
                "autre",
                "autre",
                "autre",
                "autre",
                "autre",
                "autre",
                "autre",
                "autre",
                "d\u00e9cid\u00e9e"
            ],
            "freeResponses": [],
            "nbPlayClick": 3,
            "expression": "NEUTRE",
            "csv_id": 9895,
            "video_name": "DIVERS_PARL_AD_05_0003"
        }
    ],
    "training": [
        {
            "name": "77",
            "score": "0.639",
            "index": 0,
            "selectedWords": [
                "neutre",
                "tonique"
            ],
            "freeResponses": [],
            "nbPlayClick": 2,
            "expression": "NEUTRE"
        }
    ],
    "filenameDate": "2023-09-07_17-33"
}