{
    "user": {
        "isProlific": true,
        "id": "6115892e44c1cdef81dc4902",
        "session": "64f0360b5c5c1c855b8b03ee",
        "study": "64ef977375f88e4e1174dce0"
    },
    "userAgent": "Mozilla/5.0 (Windows NT 10.0; Win64; x64) AppleWebKit/537.36 (KHTML, like Gecko) Chrome/116.0.0.0 Safari/537.36",
    "landingDate": "2023-08-31T06:41:28.025Z",
    "startDate": "2023-08-31T06:42:33.457Z",
    "endDate": "2023-08-31T07:02:41.980Z",
    "reviews": [
        {
            "name": "5551",
            "score": "0.970",
            "index": 0,
            "selectedWords": [
                "d\u00e9termin\u00e9e",
                "r\u00e9fl\u00e9chie"
            ],
            "freeResponses": [],
            "nbPlayClick": 1,
            "expression": "NEUTRE",
            "csv_id": 5585,
            "video_name": "DIVERS_PARL_AD_01_0004"
        },
        {
            "name": "8036",
            "score": "0.984",
            "index": 1,
            "selectedWords": [
                "autre",
                "dubitative"
            ],
            "freeResponses": [
                "agac\u00e9e"
            ],
            "nbPlayClick": 2,
            "response": "agac\u00e9e",
            "expression": "NEUTRE",
            "csv_id": 8070,
            "video_name": "DIVERS_PARL_AD_06_0003"
        },
        {
            "name": "6323",
            "score": "0.976",
            "index": 2,
            "selectedWords": [
                "\u00e9vidente",
                "manifeste"
            ],
            "freeResponses": [],
            "nbPlayClick": 1,
            "expression": "NEUTRE",
            "csv_id": 6357,
            "video_name": "DIVERS_PARL_AD_01_0004"
        },
        {
            "name": "10994",
            "score": "0.994",
            "index": 3,
            "selectedWords": [
                "\u00e9tonn\u00e9e",
                "absente"
            ],
            "freeResponses": [],
            "nbPlayClick": 1,
            "expression": "NEUTRE",
            "csv_id": 11028,
            "video_name": "DIVERS_PARL_AD_03_0004"
        },
        {
            "name": "4556",
            "score": "0.961",
            "index": 4,
            "selectedWords": [
                "suppliante",
                "implorante"
            ],
            "freeResponses": [],
            "nbPlayClick": 1,
            "expression": "SUPPLIANT",
            "csv_id": 4590,
            "video_name": "DIVERS_PARL_SUPPLIANT_AD_02_0002"
        },
        {
            "name": "6240",
            "score": "0.975",
            "index": 5,
            "selectedWords": [
                "suppliante",
                "autre"
            ],
            "freeResponses": [
                "lass\u00e9e"
            ],
            "nbPlayClick": 2,
            "response": "lass\u00e9e",
            "expression": "RECONFORTANT",
            "csv_id": 6274,
            "video_name": "DIVERS_PARL_RECONFORTANT_AD_02_0001"
        },
        {
            "name": "7399",
            "score": "0.981",
            "index": 6,
            "selectedWords": [
                "incr\u00e9dule",
                "m\u00e9fiante"
            ],
            "freeResponses": [],
            "nbPlayClick": 1,
            "expression": "NEUTRE",
            "csv_id": 7433,
            "video_name": "DIVERS_PARL_AD_01_0005"
        },
        {
            "name": "9556",
            "score": "0.990",
            "index": 7,
            "selectedWords": [
                "neutre",
                "certaine"
            ],
            "freeResponses": [],
            "nbPlayClick": 1,
            "expression": "NEUTRE",
            "csv_id": 9590,
            "video_name": "DIVERS_PARL_AD_01_0002"
        },
        {
            "name": "4934",
            "score": "0.965",
            "index": 8,
            "selectedWords": [
                "enthousiaste",
                "tonique"
            ],
            "freeResponses": [],
            "nbPlayClick": 1,
            "expression": "RECONFORTANT",
            "csv_id": 4968,
            "video_name": "DIVERS_PARL_RECONFORTANT_AD_02_0001"
        },
        {
            "name": "5400",
            "score": "0.969",
            "index": 9,
            "selectedWords": [
                "incr\u00e9dule",
                "autre",
                "imp\u00e9n\u00e9trable"
            ],
            "freeResponses": [],
            "nbPlayClick": 1,
            "expression": "NEUTRE",
            "csv_id": 5434,
            "video_name": "DIVERS_PARL_AD_04_0001"
        },
        {
            "name": "8304",
            "score": "0.985",
            "index": 10,
            "selectedWords": [
                "d\u00e9sol\u00e9e",
                "transport\u00e9e",
                "pr\u00e9occup\u00e9e"
            ],
            "freeResponses": [],
            "nbPlayClick": 1,
            "expression": "SUPPLIANT",
            "csv_id": 8338,
            "video_name": "DIVERS_BOOK_SUPPLIANT_AD_01_0004"
        },
        {
            "name": "10333",
            "score": "0.993",
            "index": 11,
            "selectedWords": [
                "neutre",
                "autre",
                "dubitative"
            ],
            "freeResponses": [],
            "nbPlayClick": 2,
            "expression": "NEUTRE",
            "csv_id": 10367,
            "video_name": "DIVERS_PARL_AD_03_0002"
        },
        {
            "name": "3824",
            "score": "0.951",
            "index": 12,
            "selectedWords": [
                "espi\u00e8gle",
                "narquoise"
            ],
            "freeResponses": [],
            "nbPlayClick": 1,
            "expression": "EVIDENCE",
            "csv_id": 3824,
            "video_name": "DIVERS_PARL_EVIDENCE_AD_01_0001"
        },
        {
            "name": "4960",
            "score": "0.965",
            "index": 13,
            "selectedWords": [
                "r\u00e9confortante",
                "encourageante"
            ],
            "freeResponses": [],
            "nbPlayClick": 1,
            "expression": "SUPPLIANT",
            "csv_id": 4994,
            "video_name": "DIVERS_PARL_SUPPLIANT_AD_02_0001"
        },
        {
            "name": "7289",
            "score": "0.981",
            "index": 14,
            "selectedWords": [
                "d\u00e9sol\u00e9e",
                "absente",
                "afflig\u00e9e"
            ],
            "freeResponses": [],
            "nbPlayClick": 1,
            "expression": "DESOLE",
            "csv_id": 7323,
            "video_name": "DIVERS_PARL_DESOLE_AD_02_0002"
        },
        {
            "name": "1794",
            "score": "0.905",
            "index": 15,
            "selectedWords": [
                "en col\u00e8re",
                "neutre"
            ],
            "freeResponses": [],
            "nbPlayClick": 1,
            "response": "neut",
            "expression": "NEUTRE",
            "csv_id": 1794,
            "video_name": "DIVERS_PARL_AD_05_0001"
        },
        {
            "name": "242",
            "score": "0.743",
            "index": 16,
            "selectedWords": [
                "espi\u00e8gle",
                "neutre"
            ],
            "freeResponses": [],
            "nbPlayClick": 1,
            "response": "neu",
            "expression": "RECONFORTANT",
            "csv_id": 242,
            "video_name": "DIVERS_BOOK_RECONFORTANT_AD_01_0002"
        },
        {
            "name": "10412",
            "score": "0.993",
            "index": 17,
            "selectedWords": [
                "incr\u00e9dule"
            ],
            "freeResponses": [
                "lass\u00e9e"
            ],
            "nbPlayClick": 1,
            "response": "lass\u00e9e",
            "expression": "NEUTRE",
            "csv_id": 10446,
            "video_name": "DIVERS_BOOK_AD_03_0001"
        },
        {
            "name": "2964",
            "score": "0.938",
            "index": 18,
            "selectedWords": [
                "en col\u00e8re",
                "en rage",
                "f\u00e2ch\u00e9e"
            ],
            "freeResponses": [],
            "nbPlayClick": 1,
            "expression": "DETERMINE",
            "csv_id": 2964,
            "video_name": "DIVERS_BOOK_DETERMINE_AD_03_0001"
        },
        {
            "name": "9672",
            "score": "0.991",
            "index": 19,
            "selectedWords": [
                "\u00e9tonn\u00e9e",
                "autre",
                "dubitative"
            ],
            "freeResponses": [],
            "nbPlayClick": 1,
            "expression": "ETONNE",
            "csv_id": 9706,
            "video_name": "DIVERS_PARL_ETONNE_AD_01_0001"
        },
        {
            "name": "6253",
            "score": "0.975",
            "index": 20,
            "selectedWords": [
                "en col\u00e8re",
                "irrit\u00e9e",
                "m\u00e9contente"
            ],
            "freeResponses": [],
            "nbPlayClick": 1,
            "expression": "NEUTRE",
            "csv_id": 6287,
            "video_name": "DIVERS_PARL_AD_04_0001"
        },
        {
            "name": "1287",
            "score": "0.881",
            "index": 21,
            "selectedWords": [
                "irrit\u00e9e",
                "autre",
                "dubitative"
            ],
            "freeResponses": [],
            "nbPlayClick": 1,
            "response": "ir",
            "expression": "INCREDULE",
            "csv_id": 1287,
            "video_name": "DIVERS_PARL_INCREDULE_AD_02_0003"
        },
        {
            "name": "7041",
            "score": "0.980",
            "index": 22,
            "selectedWords": [
                "autre",
                "dubitative",
                "sceptique"
            ],
            "freeResponses": [],
            "nbPlayClick": 1,
            "expression": "DESOLE",
            "csv_id": 7075,
            "video_name": "DIVERS_BOOK_DESOLE_AD_03_0002"
        },
        {
            "name": "11433",
            "score": "0.995",
            "index": 23,
            "selectedWords": [
                "neutre",
                "certaine"
            ],
            "freeResponses": [],
            "nbPlayClick": 1,
            "expression": "NEUTRE",
            "csv_id": 11470,
            "video_name": "DIVERS_PARL_AD_04_0001"
        },
        {
            "name": "7684",
            "score": "0.983",
            "index": 24,
            "selectedWords": [
                "neutre",
                "limpide"
            ],
            "freeResponses": [],
            "nbPlayClick": 1,
            "expression": "NEUTRE",
            "csv_id": 7718,
            "video_name": "DIVERS_BOOK_AD_04_0002"
        },
        {
            "name": "5636",
            "score": "0.971",
            "index": 25,
            "selectedWords": [
                "suppliante",
                "implorante"
            ],
            "freeResponses": [],
            "nbPlayClick": 1,
            "expression": "SUPPLIANT",
            "csv_id": 5670,
            "video_name": "DIVERS_PARL_SUPPLIANT_AD_02_0001"
        },
        {
            "name": "8966",
            "score": "0.988",
            "index": 26,
            "selectedWords": [
                "neutre",
                "autre",
                "pensive"
            ],
            "freeResponses": [],
            "nbPlayClick": 1,
            "response": "pe",
            "expression": "NEUTRE",
            "csv_id": 9000,
            "video_name": "DIVERS_BOOK_AD_01_0002"
        },
        {
            "name": "2950",
            "score": "0.937",
            "index": 27,
            "selectedWords": [
                "enthousiaste",
                "euphorique"
            ],
            "freeResponses": [],
            "nbPlayClick": 1,
            "expression": "RECONFORTANT",
            "csv_id": 2950,
            "video_name": "DIVERS_BOOK_RECONFORTANT_AD_03_0002"
        },
        {
            "name": "9368",
            "score": "0.990",
            "index": 28,
            "selectedWords": [
                "espi\u00e8gle",
                "malicieuse",
                "euphorique"
            ],
            "freeResponses": [],
            "nbPlayClick": 1,
            "response": "euph",
            "expression": "ESPIEGLE",
            "csv_id": 9402,
            "video_name": "DIVERS_BOOK_ESPIEGLE_AD_03_0001"
        },
        {
            "name": "7466",
            "score": "0.982",
            "index": 29,
            "selectedWords": [
                "en col\u00e8re",
                "irrit\u00e9e"
            ],
            "freeResponses": [],
            "nbPlayClick": 1,
            "expression": "NEUTRE",
            "csv_id": 7500,
            "video_name": "DIVERS_BOOK_AD_01_0001"
        },
        {
            "name": "7810",
            "score": "0.983",
            "index": 30,
            "selectedWords": [
                "neutre",
                "irrit\u00e9e"
            ],
            "freeResponses": [],
            "nbPlayClick": 1,
            "response": "ir",
            "expression": "NEUTRE",
            "csv_id": 7844,
            "video_name": "DIVERS_PARL_AD_02_0003"
        },
        {
            "name": "9777",
            "score": "0.991",
            "index": 31,
            "selectedWords": [
                "enthousiaste",
                "tonique"
            ],
            "freeResponses": [],
            "nbPlayClick": 1,
            "expression": "ENTHOUSIASTE",
            "csv_id": 9811,
            "video_name": "DIVERS_PARL_ENTHOUSIASTE_AD_02_0001"
        },
        {
            "name": "4829",
            "score": "0.964",
            "index": 32,
            "selectedWords": [
                "espi\u00e8gle",
                "malicieuse"
            ],
            "freeResponses": [],
            "nbPlayClick": 1,
            "expression": "NEUTRE",
            "csv_id": 4863,
            "video_name": "DIVERS_BOOK_AD_01_0002"
        },
        {
            "name": "7142",
            "score": "0.980",
            "index": 33,
            "selectedWords": [
                "neutre",
                "limpide"
            ],
            "freeResponses": [],
            "nbPlayClick": 1,
            "expression": "NEUTRE",
            "csv_id": 7176,
            "video_name": "DIVERS_BOOK_AD_04_0001"
        },
        {
            "name": "11075",
            "score": "0.995",
            "index": 34,
            "selectedWords": [
                "pensive",
                "r\u00e9fl\u00e9chissante"
            ],
            "freeResponses": [],
            "nbPlayClick": 1,
            "expression": "PENSIF",
            "csv_id": 11109,
            "video_name": "DIVERS_BOOK_PENSIF_AD_01_0003"
        },
        {
            "name": "10223",
            "score": "0.992",
            "index": 35,
            "selectedWords": [
                "neutre",
                "certaine"
            ],
            "freeResponses": [],
            "nbPlayClick": 1,
            "expression": "NEUTRE",
            "csv_id": 10257,
            "video_name": "DIVERS_PARL_AD_03_0002"
        },
        {
            "name": "549",
            "score": "0.812",
            "index": 36,
            "selectedWords": [
                "d\u00e9sol\u00e9e",
                "absente"
            ],
            "freeResponses": [],
            "nbPlayClick": 1,
            "expression": "DESOLE",
            "csv_id": 549,
            "video_name": "DIVERS_BOOK_DESOLE_AD_03_0002"
        },
        {
            "name": "5600",
            "score": "0.971",
            "index": 37,
            "selectedWords": [
                "d\u00e9sol\u00e9e",
                "transport\u00e9e"
            ],
            "freeResponses": [],
            "nbPlayClick": 1,
            "expression": "SUPPLIANT",
            "csv_id": 5634,
            "video_name": "DIVERS_BOOK_SUPPLIANT_AD_01_0002"
        },
        {
            "name": "1717",
            "score": "0.901",
            "index": 38,
            "selectedWords": [
                "d\u00e9termin\u00e9e",
                "r\u00e9solue"
            ],
            "freeResponses": [],
            "nbPlayClick": 1,
            "expression": "NEUTRE",
            "csv_id": 1717,
            "video_name": "DIVERS_PARL_AD_05_0002"
        },
        {
            "name": "459",
            "score": "0.797",
            "index": 39,
            "selectedWords": [
                "\u00e9vidente",
                "enthousiaste"
            ],
            "freeResponses": [],
            "nbPlayClick": 1,
            "response": "enth",
            "expression": "RECONFORTANT",
            "csv_id": 459,
            "video_name": "DIVERS_BOOK_RECONFORTANT_AD_01_0002"
        },
        {
            "name": "5381",
            "score": "0.969",
            "index": 40,
            "selectedWords": [
                "d\u00e9sol\u00e9e",
                "r\u00e9confortante"
            ],
            "freeResponses": [],
            "nbPlayClick": 1,
            "response": "r\u00e9c",
            "expression": "RECONFORTANT",
            "csv_id": 5415,
            "video_name": "DIVERS_PARL_RECONFORTANT_AD_02_0001"
        },
        {
            "name": "3156",
            "score": "0.941",
            "index": 41,
            "selectedWords": [
                "d\u00e9termin\u00e9e",
                "manifeste"
            ],
            "freeResponses": [],
            "nbPlayClick": 1,
            "expression": "NEUTRE",
            "csv_id": 3156,
            "video_name": "DIVERS_PARL_AD_01_0001"
        },
        {
            "name": "9315",
            "score": "0.989",
            "index": 42,
            "selectedWords": [
                "neutre",
                "s\u00fbre",
                "manifeste"
            ],
            "freeResponses": [],
            "nbPlayClick": 1,
            "expression": "NEUTRE",
            "csv_id": 9349,
            "video_name": "DIVERS_PARL_AD_05_0004"
        },
        {
            "name": "11997",
            "score": "0.997",
            "index": 43,
            "selectedWords": [
                "pensive",
                "r\u00eaveuse"
            ],
            "freeResponses": [],
            "nbPlayClick": 1,
            "expression": "PENSIF",
            "csv_id": 12034,
            "video_name": "DIVERS_BOOK_PENSIF_AD_03_0002"
        },
        {
            "name": "4699",
            "score": "0.963",
            "index": 44,
            "selectedWords": [
                "enthousiaste",
                "autre",
                "songeuse"
            ],
            "freeResponses": [],
            "nbPlayClick": 1,
            "expression": "NEUTRE",
            "csv_id": 4733,
            "video_name": "DIVERS_PARL_AD_02_0002"
        },
        {
            "name": "9952",
            "score": "0.991",
            "index": 45,
            "selectedWords": [
                "neutre",
                "s\u00fbre",
                "nette"
            ],
            "freeResponses": [],
            "nbPlayClick": 1,
            "expression": "NEUTRE",
            "csv_id": 9986,
            "video_name": "DIVERS_PARL_AD_05_0004"
        },
        {
            "name": "10953",
            "score": "0.994",
            "index": 46,
            "selectedWords": [
                "pensive",
                "r\u00e9fl\u00e9chissante"
            ],
            "freeResponses": [],
            "nbPlayClick": 1,
            "expression": "PENSIF",
            "csv_id": 10987,
            "video_name": "DIVERS_PARL_PENSIF_AD_01_0002"
        },
        {
            "name": "11468",
            "score": "0.996",
            "index": 47,
            "selectedWords": [
                "neutre",
                "s\u00fbre"
            ],
            "freeResponses": [],
            "nbPlayClick": 1,
            "expression": "NEUTRE",
            "csv_id": 11505,
            "video_name": "DIVERS_PARL_AD_04_0002"
        },
        {
            "name": "9397",
            "score": "0.990",
            "index": 48,
            "selectedWords": [
                "r\u00e9confortante",
                "consolatrice"
            ],
            "freeResponses": [],
            "nbPlayClick": 1,
            "expression": "RECONFORTANT",
            "csv_id": 9431,
            "video_name": "DIVERS_BOOK_RECONFORTANT_AD_01_0004"
        },
        {
            "name": "12317",
            "score": "0.998",
            "index": 49,
            "selectedWords": [
                "neutre",
                "limpide"
            ],
            "freeResponses": [],
            "nbPlayClick": 1,
            "expression": "NEUTRE",
            "csv_id": 12354,
            "video_name": "DIVERS_BOOK_AD_04_0001"
        },
        {
            "name": "8910",
            "score": "0.988",
            "index": 50,
            "selectedWords": [
                "\u00e9vidente",
                "irr\u00e9cusable"
            ],
            "freeResponses": [],
            "nbPlayClick": 1,
            "expression": "DESOLE",
            "csv_id": 8944,
            "video_name": "DIVERS_PARL_DESOLE_AD_02_0002"
        },
        {
            "name": "6973",
            "score": "0.979",
            "index": 51,
            "selectedWords": [
                "en col\u00e8re",
                "irrit\u00e9e",
                "m\u00e9contente"
            ],
            "freeResponses": [],
            "nbPlayClick": 1,
            "expression": "COLERE",
            "csv_id": 7007,
            "video_name": "DIVERS_PARL_COLERE_AD_01_0003"
        },
        {
            "name": "5121",
            "score": "0.967",
            "index": 52,
            "selectedWords": [
                "neutre"
            ],
            "freeResponses": [
                "enjou\u00e9"
            ],
            "nbPlayClick": 1,
            "response": "enjou\u00e9",
            "expression": "NEUTRE",
            "csv_id": 5155,
            "video_name": "DIVERS_PARL_AD_01_0002"
        },
        {
            "name": "9260",
            "score": "0.989",
            "index": 53,
            "selectedWords": [
                "neutre",
                "certaine"
            ],
            "freeResponses": [],
            "nbPlayClick": 1,
            "expression": "NEUTRE",
            "csv_id": 9294,
            "video_name": "DIVERS_PARL_AD_03_0002"
        },
        {
            "name": "10587",
            "score": "0.993",
            "index": 54,
            "selectedWords": [
                "r\u00e9confortante",
                "encourageante"
            ],
            "freeResponses": [],
            "nbPlayClick": 1,
            "expression": "NEUTRE",
            "csv_id": 10621,
            "video_name": "DIVERS_PARL_AD_05_0004"
        },
        {
            "name": "2695",
            "score": "0.932",
            "index": 55,
            "selectedWords": [
                "neutre",
                "tonique",
                "\u00e9loquente"
            ],
            "freeResponses": [],
            "nbPlayClick": 1,
            "expression": "NEUTRE",
            "csv_id": 2695,
            "video_name": "DIVERS_PARL_AD_06_0001"
        },
        {
            "name": "11584",
            "score": "0.996",
            "index": 56,
            "selectedWords": [
                "neutre",
                "s\u00fbre"
            ],
            "freeResponses": [],
            "nbPlayClick": 1,
            "expression": "NEUTRE",
            "csv_id": 11621,
            "video_name": "DIVERS_BOOK_AD_01_0002"
        },
        {
            "name": "8890",
            "score": "0.988",
            "index": 57,
            "selectedWords": [
                "en col\u00e8re",
                "en rogne",
                "enrag\u00e9e",
                "indign\u00e9e"
            ],
            "freeResponses": [],
            "nbPlayClick": 1,
            "expression": "COLERE",
            "csv_id": 8924,
            "video_name": "DIVERS_PARL_COLERE_AD_02_0002"
        },
        {
            "name": "8303",
            "score": "0.985",
            "index": 58,
            "selectedWords": [
                "enthousiaste",
                "euphorique"
            ],
            "freeResponses": [],
            "nbPlayClick": 1,
            "expression": "ENTHOUSIASTE",
            "csv_id": 8337,
            "video_name": "DIVERS_BOOK_ENTHOUSIASTE_AD_01_0004"
        },
        {
            "name": "7214",
            "score": "0.981",
            "index": 59,
            "selectedWords": [
                "autre",
                "autre",
                "apaisante",
                "encourageante"
            ],
            "freeResponses": [],
            "nbPlayClick": 1,
            "expression": "DESOLE",
            "csv_id": 7248,
            "video_name": "DIVERS_PARL_DESOLE_AD_01_0004"
        }
    ],
    "training": [
        {
            "name": "77",
            "score": "0.639",
            "index": 0,
            "selectedWords": [
                "neutre",
                "s\u00fbre"
            ],
            "freeResponses": [],
            "nbPlayClick": 1,
            "expression": "NEUTRE"
        }
    ],
    "filenameDate": "2023-08-31_9-2"
}