{
    "user": {
        "isProlific": true,
        "id": "612e9795a10b7857ca8990d1",
        "session": "64f987773f5f340f512b624f",
        "study": "64ef977375f88e4e1174dce0"
    },
    "userAgent": "Mozilla/5.0 (Windows NT 10.0; Win64; x64) AppleWebKit/537.36 (KHTML, like Gecko) Chrome/116.0.0.0 Safari/537.36",
    "landingDate": "2023-09-07T08:19:15.641Z",
    "startDate": "2023-09-07T08:20:33.170Z",
    "endDate": "2023-09-07T08:42:27.132Z",
    "reviews": [
        {
            "name": "4293",
            "score": "0.958",
            "index": 0,
            "selectedWords": [
                "autre",
                "autre",
                "autre",
                "autre",
                "autre",
                "autre",
                "autre",
                "r\u00e9fl\u00e9chissante",
                "autre",
                "autre",
                "autre",
                "d\u00e9sorient\u00e9e"
            ],
            "freeResponses": [],
            "nbPlayClick": 1,
            "expression": "NEUTRE",
            "csv_id": 4293,
            "video_name": "DIVERS_BOOK_AD_04_0002"
        },
        {
            "name": "10446",
            "score": "0.993",
            "index": 1,
            "selectedWords": [
                "espi\u00e8gle",
                "malicieuse"
            ],
            "freeResponses": [],
            "nbPlayClick": 1,
            "expression": "ESPIEGLE",
            "csv_id": 10480,
            "video_name": "DIVERS_PARL_ESPIEGLE_AD_01_0001"
        },
        {
            "name": "8292",
            "score": "0.985",
            "index": 2,
            "selectedWords": [
                "suppliante",
                "implorante"
            ],
            "freeResponses": [],
            "nbPlayClick": 2,
            "expression": "SUPPLIANT",
            "csv_id": 8326,
            "video_name": "DIVERS_BOOK_SUPPLIANT_AD_01_0002"
        },
        {
            "name": "517",
            "score": "0.808",
            "index": 3,
            "selectedWords": [
                "autre",
                "autre",
                "autre",
                "autre",
                "ennuy\u00e9e",
                "d\u00e9pit\u00e9e"
            ],
            "freeResponses": [],
            "nbPlayClick": 1,
            "expression": "EVIDENCE",
            "csv_id": 517,
            "video_name": "DIVERS_PARL_EVIDENCE_AD_02_0002"
        },
        {
            "name": "3226",
            "score": "0.942",
            "index": 4,
            "selectedWords": [
                "incr\u00e9dule",
                "dubitative"
            ],
            "freeResponses": [],
            "nbPlayClick": 1,
            "expression": "INCREDULE",
            "csv_id": 3226,
            "video_name": "DIVERS_BOOK_INCREDULE_AD_01_0001"
        },
        {
            "name": "6921",
            "score": "0.979",
            "index": 5,
            "selectedWords": [
                "neutre",
                "dubitative"
            ],
            "freeResponses": [],
            "nbPlayClick": 1,
            "response": "du",
            "expression": "NEUTRE",
            "csv_id": 6955,
            "video_name": "DIVERS_BOOK_AD_04_0001"
        },
        {
            "name": "3701",
            "score": "0.950",
            "index": 6,
            "selectedWords": [
                "autre",
                "autre",
                "autre",
                "autre",
                "ennuy\u00e9e",
                "d\u00e9pit\u00e9e"
            ],
            "freeResponses": [],
            "nbPlayClick": 1,
            "expression": "EVIDENCE",
            "csv_id": 3701,
            "video_name": "DIVERS_PARL_EVIDENCE_AD_01_0001"
        },
        {
            "name": "6674",
            "score": "0.978",
            "index": 7,
            "selectedWords": [
                "neutre",
                "s\u00fbre"
            ],
            "freeResponses": [],
            "nbPlayClick": 1,
            "expression": "NEUTRE",
            "csv_id": 6708,
            "video_name": "DIVERS_BOOK_AD_01_0002"
        },
        {
            "name": "5900",
            "score": "0.973",
            "index": 8,
            "selectedWords": [
                "d\u00e9sol\u00e9e",
                "r\u00e9fl\u00e9chie"
            ],
            "freeResponses": [],
            "nbPlayClick": 1,
            "expression": "DESOLE",
            "csv_id": 5934,
            "video_name": "DIVERS_PARL_DESOLE_AD_01_0004"
        },
        {
            "name": "5717",
            "score": "0.972",
            "index": 9,
            "selectedWords": [
                "en col\u00e8re",
                "hargneuse"
            ],
            "freeResponses": [],
            "nbPlayClick": 1,
            "expression": "COLERE",
            "csv_id": 5751,
            "video_name": "DIVERS_PARL_COLERE_AD_02_0002"
        },
        {
            "name": "11431",
            "score": "0.995",
            "index": 10,
            "selectedWords": [
                "autre",
                "autre",
                "\u00e9bahie",
                "stup\u00e9faite"
            ],
            "freeResponses": [],
            "nbPlayClick": 1,
            "response": "",
            "expression": "ETONNE",
            "csv_id": 11468,
            "video_name": "DIVERS_BOOK_ETONNE_AD_01_0004"
        },
        {
            "name": "989",
            "score": "0.860",
            "index": 11,
            "selectedWords": [
                "d\u00e9concert\u00e9e",
                "autre",
                "dubitative"
            ],
            "freeResponses": [],
            "nbPlayClick": 1,
            "expression": "EVIDENCE",
            "csv_id": 989,
            "video_name": "DIVERS_BOOK_EVIDENCE_AD_01_0002"
        },
        {
            "name": "11914",
            "score": "0.997",
            "index": 12,
            "selectedWords": [
                "neutre",
                "limpide"
            ],
            "freeResponses": [],
            "nbPlayClick": 2,
            "expression": "NEUTRE",
            "csv_id": 11951,
            "video_name": "DIVERS_BOOK_AD_04_0002"
        },
        {
            "name": "7841",
            "score": "0.984",
            "index": 13,
            "selectedWords": [
                "neutre",
                "certaine"
            ],
            "freeResponses": [],
            "nbPlayClick": 1,
            "expression": "NEUTRE",
            "csv_id": 7875,
            "video_name": "DIVERS_BOOK_AD_01_0002"
        },
        {
            "name": "11529",
            "score": "0.996",
            "index": 14,
            "selectedWords": [
                "d\u00e9termin\u00e9e",
                "r\u00e9solue"
            ],
            "freeResponses": [],
            "nbPlayClick": 1,
            "expression": "NEUTRE",
            "csv_id": 11566,
            "video_name": "DIVERS_PARL_AD_03_0003"
        },
        {
            "name": "10657",
            "score": "0.994",
            "index": 15,
            "selectedWords": [
                "autre",
                "autre",
                "autre",
                "autre",
                "autre",
                "songeuse",
                "r\u00e9fl\u00e9chissante"
            ],
            "freeResponses": [],
            "nbPlayClick": 1,
            "response": "ref",
            "expression": "NEUTRE",
            "csv_id": 10691,
            "video_name": "DIVERS_BOOK_AD_04_0001"
        },
        {
            "name": "3388",
            "score": "0.945",
            "index": 16,
            "selectedWords": [
                "\u00e9tonn\u00e9e",
                "autre",
                "\u00e9berlu\u00e9e"
            ],
            "freeResponses": [],
            "nbPlayClick": 1,
            "expression": "ETONNE",
            "csv_id": 3388,
            "video_name": "DIVERS_BOOK_ETONNE_AD_03_0001"
        },
        {
            "name": "6691",
            "score": "0.978",
            "index": 17,
            "selectedWords": [
                "d\u00e9termin\u00e9e",
                "r\u00e9solue"
            ],
            "freeResponses": [],
            "nbPlayClick": 1,
            "expression": "NEUTRE",
            "csv_id": 6725,
            "video_name": "DIVERS_PARL_AD_06_0001"
        },
        {
            "name": "80",
            "score": "0.640",
            "index": 18,
            "selectedWords": [
                "incr\u00e9dule",
                "dubitative"
            ],
            "freeResponses": [],
            "nbPlayClick": 1,
            "expression": "PENSIF",
            "csv_id": 80,
            "video_name": "DIVERS_PARL_PENSIF_AD_01_0002"
        },
        {
            "name": "9541",
            "score": "0.990",
            "index": 19,
            "selectedWords": [
                "incr\u00e9dule",
                "dubitative"
            ],
            "freeResponses": [],
            "nbPlayClick": 1,
            "expression": "INCREDULE",
            "csv_id": 9575,
            "video_name": "DIVERS_BOOK_INCREDULE_AD_01_0001"
        },
        {
            "name": "10271",
            "score": "0.992",
            "index": 20,
            "selectedWords": [
                "autre",
                "autre",
                "atone",
                "fade"
            ],
            "freeResponses": [],
            "nbPlayClick": 1,
            "expression": "NEUTRE",
            "csv_id": 10305,
            "video_name": "DIVERS_BOOK_AD_03_0002"
        },
        {
            "name": "2606",
            "score": "0.929",
            "index": 21,
            "selectedWords": [
                "autre",
                "implorante",
                "larmoyante"
            ],
            "freeResponses": [],
            "nbPlayClick": 2,
            "expression": "SUPPLIANT",
            "csv_id": 2606,
            "video_name": "ESTYLE_SUPPLIANT_AD_01_0001"
        },
        {
            "name": "2586",
            "score": "0.929",
            "index": 22,
            "selectedWords": [
                "autre",
                "autre",
                "autre",
                "autre",
                "ennuy\u00e9e",
                "d\u00e9pit\u00e9e"
            ],
            "freeResponses": [],
            "nbPlayClick": 1,
            "expression": "EVIDENCE",
            "csv_id": 2586,
            "video_name": "DIVERS_PARL_EVIDENCE_AD_01_0001"
        },
        {
            "name": "8928",
            "score": "0.988",
            "index": 23,
            "selectedWords": [
                "d\u00e9termin\u00e9e",
                "autre",
                "autre",
                "autre",
                "convaincue"
            ],
            "freeResponses": [],
            "nbPlayClick": 1,
            "response": "convain",
            "expression": "NEUTRE",
            "csv_id": 8962,
            "video_name": "DIVERS_PARL_AD_06_0002"
        },
        {
            "name": "5277",
            "score": "0.968",
            "index": 24,
            "selectedWords": [
                "d\u00e9sol\u00e9e",
                "autre",
                "autre",
                "autre",
                "autre",
                "attrist\u00e9e"
            ],
            "freeResponses": [],
            "nbPlayClick": 1,
            "expression": "NEUTRE",
            "csv_id": 5311,
            "video_name": "DIVERS_BOOK_AD_01_0002"
        },
        {
            "name": "3005",
            "score": "0.938",
            "index": 25,
            "selectedWords": [
                "enthousiaste",
                "euphorique"
            ],
            "freeResponses": [],
            "nbPlayClick": 1,
            "expression": "ENTHOUSIASTE",
            "csv_id": 3005,
            "video_name": "DIVERS_BOOK_ENTHOUSIASTE_AD_01_0004"
        },
        {
            "name": "6465",
            "score": "0.977",
            "index": 26,
            "selectedWords": [
                "enthousiaste",
                "tonique"
            ],
            "freeResponses": [],
            "nbPlayClick": 1,
            "expression": "RECONFORTANT",
            "csv_id": 6499,
            "video_name": "DIVERS_BOOK_RECONFORTANT_AD_01_0004"
        },
        {
            "name": "5267",
            "score": "0.968",
            "index": 27,
            "selectedWords": [
                "incr\u00e9dule",
                "dubitative"
            ],
            "freeResponses": [],
            "nbPlayClick": 1,
            "expression": "INCREDULE",
            "csv_id": 5301,
            "video_name": "DIVERS_PARL_INCREDULE_AD_01_0001"
        },
        {
            "name": "11903",
            "score": "0.997",
            "index": 28,
            "selectedWords": [
                "neutre",
                "certaine"
            ],
            "freeResponses": [],
            "nbPlayClick": 1,
            "expression": "NEUTRE",
            "csv_id": 11940,
            "video_name": "DIVERS_BOOK_AD_03_0002"
        },
        {
            "name": "11745",
            "score": "0.996",
            "index": 29,
            "selectedWords": [
                "neutre",
                "autre",
                "autre",
                "autre",
                "songeuse"
            ],
            "freeResponses": [],
            "nbPlayClick": 2,
            "expression": "NEUTRE",
            "csv_id": 11782,
            "video_name": "DIVERS_BOOK_AD_04_0001"
        },
        {
            "name": "3426",
            "score": "0.945",
            "index": 30,
            "selectedWords": [
                "\u00e9vidente",
                "indubitable"
            ],
            "freeResponses": [],
            "nbPlayClick": 1,
            "expression": "NEUTRE",
            "csv_id": 3426,
            "video_name": "DIVERS_PARL_AD_05_0003"
        },
        {
            "name": "7524",
            "score": "0.982",
            "index": 31,
            "selectedWords": [
                "autre",
                "espi\u00e8gle",
                "malicieuse"
            ],
            "freeResponses": [],
            "nbPlayClick": 1,
            "response": "es",
            "expression": "ESPIEGLE",
            "csv_id": 7558,
            "video_name": "DIVERS_BOOK_ESPIEGLE_AD_03_0001"
        },
        {
            "name": "11202",
            "score": "0.995",
            "index": 32,
            "selectedWords": [
                "d\u00e9termin\u00e9e",
                "autre",
                "autre",
                "convaincue"
            ],
            "freeResponses": [],
            "nbPlayClick": 1,
            "response": "conv",
            "expression": "NEUTRE",
            "csv_id": 11236,
            "video_name": "DIVERS_BOOK_AD_03_0002"
        },
        {
            "name": "11584",
            "score": "0.996",
            "index": 33,
            "selectedWords": [
                "neutre",
                "autre",
                "autre",
                "ennuy\u00e9e"
            ],
            "freeResponses": [],
            "nbPlayClick": 2,
            "expression": "NEUTRE",
            "csv_id": 11621,
            "video_name": "DIVERS_BOOK_AD_01_0002"
        },
        {
            "name": "8778",
            "score": "0.987",
            "index": 34,
            "selectedWords": [
                "enthousiaste",
                "autre",
                "autre",
                "autre",
                "apaisante"
            ],
            "freeResponses": [],
            "nbPlayClick": 1,
            "expression": "RECONFORTANT",
            "csv_id": 8812,
            "video_name": "DIVERS_BOOK_RECONFORTANT_AD_01_0004"
        },
        {
            "name": "7205",
            "score": "0.981",
            "index": 35,
            "selectedWords": [
                "d\u00e9termin\u00e9e",
                "autre",
                "ennuy\u00e9e"
            ],
            "freeResponses": [],
            "nbPlayClick": 1,
            "response": "enn",
            "expression": "NEUTRE",
            "csv_id": 7239,
            "video_name": "DIVERS_PARL_AD_03_0001"
        },
        {
            "name": "4740",
            "score": "0.963",
            "index": 36,
            "selectedWords": [
                "enthousiaste",
                "euphorique"
            ],
            "freeResponses": [],
            "nbPlayClick": 1,
            "expression": "ENTHOUSIASTE",
            "csv_id": 4774,
            "video_name": "ESTYLE_ENTHOUSIASTE_AD_02_0001"
        },
        {
            "name": "11910",
            "score": "0.997",
            "index": 37,
            "selectedWords": [
                "neutre",
                "s\u00fbre"
            ],
            "freeResponses": [],
            "nbPlayClick": 1,
            "response": "neutr",
            "expression": "NEUTRE",
            "csv_id": 11947,
            "video_name": "DIVERS_PARL_AD_04_0002"
        },
        {
            "name": "3848",
            "score": "0.952",
            "index": 38,
            "selectedWords": [
                "ennuy\u00e9e",
                "accabl\u00e9e"
            ],
            "freeResponses": [],
            "nbPlayClick": 1,
            "response": "nn",
            "expression": "EVIDENCE",
            "csv_id": 3848,
            "video_name": "DIVERS_PARL_EVIDENCE_AD_02_0002"
        },
        {
            "name": "4814",
            "score": "0.964",
            "index": 39,
            "selectedWords": [
                "d\u00e9termin\u00e9e",
                "manifeste"
            ],
            "freeResponses": [],
            "nbPlayClick": 1,
            "expression": "DETERMINE",
            "csv_id": 4848,
            "video_name": "DIVERS_PARL_DETERMINE_AD_01_0004"
        },
        {
            "name": "12166",
            "score": "0.998",
            "index": 40,
            "selectedWords": [
                "autre",
                "autre",
                "consolante",
                "encourageante"
            ],
            "freeResponses": [],
            "nbPlayClick": 1,
            "expression": "NEUTRE",
            "csv_id": 12203,
            "video_name": "DIVERS_BOOK_AD_01_0001"
        },
        {
            "name": "11950",
            "score": "0.997",
            "index": 41,
            "selectedWords": [
                "autre",
                "autre",
                "autre",
                "malicieuse",
                "maligne"
            ],
            "freeResponses": [],
            "nbPlayClick": 1,
            "expression": "ESPIEGLE",
            "csv_id": 11987,
            "video_name": "DIVERS_BOOK_ESPIEGLE_AD_03_0001"
        },
        {
            "name": "7667",
            "score": "0.983",
            "index": 42,
            "selectedWords": [
                "incr\u00e9dule",
                "dubitative"
            ],
            "freeResponses": [],
            "nbPlayClick": 1,
            "expression": "INCREDULE",
            "csv_id": 7701,
            "video_name": "DIVERS_PARL_INCREDULE_AD_02_0003"
        },
        {
            "name": "9572",
            "score": "0.990",
            "index": 43,
            "selectedWords": [
                "autre",
                "convaincue",
                "r\u00e9fl\u00e9chie"
            ],
            "freeResponses": [],
            "nbPlayClick": 1,
            "response": "conv",
            "expression": "NEUTRE",
            "csv_id": 9606,
            "video_name": "DIVERS_PARL_AD_05_0001"
        },
        {
            "name": "11160",
            "score": "0.995",
            "index": 44,
            "selectedWords": [
                "neutre",
                "autre",
                "dubitative"
            ],
            "freeResponses": [],
            "nbPlayClick": 1,
            "expression": "NEUTRE",
            "csv_id": 11194,
            "video_name": "DIVERS_PARL_AD_02_0001"
        },
        {
            "name": "12066",
            "score": "0.997",
            "index": 45,
            "selectedWords": [
                "neutre",
                "s\u00fbre"
            ],
            "freeResponses": [],
            "nbPlayClick": 1,
            "expression": "NEUTRE",
            "csv_id": 12103,
            "video_name": "DIVERS_PARL_AD_02_0003"
        },
        {
            "name": "11613",
            "score": "0.996",
            "index": 46,
            "selectedWords": [
                "espi\u00e8gle",
                "taquine"
            ],
            "freeResponses": [],
            "nbPlayClick": 1,
            "expression": "ESPIEGLE",
            "csv_id": 11650,
            "video_name": "DIVERS_PARL_ESPIEGLE_AD_01_0001"
        },
        {
            "name": "5199",
            "score": "0.968",
            "index": 47,
            "selectedWords": [
                "incr\u00e9dule",
                "dubitative"
            ],
            "freeResponses": [],
            "nbPlayClick": 1,
            "expression": "INCREDULE",
            "csv_id": 5233,
            "video_name": "DIVERS_PARL_INCREDULE_AD_01_0001"
        },
        {
            "name": "11485",
            "score": "0.996",
            "index": 48,
            "selectedWords": [
                "neutre",
                "autre",
                "dubitative"
            ],
            "freeResponses": [],
            "nbPlayClick": 1,
            "expression": "NEUTRE",
            "csv_id": 11522,
            "video_name": "DIVERS_PARL_AD_03_0001"
        },
        {
            "name": "7141",
            "score": "0.980",
            "index": 49,
            "selectedWords": [
                "en col\u00e8re",
                "en rage"
            ],
            "freeResponses": [],
            "nbPlayClick": 1,
            "expression": "COLERE",
            "csv_id": 7175,
            "video_name": "DIVERS_PARL_COLERE_AD_02_0002"
        },
        {
            "name": "1485",
            "score": "0.890",
            "index": 50,
            "selectedWords": [
                "\u00e9tonn\u00e9e",
                "autre",
                "\u00e9berlu\u00e9e"
            ],
            "freeResponses": [],
            "nbPlayClick": 1,
            "expression": "ETONNE",
            "csv_id": 1485,
            "video_name": "DIVERS_BOOK_ETONNE_AD_01_0004"
        },
        {
            "name": "10492",
            "score": "0.993",
            "index": 51,
            "selectedWords": [
                "neutre",
                "autre",
                "incr\u00e9dule"
            ],
            "freeResponses": [],
            "nbPlayClick": 1,
            "response": "inc",
            "expression": "NEUTRE",
            "csv_id": 10526,
            "video_name": "DIVERS_BOOK_AD_04_0001"
        },
        {
            "name": "9968",
            "score": "0.992",
            "index": 52,
            "selectedWords": [
                "neutre",
                "certaine"
            ],
            "freeResponses": [],
            "nbPlayClick": 1,
            "response": "neu",
            "expression": "NEUTRE",
            "csv_id": 10002,
            "video_name": "DIVERS_PARL_AD_01_0006"
        },
        {
            "name": "346",
            "score": "0.775",
            "index": 53,
            "selectedWords": [
                "incr\u00e9dule",
                "dubitative"
            ],
            "freeResponses": [],
            "nbPlayClick": 1,
            "response": "inc",
            "expression": "INCREDULE",
            "csv_id": 346,
            "video_name": "DIVERS_PARL_INCREDULE_AD_02_0003"
        },
        {
            "name": "8041",
            "score": "0.984",
            "index": 54,
            "selectedWords": [
                "d\u00e9sol\u00e9e",
                "autre",
                "autre",
                "autre",
                "consolatrice"
            ],
            "freeResponses": [],
            "nbPlayClick": 1,
            "expression": "NEUTRE",
            "csv_id": 8075,
            "video_name": "DIVERS_PARL_AD_04_0001"
        },
        {
            "name": "8208",
            "score": "0.985",
            "index": 55,
            "selectedWords": [
                "neutre",
                "autre",
                "attrist\u00e9e"
            ],
            "freeResponses": [],
            "nbPlayClick": 1,
            "expression": "NEUTRE",
            "csv_id": 8242,
            "video_name": "DIVERS_BOOK_AD_01_0001"
        },
        {
            "name": "8491",
            "score": "0.986",
            "index": 56,
            "selectedWords": [
                "\u00e9tonn\u00e9e",
                "autre",
                "dubitative"
            ],
            "freeResponses": [],
            "nbPlayClick": 1,
            "expression": "ETONNE",
            "csv_id": 8525,
            "video_name": "DIVERS_PARL_ETONNE_AD_01_0001"
        },
        {
            "name": "10263",
            "score": "0.992",
            "index": 57,
            "selectedWords": [
                "certaine",
                "in\u00e9branlable"
            ],
            "freeResponses": [],
            "nbPlayClick": 1,
            "response": "cert",
            "expression": "NEUTRE",
            "csv_id": 10297,
            "video_name": "DIVERS_PARL_AD_02_0002"
        },
        {
            "name": "11097",
            "score": "0.995",
            "index": 58,
            "selectedWords": [
                "neutre",
                "certaine"
            ],
            "freeResponses": [],
            "nbPlayClick": 1,
            "expression": "NEUTRE",
            "csv_id": 11131,
            "video_name": "DIVERS_BOOK_AD_03_0001"
        },
        {
            "name": "2346",
            "score": "0.922",
            "index": 59,
            "selectedWords": [
                "autre",
                "convaincue",
                "dubitative"
            ],
            "freeResponses": [],
            "nbPlayClick": 1,
            "response": "dub",
            "expression": "NEUTRE",
            "csv_id": 2346,
            "video_name": "DIVERS_PARL_AD_05_0003"
        }
    ],
    "training": [
        {
            "name": "77",
            "score": "0.639",
            "index": 0,
            "selectedWords": [
                "neutre",
                "certaine"
            ],
            "freeResponses": [],
            "nbPlayClick": 1,
            "expression": "NEUTRE"
        }
    ],
    "filenameDate": "2023-09-07_9-42"
}