{
    "user": {
        "isProlific": true,
        "id": "6131c49112bb48bb600681ad",
        "session": "64efadc181a6cf9649864d1d",
        "study": "64ef977375f88e4e1174dce0"
    },
    "userAgent": "Mozilla/5.0 (Windows NT 10.0; Win64; x64) AppleWebKit/537.36 (KHTML, like Gecko) Chrome/116.0.0.0 Safari/537.36",
    "landingDate": "2023-08-30T21:07:23.036Z",
    "startDate": "2023-08-30T21:12:00.467Z",
    "endDate": "2023-08-30T22:11:57.137Z",
    "reviews": [
        {
            "name": "1650",
            "score": "0.899",
            "index": 0,
            "selectedWords": [
                "neutre",
                "autre",
                "imp\u00e9n\u00e9trable",
                "froide"
            ],
            "freeResponses": [],
            "nbPlayClick": 4,
            "expression": "NEUTRE",
            "csv_id": 1650,
            "video_name": "DIVERS_PARL_AD_06_0004"
        },
        {
            "name": "7574",
            "score": "0.982",
            "index": 1,
            "selectedWords": [
                "neutre",
                "autre",
                "autre",
                "inexpressive"
            ],
            "freeResponses": [],
            "nbPlayClick": 1,
            "expression": "NEUTRE",
            "csv_id": 7608,
            "video_name": "DIVERS_PARL_AD_06_0001"
        },
        {
            "name": "4638",
            "score": "0.962",
            "index": 2,
            "selectedWords": [
                "enthousiaste",
                "certaine"
            ],
            "freeResponses": [],
            "nbPlayClick": 1,
            "expression": "ENTHOUSIASTE",
            "csv_id": 4672,
            "video_name": "DIVERS_PARL_ENTHOUSIASTE_AD_02_0001"
        },
        {
            "name": "4384",
            "score": "0.959",
            "index": 3,
            "selectedWords": [
                "suppliante",
                "implorante"
            ],
            "freeResponses": [],
            "nbPlayClick": 2,
            "expression": "RECONFORTANT",
            "csv_id": 4384,
            "video_name": "DIVERS_PARL_RECONFORTANT_AD_02_0001"
        },
        {
            "name": "11291",
            "score": "0.995",
            "index": 4,
            "selectedWords": [
                "d\u00e9termin\u00e9e",
                "autre",
                "autre",
                "autre",
                "autre",
                "in\u00e9branlable"
            ],
            "freeResponses": [],
            "nbPlayClick": 1,
            "expression": "COLERE",
            "csv_id": 11325,
            "video_name": "DIVERS_PARL_COLERE_AD_01_0004"
        },
        {
            "name": "2167",
            "score": "0.917",
            "index": 5,
            "selectedWords": [
                "pensive",
                "r\u00e9fl\u00e9chissante"
            ],
            "freeResponses": [],
            "nbPlayClick": 3,
            "expression": "PENSIF",
            "csv_id": 2167,
            "video_name": "DIVERS_BOOK_PENSIF_AD_01_0003"
        },
        {
            "name": "4855",
            "score": "0.964",
            "index": 6,
            "selectedWords": [
                "\u00e9vidente",
                "enthousiaste"
            ],
            "freeResponses": [],
            "nbPlayClick": 3,
            "response": "ent",
            "expression": "INCREDULE",
            "csv_id": 4889,
            "video_name": "DIVERS_PARL_INCREDULE_AD_02_0003"
        },
        {
            "name": "3306",
            "score": "0.944",
            "index": 7,
            "selectedWords": [
                "enthousiaste"
            ],
            "freeResponses": [
                "joyeuse"
            ],
            "nbPlayClick": 2,
            "response": "joyeuse",
            "expression": "ENTHOUSIASTE",
            "csv_id": 3306,
            "video_name": "DIVERS_BOOK_ENTHOUSIASTE_AD_01_0004"
        },
        {
            "name": "3939",
            "score": "0.953",
            "index": 8,
            "selectedWords": [
                "pensive",
                "m\u00e9ditative"
            ],
            "freeResponses": [],
            "nbPlayClick": 2,
            "expression": "NEUTRE",
            "csv_id": 3939,
            "video_name": "DIVERS_PARL_AD_01_0004"
        },
        {
            "name": "3697",
            "score": "0.950",
            "index": 9,
            "selectedWords": [
                "autre",
                "certaine",
                "d\u00e9termin\u00e9e"
            ],
            "freeResponses": [],
            "nbPlayClick": 5,
            "expression": "RECONFORTANT",
            "csv_id": 3697,
            "video_name": "DIVERS_PARL_RECONFORTANT_AD_02_0001"
        },
        {
            "name": "12115",
            "score": "0.997",
            "index": 10,
            "selectedWords": [
                "absente",
                "indubitable"
            ],
            "freeResponses": [],
            "nbPlayClick": 3,
            "expression": "NEUTRE",
            "csv_id": 12152,
            "video_name": "DIVERS_PARL_AD_04_0001"
        },
        {
            "name": "8665",
            "score": "0.987",
            "index": 11,
            "selectedWords": [
                "\u00e9vidente",
                "certaine"
            ],
            "freeResponses": [],
            "nbPlayClick": 2,
            "response": "cert",
            "expression": "DESOLE",
            "csv_id": 8699,
            "video_name": "DIVERS_PARL_DESOLE_AD_01_0004"
        },
        {
            "name": "2984",
            "score": "0.938",
            "index": 12,
            "selectedWords": [
                "autre",
                "implorante",
                "larmoyante"
            ],
            "freeResponses": [],
            "nbPlayClick": 2,
            "response": "",
            "expression": "SUPPLIANT",
            "csv_id": 2984,
            "video_name": "DIVERS_PARL_SUPPLIANT_AD_02_0001"
        },
        {
            "name": "9370",
            "score": "0.990",
            "index": 13,
            "selectedWords": [
                "d\u00e9termin\u00e9e",
                "autre",
                "imp\u00e9n\u00e9trable"
            ],
            "freeResponses": [],
            "nbPlayClick": 4,
            "expression": "NEUTRE",
            "csv_id": 9404,
            "video_name": "DIVERS_PARL_AD_02_0001"
        },
        {
            "name": "12091",
            "score": "0.997",
            "index": 14,
            "selectedWords": [
                "pensive",
                "m\u00e9ditative"
            ],
            "freeResponses": [],
            "nbPlayClick": 5,
            "expression": "NEUTRE",
            "csv_id": 12128,
            "video_name": "DIVERS_PARL_AD_02_0002"
        },
        {
            "name": "10963",
            "score": "0.994",
            "index": 15,
            "selectedWords": [
                "en col\u00e8re",
                "en rage"
            ],
            "freeResponses": [],
            "nbPlayClick": 1,
            "expression": "DETERMINE",
            "csv_id": 10997,
            "video_name": "DIVERS_PARL_DETERMINE_AD_01_0004"
        },
        {
            "name": "10132",
            "score": "0.992",
            "index": 16,
            "selectedWords": [
                "r\u00e9confortante",
                "consolatrice"
            ],
            "freeResponses": [],
            "nbPlayClick": 5,
            "expression": "NEUTRE",
            "csv_id": 10166,
            "video_name": "DIVERS_PARL_AD_01_0005"
        },
        {
            "name": "9939",
            "score": "0.991",
            "index": 17,
            "selectedWords": [
                "autre",
                "autre",
                "autre",
                "vivifiante"
            ],
            "freeResponses": [
                "joyeuse"
            ],
            "nbPlayClick": 1,
            "response": "joyeuse",
            "expression": "ENTHOUSIASTE",
            "csv_id": 9973,
            "video_name": "DIVERS_BOOK_ENTHOUSIASTE_AD_01_0001"
        },
        {
            "name": "522",
            "score": "0.808",
            "index": 18,
            "selectedWords": [
                "autre",
                "autre",
                "autre",
                "autre",
                "autre",
                "autre",
                "autre",
                "autre",
                "coquine",
                "maligne"
            ],
            "freeResponses": [],
            "nbPlayClick": 3,
            "response": "coquine",
            "expression": "ESPIEGLE",
            "csv_id": 522,
            "video_name": "DIVERS_BOOK_ESPIEGLE_AD_03_0001"
        },
        {
            "name": "11897",
            "score": "0.997",
            "index": 19,
            "selectedWords": [
                "d\u00e9termin\u00e9e",
                "r\u00e9solue"
            ],
            "freeResponses": [],
            "nbPlayClick": 4,
            "expression": "NEUTRE",
            "csv_id": 11934,
            "video_name": "DIVERS_PARL_AD_02_0003"
        },
        {
            "name": "1490",
            "score": "0.890",
            "index": 20,
            "selectedWords": [
                "autre",
                "dubitative"
            ],
            "freeResponses": [
                "sarcastique"
            ],
            "nbPlayClick": 1,
            "response": "sarcastique",
            "expression": "ENTHOUSIASTE",
            "csv_id": 1490,
            "video_name": "DIVERS_PARL_ENTHOUSIASTE_AD_02_0001"
        },
        {
            "name": "8576",
            "score": "0.987",
            "index": 21,
            "selectedWords": [
                "coquine",
                "emball\u00e9e"
            ],
            "freeResponses": [],
            "nbPlayClick": 3,
            "response": "",
            "expression": "ESPIEGLE",
            "csv_id": 8610,
            "video_name": "DIVERS_BOOK_ESPIEGLE_AD_03_0001"
        },
        {
            "name": "5308",
            "score": "0.968",
            "index": 22,
            "selectedWords": [
                "accabl\u00e9e",
                "contrari\u00e9e"
            ],
            "freeResponses": [],
            "nbPlayClick": 2,
            "expression": "SUPPLIANT",
            "csv_id": 5342,
            "video_name": "DIVERS_PARL_SUPPLIANT_AD_02_0001"
        },
        {
            "name": "9201",
            "score": "0.989",
            "index": 23,
            "selectedWords": [
                "d\u00e9termin\u00e9e",
                "indign\u00e9e"
            ],
            "freeResponses": [],
            "nbPlayClick": 2,
            "expression": "EVIDENCE",
            "csv_id": 9235,
            "video_name": "DIVERS_PARL_EVIDENCE_AD_02_0002"
        },
        {
            "name": "9566",
            "score": "0.990",
            "index": 24,
            "selectedWords": [
                "en col\u00e8re",
                "contrari\u00e9e"
            ],
            "freeResponses": [],
            "nbPlayClick": 1,
            "expression": "COLERE",
            "csv_id": 9600,
            "video_name": "DIVERS_PARL_COLERE_AD_01_0003"
        },
        {
            "name": "8020",
            "score": "0.984",
            "index": 25,
            "selectedWords": [
                "autre",
                "autre",
                "autre",
                "abasourdie",
                "sid\u00e9r\u00e9e"
            ],
            "freeResponses": [],
            "nbPlayClick": 3,
            "expression": "NEUTRE",
            "csv_id": 8054,
            "video_name": "DIVERS_PARL_AD_03_0003"
        },
        {
            "name": "7903",
            "score": "0.984",
            "index": 26,
            "selectedWords": [
                "autre",
                "autre",
                "estomaqu\u00e9e",
                "stup\u00e9faite"
            ],
            "freeResponses": [],
            "nbPlayClick": 3,
            "expression": "NEUTRE",
            "csv_id": 7937,
            "video_name": "DIVERS_BOOK_AD_04_0001"
        },
        {
            "name": "6876",
            "score": "0.979",
            "index": 27,
            "selectedWords": [
                "d\u00e9termin\u00e9e",
                "r\u00e9solue"
            ],
            "freeResponses": [],
            "nbPlayClick": 3,
            "expression": "COLERE",
            "csv_id": 6910,
            "video_name": "DIVERS_PARL_COLERE_AD_01_0004"
        },
        {
            "name": "6257",
            "score": "0.975",
            "index": 28,
            "selectedWords": [
                "afflig\u00e9e",
                "atone"
            ],
            "freeResponses": [],
            "nbPlayClick": 6,
            "expression": "DESOLE",
            "csv_id": 6291,
            "video_name": "DIVERS_BOOK_DESOLE_AD_03_0002"
        },
        {
            "name": "9049",
            "score": "0.988",
            "index": 29,
            "selectedWords": [
                "enthousiaste",
                "excit\u00e9e"
            ],
            "freeResponses": [],
            "nbPlayClick": 2,
            "response": "ex",
            "expression": "ENTHOUSIASTE",
            "csv_id": 9083,
            "video_name": "DIVERS_BOOK_ENTHOUSIASTE_AD_01_0004"
        },
        {
            "name": "5984",
            "score": "0.974",
            "index": 30,
            "selectedWords": [
                "enthousiaste"
            ],
            "freeResponses": [
                "heureuse"
            ],
            "nbPlayClick": 1,
            "response": "heureuse",
            "expression": "ENTHOUSIASTE",
            "csv_id": 6018,
            "video_name": "DIVERS_BOOK_ENTHOUSIASTE_AD_01_0001"
        },
        {
            "name": "4832",
            "score": "0.964",
            "index": 31,
            "selectedWords": [
                "pensive",
                "r\u00eaveuse"
            ],
            "freeResponses": [],
            "nbPlayClick": 1,
            "expression": "PENSIF",
            "csv_id": 4866,
            "video_name": "DIVERS_BOOK_PENSIF_AD_01_0003"
        },
        {
            "name": "9103",
            "score": "0.989",
            "index": 32,
            "selectedWords": [
                "d\u00e9concert\u00e9e",
                "h\u00e9b\u00e9t\u00e9e"
            ],
            "freeResponses": [],
            "nbPlayClick": 2,
            "expression": "SUPPLIANT",
            "csv_id": 9137,
            "video_name": "DIVERS_BOOK_SUPPLIANT_AD_01_0004"
        },
        {
            "name": "2596",
            "score": "0.929",
            "index": 33,
            "selectedWords": [
                "inexpressive",
                "imp\u00e9n\u00e9trable"
            ],
            "freeResponses": [],
            "nbPlayClick": 2,
            "expression": "NEUTRE",
            "csv_id": 2596,
            "video_name": "DIVERS_PARL_AD_01_0002"
        },
        {
            "name": "5702",
            "score": "0.972",
            "index": 34,
            "selectedWords": [
                "bouillonnante",
                "enthousiaste"
            ],
            "freeResponses": [],
            "nbPlayClick": 1,
            "expression": "ENTHOUSIASTE",
            "csv_id": 5736,
            "video_name": "DIVERS_PARL_ENTHOUSIASTE_AD_02_0001"
        },
        {
            "name": "2758",
            "score": "0.933",
            "index": 35,
            "selectedWords": [
                "enthousiaste",
                "convaincue"
            ],
            "freeResponses": [],
            "nbPlayClick": 1,
            "response": "con",
            "expression": "ENTHOUSIASTE",
            "csv_id": 2758,
            "video_name": "DIVERS_BOOK_ENTHOUSIASTE_AD_01_0001"
        },
        {
            "name": "6622",
            "score": "0.978",
            "index": 36,
            "selectedWords": [
                "d\u00e9sol\u00e9e",
                "absente"
            ],
            "freeResponses": [],
            "nbPlayClick": 6,
            "expression": "DESOLE",
            "csv_id": 6656,
            "video_name": "DIVERS_BOOK_DESOLE_AD_03_0002"
        },
        {
            "name": "1745",
            "score": "0.902",
            "index": 37,
            "selectedWords": [
                "\u00e9vidente",
                "consolante"
            ],
            "freeResponses": [],
            "nbPlayClick": 1,
            "expression": "NEUTRE",
            "csv_id": 1745,
            "video_name": "DIVERS_PARL_AD_03_0003"
        },
        {
            "name": "2822",
            "score": "0.934",
            "index": 38,
            "selectedWords": [
                "accabl\u00e9e",
                "contrari\u00e9e"
            ],
            "freeResponses": [],
            "nbPlayClick": 2,
            "expression": "NEUTRE",
            "csv_id": 2822,
            "video_name": "DIVERS_PARL_AD_05_0002"
        },
        {
            "name": "7539",
            "score": "0.982",
            "index": 39,
            "selectedWords": [
                "ardente"
            ],
            "freeResponses": [
                "sure"
            ],
            "nbPlayClick": 2,
            "response": "sure",
            "expression": "NEUTRE",
            "csv_id": 7573,
            "video_name": "DIVERS_BOOK_AD_03_0002"
        },
        {
            "name": "10526",
            "score": "0.993",
            "index": 40,
            "selectedWords": [
                "pensive",
                "r\u00eaveuse"
            ],
            "freeResponses": [],
            "nbPlayClick": 1,
            "expression": "PENSIF",
            "csv_id": 10560,
            "video_name": "DIVERS_PARL_PENSIF_AD_01_0002"
        },
        {
            "name": "11441",
            "score": "0.995",
            "index": 41,
            "selectedWords": [
                "ennuy\u00e9e",
                "larmoyante"
            ],
            "freeResponses": [],
            "nbPlayClick": 2,
            "expression": "NEUTRE",
            "csv_id": 11478,
            "video_name": "DIVERS_PARL_AD_01_0006"
        },
        {
            "name": "4429",
            "score": "0.960",
            "index": 42,
            "selectedWords": [
                "s\u00fbre",
                "ferme"
            ],
            "freeResponses": [],
            "nbPlayClick": 1,
            "expression": "NEUTRE",
            "csv_id": 4463,
            "video_name": "DIVERS_PARL_AD_03_0001"
        },
        {
            "name": "9650",
            "score": "0.990",
            "index": 43,
            "selectedWords": [
                "m\u00e9contente"
            ],
            "freeResponses": [
                "surprise"
            ],
            "nbPlayClick": 2,
            "response": "surprise",
            "expression": "ETONNE",
            "csv_id": 9684,
            "video_name": "DIVERS_BOOK_ETONNE_AD_01_0004"
        },
        {
            "name": "12280",
            "score": "0.998",
            "index": 44,
            "selectedWords": [
                "estomaqu\u00e9e",
                "h\u00e9b\u00e9t\u00e9e"
            ],
            "freeResponses": [],
            "nbPlayClick": 1,
            "expression": "NEUTRE",
            "csv_id": 12317,
            "video_name": "DIVERS_PARL_AD_02_0004"
        },
        {
            "name": "11950",
            "score": "0.997",
            "index": 45,
            "selectedWords": [
                "enthousiaste",
                "passionn\u00e9e"
            ],
            "freeResponses": [],
            "nbPlayClick": 1,
            "expression": "ESPIEGLE",
            "csv_id": 11987,
            "video_name": "DIVERS_BOOK_ESPIEGLE_AD_03_0001"
        },
        {
            "name": "11295",
            "score": "0.995",
            "index": 46,
            "selectedWords": [
                "ind\u00e9niable",
                "d\u00e9cid\u00e9e"
            ],
            "freeResponses": [],
            "nbPlayClick": 1,
            "expression": "NEUTRE",
            "csv_id": 11329,
            "video_name": "DIVERS_PARL_AD_02_0003"
        },
        {
            "name": "9269",
            "score": "0.989",
            "index": 47,
            "selectedWords": [
                "pensive",
                "songeuse"
            ],
            "freeResponses": [],
            "nbPlayClick": 2,
            "expression": "NEUTRE",
            "csv_id": 9303,
            "video_name": "DIVERS_BOOK_AD_04_0002"
        },
        {
            "name": "7472",
            "score": "0.982",
            "index": 48,
            "selectedWords": [
                "irrit\u00e9e",
                "m\u00e9contente"
            ],
            "freeResponses": [],
            "nbPlayClick": 1,
            "expression": "NEUTRE",
            "csv_id": 7506,
            "video_name": "DIVERS_PARL_AD_06_0004"
        },
        {
            "name": "10722",
            "score": "0.994",
            "index": 49,
            "selectedWords": [
                "enthousiaste",
                "emball\u00e9e"
            ],
            "freeResponses": [],
            "nbPlayClick": 1,
            "expression": "ESPIEGLE",
            "csv_id": 10756,
            "video_name": "DIVERS_PARL_ESPIEGLE_AD_01_0001"
        },
        {
            "name": "11497",
            "score": "0.996",
            "index": 50,
            "selectedWords": [
                "suppliante",
                "implorante"
            ],
            "freeResponses": [],
            "nbPlayClick": 2,
            "expression": "NEUTRE",
            "csv_id": 11534,
            "video_name": "DIVERS_BOOK_AD_01_0001"
        },
        {
            "name": "517",
            "score": "0.808",
            "index": 51,
            "selectedWords": [
                "contrari\u00e9e",
                "d\u00e9courag\u00e9e"
            ],
            "freeResponses": [],
            "nbPlayClick": 1,
            "response": "ra",
            "expression": "EVIDENCE",
            "csv_id": 517,
            "video_name": "DIVERS_PARL_EVIDENCE_AD_02_0002"
        },
        {
            "name": "7029",
            "score": "0.980",
            "index": 52,
            "selectedWords": [
                "absente",
                "confuse"
            ],
            "freeResponses": [],
            "nbPlayClick": 1,
            "expression": "PENSIF",
            "csv_id": 7063,
            "video_name": "DIVERS_PARL_PENSIF_AD_01_0002"
        },
        {
            "name": "10119",
            "score": "0.992",
            "index": 53,
            "selectedWords": [
                "emball\u00e9e",
                "excit\u00e9e"
            ],
            "freeResponses": [],
            "nbPlayClick": 1,
            "expression": "EVIDENCE",
            "csv_id": 10153,
            "video_name": "DIVERS_PARL_EVIDENCE_AD_02_0002"
        },
        {
            "name": "5395",
            "score": "0.969",
            "index": 54,
            "selectedWords": [
                "\u00e9tonn\u00e9e",
                "autre",
                "vivifiante"
            ],
            "freeResponses": [],
            "nbPlayClick": 3,
            "expression": "NEUTRE",
            "csv_id": 5429,
            "video_name": "DIVERS_BOOK_AD_04_0001"
        },
        {
            "name": "7785",
            "score": "0.983",
            "index": 55,
            "selectedWords": [
                "opini\u00e2tre",
                "pein\u00e9e"
            ],
            "freeResponses": [],
            "nbPlayClick": 1,
            "response": "pei",
            "expression": "RECONFORTANT",
            "csv_id": 7819,
            "video_name": "DIVERS_BOOK_RECONFORTANT_AD_01_0002"
        },
        {
            "name": "11021",
            "score": "0.994",
            "index": 56,
            "selectedWords": [
                "\u00e9tonn\u00e9e",
                "autre",
                "abasourdie"
            ],
            "freeResponses": [],
            "nbPlayClick": 1,
            "expression": "ETONNE",
            "csv_id": 11055,
            "video_name": "DIVERS_BOOK_ETONNE_AD_01_0002"
        },
        {
            "name": "6720",
            "score": "0.978",
            "index": 57,
            "selectedWords": [
                "afflig\u00e9e",
                "accabl\u00e9e",
                "attrist\u00e9e"
            ],
            "freeResponses": [],
            "nbPlayClick": 1,
            "expression": "SUPPLIANT",
            "csv_id": 6754,
            "video_name": "DIVERS_PARL_SUPPLIANT_AD_02_0002"
        },
        {
            "name": "902",
            "score": "0.852",
            "index": 58,
            "selectedWords": [
                "en rogne",
                "hargneuse",
                "m\u00e9contente"
            ],
            "freeResponses": [],
            "nbPlayClick": 1,
            "response": "conte",
            "expression": "INCREDULE",
            "csv_id": 902,
            "video_name": "DIVERS_PARL_INCREDULE_AD_01_0001"
        },
        {
            "name": "9347",
            "score": "0.989",
            "index": 59,
            "selectedWords": [
                "d\u00e9termin\u00e9e",
                "r\u00e9solue",
                "\u00e9nergique"
            ],
            "freeResponses": [],
            "nbPlayClick": 1,
            "expression": "DETERMINE",
            "csv_id": 9381,
            "video_name": "DIVERS_PARL_DETERMINE_AD_01_0004"
        }
    ],
    "training": [
        {
            "name": "77",
            "score": "0.639",
            "index": 0,
            "selectedWords": [
                "autre",
                "imp\u00e9n\u00e9trable",
                "terne"
            ],
            "freeResponses": [],
            "nbPlayClick": 3,
            "expression": "NEUTRE"
        }
    ],
    "filenameDate": "2023-08-30_0-11"
}