{
    "user": {
        "isProlific": true,
        "id": "61325af0137e3f0aa5b2ad59",
        "session": "659da4293071d0b3ad59e8e9",
        "study": "64ef977375f88e4e1174dce0"
    },
    "userAgent": "Mozilla/5.0 (Windows NT 10.0; Win64; x64) AppleWebKit/537.36 (KHTML, like Gecko) Chrome/120.0.0.0 Safari/537.36",
    "landingDate": "2024-01-09T19:53:19.149Z",
    "startDate": "2024-01-09T19:55:19.591Z",
    "endDate": "2024-01-09T20:23:11.919Z",
    "reviews": [
        {
            "name": "7637",
            "score": "0.983",
            "index": 0,
            "selectedWords": [
                "en col\u00e8re",
                "en rogne"
            ],
            "freeResponses": [],
            "nbPlayClick": 2,
            "expression": "COLERE",
            "csv_id": 7671,
            "video_name": "DIVERS_PARL_COLERE_AD_01_0003"
        },
        {
            "name": "9329",
            "score": "0.989",
            "index": 1,
            "selectedWords": [
                "autre",
                "dubitative",
                "m\u00e9fiante"
            ],
            "freeResponses": [],
            "nbPlayClick": 1,
            "expression": "NEUTRE",
            "csv_id": 9363,
            "video_name": "DIVERS_PARL_AD_04_0004"
        },
        {
            "name": "11263",
            "score": "0.995",
            "index": 2,
            "selectedWords": [
                "autre",
                "autre",
                "autre",
                "autre",
                "autre",
                "autre",
                "reconstituante",
                "autre",
                "autre",
                "m\u00e9ditative"
            ],
            "freeResponses": [],
            "nbPlayClick": 3,
            "expression": "NEUTRE",
            "csv_id": 11297,
            "video_name": "DIVERS_BOOK_AD_01_0002"
        },
        {
            "name": "5585",
            "score": "0.971",
            "index": 3,
            "selectedWords": [
                "autre",
                "implorante",
                "autre",
                "autre",
                "attrist\u00e9e"
            ],
            "freeResponses": [],
            "nbPlayClick": 1,
            "expression": "SUPPLIANT",
            "csv_id": 5619,
            "video_name": "DIVERS_PARL_SUPPLIANT_AD_02_0001"
        },
        {
            "name": "11873",
            "score": "0.997",
            "index": 4,
            "selectedWords": [
                "neutre",
                "limpide"
            ],
            "freeResponses": [],
            "nbPlayClick": 1,
            "expression": "NEUTRE",
            "csv_id": 11910,
            "video_name": "DIVERS_PARL_AD_03_0004"
        },
        {
            "name": "4605",
            "score": "0.962",
            "index": 5,
            "selectedWords": [
                "neutre",
                "autre",
                "autre",
                "inexpressive"
            ],
            "freeResponses": [],
            "nbPlayClick": 1,
            "expression": "NEUTRE",
            "csv_id": 4639,
            "video_name": "DIVERS_PARL_AD_04_0004"
        },
        {
            "name": "5915",
            "score": "0.973",
            "index": 6,
            "selectedWords": [
                "\u00e9vidente",
                "autre",
                "autre",
                "autre",
                "autre",
                "autre",
                "d\u00e9courag\u00e9e"
            ],
            "freeResponses": [],
            "nbPlayClick": 1,
            "expression": "NEUTRE",
            "csv_id": 5949,
            "video_name": "DIVERS_PARL_AD_06_0004"
        },
        {
            "name": "3145",
            "score": "0.941",
            "index": 7,
            "selectedWords": [
                "d\u00e9termin\u00e9e",
                "r\u00e9solue"
            ],
            "freeResponses": [],
            "nbPlayClick": 2,
            "expression": "EVIDENCE",
            "csv_id": 3145,
            "video_name": "DIVERS_PARL_EVIDENCE_AD_02_0002"
        },
        {
            "name": "9533",
            "score": "0.990",
            "index": 8,
            "selectedWords": [
                "afflig\u00e9e",
                "euphorique"
            ],
            "freeResponses": [],
            "nbPlayClick": 1,
            "expression": "ENTHOUSIASTE",
            "csv_id": 9567,
            "video_name": "DIVERS_PARL_ENTHOUSIASTE_AD_01_0003"
        },
        {
            "name": "5657",
            "score": "0.971",
            "index": 9,
            "selectedWords": [
                "officielle",
                "narquoise"
            ],
            "freeResponses": [],
            "nbPlayClick": 1,
            "expression": "RECONFORTANT",
            "csv_id": 5691,
            "video_name": "DIVERS_PARL_RECONFORTANT_AD_02_0001"
        },
        {
            "name": "796",
            "score": "0.842",
            "index": 10,
            "selectedWords": [
                "espi\u00e8gle",
                "narquoise"
            ],
            "freeResponses": [],
            "nbPlayClick": 2,
            "expression": "ESPIEGLE",
            "csv_id": 796,
            "video_name": "DIVERS_PARL_ESPIEGLE_AD_01_0001"
        },
        {
            "name": "6061",
            "score": "0.974",
            "index": 11,
            "selectedWords": [
                "enthousiaste",
                "autre",
                "songeuse"
            ],
            "freeResponses": [],
            "nbPlayClick": 1,
            "expression": "RECONFORTANT",
            "csv_id": 6095,
            "video_name": "DIVERS_BOOK_RECONFORTANT_AD_03_0002"
        },
        {
            "name": "1131",
            "score": "0.870",
            "index": 12,
            "selectedWords": [
                "narquoise",
                "autre",
                "dubitative"
            ],
            "freeResponses": [],
            "nbPlayClick": 1,
            "expression": "NEUTRE",
            "csv_id": 1131,
            "video_name": "DIVERS_PARL_AD_05_0003"
        },
        {
            "name": "5440",
            "score": "0.969",
            "index": 13,
            "selectedWords": [
                "incr\u00e9dule",
                "autre",
                "\u00e9tonn\u00e9e"
            ],
            "freeResponses": [],
            "nbPlayClick": 2,
            "response": "",
            "expression": "ETONNE",
            "csv_id": 5474,
            "video_name": "DIVERS_BOOK_ETONNE_AD_01_0002"
        },
        {
            "name": "830",
            "score": "0.846",
            "index": 14,
            "selectedWords": [
                "d\u00e9termin\u00e9e",
                "en rogne"
            ],
            "freeResponses": [],
            "nbPlayClick": 2,
            "expression": "INCREDULE",
            "csv_id": 830,
            "video_name": "DIVERS_PARL_INCREDULE_AD_01_0001"
        },
        {
            "name": "2693",
            "score": "0.931",
            "index": 15,
            "selectedWords": [
                "autre",
                "inexpressive",
                "froide"
            ],
            "freeResponses": [],
            "nbPlayClick": 2,
            "expression": "PENSIF",
            "csv_id": 2693,
            "video_name": "DIVERS_PARL_PENSIF_AD_01_0002"
        },
        {
            "name": "2917",
            "score": "0.937",
            "index": 16,
            "selectedWords": [
                "autre",
                "inexpressive",
                "terne"
            ],
            "freeResponses": [],
            "nbPlayClick": 1,
            "expression": "NEUTRE",
            "csv_id": 2917,
            "video_name": "DIVERS_PARL_AD_06_0003"
        },
        {
            "name": "10633",
            "score": "0.993",
            "index": 17,
            "selectedWords": [
                "d\u00e9sol\u00e9e",
                "autre",
                "autre",
                "d\u00e9courag\u00e9e"
            ],
            "freeResponses": [],
            "nbPlayClick": 1,
            "expression": "EVIDENCE",
            "csv_id": 10667,
            "video_name": "DIVERS_PARL_EVIDENCE_AD_02_0002"
        },
        {
            "name": "10036",
            "score": "0.992",
            "index": 18,
            "selectedWords": [
                "enthousiaste",
                "tonique"
            ],
            "freeResponses": [],
            "nbPlayClick": 1,
            "expression": "ENTHOUSIASTE",
            "csv_id": 10070,
            "video_name": "DIVERS_PARL_ENTHOUSIASTE_AD_02_0001"
        },
        {
            "name": "12413",
            "score": "0.999",
            "index": 19,
            "selectedWords": [
                "ennuy\u00e9e",
                "officielle"
            ],
            "freeResponses": [],
            "nbPlayClick": 1,
            "expression": "NEUTRE",
            "csv_id": 12450,
            "video_name": "DIVERS_PARL_AD_02_0002"
        },
        {
            "name": "8930",
            "score": "0.988",
            "index": 20,
            "selectedWords": [
                "neutre",
                "s\u00fbre"
            ],
            "freeResponses": [],
            "nbPlayClick": 1,
            "expression": "NEUTRE",
            "csv_id": 8964,
            "video_name": "DIVERS_PARL_AD_03_0002"
        },
        {
            "name": "3037",
            "score": "0.939",
            "index": 21,
            "selectedWords": [
                "espi\u00e8gle",
                "malicieuse"
            ],
            "freeResponses": [],
            "nbPlayClick": 1,
            "expression": "ESPIEGLE",
            "csv_id": 3037,
            "video_name": "DIVERS_PARL_ESPIEGLE_AD_01_0001"
        },
        {
            "name": "6531",
            "score": "0.977",
            "index": 22,
            "selectedWords": [
                "neutre",
                "autre",
                "autre",
                "autre",
                "songeuse"
            ],
            "freeResponses": [],
            "nbPlayClick": 2,
            "expression": "NEUTRE",
            "csv_id": 6565,
            "video_name": "DIVERS_BOOK_AD_01_0002"
        },
        {
            "name": "8937",
            "score": "0.988",
            "index": 23,
            "selectedWords": [
                "\u00e9vidente",
                "autre",
                "neutre"
            ],
            "freeResponses": [],
            "nbPlayClick": 1,
            "expression": "NEUTRE",
            "csv_id": 8971,
            "video_name": "DIVERS_PARL_AD_04_0004"
        },
        {
            "name": "5879",
            "score": "0.973",
            "index": 24,
            "selectedWords": [
                "d\u00e9sol\u00e9e",
                "autre",
                "autre",
                "autre",
                "autre",
                "attrist\u00e9e"
            ],
            "freeResponses": [],
            "nbPlayClick": 1,
            "expression": "SUPPLIANT",
            "csv_id": 5913,
            "video_name": "DIVERS_PARL_SUPPLIANT_AD_02_0001"
        },
        {
            "name": "3885",
            "score": "0.953",
            "index": 25,
            "selectedWords": [
                "officielle",
                "autre",
                "autre",
                "indiscutable"
            ],
            "freeResponses": [],
            "nbPlayClick": 1,
            "expression": "NEUTRE",
            "csv_id": 3885,
            "video_name": "DIVERS_PARL_AD_04_0003"
        },
        {
            "name": "2984",
            "score": "0.938",
            "index": 26,
            "selectedWords": [
                "autre",
                "implorante",
                "prostern\u00e9e"
            ],
            "freeResponses": [],
            "nbPlayClick": 1,
            "expression": "SUPPLIANT",
            "csv_id": 2984,
            "video_name": "DIVERS_PARL_SUPPLIANT_AD_02_0001"
        },
        {
            "name": "4879",
            "score": "0.965",
            "index": 27,
            "selectedWords": [
                "d\u00e9termin\u00e9e",
                "enthousiaste"
            ],
            "freeResponses": [],
            "nbPlayClick": 1,
            "expression": "ENTHOUSIASTE",
            "csv_id": 4913,
            "video_name": "DIVERS_PARL_ENTHOUSIASTE_AD_01_0003"
        },
        {
            "name": "6289",
            "score": "0.976",
            "index": 28,
            "selectedWords": [
                "en col\u00e8re",
                "irrit\u00e9e"
            ],
            "freeResponses": [],
            "nbPlayClick": 1,
            "expression": "COLERE",
            "csv_id": 6323,
            "video_name": "DIVERS_PARL_COLERE_AD_01_0003"
        },
        {
            "name": "7918",
            "score": "0.984",
            "index": 29,
            "selectedWords": [
                "froide",
                "d\u00e9cid\u00e9e"
            ],
            "freeResponses": [],
            "nbPlayClick": 1,
            "expression": "NEUTRE",
            "csv_id": 7952,
            "video_name": "DIVERS_PARL_AD_04_0001"
        },
        {
            "name": "11946",
            "score": "0.997",
            "index": 30,
            "selectedWords": [
                "r\u00e9fl\u00e9chie",
                "autre",
                "autre",
                "atone"
            ],
            "freeResponses": [],
            "nbPlayClick": 1,
            "expression": "NEUTRE",
            "csv_id": 11983,
            "video_name": "DIVERS_PARL_AD_02_0001"
        },
        {
            "name": "3377",
            "score": "0.945",
            "index": 31,
            "selectedWords": [
                "en col\u00e8re",
                "autre",
                "accabl\u00e9e"
            ],
            "freeResponses": [],
            "nbPlayClick": 2,
            "expression": "ENTHOUSIASTE",
            "csv_id": 3377,
            "video_name": "DIVERS_PARL_ENTHOUSIASTE_AD_01_0003"
        },
        {
            "name": "12235",
            "score": "0.998",
            "index": 32,
            "selectedWords": [
                "suppliante",
                "autre",
                "autre",
                "in\u00e9branlable"
            ],
            "freeResponses": [],
            "nbPlayClick": 1,
            "expression": "NEUTRE",
            "csv_id": 12272,
            "video_name": "DIVERS_PARL_AD_01_0005"
        },
        {
            "name": "11121",
            "score": "0.995",
            "index": 33,
            "selectedWords": [
                "ennuy\u00e9e",
                "autre",
                "autre",
                "autre",
                "songeuse"
            ],
            "freeResponses": [],
            "nbPlayClick": 1,
            "response": "enn",
            "expression": "PENSIF",
            "csv_id": 11155,
            "video_name": "DIVERS_PARL_PENSIF_AD_01_0002"
        },
        {
            "name": "11615",
            "score": "0.996",
            "index": 34,
            "selectedWords": [
                "r\u00e9confortante",
                "autre",
                "autre",
                "autre",
                "autre",
                "autre",
                "autre",
                "navr\u00e9e"
            ],
            "freeResponses": [],
            "nbPlayClick": 1,
            "expression": "SUPPLIANT",
            "csv_id": 11652,
            "video_name": "DIVERS_PARL_SUPPLIANT_AD_02_0002"
        },
        {
            "name": "3975",
            "score": "0.954",
            "index": 35,
            "selectedWords": [
                "enthousiaste",
                "autre",
                "inexpressive"
            ],
            "freeResponses": [],
            "nbPlayClick": 2,
            "expression": "NEUTRE",
            "csv_id": 3975,
            "video_name": "DIVERS_BOOK_AD_01_0002"
        },
        {
            "name": "9204",
            "score": "0.989",
            "index": 36,
            "selectedWords": [
                "autre",
                "autre",
                "autre",
                "autre",
                "autre",
                "autre",
                "autre",
                "autre",
                "espi\u00e8gle"
            ],
            "freeResponses": [
                "enjou\u00e9e"
            ],
            "nbPlayClick": 1,
            "response": "enjou\u00e9e",
            "expression": "NEUTRE",
            "csv_id": 9238,
            "video_name": "DIVERS_BOOK_AD_01_0001"
        },
        {
            "name": "3538",
            "score": "0.947",
            "index": 37,
            "selectedWords": [
                "autre",
                "dubitative"
            ],
            "freeResponses": [
                "enjou\u00e9e"
            ],
            "nbPlayClick": 3,
            "response": "enjou\u00e9e",
            "expression": "RECONFORTANT",
            "csv_id": 3538,
            "video_name": "DIVERS_BOOK_RECONFORTANT_AD_03_0002"
        },
        {
            "name": "5790",
            "score": "0.972",
            "index": 38,
            "selectedWords": [
                "d\u00e9termin\u00e9e",
                "autre",
                "officielle"
            ],
            "freeResponses": [],
            "nbPlayClick": 2,
            "expression": "NEUTRE",
            "csv_id": 5824,
            "video_name": "DIVERS_PARL_AD_05_0002"
        },
        {
            "name": "8679",
            "score": "0.987",
            "index": 39,
            "selectedWords": [
                "froide",
                "neutre"
            ],
            "freeResponses": [],
            "nbPlayClick": 2,
            "expression": "NEUTRE",
            "csv_id": 8713,
            "video_name": "DIVERS_PARL_AD_04_0002"
        },
        {
            "name": "9253",
            "score": "0.989",
            "index": 40,
            "selectedWords": [
                "officielle",
                "tonique"
            ],
            "freeResponses": [],
            "nbPlayClick": 1,
            "response": "off",
            "expression": "NEUTRE",
            "csv_id": 9287,
            "video_name": "DIVERS_PARL_AD_01_0005"
        },
        {
            "name": "8640",
            "score": "0.987",
            "index": 41,
            "selectedWords": [
                "d\u00e9termin\u00e9e",
                "autre",
                "implorante"
            ],
            "freeResponses": [],
            "nbPlayClick": 1,
            "expression": "NEUTRE",
            "csv_id": 8674,
            "video_name": "DIVERS_PARL_AD_06_0001"
        },
        {
            "name": "2520",
            "score": "0.927",
            "index": 42,
            "selectedWords": [
                "afflig\u00e9e",
                "navr\u00e9e"
            ],
            "freeResponses": [],
            "nbPlayClick": 3,
            "expression": "NEUTRE",
            "csv_id": 2520,
            "video_name": "DIVERS_PARL_AD_05_0003"
        },
        {
            "name": "7201",
            "score": "0.981",
            "index": 43,
            "selectedWords": [
                "d\u00e9termin\u00e9e",
                "autre",
                "imp\u00e9n\u00e9trable"
            ],
            "freeResponses": [],
            "nbPlayClick": 1,
            "expression": "NEUTRE",
            "csv_id": 7235,
            "video_name": "DIVERS_PARL_AD_01_0005"
        },
        {
            "name": "9160",
            "score": "0.989",
            "index": 44,
            "selectedWords": [
                "en rogne",
                "sid\u00e9r\u00e9e"
            ],
            "freeResponses": [],
            "nbPlayClick": 2,
            "expression": "INCREDULE",
            "csv_id": 9194,
            "video_name": "DIVERS_BOOK_INCREDULE_AD_01_0001"
        },
        {
            "name": "5894",
            "score": "0.973",
            "index": 45,
            "selectedWords": [
                "neutre",
                "autre",
                "autre",
                "inexpressive"
            ],
            "freeResponses": [],
            "nbPlayClick": 1,
            "expression": "NEUTRE",
            "csv_id": 5928,
            "video_name": "DIVERS_BOOK_AD_04_0002"
        },
        {
            "name": "6157",
            "score": "0.975",
            "index": 46,
            "selectedWords": [
                "autre",
                "autre",
                "autre",
                "autre",
                "ennuy\u00e9e",
                "contrari\u00e9e"
            ],
            "freeResponses": [],
            "nbPlayClick": 1,
            "expression": "NEUTRE",
            "csv_id": 6191,
            "video_name": "DIVERS_PARL_AD_03_0001"
        },
        {
            "name": "5461",
            "score": "0.970",
            "index": 47,
            "selectedWords": [
                "enthousiaste",
                "d\u00e9courag\u00e9e"
            ],
            "freeResponses": [],
            "nbPlayClick": 1,
            "expression": "ENTHOUSIASTE",
            "csv_id": 5495,
            "video_name": "DIVERS_PARL_ENTHOUSIASTE_AD_02_0001"
        },
        {
            "name": "386",
            "score": "0.786",
            "index": 48,
            "selectedWords": [
                "convaincue",
                "pensante"
            ],
            "freeResponses": [],
            "nbPlayClick": 1,
            "expression": "RECONFORTANT",
            "csv_id": 386,
            "video_name": "ESTYLE_RECONFORTANT_AD_02_0001"
        },
        {
            "name": "10628",
            "score": "0.993",
            "index": 49,
            "selectedWords": [
                "autre",
                "autre",
                "autre",
                "autre",
                "ennuy\u00e9e",
                "autre",
                "autre",
                "sceptique"
            ],
            "freeResponses": [],
            "nbPlayClick": 1,
            "expression": "NEUTRE",
            "csv_id": 10662,
            "video_name": "DIVERS_PARL_AD_02_0004"
        },
        {
            "name": "9741",
            "score": "0.991",
            "index": 50,
            "selectedWords": [
                "officielle",
                "autre",
                "autre",
                "autre",
                "incontestable"
            ],
            "freeResponses": [],
            "nbPlayClick": 1,
            "expression": "NEUTRE",
            "csv_id": 9775,
            "video_name": "DIVERS_PARL_AD_04_0001"
        },
        {
            "name": "9313",
            "score": "0.989",
            "index": 51,
            "selectedWords": [
                "in\u00e9branlable",
                "certaine"
            ],
            "freeResponses": [],
            "nbPlayClick": 1,
            "expression": "NEUTRE",
            "csv_id": 9347,
            "video_name": "DIVERS_PARL_AD_02_0002"
        },
        {
            "name": "3505",
            "score": "0.947",
            "index": 52,
            "selectedWords": [
                "incr\u00e9dule",
                "autre",
                "autre",
                "interloqu\u00e9e"
            ],
            "freeResponses": [],
            "nbPlayClick": 2,
            "expression": "NEUTRE",
            "csv_id": 3505,
            "video_name": "DIVERS_BOOK_AD_04_0001"
        },
        {
            "name": "10719",
            "score": "0.994",
            "index": 53,
            "selectedWords": [
                "autre",
                "autre",
                "d\u00e9pit\u00e9e",
                "autre",
                "d\u00e9sol\u00e9e"
            ],
            "freeResponses": [],
            "nbPlayClick": 3,
            "response": "d",
            "expression": "NEUTRE",
            "csv_id": 10753,
            "video_name": "DIVERS_BOOK_AD_04_0001"
        },
        {
            "name": "2409",
            "score": "0.924",
            "index": 54,
            "selectedWords": [
                "incr\u00e9dule",
                "m\u00e9fiante"
            ],
            "freeResponses": [],
            "nbPlayClick": 1,
            "expression": "PENSIF",
            "csv_id": 2409,
            "video_name": "DIVERS_PARL_PENSIF_AD_01_0002"
        },
        {
            "name": "8178",
            "score": "0.985",
            "index": 55,
            "selectedWords": [
                "neutre",
                "limpide"
            ],
            "freeResponses": [],
            "nbPlayClick": 1,
            "expression": "NEUTRE",
            "csv_id": 8212,
            "video_name": "DIVERS_BOOK_AD_03_0002"
        },
        {
            "name": "9538",
            "score": "0.990",
            "index": 56,
            "selectedWords": [
                "d\u00e9termin\u00e9e",
                "autre",
                "autre",
                "autre",
                "autre",
                "autre",
                "autre",
                "autre",
                "finaude"
            ],
            "freeResponses": [],
            "nbPlayClick": 2,
            "expression": "NEUTRE",
            "csv_id": 9572,
            "video_name": "DIVERS_PARL_AD_01_0005"
        },
        {
            "name": "7187",
            "score": "0.980",
            "index": 57,
            "selectedWords": [
                "d\u00e9sol\u00e9e",
                "autre",
                "autre",
                "autre",
                "autre",
                "attrist\u00e9e"
            ],
            "freeResponses": [],
            "nbPlayClick": 4,
            "expression": "NEUTRE",
            "csv_id": 7221,
            "video_name": "DIVERS_PARL_AD_02_0004"
        },
        {
            "name": "5808",
            "score": "0.972",
            "index": 58,
            "selectedWords": [
                "neutre",
                "s\u00fbre"
            ],
            "freeResponses": [],
            "nbPlayClick": 2,
            "expression": "NEUTRE",
            "csv_id": 5842,
            "video_name": "DIVERS_PARL_AD_05_0001"
        },
        {
            "name": "5552",
            "score": "0.970",
            "index": 59,
            "selectedWords": [
                "d\u00e9pit\u00e9e",
                "accabl\u00e9e"
            ],
            "freeResponses": [],
            "nbPlayClick": 1,
            "expression": "NEUTRE",
            "csv_id": 5586,
            "video_name": "DIVERS_PARL_AD_05_0002"
        }
    ],
    "training": [
        {
            "name": "77",
            "score": "0.639",
            "index": 0,
            "selectedWords": [
                "neutre",
                "autre",
                "autre",
                "autre",
                "autre",
                "autre",
                "autre",
                "autre",
                "autre",
                "autre",
                "autre",
                "autre",
                "\u00e9loquente"
            ],
            "freeResponses": [],
            "nbPlayClick": 2,
            "expression": "NEUTRE"
        }
    ],
    "filenameDate": "2024-01-09_21-23"
}