{
    "user": {
        "isProlific": true,
        "id": "61444b05068a9448e69edca2",
        "session": "64f0a5b36210c22aaff2b472",
        "study": "64ef977375f88e4e1174dce0"
    },
    "userAgent": "Mozilla/5.0 (Macintosh; Intel Mac OS X 10_15_7) AppleWebKit/605.1.15 (KHTML, like Gecko) Version/15.4 Safari/605.1.15",
    "landingDate": "2023-08-31T14:41:57.050Z",
    "startDate": "2023-08-31T14:42:16.817Z",
    "endDate": "2023-08-31T14:57:03.105Z",
    "reviews": [
        {
            "name": "7495",
            "score": "0.982",
            "index": 0,
            "selectedWords": [
                "suppliante",
                "larmoyante"
            ],
            "freeResponses": [],
            "nbPlayClick": 2,
            "expression": "SUPPLIANT",
            "csv_id": 7529,
            "video_name": "DIVERS_PARL_SUPPLIANT_AD_02_0001"
        },
        {
            "name": "11581",
            "score": "0.996",
            "index": 1,
            "selectedWords": [
                "d\u00e9termin\u00e9e",
                "r\u00e9solue"
            ],
            "freeResponses": [],
            "nbPlayClick": 1,
            "expression": "NEUTRE",
            "csv_id": 11618,
            "video_name": "DIVERS_PARL_AD_02_0004"
        },
        {
            "name": "5076",
            "score": "0.966",
            "index": 2,
            "selectedWords": [
                "neutre",
                "certaine"
            ],
            "freeResponses": [],
            "nbPlayClick": 1,
            "expression": "NEUTRE",
            "csv_id": 5110,
            "video_name": "DIVERS_BOOK_AD_01_0001"
        },
        {
            "name": "8034",
            "score": "0.984",
            "index": 3,
            "selectedWords": [
                "atone",
                "d\u00e9sol\u00e9e"
            ],
            "freeResponses": [],
            "nbPlayClick": 1,
            "expression": "DESOLE",
            "csv_id": 8068,
            "video_name": "DIVERS_BOOK_DESOLE_AD_03_0002"
        },
        {
            "name": "1839",
            "score": "0.906",
            "index": 4,
            "selectedWords": [
                "d\u00e9termin\u00e9e",
                "manifeste"
            ],
            "freeResponses": [],
            "nbPlayClick": 1,
            "expression": "NEUTRE",
            "csv_id": 1839,
            "video_name": "DIVERS_PARL_AD_06_0003"
        },
        {
            "name": "10404",
            "score": "0.993",
            "index": 5,
            "selectedWords": [
                "neutre",
                "limpide"
            ],
            "freeResponses": [],
            "nbPlayClick": 1,
            "expression": "NEUTRE",
            "csv_id": 10438,
            "video_name": "DIVERS_BOOK_AD_04_0002"
        },
        {
            "name": "7355",
            "score": "0.981",
            "index": 6,
            "selectedWords": [
                "d\u00e9termin\u00e9e",
                "r\u00e9solue"
            ],
            "freeResponses": [],
            "nbPlayClick": 1,
            "expression": "NEUTRE",
            "csv_id": 7389,
            "video_name": "DIVERS_PARL_AD_01_0004"
        },
        {
            "name": "8999",
            "score": "0.988",
            "index": 7,
            "selectedWords": [
                "d\u00e9termin\u00e9e",
                "certaine",
                "entreprenante"
            ],
            "freeResponses": [],
            "nbPlayClick": 1,
            "expression": "NEUTRE",
            "csv_id": 9033,
            "video_name": "DIVERS_PARL_AD_05_0003"
        },
        {
            "name": "12080",
            "score": "0.997",
            "index": 8,
            "selectedWords": [
                "neutre",
                "patente"
            ],
            "freeResponses": [],
            "nbPlayClick": 1,
            "expression": "NEUTRE",
            "csv_id": 12117,
            "video_name": "DIVERS_BOOK_AD_01_0002"
        },
        {
            "name": "11064",
            "score": "0.994",
            "index": 9,
            "selectedWords": [
                "pensive",
                "m\u00e9ditative"
            ],
            "freeResponses": [],
            "nbPlayClick": 1,
            "expression": "NEUTRE",
            "csv_id": 11098,
            "video_name": "DIVERS_PARL_AD_02_0002"
        },
        {
            "name": "8166",
            "score": "0.985",
            "index": 10,
            "selectedWords": [
                "neutre",
                "s\u00fbre"
            ],
            "freeResponses": [],
            "nbPlayClick": 1,
            "expression": "NEUTRE",
            "csv_id": 8200,
            "video_name": "DIVERS_PARL_AD_01_0005"
        },
        {
            "name": "6588",
            "score": "0.977",
            "index": 11,
            "selectedWords": [
                "neutre",
                "s\u00fbre"
            ],
            "freeResponses": [],
            "nbPlayClick": 1,
            "expression": "NEUTRE",
            "csv_id": 6622,
            "video_name": "DIVERS_PARL_AD_03_0004"
        },
        {
            "name": "11004",
            "score": "0.994",
            "index": 12,
            "selectedWords": [
                "neutre",
                "froide"
            ],
            "freeResponses": [],
            "nbPlayClick": 1,
            "expression": "NEUTRE",
            "csv_id": 11038,
            "video_name": "DIVERS_BOOK_AD_04_0001"
        },
        {
            "name": "4041",
            "score": "0.955",
            "index": 13,
            "selectedWords": [
                "espi\u00e8gle",
                "narquoise"
            ],
            "freeResponses": [],
            "nbPlayClick": 1,
            "expression": "INCREDULE",
            "csv_id": 4041,
            "video_name": "DIVERS_PARL_INCREDULE_AD_02_0003"
        },
        {
            "name": "11872",
            "score": "0.997",
            "index": 14,
            "selectedWords": [
                "s\u00fbre",
                "certaine"
            ],
            "freeResponses": [],
            "nbPlayClick": 1,
            "response": "s",
            "expression": "NEUTRE",
            "csv_id": 11909,
            "video_name": "DIVERS_PARL_AD_06_0001"
        },
        {
            "name": "6078",
            "score": "0.974",
            "index": 15,
            "selectedWords": [
                "\u00e9tonn\u00e9e",
                "ardente"
            ],
            "freeResponses": [],
            "nbPlayClick": 1,
            "expression": "DETERMINE",
            "csv_id": 6112,
            "video_name": "DIVERS_BOOK_DETERMINE_AD_03_0001"
        },
        {
            "name": "11598",
            "score": "0.996",
            "index": 16,
            "selectedWords": [
                "pensive",
                "songeuse"
            ],
            "freeResponses": [],
            "nbPlayClick": 1,
            "expression": "NEUTRE",
            "csv_id": 11635,
            "video_name": "DIVERS_PARL_AD_02_0001"
        },
        {
            "name": "6477",
            "score": "0.977",
            "index": 17,
            "selectedWords": [
                "neutre",
                "notoire"
            ],
            "freeResponses": [],
            "nbPlayClick": 2,
            "expression": "NEUTRE",
            "csv_id": 6511,
            "video_name": "DIVERS_PARL_AD_06_0002"
        },
        {
            "name": "3005",
            "score": "0.938",
            "index": 18,
            "selectedWords": [
                "enthousiaste",
                "tonique"
            ],
            "freeResponses": [],
            "nbPlayClick": 1,
            "expression": "ENTHOUSIASTE",
            "csv_id": 3005,
            "video_name": "DIVERS_BOOK_ENTHOUSIASTE_AD_01_0004"
        },
        {
            "name": "8390",
            "score": "0.986",
            "index": 19,
            "selectedWords": [
                "atone",
                "absente"
            ],
            "freeResponses": [],
            "nbPlayClick": 1,
            "expression": "INCREDULE",
            "csv_id": 8424,
            "video_name": "DIVERS_PARL_INCREDULE_AD_02_0003"
        },
        {
            "name": "9354",
            "score": "0.989",
            "index": 20,
            "selectedWords": [
                "neutre",
                "s\u00fbre"
            ],
            "freeResponses": [],
            "nbPlayClick": 1,
            "expression": "NEUTRE",
            "csv_id": 9388,
            "video_name": "DIVERS_BOOK_AD_01_0002"
        },
        {
            "name": "6919",
            "score": "0.979",
            "index": 21,
            "selectedWords": [
                "d\u00e9termin\u00e9e",
                "manifeste"
            ],
            "freeResponses": [],
            "nbPlayClick": 1,
            "expression": "NEUTRE",
            "csv_id": 6953,
            "video_name": "DIVERS_PARL_AD_06_0001"
        },
        {
            "name": "2446",
            "score": "0.925",
            "index": 22,
            "selectedWords": [
                "espi\u00e8gle",
                "malicieuse"
            ],
            "freeResponses": [],
            "nbPlayClick": 1,
            "expression": "INCREDULE",
            "csv_id": 2446,
            "video_name": "DIVERS_BOOK_INCREDULE_AD_01_0001"
        },
        {
            "name": "11684",
            "score": "0.996",
            "index": 23,
            "selectedWords": [
                "\u00e9tonn\u00e9e",
                "r\u00e9fl\u00e9chie"
            ],
            "freeResponses": [],
            "nbPlayClick": 1,
            "expression": "NEUTRE",
            "csv_id": 11721,
            "video_name": "DIVERS_BOOK_AD_01_0001"
        },
        {
            "name": "5147",
            "score": "0.967",
            "index": 24,
            "selectedWords": [
                "d\u00e9termin\u00e9e",
                "manifeste",
                "infaillible"
            ],
            "freeResponses": [],
            "nbPlayClick": 1,
            "expression": "RECONFORTANT",
            "csv_id": 5181,
            "video_name": "DIVERS_PARL_RECONFORTANT_AD_02_0001"
        },
        {
            "name": "6640",
            "score": "0.978",
            "index": 25,
            "selectedWords": [
                "apaisante",
                "encourageante"
            ],
            "freeResponses": [],
            "nbPlayClick": 1,
            "expression": "EVIDENCE",
            "csv_id": 6674,
            "video_name": "DIVERS_BOOK_EVIDENCE_AD_01_0002"
        },
        {
            "name": "11741",
            "score": "0.996",
            "index": 26,
            "selectedWords": [
                "neutre",
                "limpide"
            ],
            "freeResponses": [],
            "nbPlayClick": 1,
            "expression": "NEUTRE",
            "csv_id": 11778,
            "video_name": "DIVERS_PARL_AD_04_0004"
        },
        {
            "name": "8885",
            "score": "0.988",
            "index": 27,
            "selectedWords": [
                "d\u00e9termin\u00e9e",
                "manifeste"
            ],
            "freeResponses": [],
            "nbPlayClick": 1,
            "expression": "DETERMINE",
            "csv_id": 8919,
            "video_name": "DIVERS_PARL_DETERMINE_AD_01_0002"
        },
        {
            "name": "10488",
            "score": "0.993",
            "index": 28,
            "selectedWords": [
                "\u00e9vidente",
                "manifeste"
            ],
            "freeResponses": [],
            "nbPlayClick": 1,
            "expression": "NEUTRE",
            "csv_id": 10522,
            "video_name": "DIVERS_PARL_AD_02_0001"
        },
        {
            "name": "10617",
            "score": "0.993",
            "index": 29,
            "selectedWords": [
                "neutre",
                "notoire"
            ],
            "freeResponses": [],
            "nbPlayClick": 1,
            "expression": "NEUTRE",
            "csv_id": 10651,
            "video_name": "DIVERS_PARL_AD_03_0004"
        },
        {
            "name": "5669",
            "score": "0.971",
            "index": 30,
            "selectedWords": [
                "certaine",
                "consolante"
            ],
            "freeResponses": [],
            "nbPlayClick": 1,
            "expression": "DESOLE",
            "csv_id": 5703,
            "video_name": "DIVERS_PARL_DESOLE_AD_02_0002"
        },
        {
            "name": "6871",
            "score": "0.979",
            "index": 31,
            "selectedWords": [
                "\u00e9vidente",
                "incontestable"
            ],
            "freeResponses": [],
            "nbPlayClick": 1,
            "expression": "SUPPLIANT",
            "csv_id": 6905,
            "video_name": "DIVERS_PARL_SUPPLIANT_AD_02_0002"
        },
        {
            "name": "7169",
            "score": "0.980",
            "index": 32,
            "selectedWords": [
                "attrist\u00e9e",
                "consolante"
            ],
            "freeResponses": [],
            "nbPlayClick": 1,
            "expression": "DESOLE",
            "csv_id": 7203,
            "video_name": "DIVERS_PARL_DESOLE_AD_02_0002"
        },
        {
            "name": "6471",
            "score": "0.977",
            "index": 33,
            "selectedWords": [
                "espi\u00e8gle",
                "fac\u00e9tieuse"
            ],
            "freeResponses": [],
            "nbPlayClick": 1,
            "expression": "RECONFORTANT",
            "csv_id": 6505,
            "video_name": "DIVERS_BOOK_RECONFORTANT_AD_03_0002"
        },
        {
            "name": "10486",
            "score": "0.993",
            "index": 34,
            "selectedWords": [
                "neutre",
                "limpide"
            ],
            "freeResponses": [],
            "nbPlayClick": 1,
            "expression": "NEUTRE",
            "csv_id": 10520,
            "video_name": "DIVERS_BOOK_AD_04_0002"
        },
        {
            "name": "5593",
            "score": "0.971",
            "index": 35,
            "selectedWords": [
                "d\u00e9termin\u00e9e",
                "manifeste"
            ],
            "freeResponses": [],
            "nbPlayClick": 1,
            "expression": "NEUTRE",
            "csv_id": 5627,
            "video_name": "DIVERS_PARL_AD_04_0002"
        },
        {
            "name": "5013",
            "score": "0.966",
            "index": 36,
            "selectedWords": [
                "en col\u00e8re",
                "hargneuse",
                "f\u00e2ch\u00e9e"
            ],
            "freeResponses": [],
            "nbPlayClick": 1,
            "expression": "COLERE",
            "csv_id": 5047,
            "video_name": "DIVERS_PARL_COLERE_AD_01_0003"
        },
        {
            "name": "4520",
            "score": "0.961",
            "index": 37,
            "selectedWords": [
                "en col\u00e8re",
                "courrouc\u00e9e"
            ],
            "freeResponses": [],
            "nbPlayClick": 1,
            "expression": "COLERE",
            "csv_id": 4554,
            "video_name": "DIVERS_PARL_COLERE_AD_01_0004"
        },
        {
            "name": "9895",
            "score": "0.991",
            "index": 38,
            "selectedWords": [
                "\u00e9vidente",
                "incontestable"
            ],
            "freeResponses": [],
            "nbPlayClick": 2,
            "expression": "NEUTRE",
            "csv_id": 9929,
            "video_name": "DIVERS_PARL_AD_03_0002"
        },
        {
            "name": "6673",
            "score": "0.978",
            "index": 39,
            "selectedWords": [
                "neutre",
                "certaine"
            ],
            "freeResponses": [],
            "nbPlayClick": 1,
            "expression": "NEUTRE",
            "csv_id": 6707,
            "video_name": "DIVERS_PARL_AD_02_0001"
        },
        {
            "name": "8891",
            "score": "0.988",
            "index": 40,
            "selectedWords": [
                "en col\u00e8re",
                "irrit\u00e9e",
                "m\u00e9contente"
            ],
            "freeResponses": [],
            "nbPlayClick": 1,
            "expression": "COLERE",
            "csv_id": 8925,
            "video_name": "DIVERS_PARL_COLERE_AD_01_0004"
        },
        {
            "name": "4550",
            "score": "0.961",
            "index": 41,
            "selectedWords": [
                "pensive",
                "r\u00e9fl\u00e9chie"
            ],
            "freeResponses": [],
            "nbPlayClick": 1,
            "expression": "DESOLE",
            "csv_id": 4584,
            "video_name": "DIVERS_PARL_DESOLE_AD_01_0004"
        },
        {
            "name": "5656",
            "score": "0.971",
            "index": 42,
            "selectedWords": [
                "en col\u00e8re",
                "hargneuse",
                "m\u00e9contente"
            ],
            "freeResponses": [],
            "nbPlayClick": 1,
            "expression": "COLERE",
            "csv_id": 5690,
            "video_name": "DIVERS_PARL_COLERE_AD_02_0002"
        },
        {
            "name": "11150",
            "score": "0.995",
            "index": 43,
            "selectedWords": [
                "malicieuse",
                "fac\u00e9tieuse"
            ],
            "freeResponses": [],
            "nbPlayClick": 1,
            "expression": "ENTHOUSIASTE",
            "csv_id": 11184,
            "video_name": "DIVERS_PARL_ENTHOUSIASTE_AD_02_0001"
        },
        {
            "name": "6874",
            "score": "0.979",
            "index": 44,
            "selectedWords": [
                "neutre",
                "limpide"
            ],
            "freeResponses": [],
            "nbPlayClick": 1,
            "expression": "NEUTRE",
            "csv_id": 6908,
            "video_name": "DIVERS_PARL_AD_06_0002"
        },
        {
            "name": "10086",
            "score": "0.992",
            "index": 45,
            "selectedWords": [
                "\u00e9vidente",
                "indubitable"
            ],
            "freeResponses": [],
            "nbPlayClick": 1,
            "expression": "NEUTRE",
            "csv_id": 10120,
            "video_name": "DIVERS_PARL_AD_03_0002"
        },
        {
            "name": "11666",
            "score": "0.996",
            "index": 46,
            "selectedWords": [
                "atone",
                "fade"
            ],
            "freeResponses": [],
            "nbPlayClick": 1,
            "expression": "NEUTRE",
            "csv_id": 11703,
            "video_name": "DIVERS_BOOK_AD_03_0002"
        },
        {
            "name": "2570",
            "score": "0.928",
            "index": 47,
            "selectedWords": [
                "neutre",
                "limpide"
            ],
            "freeResponses": [],
            "nbPlayClick": 1,
            "expression": "NEUTRE",
            "csv_id": 2570,
            "video_name": "DIVERS_PARL_AD_03_0001"
        },
        {
            "name": "2106",
            "score": "0.915",
            "index": 48,
            "selectedWords": [
                "espi\u00e8gle",
                "mutine"
            ],
            "freeResponses": [],
            "nbPlayClick": 1,
            "expression": "INCREDULE",
            "csv_id": 2106,
            "video_name": "DIVERS_BOOK_INCREDULE_AD_01_0001"
        },
        {
            "name": "11788",
            "score": "0.996",
            "index": 49,
            "selectedWords": [
                "neutre",
                "notoire"
            ],
            "freeResponses": [],
            "nbPlayClick": 1,
            "expression": "NEUTRE",
            "csv_id": 11825,
            "video_name": "DIVERS_BOOK_AD_03_0001"
        },
        {
            "name": "2204",
            "score": "0.918",
            "index": 50,
            "selectedWords": [
                "neutre",
                "notoire"
            ],
            "freeResponses": [],
            "nbPlayClick": 1,
            "expression": "NEUTRE",
            "csv_id": 2204,
            "video_name": "DIVERS_PARL_AD_06_0004"
        },
        {
            "name": "6801",
            "score": "0.979",
            "index": 51,
            "selectedWords": [
                "\u00e9tonn\u00e9e",
                "coquine"
            ],
            "freeResponses": [],
            "nbPlayClick": 1,
            "expression": "ETONNE",
            "csv_id": 6835,
            "video_name": "DIVERS_BOOK_ETONNE_AD_03_0001"
        },
        {
            "name": "10119",
            "score": "0.992",
            "index": 52,
            "selectedWords": [
                "d\u00e9termin\u00e9e",
                "manifeste"
            ],
            "freeResponses": [],
            "nbPlayClick": 1,
            "expression": "EVIDENCE",
            "csv_id": 10153,
            "video_name": "DIVERS_PARL_EVIDENCE_AD_02_0002"
        },
        {
            "name": "4211",
            "score": "0.957",
            "index": 53,
            "selectedWords": [
                "espi\u00e8gle",
                "fac\u00e9tieuse",
                "maligne"
            ],
            "freeResponses": [],
            "nbPlayClick": 1,
            "expression": "INCREDULE",
            "csv_id": 4211,
            "video_name": "DIVERS_BOOK_INCREDULE_AD_01_0001"
        },
        {
            "name": "5529",
            "score": "0.970",
            "index": 54,
            "selectedWords": [
                "\u00e9tonn\u00e9e",
                "abasourdie"
            ],
            "freeResponses": [],
            "nbPlayClick": 1,
            "expression": "ETONNE",
            "csv_id": 5563,
            "video_name": "DIVERS_BOOK_ETONNE_AD_01_0004"
        },
        {
            "name": "6009",
            "score": "0.974",
            "index": 55,
            "selectedWords": [
                "espi\u00e8gle",
                "malicieuse"
            ],
            "freeResponses": [],
            "nbPlayClick": 1,
            "expression": "RECONFORTANT",
            "csv_id": 6043,
            "video_name": "DIVERS_PARL_RECONFORTANT_AD_02_0001"
        },
        {
            "name": "12302",
            "score": "0.998",
            "index": 56,
            "selectedWords": [
                "neutre",
                "patente"
            ],
            "freeResponses": [],
            "nbPlayClick": 1,
            "expression": "NEUTRE",
            "csv_id": 12339,
            "video_name": "DIVERS_BOOK_AD_04_0001"
        },
        {
            "name": "2082",
            "score": "0.914",
            "index": 57,
            "selectedWords": [
                "espi\u00e8gle",
                "narquoise"
            ],
            "freeResponses": [],
            "nbPlayClick": 1,
            "expression": "INCREDULE",
            "csv_id": 2082,
            "video_name": "DIVERS_BOOK_INCREDULE_AD_01_0001"
        },
        {
            "name": "11026",
            "score": "0.994",
            "index": 58,
            "selectedWords": [
                "pensive",
                "r\u00eaveuse"
            ],
            "freeResponses": [],
            "nbPlayClick": 1,
            "expression": "PENSIF",
            "csv_id": 11060,
            "video_name": "DIVERS_PARL_PENSIF_AD_01_0002"
        },
        {
            "name": "516",
            "score": "0.808",
            "index": 59,
            "selectedWords": [
                "d\u00e9termin\u00e9e",
                "r\u00e9solue"
            ],
            "freeResponses": [],
            "nbPlayClick": 1,
            "expression": "NEUTRE",
            "csv_id": 516,
            "video_name": "DIVERS_PARL_AD_03_0001"
        }
    ],
    "training": [
        {
            "name": "77",
            "score": "0.639",
            "index": 0,
            "selectedWords": [
                "d\u00e9termin\u00e9e",
                "r\u00e9solue"
            ],
            "freeResponses": [],
            "nbPlayClick": 1,
            "expression": "NEUTRE"
        }
    ],
    "filenameDate": "2023-08-31_16-57"
}