{
    "user": {
        "isProlific": true,
        "id": "6145a3537543ca6dca883190",
        "session": "64f1067383e11fc6ee1a1c13",
        "study": "64ef977375f88e4e1174dce0"
    },
    "userAgent": "Mozilla/5.0 (Windows NT 10.0; Win64; x64; rv:109.0) Gecko/20100101 Firefox/117.0",
    "landingDate": "2023-08-31T21:31:40.575Z",
    "startDate": "2023-08-31T21:32:54.760Z",
    "endDate": "2023-08-31T22:02:02.292Z",
    "reviews": [
        {
            "name": "9747",
            "score": "0.991",
            "index": 0,
            "selectedWords": [
                "autre",
                "autre",
                "autre",
                "autre",
                "autre",
                "autre",
                "autre",
                "autre",
                "autre",
                "autre",
                "autre",
                "autre",
                "certaine",
                "s\u00fbre"
            ],
            "freeResponses": [],
            "nbPlayClick": 1,
            "expression": "NEUTRE",
            "csv_id": 9781,
            "video_name": "DIVERS_PARL_AD_03_0002"
        },
        {
            "name": "5289",
            "score": "0.968",
            "index": 1,
            "selectedWords": [
                "enthousiaste",
                "euphorique"
            ],
            "freeResponses": [],
            "nbPlayClick": 2,
            "expression": "ENTHOUSIASTE",
            "csv_id": 5323,
            "video_name": "DIVERS_PARL_ENTHOUSIASTE_AD_02_0001"
        },
        {
            "name": "1874",
            "score": "0.907",
            "index": 2,
            "selectedWords": [
                "r\u00e9fl\u00e9chie",
                "autre",
                "autre",
                "autre",
                "autre",
                "autre",
                "autre",
                "r\u00e9fl\u00e9chissante"
            ],
            "freeResponses": [],
            "nbPlayClick": 3,
            "expression": "PENSIF",
            "csv_id": 1874,
            "video_name": "DIVERS_BOOK_PENSIF_AD_01_0003"
        },
        {
            "name": "5850",
            "score": "0.973",
            "index": 3,
            "selectedWords": [
                "autre",
                "autre",
                "autre",
                "autre",
                "autre",
                "autre",
                "autre",
                "autre",
                "autre",
                "autre",
                "autre",
                "r\u00e9solue",
                "autre",
                "certaine"
            ],
            "freeResponses": [],
            "nbPlayClick": 3,
            "expression": "RECONFORTANT",
            "csv_id": 5884,
            "video_name": "DIVERS_BOOK_RECONFORTANT_AD_01_0004"
        },
        {
            "name": "9926",
            "score": "0.991",
            "index": 4,
            "selectedWords": [
                "neutre",
                "autre",
                "autre",
                "autre",
                "autre",
                "autre",
                "autre",
                "autre",
                "autre",
                "autre",
                "autre",
                "autre",
                "indiscutable"
            ],
            "freeResponses": [],
            "nbPlayClick": 3,
            "expression": "NEUTRE",
            "csv_id": 9960,
            "video_name": "DIVERS_PARL_AD_02_0001"
        },
        {
            "name": "604",
            "score": "0.821",
            "index": 5,
            "selectedWords": [
                "narquoise",
                "taquine"
            ],
            "freeResponses": [],
            "nbPlayClick": 3,
            "expression": "INCREDULE",
            "csv_id": 604,
            "video_name": "DIVERS_PARL_INCREDULE_AD_01_0001"
        },
        {
            "name": "8300",
            "score": "0.985",
            "index": 6,
            "selectedWords": [
                "neutre",
                "autre",
                "autre",
                "autre",
                "autre",
                "autre",
                "autre",
                "autre",
                "autre",
                "autre",
                "autre",
                "autre",
                "autre",
                "autre",
                "autre",
                "autre",
                "autre",
                "autre",
                "officielle"
            ],
            "freeResponses": [],
            "nbPlayClick": 2,
            "expression": "NEUTRE",
            "csv_id": 8334,
            "video_name": "DIVERS_PARL_AD_02_0001"
        },
        {
            "name": "8862",
            "score": "0.988",
            "index": 7,
            "selectedWords": [
                "hargneuse",
                "courrouc\u00e9e"
            ],
            "freeResponses": [],
            "nbPlayClick": 3,
            "expression": "DETERMINE",
            "csv_id": 8896,
            "video_name": "DIVERS_PARL_DETERMINE_AD_01_0004"
        },
        {
            "name": "4342",
            "score": "0.958",
            "index": 8,
            "selectedWords": [
                "neutre",
                "autre",
                "autre",
                "inexpressive"
            ],
            "freeResponses": [],
            "nbPlayClick": 4,
            "expression": "DETERMINE",
            "csv_id": 4342,
            "video_name": "DIVERS_PARL_DETERMINE_AD_01_0002"
        },
        {
            "name": "6397",
            "score": "0.976",
            "index": 9,
            "selectedWords": [
                "r\u00e9confortante",
                "apaisante",
                "autre"
            ],
            "freeResponses": [],
            "nbPlayClick": 2,
            "expression": "RECONFORTANT",
            "csv_id": 6431,
            "video_name": "DIVERS_PARL_RECONFORTANT_AD_02_0001"
        },
        {
            "name": "7376",
            "score": "0.981",
            "index": 10,
            "selectedWords": [
                "autre",
                "fac\u00e9tieuse",
                "malicieuse"
            ],
            "freeResponses": [],
            "nbPlayClick": 2,
            "expression": "ENTHOUSIASTE",
            "csv_id": 7410,
            "video_name": "DIVERS_PARL_ENTHOUSIASTE_AD_01_0003"
        },
        {
            "name": "9934",
            "score": "0.991",
            "index": 11,
            "selectedWords": [
                "irrit\u00e9e",
                "imp\u00e9n\u00e9trable"
            ],
            "freeResponses": [],
            "nbPlayClick": 1,
            "expression": "COLERE",
            "csv_id": 9968,
            "video_name": "DIVERS_PARL_COLERE_AD_01_0004"
        },
        {
            "name": "9566",
            "score": "0.990",
            "index": 12,
            "selectedWords": [
                "d\u00e9termin\u00e9e",
                "autre",
                "implorante"
            ],
            "freeResponses": [],
            "nbPlayClick": 1,
            "expression": "COLERE",
            "csv_id": 9600,
            "video_name": "DIVERS_PARL_COLERE_AD_01_0003"
        },
        {
            "name": "10470",
            "score": "0.993",
            "index": 13,
            "selectedWords": [
                "d\u00e9termin\u00e9e",
                "r\u00e9solue"
            ],
            "freeResponses": [],
            "nbPlayClick": 2,
            "expression": "NEUTRE",
            "csv_id": 10504,
            "video_name": "DIVERS_BOOK_AD_01_0001"
        },
        {
            "name": "9501",
            "score": "0.990",
            "index": 14,
            "selectedWords": [
                "officielle",
                "neutre"
            ],
            "freeResponses": [],
            "nbPlayClick": 2,
            "expression": "NEUTRE",
            "csv_id": 9535,
            "video_name": "DIVERS_PARL_AD_01_0002"
        },
        {
            "name": "7175",
            "score": "0.980",
            "index": 15,
            "selectedWords": [
                "priante",
                "suppliante"
            ],
            "freeResponses": [],
            "nbPlayClick": 4,
            "expression": "EVIDENCE",
            "csv_id": 7209,
            "video_name": "DIVERS_BOOK_EVIDENCE_AD_01_0002"
        },
        {
            "name": "2637",
            "score": "0.930",
            "index": 16,
            "selectedWords": [
                "\u00e9berlu\u00e9e",
                "interloqu\u00e9e"
            ],
            "freeResponses": [],
            "nbPlayClick": 3,
            "expression": "INCREDULE",
            "csv_id": 2637,
            "video_name": "DIVERS_PARL_INCREDULE_AD_01_0001"
        },
        {
            "name": "5532",
            "score": "0.970",
            "index": 17,
            "selectedWords": [
                "ferme",
                "incontestable"
            ],
            "freeResponses": [],
            "nbPlayClick": 1,
            "expression": "COLERE",
            "csv_id": 5566,
            "video_name": "DIVERS_PARL_COLERE_AD_01_0004"
        },
        {
            "name": "10970",
            "score": "0.994",
            "index": 18,
            "selectedWords": [
                "nette",
                "s\u00fbre"
            ],
            "freeResponses": [],
            "nbPlayClick": 1,
            "expression": "NEUTRE",
            "csv_id": 11004,
            "video_name": "DIVERS_PARL_AD_06_0001"
        },
        {
            "name": "10360",
            "score": "0.993",
            "index": 19,
            "selectedWords": [
                "larmoyante",
                "prostern\u00e9e"
            ],
            "freeResponses": [],
            "nbPlayClick": 1,
            "expression": "SUPPLIANT",
            "csv_id": 10394,
            "video_name": "DIVERS_BOOK_SUPPLIANT_AD_01_0004"
        },
        {
            "name": "9115",
            "score": "0.989",
            "index": 20,
            "selectedWords": [
                "d\u00e9termin\u00e9e",
                "autre",
                "autre",
                "irr\u00e9cusable"
            ],
            "freeResponses": [],
            "nbPlayClick": 1,
            "expression": "COLERE",
            "csv_id": 9149,
            "video_name": "DIVERS_PARL_COLERE_AD_01_0003"
        },
        {
            "name": "3135",
            "score": "0.941",
            "index": 21,
            "selectedWords": [
                "espi\u00e8gle",
                "narquoise"
            ],
            "freeResponses": [],
            "nbPlayClick": 2,
            "expression": "NEUTRE",
            "csv_id": 3135,
            "video_name": "DIVERS_PARL_AD_04_0003"
        },
        {
            "name": "8762",
            "score": "0.987",
            "index": 22,
            "selectedWords": [
                "s\u00fbre",
                "nette"
            ],
            "freeResponses": [],
            "nbPlayClick": 2,
            "expression": "NEUTRE",
            "csv_id": 8796,
            "video_name": "DIVERS_PARL_AD_02_0003"
        },
        {
            "name": "2762",
            "score": "0.933",
            "index": 23,
            "selectedWords": [
                "convaincue",
                "ardente"
            ],
            "freeResponses": [],
            "nbPlayClick": 3,
            "expression": "EVIDENCE",
            "csv_id": 2762,
            "video_name": "DIVERS_PARL_EVIDENCE_AD_01_0001"
        },
        {
            "name": "7994",
            "score": "0.984",
            "index": 24,
            "selectedWords": [
                "tonique",
                "ardente"
            ],
            "freeResponses": [],
            "nbPlayClick": 2,
            "expression": "ENTHOUSIASTE",
            "csv_id": 8028,
            "video_name": "DIVERS_BOOK_ENTHOUSIASTE_AD_01_0001"
        },
        {
            "name": "7145",
            "score": "0.980",
            "index": 25,
            "selectedWords": [
                "neutre",
                "limpide"
            ],
            "freeResponses": [],
            "nbPlayClick": 3,
            "expression": "NEUTRE",
            "csv_id": 7179,
            "video_name": "DIVERS_BOOK_AD_01_0002"
        },
        {
            "name": "5081",
            "score": "0.966",
            "index": 26,
            "selectedWords": [
                "s\u00fbre",
                "nette"
            ],
            "freeResponses": [],
            "nbPlayClick": 2,
            "expression": "DETERMINE",
            "csv_id": 5115,
            "video_name": "DIVERS_PARL_DETERMINE_AD_01_0002"
        },
        {
            "name": "1688",
            "score": "0.900",
            "index": 27,
            "selectedWords": [
                "priante",
                "sinc\u00e8re"
            ],
            "freeResponses": [],
            "nbPlayClick": 2,
            "expression": "EVIDENCE",
            "csv_id": 1688,
            "video_name": "DIVERS_PARL_EVIDENCE_AD_02_0002"
        },
        {
            "name": "10765",
            "score": "0.994",
            "index": 28,
            "selectedWords": [
                "neutre",
                "terne"
            ],
            "freeResponses": [],
            "nbPlayClick": 2,
            "expression": "NEUTRE",
            "csv_id": 10799,
            "video_name": "DIVERS_PARL_AD_02_0001"
        },
        {
            "name": "9706",
            "score": "0.991",
            "index": 29,
            "selectedWords": [
                "d\u00e9termin\u00e9e",
                "ferme"
            ],
            "freeResponses": [],
            "nbPlayClick": 1,
            "expression": "COLERE",
            "csv_id": 9740,
            "video_name": "DIVERS_PARL_COLERE_AD_01_0004"
        },
        {
            "name": "2660",
            "score": "0.931",
            "index": 30,
            "selectedWords": [
                "officielle",
                "nette"
            ],
            "freeResponses": [],
            "nbPlayClick": 3,
            "expression": "NEUTRE",
            "csv_id": 2660,
            "video_name": "DIVERS_PARL_AD_05_0003"
        },
        {
            "name": "2004",
            "score": "0.912",
            "index": 31,
            "selectedWords": [
                "espi\u00e8gle",
                "malicieuse"
            ],
            "freeResponses": [],
            "nbPlayClick": 1,
            "expression": "ESPIEGLE",
            "csv_id": 2004,
            "video_name": "DIVERS_PARL_ESPIEGLE_AD_01_0001"
        },
        {
            "name": "4457",
            "score": "0.960",
            "index": 32,
            "selectedWords": [
                "\u00e9vidente",
                "autre",
                "autre",
                "autre",
                "autre",
                "neutre"
            ],
            "freeResponses": [],
            "nbPlayClick": 2,
            "expression": "NEUTRE",
            "csv_id": 4491,
            "video_name": "DIVERS_BOOK_AD_04_0001"
        },
        {
            "name": "3140",
            "score": "0.941",
            "index": 33,
            "selectedWords": [
                "narquoise",
                "autre",
                "dubitative"
            ],
            "freeResponses": [],
            "nbPlayClick": 2,
            "expression": "INCREDULE",
            "csv_id": 3140,
            "video_name": "DIVERS_PARL_INCREDULE_AD_02_0003"
        },
        {
            "name": "8470",
            "score": "0.986",
            "index": 34,
            "selectedWords": [
                "\u00e9tonn\u00e9e",
                "autre",
                "\u00e9berlu\u00e9e"
            ],
            "freeResponses": [],
            "nbPlayClick": 3,
            "expression": "INCREDULE",
            "csv_id": 8504,
            "video_name": "DIVERS_PARL_INCREDULE_AD_02_0003"
        },
        {
            "name": "3190",
            "score": "0.942",
            "index": 35,
            "selectedWords": [
                "priante",
                "autre",
                "autre",
                "autre",
                "autre",
                "ennuy\u00e9e"
            ],
            "freeResponses": [],
            "nbPlayClick": 2,
            "expression": "EVIDENCE",
            "csv_id": 3190,
            "video_name": "DIVERS_PARL_EVIDENCE_AD_01_0001"
        },
        {
            "name": "8006",
            "score": "0.984",
            "index": 36,
            "selectedWords": [
                "ferme",
                "officielle"
            ],
            "freeResponses": [],
            "nbPlayClick": 2,
            "expression": "NEUTRE",
            "csv_id": 8040,
            "video_name": "DIVERS_PARL_AD_01_0002"
        },
        {
            "name": "5729",
            "score": "0.972",
            "index": 37,
            "selectedWords": [
                "transport\u00e9e",
                "agit\u00e9e"
            ],
            "freeResponses": [],
            "nbPlayClick": 4,
            "expression": "ENTHOUSIASTE",
            "csv_id": 5763,
            "video_name": "DIVERS_PARL_ENTHOUSIASTE_AD_02_0001"
        },
        {
            "name": "1146",
            "score": "0.871",
            "index": 38,
            "selectedWords": [
                "courrouc\u00e9e",
                "indign\u00e9e"
            ],
            "freeResponses": [],
            "nbPlayClick": 2,
            "expression": "DETERMINE",
            "csv_id": 1146,
            "video_name": "DIVERS_PARL_DETERMINE_AD_01_0004"
        },
        {
            "name": "2863",
            "score": "0.935",
            "index": 39,
            "selectedWords": [
                "suppliante",
                "implorante"
            ],
            "freeResponses": [],
            "nbPlayClick": 1,
            "expression": "RECONFORTANT",
            "csv_id": 2863,
            "video_name": "DIVERS_PARL_RECONFORTANT_AD_02_0001"
        },
        {
            "name": "8062",
            "score": "0.984",
            "index": 40,
            "selectedWords": [
                "d\u00e9termin\u00e9e",
                "r\u00e9solue"
            ],
            "freeResponses": [],
            "nbPlayClick": 2,
            "expression": "DETERMINE",
            "csv_id": 8096,
            "video_name": "DIVERS_PARL_DETERMINE_AD_01_0002"
        },
        {
            "name": "5331",
            "score": "0.969",
            "index": 41,
            "selectedWords": [
                "priante",
                "autre",
                "autre",
                "autre",
                "autre",
                "ennuy\u00e9e"
            ],
            "freeResponses": [],
            "nbPlayClick": 2,
            "expression": "EVIDENCE",
            "csv_id": 5365,
            "video_name": "DIVERS_PARL_EVIDENCE_AD_01_0001"
        },
        {
            "name": "10471",
            "score": "0.993",
            "index": 42,
            "selectedWords": [
                "neutre",
                "inexpressive"
            ],
            "freeResponses": [],
            "nbPlayClick": 2,
            "expression": "NEUTRE",
            "csv_id": 10505,
            "video_name": "DIVERS_BOOK_AD_04_0001"
        },
        {
            "name": "1523",
            "score": "0.893",
            "index": 43,
            "selectedWords": [
                "espi\u00e8gle",
                "mutine"
            ],
            "freeResponses": [],
            "nbPlayClick": 3,
            "expression": "RECONFORTANT",
            "csv_id": 1523,
            "video_name": "DIVERS_BOOK_RECONFORTANT_AD_01_0002"
        },
        {
            "name": "11598",
            "score": "0.996",
            "index": 44,
            "selectedWords": [
                "certaine",
                "nette"
            ],
            "freeResponses": [],
            "nbPlayClick": 3,
            "expression": "NEUTRE",
            "csv_id": 11635,
            "video_name": "DIVERS_PARL_AD_02_0001"
        },
        {
            "name": "3939",
            "score": "0.953",
            "index": 45,
            "selectedWords": [
                "officielle",
                "limpide"
            ],
            "freeResponses": [],
            "nbPlayClick": 1,
            "expression": "NEUTRE",
            "csv_id": 3939,
            "video_name": "DIVERS_PARL_AD_01_0004"
        },
        {
            "name": "10785",
            "score": "0.994",
            "index": 46,
            "selectedWords": [
                "in\u00e9branlable",
                "limpide"
            ],
            "freeResponses": [],
            "nbPlayClick": 2,
            "expression": "NEUTRE",
            "csv_id": 10819,
            "video_name": "DIVERS_PARL_AD_03_0003"
        },
        {
            "name": "11977",
            "score": "0.997",
            "index": 47,
            "selectedWords": [
                "officielle",
                "certaine"
            ],
            "freeResponses": [],
            "nbPlayClick": 1,
            "expression": "NEUTRE",
            "csv_id": 12014,
            "video_name": "DIVERS_PARL_AD_02_0001"
        },
        {
            "name": "10238",
            "score": "0.992",
            "index": 48,
            "selectedWords": [
                "larmoyante",
                "priante"
            ],
            "freeResponses": [],
            "nbPlayClick": 1,
            "expression": "SUPPLIANT",
            "csv_id": 10272,
            "video_name": "DIVERS_PARL_SUPPLIANT_AD_02_0001"
        },
        {
            "name": "11944",
            "score": "0.997",
            "index": 49,
            "selectedWords": [
                "terne",
                "officielle"
            ],
            "freeResponses": [],
            "nbPlayClick": 3,
            "expression": "NEUTRE",
            "csv_id": 11981,
            "video_name": "DIVERS_PARL_AD_03_0004"
        },
        {
            "name": "5359",
            "score": "0.969",
            "index": 50,
            "selectedWords": [
                "narquoise",
                "mutine"
            ],
            "freeResponses": [],
            "nbPlayClick": 2,
            "expression": "INCREDULE",
            "csv_id": 5393,
            "video_name": "DIVERS_BOOK_INCREDULE_AD_01_0001"
        },
        {
            "name": "7744",
            "score": "0.983",
            "index": 51,
            "selectedWords": [
                "pr\u00e9occup\u00e9e",
                "contrari\u00e9e"
            ],
            "freeResponses": [],
            "nbPlayClick": 1,
            "expression": "NEUTRE",
            "csv_id": 7778,
            "video_name": "DIVERS_PARL_AD_02_0001"
        },
        {
            "name": "6041",
            "score": "0.974",
            "index": 52,
            "selectedWords": [
                "tonique",
                "transport\u00e9e"
            ],
            "freeResponses": [],
            "nbPlayClick": 3,
            "expression": "ENTHOUSIASTE",
            "csv_id": 6075,
            "video_name": "DIVERS_BOOK_ENTHOUSIASTE_AD_01_0001"
        },
        {
            "name": "7177",
            "score": "0.980",
            "index": 53,
            "selectedWords": [
                "\u00e9tonn\u00e9e",
                "interloqu\u00e9e"
            ],
            "freeResponses": [],
            "nbPlayClick": 2,
            "expression": "ETONNE",
            "csv_id": 7211,
            "video_name": "DIVERS_BOOK_ETONNE_AD_01_0002"
        },
        {
            "name": "5074",
            "score": "0.966",
            "index": 54,
            "selectedWords": [
                "neutre",
                "terne"
            ],
            "freeResponses": [],
            "nbPlayClick": 2,
            "expression": "NEUTRE",
            "csv_id": 5108,
            "video_name": "DIVERS_BOOK_AD_03_0002"
        },
        {
            "name": "5230",
            "score": "0.968",
            "index": 55,
            "selectedWords": [
                "\u00e9loquente",
                "passionn\u00e9e"
            ],
            "freeResponses": [],
            "nbPlayClick": 1,
            "expression": "RECONFORTANT",
            "csv_id": 5264,
            "video_name": "DIVERS_BOOK_RECONFORTANT_AD_03_0002"
        },
        {
            "name": "10686",
            "score": "0.994",
            "index": 56,
            "selectedWords": [
                "en col\u00e8re",
                "courrouc\u00e9e"
            ],
            "freeResponses": [],
            "nbPlayClick": 1,
            "expression": "COLERE",
            "csv_id": 10720,
            "video_name": "DIVERS_PARL_COLERE_AD_02_0002"
        },
        {
            "name": "1345",
            "score": "0.883",
            "index": 57,
            "selectedWords": [
                "suppliante",
                "implorante"
            ],
            "freeResponses": [],
            "nbPlayClick": 1,
            "expression": "SUPPLIANT",
            "csv_id": 1345,
            "video_name": "DIVERS_PARL_SUPPLIANT_AD_02_0001"
        },
        {
            "name": "12175",
            "score": "0.998",
            "index": 58,
            "selectedWords": [
                "pensive",
                "r\u00e9fl\u00e9chie"
            ],
            "freeResponses": [],
            "nbPlayClick": 1,
            "expression": "PENSIF",
            "csv_id": 12212,
            "video_name": "DIVERS_PARL_PENSIF_AD_01_0002"
        },
        {
            "name": "1338",
            "score": "0.883",
            "index": 59,
            "selectedWords": [
                "navr\u00e9e",
                "afflig\u00e9e"
            ],
            "freeResponses": [],
            "nbPlayClick": 1,
            "expression": "DESOLE",
            "csv_id": 1338,
            "video_name": "DIVERS_BOOK_DESOLE_AD_03_0002"
        }
    ],
    "training": [
        {
            "name": "77",
            "score": "0.639",
            "index": 0,
            "selectedWords": [
                "d\u00e9termin\u00e9e",
                "r\u00e9solue"
            ],
            "freeResponses": [],
            "nbPlayClick": 3,
            "expression": "NEUTRE"
        }
    ],
    "filenameDate": "2023-08-31_0-2"
}