{
    "user": {
        "isProlific": true,
        "id": "614c9dd5fc501557dda4e510",
        "session": "651be87e9fbd5b1ea0523166",
        "study": "64ef977375f88e4e1174dce0"
    },
    "userAgent": "Mozilla/5.0 (Windows NT 10.0; Win64; x64) AppleWebKit/537.36 (KHTML, like Gecko) Chrome/117.0.0.0 Safari/537.36",
    "landingDate": "2023-10-03T10:10:16.842Z",
    "startDate": "2023-10-03T10:10:57.718Z",
    "endDate": "2023-10-03T10:22:27.187Z",
    "reviews": [
        {
            "name": "11236",
            "score": "0.995",
            "index": 0,
            "selectedWords": [
                "neutre",
                "limpide"
            ],
            "freeResponses": [],
            "nbPlayClick": 1,
            "expression": "NEUTRE",
            "csv_id": 11270,
            "video_name": "DIVERS_PARL_AD_02_0001"
        },
        {
            "name": "6258",
            "score": "0.975",
            "index": 1,
            "selectedWords": [
                "incr\u00e9dule",
                "indiscutable"
            ],
            "freeResponses": [],
            "nbPlayClick": 1,
            "expression": "NEUTRE",
            "csv_id": 6292,
            "video_name": "DIVERS_BOOK_AD_01_0001"
        },
        {
            "name": "6183",
            "score": "0.975",
            "index": 2,
            "selectedWords": [
                "neutre",
                "limpide"
            ],
            "freeResponses": [],
            "nbPlayClick": 1,
            "expression": "NEUTRE",
            "csv_id": 6217,
            "video_name": "DIVERS_PARL_AD_06_0001"
        },
        {
            "name": "6711",
            "score": "0.978",
            "index": 3,
            "selectedWords": [
                "\u00e9tonn\u00e9e",
                "r\u00e9fl\u00e9chie"
            ],
            "freeResponses": [],
            "nbPlayClick": 1,
            "expression": "PENSIF",
            "csv_id": 6745,
            "video_name": "DIVERS_BOOK_PENSIF_AD_03_0002"
        },
        {
            "name": "5769",
            "score": "0.972",
            "index": 4,
            "selectedWords": [
                "enthousiaste",
                "euphorique"
            ],
            "freeResponses": [],
            "nbPlayClick": 1,
            "expression": "NEUTRE",
            "csv_id": 5803,
            "video_name": "DIVERS_PARL_AD_01_0004"
        },
        {
            "name": "9568",
            "score": "0.990",
            "index": 5,
            "selectedWords": [
                "neutre",
                "notoire"
            ],
            "freeResponses": [],
            "nbPlayClick": 1,
            "expression": "NEUTRE",
            "csv_id": 9602,
            "video_name": "DIVERS_BOOK_AD_01_0002"
        },
        {
            "name": "3962",
            "score": "0.954",
            "index": 6,
            "selectedWords": [
                "en col\u00e8re",
                "\u00e9nerv\u00e9e"
            ],
            "freeResponses": [],
            "nbPlayClick": 1,
            "expression": "DETERMINE",
            "csv_id": 3962,
            "video_name": "DIVERS_PARL_DETERMINE_AD_01_0004"
        },
        {
            "name": "2290",
            "score": "0.921",
            "index": 7,
            "selectedWords": [
                "\u00e9vidente",
                "incontestable"
            ],
            "freeResponses": [],
            "nbPlayClick": 1,
            "expression": "NEUTRE",
            "csv_id": 2290,
            "video_name": "DIVERS_PARL_AD_06_0003"
        },
        {
            "name": "10763",
            "score": "0.994",
            "index": 8,
            "selectedWords": [
                "neutre",
                "limpide"
            ],
            "freeResponses": [],
            "nbPlayClick": 1,
            "expression": "NEUTRE",
            "csv_id": 10797,
            "video_name": "DIVERS_BOOK_AD_01_0001"
        },
        {
            "name": "9544",
            "score": "0.990",
            "index": 9,
            "selectedWords": [
                "d\u00e9sol\u00e9e",
                "manifeste"
            ],
            "freeResponses": [],
            "nbPlayClick": 1,
            "expression": "SUPPLIANT",
            "csv_id": 9578,
            "video_name": "DIVERS_PARL_SUPPLIANT_AD_02_0001"
        },
        {
            "name": "278",
            "score": "0.755",
            "index": 10,
            "selectedWords": [
                "en col\u00e8re",
                "en rage"
            ],
            "freeResponses": [],
            "nbPlayClick": 1,
            "expression": "DETERMINE",
            "csv_id": 278,
            "video_name": "DIVERS_BOOK_DETERMINE_AD_03_0001"
        },
        {
            "name": "10980",
            "score": "0.994",
            "index": 11,
            "selectedWords": [
                "neutre",
                "limpide"
            ],
            "freeResponses": [],
            "nbPlayClick": 1,
            "expression": "NEUTRE",
            "csv_id": 11014,
            "video_name": "DIVERS_BOOK_AD_01_0001"
        },
        {
            "name": "4447",
            "score": "0.960",
            "index": 12,
            "selectedWords": [
                "\u00e9vidente",
                "indubitable"
            ],
            "freeResponses": [],
            "nbPlayClick": 1,
            "expression": "NEUTRE",
            "csv_id": 4481,
            "video_name": "DIVERS_BOOK_AD_03_0001"
        },
        {
            "name": "10846",
            "score": "0.994",
            "index": 13,
            "selectedWords": [
                "d\u00e9termin\u00e9e",
                "r\u00e9solue"
            ],
            "freeResponses": [],
            "nbPlayClick": 1,
            "expression": "COLERE",
            "csv_id": 10880,
            "video_name": "DIVERS_PARL_COLERE_AD_02_0002"
        },
        {
            "name": "4670",
            "score": "0.963",
            "index": 14,
            "selectedWords": [
                "\u00e9tonn\u00e9e",
                "r\u00e9fl\u00e9chie"
            ],
            "freeResponses": [],
            "nbPlayClick": 1,
            "expression": "ENTHOUSIASTE",
            "csv_id": 4704,
            "video_name": "DIVERS_PARL_ENTHOUSIASTE_AD_02_0001"
        },
        {
            "name": "1969",
            "score": "0.911",
            "index": 15,
            "selectedWords": [
                "d\u00e9termin\u00e9e",
                "r\u00e9solue"
            ],
            "freeResponses": [],
            "nbPlayClick": 1,
            "expression": "NEUTRE",
            "csv_id": 1969,
            "video_name": "DIVERS_PARL_AD_06_0001"
        },
        {
            "name": "7914",
            "score": "0.984",
            "index": 16,
            "selectedWords": [
                "d\u00e9termin\u00e9e",
                "manifeste"
            ],
            "freeResponses": [],
            "nbPlayClick": 1,
            "expression": "NEUTRE",
            "csv_id": 7948,
            "video_name": "DIVERS_PARL_AD_06_0003"
        },
        {
            "name": "10074",
            "score": "0.992",
            "index": 17,
            "selectedWords": [
                "incr\u00e9dule",
                "m\u00e9fiante"
            ],
            "freeResponses": [],
            "nbPlayClick": 1,
            "expression": "ETONNE",
            "csv_id": 10108,
            "video_name": "DIVERS_BOOK_ETONNE_AD_03_0001"
        },
        {
            "name": "10024",
            "score": "0.992",
            "index": 18,
            "selectedWords": [
                "\u00e9vidente",
                "indubitable"
            ],
            "freeResponses": [],
            "nbPlayClick": 1,
            "expression": "ETONNE",
            "csv_id": 10058,
            "video_name": "DIVERS_PARL_ETONNE_AD_01_0001"
        },
        {
            "name": "5241",
            "score": "0.968",
            "index": 19,
            "selectedWords": [
                "d\u00e9termin\u00e9e",
                "manifeste"
            ],
            "freeResponses": [],
            "nbPlayClick": 1,
            "expression": "DETERMINE",
            "csv_id": 5275,
            "video_name": "DIVERS_PARL_DETERMINE_AD_01_0002"
        },
        {
            "name": "386",
            "score": "0.786",
            "index": 20,
            "selectedWords": [
                "r\u00e9confortante",
                "vivifiante"
            ],
            "freeResponses": [],
            "nbPlayClick": 1,
            "expression": "RECONFORTANT",
            "csv_id": 386,
            "video_name": "ESTYLE_RECONFORTANT_AD_02_0001"
        },
        {
            "name": "6649",
            "score": "0.978",
            "index": 21,
            "selectedWords": [
                "d\u00e9termin\u00e9e",
                "agit\u00e9e"
            ],
            "freeResponses": [],
            "nbPlayClick": 1,
            "expression": "DETERMINE",
            "csv_id": 6683,
            "video_name": "DIVERS_BOOK_DETERMINE_AD_03_0001"
        },
        {
            "name": "6474",
            "score": "0.977",
            "index": 22,
            "selectedWords": [
                "d\u00e9sol\u00e9e",
                "manifeste"
            ],
            "freeResponses": [],
            "nbPlayClick": 1,
            "expression": "INCREDULE",
            "csv_id": 6508,
            "video_name": "DIVERS_BOOK_INCREDULE_AD_01_0001"
        },
        {
            "name": "2143",
            "score": "0.916",
            "index": 23,
            "selectedWords": [
                "en col\u00e8re",
                "irrit\u00e9e"
            ],
            "freeResponses": [],
            "nbPlayClick": 1,
            "expression": "NEUTRE",
            "csv_id": 2143,
            "video_name": "DIVERS_PARL_AD_06_0004"
        },
        {
            "name": "8849",
            "score": "0.988",
            "index": 24,
            "selectedWords": [
                "d\u00e9termin\u00e9e",
                "coquine"
            ],
            "freeResponses": [],
            "nbPlayClick": 1,
            "expression": "ESPIEGLE",
            "csv_id": 8883,
            "video_name": "DIVERS_BOOK_ESPIEGLE_AD_03_0001"
        },
        {
            "name": "3247",
            "score": "0.943",
            "index": 25,
            "selectedWords": [
                "neutre",
                "s\u00fbre"
            ],
            "freeResponses": [],
            "nbPlayClick": 1,
            "expression": "EVIDENCE",
            "csv_id": 3247,
            "video_name": "DIVERS_BOOK_EVIDENCE_AD_01_0002"
        },
        {
            "name": "6625",
            "score": "0.978",
            "index": 26,
            "selectedWords": [
                "en col\u00e8re",
                "irrit\u00e9e"
            ],
            "freeResponses": [],
            "nbPlayClick": 1,
            "expression": "SUPPLIANT",
            "csv_id": 6659,
            "video_name": "DIVERS_PARL_SUPPLIANT_AD_02_0001"
        },
        {
            "name": "6236",
            "score": "0.975",
            "index": 27,
            "selectedWords": [
                "d\u00e9sol\u00e9e",
                "manifeste"
            ],
            "freeResponses": [],
            "nbPlayClick": 1,
            "expression": "RECONFORTANT",
            "csv_id": 6270,
            "video_name": "DIVERS_BOOK_RECONFORTANT_AD_01_0004"
        },
        {
            "name": "11639",
            "score": "0.996",
            "index": 28,
            "selectedWords": [
                "\u00e9vidente",
                "incontestable"
            ],
            "freeResponses": [],
            "nbPlayClick": 1,
            "expression": "NEUTRE",
            "csv_id": 11676,
            "video_name": "DIVERS_PARL_AD_01_0006"
        },
        {
            "name": "7511",
            "score": "0.982",
            "index": 29,
            "selectedWords": [
                "d\u00e9termin\u00e9e",
                "manifeste"
            ],
            "freeResponses": [],
            "nbPlayClick": 1,
            "expression": "NEUTRE",
            "csv_id": 7545,
            "video_name": "DIVERS_PARL_AD_01_0000"
        },
        {
            "name": "10654",
            "score": "0.994",
            "index": 30,
            "selectedWords": [
                "neutre",
                "patente"
            ],
            "freeResponses": [],
            "nbPlayClick": 1,
            "expression": "NEUTRE",
            "csv_id": 10688,
            "video_name": "DIVERS_PARL_AD_05_0003"
        },
        {
            "name": "7021",
            "score": "0.980",
            "index": 31,
            "selectedWords": [
                "d\u00e9termin\u00e9e",
                "r\u00e9solue"
            ],
            "freeResponses": [],
            "nbPlayClick": 1,
            "expression": "NEUTRE",
            "csv_id": 7055,
            "video_name": "DIVERS_PARL_AD_04_0002"
        },
        {
            "name": "6897",
            "score": "0.979",
            "index": 32,
            "selectedWords": [
                "neutre",
                "patente"
            ],
            "freeResponses": [],
            "nbPlayClick": 1,
            "expression": "DESOLE",
            "csv_id": 6931,
            "video_name": "DIVERS_BOOK_DESOLE_AD_03_0002"
        },
        {
            "name": "11892",
            "score": "0.997",
            "index": 33,
            "selectedWords": [
                "enthousiaste",
                "euphorique"
            ],
            "freeResponses": [],
            "nbPlayClick": 1,
            "expression": "ENTHOUSIASTE",
            "csv_id": 11929,
            "video_name": "DIVERS_BOOK_ENTHOUSIASTE_AD_01_0001"
        },
        {
            "name": "4461",
            "score": "0.960",
            "index": 34,
            "selectedWords": [
                "\u00e9vidente",
                "incontestable"
            ],
            "freeResponses": [],
            "nbPlayClick": 1,
            "expression": "DETERMINE",
            "csv_id": 4495,
            "video_name": "DIVERS_PARL_DETERMINE_AD_01_0002"
        },
        {
            "name": "6326",
            "score": "0.976",
            "index": 35,
            "selectedWords": [
                "d\u00e9sol\u00e9e",
                "r\u00e9fl\u00e9chie"
            ],
            "freeResponses": [],
            "nbPlayClick": 1,
            "expression": "EVIDENCE",
            "csv_id": 6360,
            "video_name": "DIVERS_BOOK_EVIDENCE_AD_01_0002"
        },
        {
            "name": "2110",
            "score": "0.915",
            "index": 36,
            "selectedWords": [
                "neutre",
                "notoire"
            ],
            "freeResponses": [],
            "nbPlayClick": 1,
            "expression": "RECONFORTANT",
            "csv_id": 2110,
            "video_name": "DIVERS_PARL_RECONFORTANT_AD_02_0001"
        },
        {
            "name": "10019",
            "score": "0.992",
            "index": 37,
            "selectedWords": [
                "d\u00e9termin\u00e9e",
                "manifeste"
            ],
            "freeResponses": [],
            "nbPlayClick": 1,
            "expression": "NEUTRE",
            "csv_id": 10053,
            "video_name": "DIVERS_PARL_AD_03_0002"
        },
        {
            "name": "4481",
            "score": "0.960",
            "index": 38,
            "selectedWords": [
                "\u00e9vidente",
                "manifeste"
            ],
            "freeResponses": [],
            "nbPlayClick": 1,
            "expression": "EVIDENCE",
            "csv_id": 4515,
            "video_name": "DIVERS_PARL_EVIDENCE_AD_01_0001"
        },
        {
            "name": "6571",
            "score": "0.977",
            "index": 39,
            "selectedWords": [
                "d\u00e9sol\u00e9e",
                "transport\u00e9e"
            ],
            "freeResponses": [],
            "nbPlayClick": 1,
            "expression": "DESOLE",
            "csv_id": 6605,
            "video_name": "DIVERS_PARL_DESOLE_AD_02_0002"
        },
        {
            "name": "10575",
            "score": "0.993",
            "index": 40,
            "selectedWords": [
                "neutre",
                "notoire"
            ],
            "freeResponses": [],
            "nbPlayClick": 1,
            "expression": "NEUTRE",
            "csv_id": 10609,
            "video_name": "DIVERS_PARL_AD_03_0001"
        },
        {
            "name": "5882",
            "score": "0.973",
            "index": 41,
            "selectedWords": [
                "enthousiaste",
                "euphorique"
            ],
            "freeResponses": [],
            "nbPlayClick": 1,
            "expression": "ENTHOUSIASTE",
            "csv_id": 5916,
            "video_name": "DIVERS_BOOK_ENTHOUSIASTE_AD_01_0001"
        },
        {
            "name": "492",
            "score": "0.804",
            "index": 42,
            "selectedWords": [
                "en col\u00e8re",
                "hargneuse"
            ],
            "freeResponses": [],
            "nbPlayClick": 1,
            "expression": "COLERE",
            "csv_id": 492,
            "video_name": "DIVERS_PARL_COLERE_AD_02_0002"
        },
        {
            "name": "11574",
            "score": "0.996",
            "index": 43,
            "selectedWords": [
                "neutre",
                "notoire"
            ],
            "freeResponses": [],
            "nbPlayClick": 1,
            "expression": "NEUTRE",
            "csv_id": 11611,
            "video_name": "DIVERS_BOOK_AD_01_0002"
        },
        {
            "name": "6833",
            "score": "0.979",
            "index": 44,
            "selectedWords": [
                "\u00e9vidente",
                "indubitable"
            ],
            "freeResponses": [],
            "nbPlayClick": 1,
            "expression": "NEUTRE",
            "csv_id": 6867,
            "video_name": "DIVERS_PARL_AD_05_0002"
        },
        {
            "name": "7318",
            "score": "0.981",
            "index": 45,
            "selectedWords": [
                "neutre",
                "limpide"
            ],
            "freeResponses": [],
            "nbPlayClick": 2,
            "expression": "NEUTRE",
            "csv_id": 7352,
            "video_name": "DIVERS_PARL_AD_04_0001"
        },
        {
            "name": "10129",
            "score": "0.992",
            "index": 46,
            "selectedWords": [
                "\u00e9tonn\u00e9e",
                "sinc\u00e8re"
            ],
            "freeResponses": [],
            "nbPlayClick": 1,
            "expression": "ETONNE",
            "csv_id": 10163,
            "video_name": "DIVERS_BOOK_ETONNE_AD_01_0002"
        },
        {
            "name": "10441",
            "score": "0.993",
            "index": 47,
            "selectedWords": [
                "\u00e9tonn\u00e9e",
                "sinc\u00e8re"
            ],
            "freeResponses": [],
            "nbPlayClick": 1,
            "expression": "ETONNE",
            "csv_id": 10475,
            "video_name": "DIVERS_BOOK_ETONNE_AD_01_0002"
        },
        {
            "name": "6094",
            "score": "0.974",
            "index": 48,
            "selectedWords": [
                "d\u00e9termin\u00e9e",
                "manifeste"
            ],
            "freeResponses": [],
            "nbPlayClick": 1,
            "expression": "DETERMINE",
            "csv_id": 6128,
            "video_name": "DIVERS_PARL_DETERMINE_AD_01_0002"
        },
        {
            "name": "7057",
            "score": "0.980",
            "index": 49,
            "selectedWords": [
                "en col\u00e8re",
                "courrouc\u00e9e"
            ],
            "freeResponses": [],
            "nbPlayClick": 1,
            "expression": "NEUTRE",
            "csv_id": 7091,
            "video_name": "DIVERS_PARL_AD_02_0003"
        },
        {
            "name": "1811",
            "score": "0.905",
            "index": 50,
            "selectedWords": [
                "neutre",
                "limpide"
            ],
            "freeResponses": [],
            "nbPlayClick": 1,
            "expression": "DETERMINE",
            "csv_id": 1811,
            "video_name": "DIVERS_PARL_DETERMINE_AD_01_0002"
        },
        {
            "name": "5021",
            "score": "0.966",
            "index": 51,
            "selectedWords": [
                "enthousiaste",
                "\u00e9loquente"
            ],
            "freeResponses": [],
            "nbPlayClick": 1,
            "expression": "ESPIEGLE",
            "csv_id": 5055,
            "video_name": "DIVERS_BOOK_ESPIEGLE_AD_03_0001"
        },
        {
            "name": "4369",
            "score": "0.959",
            "index": 52,
            "selectedWords": [
                "d\u00e9termin\u00e9e",
                "transport\u00e9e"
            ],
            "freeResponses": [],
            "nbPlayClick": 1,
            "expression": "NEUTRE",
            "csv_id": 4369,
            "video_name": "DIVERS_PARL_AD_05_0002"
        },
        {
            "name": "7038",
            "score": "0.980",
            "index": 53,
            "selectedWords": [
                "d\u00e9sol\u00e9e",
                "manifeste"
            ],
            "freeResponses": [],
            "nbPlayClick": 1,
            "expression": "DESOLE",
            "csv_id": 7072,
            "video_name": "DIVERS_PARL_DESOLE_AD_02_0002"
        },
        {
            "name": "11270",
            "score": "0.995",
            "index": 54,
            "selectedWords": [
                "d\u00e9termin\u00e9e",
                "manifeste"
            ],
            "freeResponses": [],
            "nbPlayClick": 1,
            "expression": "NEUTRE",
            "csv_id": 11304,
            "video_name": "DIVERS_PARL_AD_03_0001"
        },
        {
            "name": "9129",
            "score": "0.989",
            "index": 55,
            "selectedWords": [
                "incr\u00e9dule",
                "m\u00e9fiante"
            ],
            "freeResponses": [],
            "nbPlayClick": 1,
            "expression": "PENSIF",
            "csv_id": 9163,
            "video_name": "DIVERS_BOOK_PENSIF_AD_03_0002"
        },
        {
            "name": "11845",
            "score": "0.997",
            "index": 56,
            "selectedWords": [
                "neutre",
                "notoire"
            ],
            "freeResponses": [],
            "nbPlayClick": 1,
            "expression": "NEUTRE",
            "csv_id": 11882,
            "video_name": "DIVERS_PARL_AD_04_0002"
        },
        {
            "name": "9801",
            "score": "0.991",
            "index": 57,
            "selectedWords": [
                "en col\u00e8re",
                "en rage"
            ],
            "freeResponses": [],
            "nbPlayClick": 1,
            "expression": "COLERE",
            "csv_id": 9835,
            "video_name": "DIVERS_PARL_COLERE_AD_01_0004"
        },
        {
            "name": "4598",
            "score": "0.962",
            "index": 58,
            "selectedWords": [
                "en col\u00e8re",
                "en rogne"
            ],
            "freeResponses": [],
            "nbPlayClick": 1,
            "expression": "NEUTRE",
            "csv_id": 4632,
            "video_name": "DIVERS_PARL_AD_06_0001"
        },
        {
            "name": "8701",
            "score": "0.987",
            "index": 59,
            "selectedWords": [
                "d\u00e9sol\u00e9e",
                "manifeste"
            ],
            "freeResponses": [],
            "nbPlayClick": 1,
            "expression": "SUPPLIANT",
            "csv_id": 8735,
            "video_name": "DIVERS_PARL_SUPPLIANT_AD_02_0002"
        }
    ],
    "training": [
        {
            "name": "77",
            "score": "0.639",
            "index": 0,
            "selectedWords": [
                "d\u00e9termin\u00e9e",
                "r\u00e9solue"
            ],
            "freeResponses": [],
            "nbPlayClick": 1,
            "expression": "NEUTRE"
        }
    ],
    "filenameDate": "2023-10-03_11-22"
}