{
    "user": {
        "isProlific": true,
        "id": "614ddf53a717e3137e15d39f",
        "session": "64f0bee2e369518b2ebcabb0",
        "study": "64ef977375f88e4e1174dce0"
    },
    "userAgent": "Mozilla/5.0 (Windows NT 10.0; Win64; x64) AppleWebKit/537.36 (KHTML, like Gecko) Chrome/116.0.0.0 Safari/537.36",
    "landingDate": "2023-08-31T16:25:19.292Z",
    "startDate": "2023-08-31T16:26:20.287Z",
    "endDate": "2023-08-31T16:51:04.445Z",
    "reviews": [
        {
            "name": "2864",
            "score": "0.935",
            "index": 0,
            "selectedWords": [
                "enthousiaste",
                "euphorique"
            ],
            "freeResponses": [],
            "nbPlayClick": 1,
            "expression": "ENTHOUSIASTE",
            "csv_id": 2864,
            "video_name": "DIVERS_PARL_ENTHOUSIASTE_AD_01_0003"
        },
        {
            "name": "4028",
            "score": "0.955",
            "index": 1,
            "selectedWords": [
                "\u00e9vidente",
                "incontestable"
            ],
            "freeResponses": [],
            "nbPlayClick": 1,
            "expression": "ETONNE",
            "csv_id": 4028,
            "video_name": "DIVERS_BOOK_ETONNE_AD_01_0002"
        },
        {
            "name": "2696",
            "score": "0.932",
            "index": 2,
            "selectedWords": [
                "d\u00e9termin\u00e9e",
                "r\u00e9solue"
            ],
            "freeResponses": [],
            "nbPlayClick": 1,
            "expression": "NEUTRE",
            "csv_id": 2696,
            "video_name": "DIVERS_PARL_AD_06_0002"
        },
        {
            "name": "1373",
            "score": "0.885",
            "index": 3,
            "selectedWords": [
                "\u00e9vidente",
                "incontestable"
            ],
            "freeResponses": [],
            "nbPlayClick": 1,
            "expression": "NEUTRE",
            "csv_id": 1373,
            "video_name": "DIVERS_PARL_AD_06_0004"
        },
        {
            "name": "3602",
            "score": "0.948",
            "index": 4,
            "selectedWords": [
                "\u00e9vidente",
                "incontestable"
            ],
            "freeResponses": [],
            "nbPlayClick": 1,
            "expression": "NEUTRE",
            "csv_id": 3602,
            "video_name": "DIVERS_PARL_AD_03_0001"
        },
        {
            "name": "1659",
            "score": "0.899",
            "index": 5,
            "selectedWords": [
                "espi\u00e8gle",
                "narquoise"
            ],
            "freeResponses": [],
            "nbPlayClick": 1,
            "expression": "EVIDENCE",
            "csv_id": 1659,
            "video_name": "DIVERS_PARL_EVIDENCE_AD_01_0001"
        },
        {
            "name": "2401",
            "score": "0.924",
            "index": 6,
            "selectedWords": [
                "espi\u00e8gle",
                "narquoise"
            ],
            "freeResponses": [],
            "nbPlayClick": 1,
            "expression": "INCREDULE",
            "csv_id": 2401,
            "video_name": "DIVERS_BOOK_INCREDULE_AD_01_0001"
        },
        {
            "name": "7089",
            "score": "0.980",
            "index": 7,
            "selectedWords": [
                "\u00e9vidente",
                "incontestable"
            ],
            "freeResponses": [],
            "nbPlayClick": 1,
            "expression": "SUPPLIANT",
            "csv_id": 7123,
            "video_name": "DIVERS_BOOK_SUPPLIANT_AD_01_0004"
        },
        {
            "name": "6760",
            "score": "0.978",
            "index": 8,
            "selectedWords": [
                "neutre",
                "limpide",
                "froide"
            ],
            "freeResponses": [],
            "nbPlayClick": 1,
            "expression": "NEUTRE",
            "csv_id": 6794,
            "video_name": "DIVERS_PARL_AD_03_0001"
        },
        {
            "name": "10424",
            "score": "0.993",
            "index": 9,
            "selectedWords": [
                "\u00e9vidente",
                "incontestable",
                "notoire"
            ],
            "freeResponses": [],
            "nbPlayClick": 3,
            "expression": "NEUTRE",
            "csv_id": 10458,
            "video_name": "DIVERS_PARL_AD_06_0001"
        },
        {
            "name": "12168",
            "score": "0.998",
            "index": 10,
            "selectedWords": [
                "en col\u00e8re",
                "\u00e9nerv\u00e9e",
                "f\u00e2ch\u00e9e"
            ],
            "freeResponses": [],
            "nbPlayClick": 1,
            "expression": "COLERE",
            "csv_id": 12205,
            "video_name": "DIVERS_PARL_COLERE_AD_01_0004"
        },
        {
            "name": "3250",
            "score": "0.943",
            "index": 11,
            "selectedWords": [
                "espi\u00e8gle",
                "narquoise",
                "maligne"
            ],
            "freeResponses": [],
            "nbPlayClick": 1,
            "expression": "INCREDULE",
            "csv_id": 3250,
            "video_name": "DIVERS_PARL_INCREDULE_AD_01_0001"
        },
        {
            "name": "5016",
            "score": "0.966",
            "index": 12,
            "selectedWords": [
                "neutre",
                "limpide",
                "officielle"
            ],
            "freeResponses": [],
            "nbPlayClick": 1,
            "expression": "NEUTRE",
            "csv_id": 5050,
            "video_name": "DIVERS_PARL_AD_03_0003"
        },
        {
            "name": "9990",
            "score": "0.992",
            "index": 13,
            "selectedWords": [
                "neutre",
                "s\u00fbre",
                "r\u00e9fl\u00e9chie"
            ],
            "freeResponses": [],
            "nbPlayClick": 1,
            "expression": "PENSIF",
            "csv_id": 10024,
            "video_name": "DIVERS_PARL_PENSIF_AD_01_0002"
        },
        {
            "name": "5982",
            "score": "0.974",
            "index": 14,
            "selectedWords": [
                "neutre",
                "limpide"
            ],
            "freeResponses": [],
            "nbPlayClick": 1,
            "expression": "NEUTRE",
            "csv_id": 6016,
            "video_name": "DIVERS_BOOK_AD_04_0002"
        },
        {
            "name": "4080",
            "score": "0.955",
            "index": 15,
            "selectedWords": [
                "d\u00e9termin\u00e9e",
                "manifeste",
                "convaincue"
            ],
            "freeResponses": [],
            "nbPlayClick": 1,
            "expression": "EVIDENCE",
            "csv_id": 4080,
            "video_name": "DIVERS_PARL_EVIDENCE_AD_01_0001"
        },
        {
            "name": "8398",
            "score": "0.986",
            "index": 16,
            "selectedWords": [
                "\u00e9vidente",
                "manifeste",
                "r\u00e9fl\u00e9chie"
            ],
            "freeResponses": [],
            "nbPlayClick": 1,
            "expression": "EVIDENCE",
            "csv_id": 8432,
            "video_name": "DIVERS_PARL_EVIDENCE_AD_02_0002"
        },
        {
            "name": "3995",
            "score": "0.954",
            "index": 17,
            "selectedWords": [
                "neutre",
                "s\u00fbre",
                "manifeste"
            ],
            "freeResponses": [],
            "nbPlayClick": 1,
            "expression": "NEUTRE",
            "csv_id": 3995,
            "video_name": "DIVERS_PARL_AD_05_0004"
        },
        {
            "name": "11850",
            "score": "0.997",
            "index": 18,
            "selectedWords": [
                "neutre",
                "s\u00fbre",
                "prouv\u00e9e"
            ],
            "freeResponses": [],
            "nbPlayClick": 1,
            "expression": "NEUTRE",
            "csv_id": 11887,
            "video_name": "DIVERS_BOOK_AD_01_0002"
        },
        {
            "name": "4204",
            "score": "0.957",
            "index": 19,
            "selectedWords": [
                "neutre",
                "notoire"
            ],
            "freeResponses": [],
            "nbPlayClick": 1,
            "expression": "NEUTRE",
            "csv_id": 4204,
            "video_name": "DIVERS_PARL_AD_06_0002"
        },
        {
            "name": "2782",
            "score": "0.934",
            "index": 20,
            "selectedWords": [
                "neutre",
                "s\u00fbre"
            ],
            "freeResponses": [],
            "nbPlayClick": 1,
            "expression": "NEUTRE",
            "csv_id": 2782,
            "video_name": "DIVERS_PARL_AD_04_0002"
        },
        {
            "name": "7172",
            "score": "0.980",
            "index": 21,
            "selectedWords": [
                "\u00e9vidente",
                "incontestable"
            ],
            "freeResponses": [],
            "nbPlayClick": 1,
            "expression": "NEUTRE",
            "csv_id": 7206,
            "video_name": "DIVERS_PARL_AD_03_0002"
        },
        {
            "name": "7945",
            "score": "0.984",
            "index": 22,
            "selectedWords": [
                "\u00e9tonn\u00e9e",
                "sinc\u00e8re",
                "tonique"
            ],
            "freeResponses": [],
            "nbPlayClick": 1,
            "expression": "SUPPLIANT",
            "csv_id": 7979,
            "video_name": "DIVERS_BOOK_SUPPLIANT_AD_01_0004"
        },
        {
            "name": "8262",
            "score": "0.985",
            "index": 23,
            "selectedWords": [
                "incr\u00e9dule",
                "m\u00e9fiante",
                "sceptique"
            ],
            "freeResponses": [],
            "nbPlayClick": 1,
            "expression": "INCREDULE",
            "csv_id": 8296,
            "video_name": "DIVERS_BOOK_INCREDULE_AD_01_0001"
        },
        {
            "name": "9435",
            "score": "0.990",
            "index": 24,
            "selectedWords": [
                "neutre",
                "limpide"
            ],
            "freeResponses": [],
            "nbPlayClick": 1,
            "expression": "NEUTRE",
            "csv_id": 9469,
            "video_name": "DIVERS_PARL_AD_02_0002"
        },
        {
            "name": "11787",
            "score": "0.996",
            "index": 25,
            "selectedWords": [
                "neutre",
                "s\u00fbre"
            ],
            "freeResponses": [],
            "nbPlayClick": 1,
            "expression": "NEUTRE",
            "csv_id": 11824,
            "video_name": "DIVERS_PARL_AD_05_0002"
        },
        {
            "name": "11381",
            "score": "0.995",
            "index": 26,
            "selectedWords": [
                "\u00e9vidente",
                "manifeste",
                "convaincue",
                "r\u00e9solue"
            ],
            "freeResponses": [],
            "nbPlayClick": 1,
            "expression": "NEUTRE",
            "csv_id": 11415,
            "video_name": "DIVERS_PARL_AD_05_0004"
        },
        {
            "name": "8926",
            "score": "0.988",
            "index": 27,
            "selectedWords": [
                "d\u00e9termin\u00e9e",
                "r\u00e9solue",
                "d\u00e9cid\u00e9e"
            ],
            "freeResponses": [],
            "nbPlayClick": 1,
            "expression": "NEUTRE",
            "csv_id": 8960,
            "video_name": "DIVERS_BOOK_AD_04_0001"
        },
        {
            "name": "5104",
            "score": "0.967",
            "index": 28,
            "selectedWords": [
                "pensive",
                "m\u00e9ditative"
            ],
            "freeResponses": [],
            "nbPlayClick": 1,
            "expression": "DESOLE",
            "csv_id": 5138,
            "video_name": "DIVERS_PARL_DESOLE_AD_01_0004"
        },
        {
            "name": "1564",
            "score": "0.894",
            "index": 29,
            "selectedWords": [
                "d\u00e9termin\u00e9e",
                "r\u00e9solue",
                "convaincue"
            ],
            "freeResponses": [],
            "nbPlayClick": 1,
            "expression": "INCREDULE",
            "csv_id": 1564,
            "video_name": "DIVERS_PARL_INCREDULE_AD_01_0001"
        },
        {
            "name": "7716",
            "score": "0.983",
            "index": 30,
            "selectedWords": [
                "d\u00e9termin\u00e9e",
                "r\u00e9solue"
            ],
            "freeResponses": [],
            "nbPlayClick": 5,
            "expression": "NEUTRE",
            "csv_id": 7750,
            "video_name": "DIVERS_PARL_AD_05_0002"
        },
        {
            "name": "12175",
            "score": "0.998",
            "index": 31,
            "selectedWords": [
                "pensive",
                "songeuse"
            ],
            "freeResponses": [],
            "nbPlayClick": 1,
            "expression": "PENSIF",
            "csv_id": 12212,
            "video_name": "DIVERS_PARL_PENSIF_AD_01_0002"
        },
        {
            "name": "11387",
            "score": "0.995",
            "index": 32,
            "selectedWords": [
                "incr\u00e9dule",
                "dubitative"
            ],
            "freeResponses": [],
            "nbPlayClick": 2,
            "expression": "ETONNE",
            "csv_id": 11421,
            "video_name": "DIVERS_BOOK_ETONNE_AD_01_0002"
        },
        {
            "name": "11411",
            "score": "0.995",
            "index": 33,
            "selectedWords": [
                "d\u00e9termin\u00e9e",
                "r\u00e9solue"
            ],
            "freeResponses": [],
            "nbPlayClick": 1,
            "expression": "NEUTRE",
            "csv_id": 11448,
            "video_name": "DIVERS_PARL_AD_02_0002"
        },
        {
            "name": "10575",
            "score": "0.993",
            "index": 34,
            "selectedWords": [
                "\u00e9vidente",
                "manifeste"
            ],
            "freeResponses": [],
            "nbPlayClick": 1,
            "expression": "NEUTRE",
            "csv_id": 10609,
            "video_name": "DIVERS_PARL_AD_03_0001"
        },
        {
            "name": "7613",
            "score": "0.983",
            "index": 35,
            "selectedWords": [
                "en col\u00e8re",
                "irrit\u00e9e"
            ],
            "freeResponses": [],
            "nbPlayClick": 1,
            "expression": "NEUTRE",
            "csv_id": 7647,
            "video_name": "DIVERS_PARL_AD_01_0001"
        },
        {
            "name": "7241",
            "score": "0.981",
            "index": 36,
            "selectedWords": [
                "d\u00e9sol\u00e9e",
                "autre",
                "autre",
                "autre",
                "autre",
                "attrist\u00e9e"
            ],
            "freeResponses": [],
            "nbPlayClick": 1,
            "expression": "SUPPLIANT",
            "csv_id": 7275,
            "video_name": "DIVERS_PARL_SUPPLIANT_AD_02_0001"
        },
        {
            "name": "10389",
            "score": "0.993",
            "index": 37,
            "selectedWords": [
                "en col\u00e8re",
                "\u00e9nerv\u00e9e",
                "m\u00e9contente",
                "indign\u00e9e"
            ],
            "freeResponses": [],
            "nbPlayClick": 1,
            "expression": "DETERMINE",
            "csv_id": 10423,
            "video_name": "DIVERS_PARL_DETERMINE_AD_01_0004"
        },
        {
            "name": "7864",
            "score": "0.984",
            "index": 38,
            "selectedWords": [
                "neutre",
                "s\u00fbre",
                "nette"
            ],
            "freeResponses": [],
            "nbPlayClick": 1,
            "expression": "NEUTRE",
            "csv_id": 7898,
            "video_name": "DIVERS_BOOK_AD_01_0001"
        },
        {
            "name": "12395",
            "score": "0.999",
            "index": 39,
            "selectedWords": [
                "\u00e9tonn\u00e9e",
                "r\u00e9fl\u00e9chie"
            ],
            "freeResponses": [],
            "nbPlayClick": 1,
            "expression": "ETONNE",
            "csv_id": 12432,
            "video_name": "DIVERS_BOOK_ETONNE_AD_01_0002"
        },
        {
            "name": "5638",
            "score": "0.971",
            "index": 40,
            "selectedWords": [
                "pensive",
                "songeuse",
                "pensante"
            ],
            "freeResponses": [],
            "nbPlayClick": 1,
            "expression": "PENSIF",
            "csv_id": 5672,
            "video_name": "DIVERS_BOOK_PENSIF_AD_01_0003"
        },
        {
            "name": "8165",
            "score": "0.985",
            "index": 41,
            "selectedWords": [
                "d\u00e9termin\u00e9e",
                "manifeste",
                "convaincue"
            ],
            "freeResponses": [],
            "nbPlayClick": 1,
            "expression": "NEUTRE",
            "csv_id": 8199,
            "video_name": "DIVERS_PARL_AD_06_0002"
        },
        {
            "name": "5578",
            "score": "0.971",
            "index": 42,
            "selectedWords": [
                "neutre",
                "tonique"
            ],
            "freeResponses": [],
            "nbPlayClick": 1,
            "expression": "NEUTRE",
            "csv_id": 5612,
            "video_name": "DIVERS_BOOK_AD_04_0002"
        },
        {
            "name": "8646",
            "score": "0.987",
            "index": 43,
            "selectedWords": [
                "d\u00e9sol\u00e9e",
                "autre",
                "dubitative",
                "convaincue"
            ],
            "freeResponses": [],
            "nbPlayClick": 1,
            "expression": "SUPPLIANT",
            "csv_id": 8680,
            "video_name": "DIVERS_PARL_SUPPLIANT_AD_02_0001"
        },
        {
            "name": "3586",
            "score": "0.948",
            "index": 44,
            "selectedWords": [
                "neutre",
                "limpide"
            ],
            "freeResponses": [],
            "nbPlayClick": 1,
            "expression": "NEUTRE",
            "csv_id": 3586,
            "video_name": "DIVERS_PARL_AD_05_0001"
        },
        {
            "name": "8485",
            "score": "0.986",
            "index": 45,
            "selectedWords": [
                "\u00e9vidente",
                "manifeste"
            ],
            "freeResponses": [],
            "nbPlayClick": 1,
            "expression": "NEUTRE",
            "csv_id": 8519,
            "video_name": "DIVERS_PARL_AD_01_0005"
        },
        {
            "name": "6707",
            "score": "0.978",
            "index": 46,
            "selectedWords": [
                "enthousiaste",
                "tonique"
            ],
            "freeResponses": [],
            "nbPlayClick": 1,
            "expression": "ENTHOUSIASTE",
            "csv_id": 6741,
            "video_name": "DIVERS_PARL_ENTHOUSIASTE_AD_02_0001"
        },
        {
            "name": "1909",
            "score": "0.909",
            "index": 47,
            "selectedWords": [
                "espi\u00e8gle",
                "fac\u00e9tieuse"
            ],
            "freeResponses": [],
            "nbPlayClick": 1,
            "expression": "ESPIEGLE",
            "csv_id": 1909,
            "video_name": "DIVERS_BOOK_ESPIEGLE_AD_03_0001"
        },
        {
            "name": "11260",
            "score": "0.995",
            "index": 48,
            "selectedWords": [
                "pensive",
                "songeuse"
            ],
            "freeResponses": [],
            "nbPlayClick": 1,
            "expression": "NEUTRE",
            "csv_id": 11294,
            "video_name": "DIVERS_BOOK_AD_01_0001"
        },
        {
            "name": "4196",
            "score": "0.957",
            "index": 49,
            "selectedWords": [
                "en col\u00e8re",
                "\u00e9nerv\u00e9e",
                "m\u00e9contente",
                "indign\u00e9e"
            ],
            "freeResponses": [],
            "nbPlayClick": 1,
            "expression": "COLERE",
            "csv_id": 4196,
            "video_name": "DIVERS_PARL_COLERE_AD_02_0002"
        },
        {
            "name": "6325",
            "score": "0.976",
            "index": 50,
            "selectedWords": [
                "neutre",
                "notoire"
            ],
            "freeResponses": [],
            "nbPlayClick": 1,
            "expression": "NEUTRE",
            "csv_id": 6359,
            "video_name": "DIVERS_BOOK_AD_01_0001"
        },
        {
            "name": "4148",
            "score": "0.956",
            "index": 51,
            "selectedWords": [
                "r\u00e9confortante",
                "apaisante"
            ],
            "freeResponses": [],
            "nbPlayClick": 2,
            "expression": "RECONFORTANT",
            "csv_id": 4148,
            "video_name": "DIVERS_BOOK_RECONFORTANT_AD_01_0002"
        },
        {
            "name": "1443",
            "score": "0.888",
            "index": 52,
            "selectedWords": [
                "en col\u00e8re",
                "en rogne",
                "f\u00e2ch\u00e9e"
            ],
            "freeResponses": [],
            "nbPlayClick": 1,
            "expression": "COLERE",
            "csv_id": 1443,
            "video_name": "DIVERS_PARL_COLERE_AD_01_0003"
        },
        {
            "name": "5790",
            "score": "0.972",
            "index": 53,
            "selectedWords": [
                "neutre",
                "tonique"
            ],
            "freeResponses": [],
            "nbPlayClick": 1,
            "expression": "NEUTRE",
            "csv_id": 5824,
            "video_name": "DIVERS_PARL_AD_05_0002"
        },
        {
            "name": "10573",
            "score": "0.993",
            "index": 54,
            "selectedWords": [
                "\u00e9vidente",
                "manifeste",
                "agit\u00e9e"
            ],
            "freeResponses": [],
            "nbPlayClick": 1,
            "expression": "DETERMINE",
            "csv_id": 10607,
            "video_name": "DIVERS_PARL_DETERMINE_AD_01_0004"
        },
        {
            "name": "12206",
            "score": "0.998",
            "index": 55,
            "selectedWords": [
                "neutre",
                "notoire"
            ],
            "freeResponses": [],
            "nbPlayClick": 1,
            "expression": "NEUTRE",
            "csv_id": 12243,
            "video_name": "DIVERS_BOOK_AD_01_0002"
        },
        {
            "name": "6691",
            "score": "0.978",
            "index": 56,
            "selectedWords": [
                "\u00e9vidente",
                "incontestable",
                "officielle"
            ],
            "freeResponses": [],
            "nbPlayClick": 1,
            "expression": "NEUTRE",
            "csv_id": 6725,
            "video_name": "DIVERS_PARL_AD_06_0001"
        },
        {
            "name": "11431",
            "score": "0.995",
            "index": 57,
            "selectedWords": [
                "\u00e9tonn\u00e9e",
                "autre",
                "\u00e9berlu\u00e9e",
                "interloqu\u00e9e"
            ],
            "freeResponses": [],
            "nbPlayClick": 1,
            "expression": "ETONNE",
            "csv_id": 11468,
            "video_name": "DIVERS_BOOK_ETONNE_AD_01_0004"
        },
        {
            "name": "2425",
            "score": "0.925",
            "index": 58,
            "selectedWords": [
                "neutre",
                "s\u00fbre"
            ],
            "freeResponses": [],
            "nbPlayClick": 1,
            "expression": "RECONFORTANT",
            "csv_id": 2425,
            "video_name": "DIVERS_BOOK_RECONFORTANT_AD_01_0002"
        },
        {
            "name": "814",
            "score": "0.844",
            "index": 59,
            "selectedWords": [
                "espi\u00e8gle",
                "narquoise",
                "maligne"
            ],
            "freeResponses": [],
            "nbPlayClick": 1,
            "expression": "ENTHOUSIASTE",
            "csv_id": 814,
            "video_name": "DIVERS_PARL_ENTHOUSIASTE_AD_01_0003"
        }
    ],
    "training": [
        {
            "name": "77",
            "score": "0.639",
            "index": 0,
            "selectedWords": [
                "neutre",
                "certaine"
            ],
            "freeResponses": [],
            "nbPlayClick": 1,
            "expression": "NEUTRE"
        }
    ],
    "filenameDate": "2023-08-31_10-51"
}