{
    "user": {
        "isProlific": true,
        "id": "61502a8e07c7ec78b3fee6d9",
        "session": "65e723f5092da31ae4f75ee6",
        "study": "64ef977375f88e4e1174dce0"
    },
    "userAgent": "Mozilla/5.0 (Windows NT 10.0; Win64; x64) AppleWebKit/537.36 (KHTML, like Gecko) Chrome/122.0.0.0 Safari/537.36",
    "landingDate": "2024-03-05T13:54:19.120Z",
    "startDate": "2024-03-05T13:56:07.572Z",
    "endDate": "2024-03-05T14:54:23.568Z",
    "reviews": [
        {
            "name": "11560",
            "score": "0.996",
            "index": 0,
            "selectedWords": [
                "autre",
                "convaincue",
                "d\u00e9cid\u00e9e"
            ],
            "freeResponses": [],
            "nbPlayClick": 6,
            "expression": "NEUTRE",
            "csv_id": 11597,
            "video_name": "DIVERS_PARL_AD_01_0006"
        },
        {
            "name": "9573",
            "score": "0.990",
            "index": 1,
            "selectedWords": [
                "apaisante",
                "m\u00e9ditative"
            ],
            "freeResponses": [],
            "nbPlayClick": 1,
            "expression": "NEUTRE",
            "csv_id": 9607,
            "video_name": "DIVERS_BOOK_AD_01_0002"
        },
        {
            "name": "8403",
            "score": "0.986",
            "index": 2,
            "selectedWords": [
                "espi\u00e8gle",
                "malicieuse"
            ],
            "freeResponses": [],
            "nbPlayClick": 1,
            "expression": "ESPIEGLE",
            "csv_id": 8437,
            "video_name": "DIVERS_BOOK_ESPIEGLE_AD_03_0001"
        },
        {
            "name": "9990",
            "score": "0.992",
            "index": 3,
            "selectedWords": [
                "pensive",
                "dubitative"
            ],
            "freeResponses": [],
            "nbPlayClick": 2,
            "response": "pens",
            "expression": "PENSIF",
            "csv_id": 10024,
            "video_name": "DIVERS_PARL_PENSIF_AD_01_0002"
        },
        {
            "name": "3323",
            "score": "0.944",
            "index": 4,
            "selectedWords": [
                "exalt\u00e9e",
                "r\u00e9solue"
            ],
            "freeResponses": [],
            "nbPlayClick": 2,
            "expression": "ENTHOUSIASTE",
            "csv_id": 3323,
            "video_name": "DIVERS_PARL_ENTHOUSIASTE_AD_01_0003"
        },
        {
            "name": "10165",
            "score": "0.992",
            "index": 5,
            "selectedWords": [
                "d\u00e9courag\u00e9e",
                "ennuy\u00e9e"
            ],
            "freeResponses": [],
            "nbPlayClick": 3,
            "response": "",
            "expression": "NEUTRE",
            "csv_id": 10199,
            "video_name": "DIVERS_PARL_AD_06_0003"
        },
        {
            "name": "4924",
            "score": "0.965",
            "index": 6,
            "selectedWords": [
                "pensante",
                "terne"
            ],
            "freeResponses": [],
            "nbPlayClick": 2,
            "expression": "PENSIF",
            "csv_id": 4958,
            "video_name": "ESTYLE_PENSIF_AD_02_0001"
        },
        {
            "name": "5013",
            "score": "0.966",
            "index": 7,
            "selectedWords": [
                "agressive",
                "hargneuse"
            ],
            "freeResponses": [],
            "nbPlayClick": 1,
            "expression": "COLERE",
            "csv_id": 5047,
            "video_name": "DIVERS_PARL_COLERE_AD_01_0003"
        },
        {
            "name": "10119",
            "score": "0.992",
            "index": 8,
            "selectedWords": [
                "convaincue",
                "d\u00e9termin\u00e9e"
            ],
            "freeResponses": [],
            "nbPlayClick": 1,
            "expression": "EVIDENCE",
            "csv_id": 10153,
            "video_name": "DIVERS_PARL_EVIDENCE_AD_02_0002"
        },
        {
            "name": "11744",
            "score": "0.996",
            "index": 9,
            "selectedWords": [
                "narquoise",
                "malicieuse"
            ],
            "freeResponses": [],
            "nbPlayClick": 2,
            "expression": "ESPIEGLE",
            "csv_id": 11781,
            "video_name": "DIVERS_BOOK_ESPIEGLE_AD_03_0001"
        },
        {
            "name": "3473",
            "score": "0.946",
            "index": 10,
            "selectedWords": [
                "espi\u00e8gle",
                "convaincue"
            ],
            "freeResponses": [],
            "nbPlayClick": 3,
            "expression": "ESPIEGLE",
            "csv_id": 3473,
            "video_name": "DIVERS_PARL_ESPIEGLE_AD_01_0001"
        },
        {
            "name": "8510",
            "score": "0.986",
            "index": 11,
            "selectedWords": [
                "contrari\u00e9e",
                "furieuse"
            ],
            "freeResponses": [],
            "nbPlayClick": 1,
            "expression": "COLERE",
            "csv_id": 8544,
            "video_name": "DIVERS_PARL_COLERE_AD_01_0003"
        },
        {
            "name": "3919",
            "score": "0.953",
            "index": 12,
            "selectedWords": [
                "afflig\u00e9e"
            ],
            "freeResponses": [
                "implorante"
            ],
            "nbPlayClick": 4,
            "response": "implorante",
            "expression": "RECONFORTANT",
            "csv_id": 3919,
            "video_name": "DIVERS_PARL_RECONFORTANT_AD_02_0001"
        },
        {
            "name": "8869",
            "score": "0.988",
            "index": 13,
            "selectedWords": [
                "afflig\u00e9e",
                "indign\u00e9e"
            ],
            "freeResponses": [],
            "nbPlayClick": 3,
            "expression": "NEUTRE",
            "csv_id": 8903,
            "video_name": "DIVERS_PARL_AD_03_0004"
        },
        {
            "name": "4501",
            "score": "0.961",
            "index": 14,
            "selectedWords": [
                "courrouc\u00e9e",
                "d\u00e9pit\u00e9e"
            ],
            "freeResponses": [],
            "nbPlayClick": 3,
            "expression": "SUPPLIANT",
            "csv_id": 4535,
            "video_name": "DIVERS_BOOK_SUPPLIANT_AD_01_0004"
        },
        {
            "name": "9034",
            "score": "0.988",
            "index": 15,
            "selectedWords": [
                "certaine",
                "d\u00e9cid\u00e9e"
            ],
            "freeResponses": [],
            "nbPlayClick": 1,
            "expression": "NEUTRE",
            "csv_id": 9068,
            "video_name": "DIVERS_BOOK_AD_03_0002"
        },
        {
            "name": "12127",
            "score": "0.997",
            "index": 16,
            "selectedWords": [
                "contrari\u00e9e",
                "m\u00e9dus\u00e9e"
            ],
            "freeResponses": [],
            "nbPlayClick": 3,
            "expression": "PENSIF",
            "csv_id": 12164,
            "video_name": "DIVERS_BOOK_PENSIF_AD_01_0003"
        },
        {
            "name": "2827",
            "score": "0.934",
            "index": 17,
            "selectedWords": [
                "convaincue",
                "r\u00e9solue"
            ],
            "freeResponses": [],
            "nbPlayClick": 1,
            "expression": "NEUTRE",
            "csv_id": 2827,
            "video_name": "DIVERS_PARL_AD_05_0002"
        },
        {
            "name": "6746",
            "score": "0.978",
            "index": 18,
            "selectedWords": [
                "officielle",
                "neutre"
            ],
            "freeResponses": [],
            "nbPlayClick": 1,
            "response": "offi",
            "expression": "ENTHOUSIASTE",
            "csv_id": 6780,
            "video_name": "DIVERS_PARL_ENTHOUSIASTE_AD_02_0001"
        },
        {
            "name": "7018",
            "score": "0.980",
            "index": 19,
            "selectedWords": [
                "d\u00e9termin\u00e9e",
                "irr\u00e9cusable"
            ],
            "freeResponses": [],
            "nbPlayClick": 2,
            "expression": "NEUTRE",
            "csv_id": 7052,
            "video_name": "DIVERS_PARL_AD_01_0004"
        },
        {
            "name": "9846",
            "score": "0.991",
            "index": 20,
            "selectedWords": [
                "emb\u00eat\u00e9e",
                "ind\u00e9niable"
            ],
            "freeResponses": [],
            "nbPlayClick": 3,
            "expression": "EVIDENCE",
            "csv_id": 9880,
            "video_name": "DIVERS_BOOK_EVIDENCE_AD_01_0002"
        },
        {
            "name": "2762",
            "score": "0.933",
            "index": 21,
            "selectedWords": [
                "incontestable",
                "sinc\u00e8re"
            ],
            "freeResponses": [],
            "nbPlayClick": 2,
            "expression": "EVIDENCE",
            "csv_id": 2762,
            "video_name": "DIVERS_PARL_EVIDENCE_AD_01_0001"
        },
        {
            "name": "3398",
            "score": "0.945",
            "index": 22,
            "selectedWords": [
                "incr\u00e9dule",
                "d\u00e9pit\u00e9e"
            ],
            "freeResponses": [],
            "nbPlayClick": 4,
            "expression": "RECONFORTANT",
            "csv_id": 3398,
            "video_name": "DIVERS_BOOK_RECONFORTANT_AD_01_0004"
        },
        {
            "name": "6547",
            "score": "0.977",
            "index": 23,
            "selectedWords": [
                "afflig\u00e9e",
                "songeuse"
            ],
            "freeResponses": [],
            "nbPlayClick": 1,
            "expression": "DESOLE",
            "csv_id": 6581,
            "video_name": "DIVERS_PARL_DESOLE_AD_02_0002"
        },
        {
            "name": "11144",
            "score": "0.995",
            "index": 24,
            "selectedWords": [
                "officielle",
                "neutre"
            ],
            "freeResponses": [],
            "nbPlayClick": 2,
            "response": "offi",
            "expression": "NEUTRE",
            "csv_id": 11178,
            "video_name": "DIVERS_BOOK_AD_03_0002"
        },
        {
            "name": "5839",
            "score": "0.973",
            "index": 25,
            "selectedWords": [
                "afflig\u00e9e",
                "en rogne"
            ],
            "freeResponses": [],
            "nbPlayClick": 1,
            "expression": "ETONNE",
            "csv_id": 5873,
            "video_name": "DIVERS_BOOK_ETONNE_AD_01_0004"
        },
        {
            "name": "10495",
            "score": "0.993",
            "index": 26,
            "selectedWords": [
                "officielle",
                "neutre"
            ],
            "freeResponses": [],
            "nbPlayClick": 1,
            "expression": "SUPPLIANT",
            "csv_id": 10529,
            "video_name": "DIVERS_PARL_SUPPLIANT_AD_02_0002"
        },
        {
            "name": "11563",
            "score": "0.996",
            "index": 27,
            "selectedWords": [
                "convaincue",
                "limpide"
            ],
            "freeResponses": [],
            "nbPlayClick": 1,
            "expression": "NEUTRE",
            "csv_id": 11600,
            "video_name": "DIVERS_PARL_AD_03_0003"
        },
        {
            "name": "7080",
            "score": "0.980",
            "index": 28,
            "selectedWords": [
                "d\u00e9pit\u00e9e",
                "ind\u00e9niable"
            ],
            "freeResponses": [],
            "nbPlayClick": 3,
            "expression": "NEUTRE",
            "csv_id": 7114,
            "video_name": "DIVERS_PARL_AD_04_0004"
        },
        {
            "name": "5226",
            "score": "0.968",
            "index": 29,
            "selectedWords": [
                "certaine",
                "irr\u00e9cusable"
            ],
            "freeResponses": [],
            "nbPlayClick": 1,
            "expression": "NEUTRE",
            "csv_id": 5260,
            "video_name": "DIVERS_PARL_AD_06_0002"
        },
        {
            "name": "10350",
            "score": "0.993",
            "index": 30,
            "selectedWords": [
                "incr\u00e9dule",
                "narquoise"
            ],
            "freeResponses": [],
            "nbPlayClick": 1,
            "expression": "NEUTRE",
            "csv_id": 10384,
            "video_name": "DIVERS_BOOK_AD_01_0001"
        },
        {
            "name": "5383",
            "score": "0.969",
            "index": 31,
            "selectedWords": [
                "d\u00e9termin\u00e9e",
                "r\u00e9solue"
            ],
            "freeResponses": [],
            "nbPlayClick": 1,
            "expression": "EVIDENCE",
            "csv_id": 5417,
            "video_name": "DIVERS_PARL_EVIDENCE_AD_01_0001"
        },
        {
            "name": "3697",
            "score": "0.950",
            "index": 32,
            "selectedWords": [
                "d\u00e9pit\u00e9e",
                "convaincue"
            ],
            "freeResponses": [],
            "nbPlayClick": 2,
            "expression": "RECONFORTANT",
            "csv_id": 3697,
            "video_name": "DIVERS_PARL_RECONFORTANT_AD_02_0001"
        },
        {
            "name": "5072",
            "score": "0.966",
            "index": 33,
            "selectedWords": [
                "emb\u00eat\u00e9e",
                "patente"
            ],
            "freeResponses": [],
            "nbPlayClick": 3,
            "expression": "RECONFORTANT",
            "csv_id": 5106,
            "video_name": "DIVERS_PARL_RECONFORTANT_AD_02_0001"
        },
        {
            "name": "6877",
            "score": "0.979",
            "index": 34,
            "selectedWords": [
                "ardente",
                "emball\u00e9e"
            ],
            "freeResponses": [],
            "nbPlayClick": 2,
            "expression": "ENTHOUSIASTE",
            "csv_id": 6911,
            "video_name": "DIVERS_BOOK_ENTHOUSIASTE_AD_01_0001"
        },
        {
            "name": "7215",
            "score": "0.981",
            "index": 35,
            "selectedWords": [
                "dubitative",
                "perplexe"
            ],
            "freeResponses": [],
            "nbPlayClick": 2,
            "expression": "PENSIF",
            "csv_id": 7249,
            "video_name": "DIVERS_PARL_PENSIF_AD_01_0002"
        },
        {
            "name": "8559",
            "score": "0.987",
            "index": 36,
            "selectedWords": [
                "en col\u00e8re",
                "indign\u00e9e"
            ],
            "freeResponses": [],
            "nbPlayClick": 1,
            "expression": "SUPPLIANT",
            "csv_id": 8593,
            "video_name": "DIVERS_PARL_SUPPLIANT_AD_02_0002"
        },
        {
            "name": "9667",
            "score": "0.991",
            "index": 37,
            "selectedWords": [
                "agressive",
                "d\u00e9termin\u00e9e"
            ],
            "freeResponses": [],
            "nbPlayClick": 1,
            "expression": "NEUTRE",
            "csv_id": 9701,
            "video_name": "DIVERS_PARL_AD_03_0003"
        },
        {
            "name": "965",
            "score": "0.858",
            "index": 38,
            "selectedWords": [
                "narquoise",
                "sid\u00e9r\u00e9e"
            ],
            "freeResponses": [],
            "nbPlayClick": 1,
            "expression": "INCREDULE",
            "csv_id": 965,
            "video_name": "DIVERS_BOOK_INCREDULE_AD_01_0001"
        },
        {
            "name": "10077",
            "score": "0.992",
            "index": 39,
            "selectedWords": [
                "convaincue",
                "ferme"
            ],
            "freeResponses": [],
            "nbPlayClick": 1,
            "expression": "NEUTRE",
            "csv_id": 10111,
            "video_name": "DIVERS_PARL_AD_03_0002"
        },
        {
            "name": "9558",
            "score": "0.990",
            "index": 40,
            "selectedWords": [
                "indubitable",
                "nette"
            ],
            "freeResponses": [],
            "nbPlayClick": 2,
            "expression": "ETONNE",
            "csv_id": 9592,
            "video_name": "DIVERS_BOOK_ETONNE_AD_03_0001"
        },
        {
            "name": "7563",
            "score": "0.982",
            "index": 41,
            "selectedWords": [
                "agressive",
                "irr\u00e9cusable"
            ],
            "freeResponses": [],
            "nbPlayClick": 1,
            "expression": "EVIDENCE",
            "csv_id": 7597,
            "video_name": "DIVERS_PARL_EVIDENCE_AD_02_0002"
        },
        {
            "name": "6170",
            "score": "0.975",
            "index": 42,
            "selectedWords": [
                "ennuy\u00e9e",
                "contrari\u00e9e"
            ],
            "freeResponses": [],
            "nbPlayClick": 1,
            "expression": "NEUTRE",
            "csv_id": 6204,
            "video_name": "DIVERS_PARL_AD_05_0001"
        },
        {
            "name": "6621",
            "score": "0.978",
            "index": 43,
            "selectedWords": [
                "espi\u00e8gle",
                "narquoise"
            ],
            "freeResponses": [],
            "nbPlayClick": 2,
            "expression": "ESPIEGLE",
            "csv_id": 6655,
            "video_name": "DIVERS_PARL_ESPIEGLE_AD_01_0001"
        },
        {
            "name": "10153",
            "score": "0.992",
            "index": 44,
            "selectedWords": [
                "d\u00e9sol\u00e9e",
                "d\u00e9pit\u00e9e"
            ],
            "freeResponses": [],
            "nbPlayClick": 1,
            "expression": "NEUTRE",
            "csv_id": 10187,
            "video_name": "DIVERS_PARL_AD_04_0004"
        },
        {
            "name": "9587",
            "score": "0.990",
            "index": 45,
            "selectedWords": [
                "convaincue",
                "notoire"
            ],
            "freeResponses": [],
            "nbPlayClick": 1,
            "expression": "NEUTRE",
            "csv_id": 9621,
            "video_name": "DIVERS_BOOK_AD_01_0002"
        },
        {
            "name": "2469",
            "score": "0.926",
            "index": 46,
            "selectedWords": [
                "convaincue",
                "d\u00e9termin\u00e9e"
            ],
            "freeResponses": [],
            "nbPlayClick": 1,
            "expression": "DETERMINE",
            "csv_id": 2469,
            "video_name": "DIVERS_PARL_DETERMINE_AD_01_0002"
        },
        {
            "name": "12342",
            "score": "0.998",
            "index": 47,
            "selectedWords": [
                "convaincue",
                "irr\u00e9cusable"
            ],
            "freeResponses": [],
            "nbPlayClick": 1,
            "expression": "ETONNE",
            "csv_id": 12379,
            "video_name": "DIVERS_BOOK_ETONNE_AD_03_0001"
        },
        {
            "name": "6157",
            "score": "0.975",
            "index": 48,
            "selectedWords": [
                "d\u00e9pit\u00e9e",
                "indign\u00e9e"
            ],
            "freeResponses": [],
            "nbPlayClick": 2,
            "expression": "NEUTRE",
            "csv_id": 6191,
            "video_name": "DIVERS_PARL_AD_03_0001"
        },
        {
            "name": "11356",
            "score": "0.995",
            "index": 49,
            "selectedWords": [
                "certaine",
                "d\u00e9termin\u00e9e"
            ],
            "freeResponses": [],
            "nbPlayClick": 1,
            "expression": "NEUTRE",
            "csv_id": 11390,
            "video_name": "DIVERS_BOOK_AD_03_0002"
        },
        {
            "name": "4171",
            "score": "0.956",
            "index": 50,
            "selectedWords": [
                "m\u00e9dus\u00e9e",
                "afflig\u00e9e"
            ],
            "freeResponses": [],
            "nbPlayClick": 2,
            "expression": "RECONFORTANT",
            "csv_id": 4171,
            "video_name": "DIVERS_PARL_RECONFORTANT_AD_02_0001"
        },
        {
            "name": "8192",
            "score": "0.985",
            "index": 51,
            "selectedWords": [
                "agressive",
                "d\u00e9cid\u00e9e"
            ],
            "freeResponses": [],
            "nbPlayClick": 1,
            "expression": "NEUTRE",
            "csv_id": 8226,
            "video_name": "DIVERS_PARL_AD_03_0002"
        },
        {
            "name": "3471",
            "score": "0.946",
            "index": 52,
            "selectedWords": [
                "indubitable",
                "ind\u00e9niable"
            ],
            "freeResponses": [],
            "nbPlayClick": 1,
            "expression": "PENSIF",
            "csv_id": 3471,
            "video_name": "DIVERS_PARL_PENSIF_AD_01_0002"
        },
        {
            "name": "12260",
            "score": "0.998",
            "index": 53,
            "selectedWords": [
                "officielle",
                "neutre"
            ],
            "freeResponses": [],
            "nbPlayClick": 1,
            "response": "neutr",
            "expression": "NEUTRE",
            "csv_id": 12297,
            "video_name": "DIVERS_BOOK_AD_03_0002"
        },
        {
            "name": "5043",
            "score": "0.966",
            "index": 54,
            "selectedWords": [
                "narquoise",
                "fac\u00e9tieuse"
            ],
            "freeResponses": [],
            "nbPlayClick": 2,
            "response": "nar",
            "expression": "EVIDENCE",
            "csv_id": 5077,
            "video_name": "DIVERS_BOOK_EVIDENCE_AD_01_0002"
        },
        {
            "name": "7546",
            "score": "0.982",
            "index": 55,
            "selectedWords": [
                "hargneuse",
                "en col\u00e8re"
            ],
            "freeResponses": [],
            "nbPlayClick": 1,
            "expression": "COLERE",
            "csv_id": 7580,
            "video_name": "ESTYLE_COLERE_AD_02_0001"
        },
        {
            "name": "8583",
            "score": "0.987",
            "index": 56,
            "selectedWords": [
                "en peine",
                "abasourdie"
            ],
            "freeResponses": [],
            "nbPlayClick": 1,
            "expression": "NEUTRE",
            "csv_id": 8617,
            "video_name": "DIVERS_PARL_AD_06_0001"
        },
        {
            "name": "3909",
            "score": "0.953",
            "index": 57,
            "selectedWords": [
                "narquoise",
                "fac\u00e9tieuse"
            ],
            "freeResponses": [],
            "nbPlayClick": 1,
            "response": "nar",
            "expression": "ESPIEGLE",
            "csv_id": 3909,
            "video_name": "DIVERS_BOOK_ESPIEGLE_AD_03_0001"
        },
        {
            "name": "12112",
            "score": "0.997",
            "index": 58,
            "selectedWords": [
                "incr\u00e9dule",
                "irr\u00e9cusable"
            ],
            "freeResponses": [],
            "nbPlayClick": 2,
            "expression": "NEUTRE",
            "csv_id": 12149,
            "video_name": "DIVERS_BOOK_AD_01_0002"
        },
        {
            "name": "2913",
            "score": "0.937",
            "index": 59,
            "selectedWords": [
                "enfi\u00e9vr\u00e9e",
                "en rogne"
            ],
            "freeResponses": [],
            "nbPlayClick": 1,
            "expression": "DETERMINE",
            "csv_id": 2913,
            "video_name": "DIVERS_PARL_DETERMINE_AD_01_0004"
        }
    ],
    "training": [
        {
            "name": "77",
            "score": "0.639",
            "index": 0,
            "selectedWords": [
                "autre",
                "autre",
                "dubitative",
                "irrit\u00e9e"
            ],
            "freeResponses": [],
            "nbPlayClick": 2,
            "expression": "NEUTRE"
        }
    ],
    "filenameDate": "2024-03-05_15-54"
}