{
    "user": {
        "isProlific": true,
        "id": "6150be712c68ef2807dd47c6",
        "session": "6537a8f959bf77b176e3ca7a",
        "study": "64ef977375f88e4e1174dce0"
    },
    "userAgent": "Mozilla/5.0 (Windows NT 10.0; Win64; x64) AppleWebKit/537.36 (KHTML, like Gecko) Chrome/118.0.0.0 Safari/537.36",
    "landingDate": "2023-10-24T11:22:51.035Z",
    "startDate": "2023-10-24T11:24:53.173Z",
    "endDate": "2023-10-24T11:49:37.357Z",
    "reviews": [
        {
            "name": "2555",
            "score": "0.928",
            "index": 0,
            "selectedWords": [
                "\u00e9vidente",
                "manifeste",
                "convaincue"
            ],
            "freeResponses": [],
            "nbPlayClick": 3,
            "expression": "EVIDENCE",
            "csv_id": 2555,
            "video_name": "DIVERS_PARL_EVIDENCE_AD_01_0001"
        },
        {
            "name": "10379",
            "score": "0.993",
            "index": 1,
            "selectedWords": [
                "incr\u00e9dule",
                "dubitative",
                "sceptique",
                "r\u00e9fl\u00e9chie"
            ],
            "freeResponses": [],
            "nbPlayClick": 2,
            "expression": "PENSIF",
            "csv_id": 10413,
            "video_name": "DIVERS_BOOK_PENSIF_AD_03_0002"
        },
        {
            "name": "11273",
            "score": "0.995",
            "index": 2,
            "selectedWords": [
                "neutre",
                "limpide",
                "froide"
            ],
            "freeResponses": [],
            "nbPlayClick": 1,
            "expression": "NEUTRE",
            "csv_id": 11307,
            "video_name": "DIVERS_PARL_AD_04_0001"
        },
        {
            "name": "5765",
            "score": "0.972",
            "index": 3,
            "selectedWords": [
                "\u00e9vidente",
                "manifeste"
            ],
            "freeResponses": [],
            "nbPlayClick": 2,
            "expression": "NEUTRE",
            "csv_id": 5799,
            "video_name": "DIVERS_PARL_AD_05_0003"
        },
        {
            "name": "11062",
            "score": "0.994",
            "index": 4,
            "selectedWords": [
                "d\u00e9termin\u00e9e",
                "r\u00e9solue"
            ],
            "freeResponses": [],
            "nbPlayClick": 2,
            "expression": "NEUTRE",
            "csv_id": 11096,
            "video_name": "DIVERS_PARL_AD_05_0003"
        },
        {
            "name": "11118",
            "score": "0.995",
            "index": 5,
            "selectedWords": [
                "d\u00e9sol\u00e9e",
                "nette"
            ],
            "freeResponses": [],
            "nbPlayClick": 5,
            "expression": "SUPPLIANT",
            "csv_id": 11152,
            "video_name": "DIVERS_BOOK_SUPPLIANT_AD_01_0002"
        },
        {
            "name": "12189",
            "score": "0.998",
            "index": 6,
            "selectedWords": [
                "neutre",
                "notoire",
                "terne"
            ],
            "freeResponses": [],
            "nbPlayClick": 2,
            "expression": "NEUTRE",
            "csv_id": 12226,
            "video_name": "DIVERS_BOOK_AD_03_0001"
        },
        {
            "name": "8875",
            "score": "0.988",
            "index": 7,
            "selectedWords": [
                "\u00e9vidente",
                "prouv\u00e9e"
            ],
            "freeResponses": [],
            "nbPlayClick": 1,
            "expression": "NEUTRE",
            "csv_id": 8909,
            "video_name": "DIVERS_PARL_AD_05_0002"
        },
        {
            "name": "3977",
            "score": "0.954",
            "index": 8,
            "selectedWords": [
                "neutre",
                "limpide",
                "officielle"
            ],
            "freeResponses": [],
            "nbPlayClick": 3,
            "expression": "NEUTRE",
            "csv_id": 3977,
            "video_name": "DIVERS_BOOK_AD_01_0002"
        },
        {
            "name": "11531",
            "score": "0.996",
            "index": 9,
            "selectedWords": [
                "d\u00e9termin\u00e9e",
                "manifeste",
                "autre",
                "autre",
                "autre"
            ],
            "freeResponses": [],
            "nbPlayClick": 2,
            "expression": "NEUTRE",
            "csv_id": 11568,
            "video_name": "DIVERS_PARL_AD_01_0006"
        },
        {
            "name": "6021",
            "score": "0.974",
            "index": 10,
            "selectedWords": [
                "d\u00e9termin\u00e9e",
                "manifeste",
                "patente"
            ],
            "freeResponses": [],
            "nbPlayClick": 1,
            "expression": "NEUTRE",
            "csv_id": 6055,
            "video_name": "DIVERS_PARL_AD_06_0003"
        },
        {
            "name": "3892",
            "score": "0.953",
            "index": 11,
            "selectedWords": [
                "enthousiaste",
                "triomphale"
            ],
            "freeResponses": [],
            "nbPlayClick": 2,
            "expression": "NEUTRE",
            "csv_id": 3892,
            "video_name": "DIVERS_BOOK_AD_04_0001"
        },
        {
            "name": "12284",
            "score": "0.998",
            "index": 12,
            "selectedWords": [
                "neutre",
                "notoire"
            ],
            "freeResponses": [],
            "nbPlayClick": 4,
            "expression": "NEUTRE",
            "csv_id": 12321,
            "video_name": "DIVERS_BOOK_AD_03_0002"
        },
        {
            "name": "5990",
            "score": "0.974",
            "index": 13,
            "selectedWords": [
                "incr\u00e9dule",
                "m\u00e9fiante"
            ],
            "freeResponses": [],
            "nbPlayClick": 3,
            "expression": "NEUTRE",
            "csv_id": 6024,
            "video_name": "DIVERS_BOOK_AD_04_0001"
        },
        {
            "name": "6689",
            "score": "0.978",
            "index": 14,
            "selectedWords": [
                "\u00e9vidente",
                "incontestable"
            ],
            "freeResponses": [],
            "nbPlayClick": 1,
            "expression": "NEUTRE",
            "csv_id": 6723,
            "video_name": "DIVERS_PARL_AD_01_0005"
        },
        {
            "name": "1181",
            "score": "0.874",
            "index": 15,
            "selectedWords": [
                "incr\u00e9dule",
                "dubitative"
            ],
            "freeResponses": [],
            "nbPlayClick": 2,
            "expression": "INCREDULE",
            "csv_id": 1181,
            "video_name": "DIVERS_PARL_INCREDULE_AD_01_0001"
        },
        {
            "name": "3784",
            "score": "0.951",
            "index": 16,
            "selectedWords": [
                "\u00e9tonn\u00e9e",
                "r\u00e9fl\u00e9chie"
            ],
            "freeResponses": [],
            "nbPlayClick": 2,
            "expression": "NEUTRE",
            "csv_id": 3784,
            "video_name": "DIVERS_BOOK_AD_01_0001"
        },
        {
            "name": "9201",
            "score": "0.989",
            "index": 17,
            "selectedWords": [
                "\u00e9vidente",
                "manifeste"
            ],
            "freeResponses": [],
            "nbPlayClick": 1,
            "expression": "EVIDENCE",
            "csv_id": 9235,
            "video_name": "DIVERS_PARL_EVIDENCE_AD_02_0002"
        },
        {
            "name": "4488",
            "score": "0.960",
            "index": 18,
            "selectedWords": [
                "d\u00e9termin\u00e9e",
                "r\u00e9solue"
            ],
            "freeResponses": [],
            "nbPlayClick": 1,
            "expression": "NEUTRE",
            "csv_id": 4522,
            "video_name": "DIVERS_PARL_AD_06_0001"
        },
        {
            "name": "4475",
            "score": "0.960",
            "index": 19,
            "selectedWords": [
                "neutre",
                "certaine"
            ],
            "freeResponses": [],
            "nbPlayClick": 2,
            "expression": "NEUTRE",
            "csv_id": 4509,
            "video_name": "DIVERS_PARL_AD_06_0004"
        },
        {
            "name": "2971",
            "score": "0.938",
            "index": 20,
            "selectedWords": [
                "espi\u00e8gle",
                "narquoise"
            ],
            "freeResponses": [],
            "nbPlayClick": 1,
            "expression": "ESPIEGLE",
            "csv_id": 2971,
            "video_name": "DIVERS_PARL_ESPIEGLE_AD_01_0001"
        },
        {
            "name": "6292",
            "score": "0.976",
            "index": 21,
            "selectedWords": [
                "neutre",
                "certaine"
            ],
            "freeResponses": [],
            "nbPlayClick": 1,
            "expression": "NEUTRE",
            "csv_id": 6326,
            "video_name": "DIVERS_PARL_AD_05_0003"
        },
        {
            "name": "3059",
            "score": "0.939",
            "index": 22,
            "selectedWords": [
                "incr\u00e9dule",
                "intuitive"
            ],
            "freeResponses": [],
            "nbPlayClick": 2,
            "expression": "INCREDULE",
            "csv_id": 3059,
            "video_name": "DIVERS_PARL_INCREDULE_AD_02_0003"
        },
        {
            "name": "12181",
            "score": "0.998",
            "index": 23,
            "selectedWords": [
                "neutre",
                "limpide",
                "froide"
            ],
            "freeResponses": [],
            "nbPlayClick": 1,
            "expression": "NEUTRE",
            "csv_id": 12218,
            "video_name": "DIVERS_PARL_AD_02_0002"
        },
        {
            "name": "7677",
            "score": "0.983",
            "index": 24,
            "selectedWords": [
                "d\u00e9termin\u00e9e",
                "manifeste",
                "convaincue"
            ],
            "freeResponses": [],
            "nbPlayClick": 1,
            "expression": "NEUTRE",
            "csv_id": 7711,
            "video_name": "DIVERS_PARL_AD_03_0001"
        },
        {
            "name": "10914",
            "score": "0.994",
            "index": 25,
            "selectedWords": [
                "neutre",
                "tonique"
            ],
            "freeResponses": [],
            "nbPlayClick": 1,
            "expression": "NEUTRE",
            "csv_id": 10948,
            "video_name": "DIVERS_PARL_AD_02_0001"
        },
        {
            "name": "11737",
            "score": "0.996",
            "index": 26,
            "selectedWords": [
                "d\u00e9termin\u00e9e",
                "r\u00e9fl\u00e9chie",
                "nette"
            ],
            "freeResponses": [],
            "nbPlayClick": 3,
            "expression": "NEUTRE",
            "csv_id": 11774,
            "video_name": "DIVERS_PARL_AD_04_0004"
        },
        {
            "name": "4662",
            "score": "0.963",
            "index": 27,
            "selectedWords": [
                "neutre",
                "notoire",
                "irr\u00e9cusable"
            ],
            "freeResponses": [],
            "nbPlayClick": 1,
            "expression": "NEUTRE",
            "csv_id": 4696,
            "video_name": "DIVERS_PARL_AD_06_0003"
        },
        {
            "name": "9716",
            "score": "0.991",
            "index": 28,
            "selectedWords": [
                "enthousiaste",
                "\u00e9loquente",
                "excit\u00e9e"
            ],
            "freeResponses": [],
            "nbPlayClick": 2,
            "expression": "RECONFORTANT",
            "csv_id": 9750,
            "video_name": "DIVERS_BOOK_RECONFORTANT_AD_01_0002"
        },
        {
            "name": "9825",
            "score": "0.991",
            "index": 29,
            "selectedWords": [
                "en col\u00e8re",
                "courrouc\u00e9e",
                "indign\u00e9e"
            ],
            "freeResponses": [],
            "nbPlayClick": 1,
            "expression": "NEUTRE",
            "csv_id": 9859,
            "video_name": "DIVERS_PARL_AD_01_0006"
        },
        {
            "name": "77",
            "score": "0.639",
            "index": 30,
            "selectedWords": [
                "neutre",
                "notoire",
                "manifeste"
            ],
            "freeResponses": [],
            "nbPlayClick": 2,
            "expression": "NEUTRE",
            "csv_id": 77,
            "video_name": "ESTYLE_NEUTRE_AD_02_0001"
        },
        {
            "name": "9661",
            "score": "0.991",
            "index": 31,
            "selectedWords": [
                "espi\u00e8gle",
                "narquoise"
            ],
            "freeResponses": [],
            "nbPlayClick": 2,
            "expression": "ENTHOUSIASTE",
            "csv_id": 9695,
            "video_name": "DIVERS_PARL_ENTHOUSIASTE_AD_02_0001"
        },
        {
            "name": "5280",
            "score": "0.968",
            "index": 32,
            "selectedWords": [
                "espi\u00e8gle",
                "d\u00e9lur\u00e9e",
                "finaude"
            ],
            "freeResponses": [],
            "nbPlayClick": 1,
            "expression": "ESPIEGLE",
            "csv_id": 5314,
            "video_name": "DIVERS_PARL_ESPIEGLE_AD_01_0001"
        },
        {
            "name": "11102",
            "score": "0.995",
            "index": 33,
            "selectedWords": [
                "neutre",
                "notoire",
                "manifeste"
            ],
            "freeResponses": [],
            "nbPlayClick": 1,
            "expression": "NEUTRE",
            "csv_id": 11136,
            "video_name": "DIVERS_PARL_AD_04_0003"
        },
        {
            "name": "8655",
            "score": "0.987",
            "index": 34,
            "selectedWords": [
                "neutre",
                "tonique",
                "\u00e9loquente"
            ],
            "freeResponses": [],
            "nbPlayClick": 1,
            "expression": "NEUTRE",
            "csv_id": 8689,
            "video_name": "DIVERS_PARL_AD_05_0003"
        },
        {
            "name": "2181",
            "score": "0.917",
            "index": 35,
            "selectedWords": [
                "\u00e9vidente",
                "incontestable"
            ],
            "freeResponses": [],
            "nbPlayClick": 2,
            "expression": "NEUTRE",
            "csv_id": 2181,
            "video_name": "DIVERS_PARL_AD_05_0003"
        },
        {
            "name": "6436",
            "score": "0.976",
            "index": 36,
            "selectedWords": [
                "neutre",
                "limpide",
                "froide"
            ],
            "freeResponses": [],
            "nbPlayClick": 1,
            "expression": "DESOLE",
            "csv_id": 6470,
            "video_name": "DIVERS_PARL_DESOLE_AD_01_0004"
        },
        {
            "name": "8980",
            "score": "0.988",
            "index": 37,
            "selectedWords": [
                "incr\u00e9dule",
                "dubitative",
                "sceptique"
            ],
            "freeResponses": [],
            "nbPlayClick": 1,
            "expression": "NEUTRE",
            "csv_id": 9014,
            "video_name": "DIVERS_PARL_AD_06_0001"
        },
        {
            "name": "11078",
            "score": "0.995",
            "index": 38,
            "selectedWords": [
                "pensive",
                "r\u00e9fl\u00e9chissante",
                "pensante"
            ],
            "freeResponses": [],
            "nbPlayClick": 1,
            "expression": "PENSIF",
            "csv_id": 11112,
            "video_name": "DIVERS_PARL_PENSIF_AD_01_0002"
        },
        {
            "name": "10765",
            "score": "0.994",
            "index": 39,
            "selectedWords": [
                "neutre",
                "s\u00fbre"
            ],
            "freeResponses": [],
            "nbPlayClick": 1,
            "expression": "NEUTRE",
            "csv_id": 10799,
            "video_name": "DIVERS_PARL_AD_02_0001"
        },
        {
            "name": "9655",
            "score": "0.990",
            "index": 40,
            "selectedWords": [
                "\u00e9tonn\u00e9e",
                "sceptique"
            ],
            "freeResponses": [],
            "nbPlayClick": 1,
            "response": "sc",
            "expression": "ETONNE",
            "csv_id": 9689,
            "video_name": "DIVERS_PARL_ETONNE_AD_01_0001"
        },
        {
            "name": "8058",
            "score": "0.984",
            "index": 41,
            "selectedWords": [
                "neutre",
                "tonique"
            ],
            "freeResponses": [],
            "nbPlayClick": 1,
            "expression": "NEUTRE",
            "csv_id": 8092,
            "video_name": "DIVERS_PARL_AD_01_0002"
        },
        {
            "name": "1555",
            "score": "0.894",
            "index": 42,
            "selectedWords": [
                "neutre",
                "tonique",
                "\u00e9loquente"
            ],
            "freeResponses": [],
            "nbPlayClick": 1,
            "expression": "NEUTRE",
            "csv_id": 1555,
            "video_name": "DIVERS_PARL_AD_03_0003"
        },
        {
            "name": "7246",
            "score": "0.981",
            "index": 43,
            "selectedWords": [
                "d\u00e9termin\u00e9e",
                "r\u00e9solue"
            ],
            "freeResponses": [],
            "nbPlayClick": 1,
            "expression": "NEUTRE",
            "csv_id": 7280,
            "video_name": "DIVERS_PARL_AD_03_0004"
        },
        {
            "name": "7892",
            "score": "0.984",
            "index": 44,
            "selectedWords": [
                "neutre",
                "limpide",
                "officielle"
            ],
            "freeResponses": [],
            "nbPlayClick": 1,
            "expression": "NEUTRE",
            "csv_id": 7926,
            "video_name": "DIVERS_PARL_AD_06_0003"
        },
        {
            "name": "465",
            "score": "0.799",
            "index": 45,
            "selectedWords": [
                "d\u00e9sol\u00e9e",
                "manifeste"
            ],
            "freeResponses": [],
            "nbPlayClick": 3,
            "expression": "DESOLE",
            "csv_id": 465,
            "video_name": "ESTYLE_DESOLE_AD_02_0001"
        },
        {
            "name": "12348",
            "score": "0.998",
            "index": 46,
            "selectedWords": [
                "neutre",
                "tonique",
                "\u00e9loquente"
            ],
            "freeResponses": [],
            "nbPlayClick": 1,
            "expression": "NEUTRE",
            "csv_id": 12385,
            "video_name": "DIVERS_BOOK_AD_04_0001"
        },
        {
            "name": "2506",
            "score": "0.927",
            "index": 47,
            "selectedWords": [
                "\u00e9vidente",
                "patente"
            ],
            "freeResponses": [],
            "nbPlayClick": 3,
            "expression": "EVIDENCE",
            "csv_id": 2506,
            "video_name": "DIVERS_PARL_EVIDENCE_AD_02_0002"
        },
        {
            "name": "6390",
            "score": "0.976",
            "index": 48,
            "selectedWords": [
                "espi\u00e8gle",
                "malicieuse"
            ],
            "freeResponses": [],
            "nbPlayClick": 1,
            "expression": "ESPIEGLE",
            "csv_id": 6424,
            "video_name": "DIVERS_PARL_ESPIEGLE_AD_01_0001"
        },
        {
            "name": "12033",
            "score": "0.997",
            "index": 49,
            "selectedWords": [
                "neutre",
                "s\u00fbre"
            ],
            "freeResponses": [],
            "nbPlayClick": 1,
            "expression": "NEUTRE",
            "csv_id": 12070,
            "video_name": "DIVERS_PARL_AD_02_0002"
        },
        {
            "name": "9247",
            "score": "0.989",
            "index": 50,
            "selectedWords": [
                "\u00e9tonn\u00e9e",
                "sinc\u00e8re",
                "perplexe"
            ],
            "freeResponses": [],
            "nbPlayClick": 1,
            "expression": "ETONNE",
            "csv_id": 9281,
            "video_name": "DIVERS_BOOK_ETONNE_AD_01_0002"
        },
        {
            "name": "11674",
            "score": "0.996",
            "index": 51,
            "selectedWords": [
                "neutre",
                "limpide",
                "officielle"
            ],
            "freeResponses": [],
            "nbPlayClick": 1,
            "expression": "NEUTRE",
            "csv_id": 11711,
            "video_name": "DIVERS_BOOK_AD_01_0001"
        },
        {
            "name": "2159",
            "score": "0.917",
            "index": 52,
            "selectedWords": [
                "r\u00e9confortante",
                "encourageante"
            ],
            "freeResponses": [],
            "nbPlayClick": 1,
            "expression": "RECONFORTANT",
            "csv_id": 2159,
            "video_name": "DIVERS_BOOK_RECONFORTANT_AD_03_0002"
        },
        {
            "name": "11096",
            "score": "0.995",
            "index": 53,
            "selectedWords": [
                "pensive",
                "r\u00e9fl\u00e9chissante",
                "pr\u00e9occup\u00e9e"
            ],
            "freeResponses": [],
            "nbPlayClick": 3,
            "expression": "PENSIF",
            "csv_id": 11130,
            "video_name": "DIVERS_BOOK_PENSIF_AD_03_0002"
        },
        {
            "name": "4005",
            "score": "0.954",
            "index": 54,
            "selectedWords": [
                "espi\u00e8gle",
                "mutine"
            ],
            "freeResponses": [],
            "nbPlayClick": 1,
            "expression": "ESPIEGLE",
            "csv_id": 4005,
            "video_name": "DIVERS_PARL_ESPIEGLE_AD_01_0001"
        },
        {
            "name": "10774",
            "score": "0.994",
            "index": 55,
            "selectedWords": [
                "en col\u00e8re",
                "\u00e9nerv\u00e9e",
                "\u00e9nergique"
            ],
            "freeResponses": [],
            "nbPlayClick": 1,
            "expression": "DETERMINE",
            "csv_id": 10808,
            "video_name": "DIVERS_PARL_DETERMINE_AD_01_0004"
        },
        {
            "name": "3349",
            "score": "0.944",
            "index": 56,
            "selectedWords": [
                "suppliante",
                "implorante"
            ],
            "freeResponses": [],
            "nbPlayClick": 1,
            "expression": "SUPPLIANT",
            "csv_id": 3349,
            "video_name": "DIVERS_PARL_SUPPLIANT_AD_02_0001"
        },
        {
            "name": "9619",
            "score": "0.990",
            "index": 57,
            "selectedWords": [
                "pensive",
                "songeuse",
                "pensante"
            ],
            "freeResponses": [],
            "nbPlayClick": 1,
            "expression": "PENSIF",
            "csv_id": 9653,
            "video_name": "DIVERS_PARL_PENSIF_AD_01_0002"
        },
        {
            "name": "7946",
            "score": "0.984",
            "index": 58,
            "selectedWords": [
                "en col\u00e8re",
                "courrouc\u00e9e",
                "indign\u00e9e"
            ],
            "freeResponses": [],
            "nbPlayClick": 1,
            "expression": "COLERE",
            "csv_id": 7980,
            "video_name": "DIVERS_PARL_COLERE_AD_01_0003"
        },
        {
            "name": "11161",
            "score": "0.995",
            "index": 59,
            "selectedWords": [
                "pensive",
                "r\u00e9fl\u00e9chissante"
            ],
            "freeResponses": [],
            "nbPlayClick": 1,
            "expression": "PENSIF",
            "csv_id": 11195,
            "video_name": "DIVERS_PARL_PENSIF_AD_01_0002"
        }
    ],
    "training": [
        {
            "name": "77",
            "score": "0.639",
            "index": 0,
            "selectedWords": [
                "neutre",
                "certaine",
                "manifeste"
            ],
            "freeResponses": [],
            "nbPlayClick": 3,
            "expression": "NEUTRE"
        }
    ],
    "filenameDate": "2023-10-24_13-49"
}