{
    "user": {
        "isProlific": true,
        "id": "6151ea29fbdcde1a0b10caf7",
        "session": "64f04d62bb22e881cc2250b7",
        "study": "64ef977375f88e4e1174dce0"
    },
    "userAgent": "Mozilla/5.0 (iPhone; CPU iPhone OS 16_6 like Mac OS X) AppleWebKit/605.1.15 (KHTML, like Gecko) Version/16.6 Mobile/15E148 Safari/604.1",
    "landingDate": "2023-08-31T08:23:36.350Z",
    "startDate": "2023-08-31T08:25:30.758Z",
    "endDate": "2023-08-31T09:49:49.061Z",
    "reviews": [
        {
            "name": "7290",
            "score": "0.981",
            "index": 0,
            "selectedWords": [
                "sceptique",
                "fade",
                "m\u00e9fiante"
            ],
            "freeResponses": [],
            "nbPlayClick": 1,
            "expression": "RECONFORTANT",
            "csv_id": 7324,
            "video_name": "DIVERS_BOOK_RECONFORTANT_AD_01_0002"
        },
        {
            "name": "9253",
            "score": "0.989",
            "index": 1,
            "selectedWords": [
                "d\u00e9termin\u00e9e",
                "neutre",
                "s\u00fbre"
            ],
            "freeResponses": [],
            "nbPlayClick": 1,
            "expression": "NEUTRE",
            "csv_id": 9287,
            "video_name": "DIVERS_PARL_AD_01_0005"
        },
        {
            "name": "4962",
            "score": "0.965",
            "index": 2,
            "selectedWords": [
                "neutre",
                "tonique",
                "autre",
                "apaisante",
                "encourageante"
            ],
            "freeResponses": [],
            "nbPlayClick": 2,
            "expression": "NEUTRE",
            "csv_id": 4996,
            "video_name": "DIVERS_BOOK_AD_04_0002"
        },
        {
            "name": "6117",
            "score": "0.975",
            "index": 3,
            "selectedWords": [
                "d\u00e9termin\u00e9e",
                "autre",
                "dubitative",
                "sceptique",
                "\u00e9loquente",
                "autre",
                "autre",
                "d\u00e9cid\u00e9e"
            ],
            "freeResponses": [],
            "nbPlayClick": 3,
            "expression": "NEUTRE",
            "csv_id": 6151,
            "video_name": "DIVERS_PARL_AD_05_0002"
        },
        {
            "name": "7757",
            "score": "0.983",
            "index": 4,
            "selectedWords": [
                "neutre",
                "limpide",
                "officielle",
                "autre",
                "autre",
                "autre"
            ],
            "freeResponses": [],
            "nbPlayClick": 1,
            "expression": "NEUTRE",
            "csv_id": 7791,
            "video_name": "DIVERS_PARL_AD_04_0001"
        },
        {
            "name": "1852",
            "score": "0.907",
            "index": 5,
            "selectedWords": [
                "autre",
                "dubitative",
                "sceptique",
                "autre",
                "autre",
                "ennuy\u00e9e",
                "afflig\u00e9e",
                "emb\u00eat\u00e9e"
            ],
            "freeResponses": [],
            "nbPlayClick": 9,
            "expression": "INCREDULE",
            "csv_id": 1852,
            "video_name": "DIVERS_PARL_INCREDULE_AD_02_0003"
        },
        {
            "name": "11149",
            "score": "0.995",
            "index": 6,
            "selectedWords": [
                "neutre",
                "s\u00fbre",
                "r\u00e9fl\u00e9chie",
                "autre",
                "autre",
                "apaisante",
                "encourageante",
                "autre",
                "autre"
            ],
            "freeResponses": [],
            "nbPlayClick": 3,
            "expression": "NEUTRE",
            "csv_id": 11183,
            "video_name": "DIVERS_PARL_AD_01_0004"
        },
        {
            "name": "3694",
            "score": "0.950",
            "index": 7,
            "selectedWords": [
                "d\u00e9termin\u00e9e",
                "r\u00e9solue",
                "autre",
                "autre",
                "autre",
                "autre",
                "autre",
                "autre",
                "autre",
                "autre",
                "autre",
                "autre",
                "officielle",
                "certaine",
                "s\u00fbre",
                "autre",
                "autre",
                "autre",
                "autre",
                "triomphale"
            ],
            "freeResponses": [],
            "nbPlayClick": 1,
            "expression": "NEUTRE",
            "csv_id": 3694,
            "video_name": "DIVERS_PARL_AD_03_0004"
        },
        {
            "name": "11716",
            "score": "0.996",
            "index": 8,
            "selectedWords": [
                "espi\u00e8gle",
                "fac\u00e9tieuse",
                "taquine"
            ],
            "freeResponses": [],
            "nbPlayClick": 1,
            "expression": "ESPIEGLE",
            "csv_id": 11753,
            "video_name": "DIVERS_PARL_ESPIEGLE_AD_01_0001"
        },
        {
            "name": "2082",
            "score": "0.914",
            "index": 9,
            "selectedWords": [
                "\u00e9tonn\u00e9e",
                "autre",
                "dubitative",
                "sceptique",
                "s\u00fbre",
                "autre",
                "autre",
                "autre",
                "autre",
                "autre",
                "stup\u00e9faite",
                "effar\u00e9e",
                "autre",
                "ind\u00e9niable",
                "incontestable"
            ],
            "freeResponses": [],
            "nbPlayClick": 1,
            "expression": "INCREDULE",
            "csv_id": 2082,
            "video_name": "DIVERS_BOOK_INCREDULE_AD_01_0001"
        },
        {
            "name": "9942",
            "score": "0.991",
            "index": 10,
            "selectedWords": [
                "neutre",
                "limpide",
                "\u00e9loquente",
                "autre",
                "autre",
                "autre",
                "apaisante",
                "autre",
                "autre",
                "autre"
            ],
            "freeResponses": [],
            "nbPlayClick": 1,
            "expression": "RECONFORTANT",
            "csv_id": 9976,
            "video_name": "DIVERS_BOOK_RECONFORTANT_AD_01_0004"
        },
        {
            "name": "628",
            "score": "0.824",
            "index": 11,
            "selectedWords": [
                "en col\u00e8re",
                "irrit\u00e9e",
                "m\u00e9contente",
                "contrari\u00e9e",
                "autre",
                "autre",
                "autre",
                "autre",
                "autre",
                "autre",
                "d\u00e9cid\u00e9e",
                "autre",
                "ennuy\u00e9e",
                "autre",
                "autre",
                "autre",
                "autre",
                "autre",
                "autre",
                "autre",
                "\u00e9loquente"
            ],
            "freeResponses": [
                " Navre"
            ],
            "nbPlayClick": 2,
            "response": " Navre",
            "expression": "NEUTRE",
            "csv_id": 628,
            "video_name": "DIVERS_PARL_AD_06_0002"
        },
        {
            "name": "2306",
            "score": "0.921",
            "index": 12,
            "selectedWords": [
                "autre",
                "implorante",
                "mendiante",
                "autre",
                "songeuse",
                "autre",
                "ennuy\u00e9e",
                "autre",
                "autre",
                "autre",
                "autre",
                "autre",
                "autre",
                "autre",
                "autre"
            ],
            "freeResponses": [],
            "nbPlayClick": 4,
            "expression": "EVIDENCE",
            "csv_id": 2306,
            "video_name": "DIVERS_PARL_EVIDENCE_AD_01_0001"
        },
        {
            "name": "3572",
            "score": "0.948",
            "index": 13,
            "selectedWords": [
                "incr\u00e9dule",
                "dubitative",
                "sceptique"
            ],
            "freeResponses": [
                "Molle",
                "Neutre"
            ],
            "nbPlayClick": 5,
            "response": "Neutre",
            "expression": "INCREDULE",
            "csv_id": 3572,
            "video_name": "DIVERS_PARL_INCREDULE_AD_02_0003"
        },
        {
            "name": "5826",
            "score": "0.973",
            "index": 14,
            "selectedWords": [
                "autre",
                "autre",
                "autre",
                "autre",
                "autre",
                "stimulante",
                "convaincue",
                "d\u00e9termin\u00e9e",
                "enthousiaste"
            ],
            "freeResponses": [
                "Emball\u00e9e ",
                "Dynamique"
            ],
            "nbPlayClick": 1,
            "response": "Dynamique",
            "expression": "ENTHOUSIASTE",
            "csv_id": 5860,
            "video_name": "DIVERS_PARL_ENTHOUSIASTE_AD_01_0003"
        },
        {
            "name": "8223",
            "score": "0.985",
            "index": 15,
            "selectedWords": [
                "d\u00e9sol\u00e9e",
                "absente",
                "d\u00e9courag\u00e9e",
                "perplexe"
            ],
            "freeResponses": [],
            "nbPlayClick": 2,
            "expression": "SUPPLIANT",
            "csv_id": 8257,
            "video_name": "DIVERS_PARL_SUPPLIANT_AD_02_0001"
        },
        {
            "name": "10364",
            "score": "0.993",
            "index": 16,
            "selectedWords": [],
            "freeResponses": [
                "Neutre",
                "Officiel",
                "Eloquent",
                "Chiant",
                "Soporifique"
            ],
            "nbPlayClick": 2,
            "response": "Soporifique",
            "expression": "NEUTRE",
            "csv_id": 10398,
            "video_name": "DIVERS_PARL_AD_01_0005"
        },
        {
            "name": "11841",
            "score": "0.997",
            "index": 17,
            "selectedWords": [
                "neutre",
                "limpide",
                "froide",
                "autre",
                "autre",
                "autre",
                "inexpressive",
                "autre",
                "autre",
                "autre",
                "autre"
            ],
            "freeResponses": [
                "Officiel",
                "Eloquente",
                "Stupefaite"
            ],
            "nbPlayClick": 3,
            "response": "Stupefaite",
            "expression": "NEUTRE",
            "csv_id": 11878,
            "video_name": "DIVERS_PARL_AD_03_0001"
        },
        {
            "name": "6502",
            "score": "0.977",
            "index": 18,
            "selectedWords": [],
            "freeResponses": [
                "Limpide",
                "Neutre",
                "Recital",
                "Monocorde",
                "Apaisant"
            ],
            "nbPlayClick": 1,
            "response": "Apaisant",
            "expression": "DESOLE",
            "csv_id": 6536,
            "video_name": "DIVERS_BOOK_DESOLE_AD_03_0002"
        },
        {
            "name": "11551",
            "score": "0.996",
            "index": 19,
            "selectedWords": [
                "\u00e9vidente",
                "autre",
                "autre",
                "autre",
                "autre",
                "autre",
                "autre",
                "autre",
                "encourageante",
                "autre",
                "autre",
                "ind\u00e9niable"
            ],
            "freeResponses": [
                "Clair",
                "Limpide",
                "Explicatif",
                "Apaisant",
                "Confiant "
            ],
            "nbPlayClick": 1,
            "response": "Confian",
            "expression": "NEUTRE",
            "csv_id": 11588,
            "video_name": "DIVERS_PARL_AD_03_0002"
        },
        {
            "name": "1969",
            "score": "0.911",
            "index": 20,
            "selectedWords": [],
            "freeResponses": [
                "Calme",
                "D\u00e9cid\u00e9e",
                "S\u00fbre ",
                "D\u00e9pit\u00e9e",
                "Vindicative"
            ],
            "nbPlayClick": 1,
            "response": "Vindicative",
            "expression": "NEUTRE",
            "csv_id": 1969,
            "video_name": "DIVERS_PARL_AD_06_0001"
        },
        {
            "name": "2305",
            "score": "0.921",
            "index": 21,
            "selectedWords": [],
            "freeResponses": [
                "Neutre",
                "Chiant",
                "Soporifique "
            ],
            "nbPlayClick": 2,
            "response": "Sopori",
            "expression": "NEUTRE",
            "csv_id": 2305,
            "video_name": "DIVERS_BOOK_AD_04_0001"
        },
        {
            "name": "8714",
            "score": "0.987",
            "index": 22,
            "selectedWords": [],
            "freeResponses": [
                "Monocorde",
                "Recital",
                "Sans entrain"
            ],
            "nbPlayClick": 1,
            "response": "Sans entrain",
            "expression": "DESOLE",
            "csv_id": 8748,
            "video_name": "DIVERS_BOOK_DESOLE_AD_03_0002"
        },
        {
            "name": "6825",
            "score": "0.979",
            "index": 23,
            "selectedWords": [],
            "freeResponses": [
                "\u00c9loquent ",
                "Apaisant",
                "Forc\u00e9e ",
                "Rythm\u00e9"
            ],
            "nbPlayClick": 1,
            "response": "Rythm\u00e9",
            "expression": "RECONFORTANT",
            "csv_id": 6859,
            "video_name": "DIVERS_BOOK_RECONFORTANT_AD_01_0002"
        },
        {
            "name": "9083",
            "score": "0.989",
            "index": 24,
            "selectedWords": [
                "neutre",
                "limpide",
                "autre",
                "autre"
            ],
            "freeResponses": [],
            "nbPlayClick": 1,
            "expression": "NEUTRE",
            "csv_id": 9117,
            "video_name": "DIVERS_PARL_AD_04_0004"
        },
        {
            "name": "1808",
            "score": "0.905",
            "index": 25,
            "selectedWords": [
                "neutre",
                "autre",
                "implorante",
                "autre",
                "autre"
            ],
            "freeResponses": [
                "Inexpressive"
            ],
            "nbPlayClick": 3,
            "response": "Inexpressive",
            "expression": "NEUTRE",
            "csv_id": 1808,
            "video_name": "DIVERS_BOOK_AD_01_0002"
        },
        {
            "name": "8069",
            "score": "0.985",
            "index": 26,
            "selectedWords": [],
            "freeResponses": [
                "Agr\u00e9able",
                "Rythm\u00e9",
                "Limpide",
                "Stimulant"
            ],
            "nbPlayClick": 1,
            "response": "Stimulant",
            "expression": "NEUTRE",
            "csv_id": 8103,
            "video_name": "DIVERS_BOOK_AD_01_0001"
        },
        {
            "name": "4488",
            "score": "0.960",
            "index": 27,
            "selectedWords": [
                "neutre",
                "s\u00fbre",
                "autre",
                "autre"
            ],
            "freeResponses": [
                "Officiel",
                "\u00c9vident"
            ],
            "nbPlayClick": 1,
            "response": "\u00c9vident",
            "expression": "NEUTRE",
            "csv_id": 4522,
            "video_name": "DIVERS_PARL_AD_06_0001"
        },
        {
            "name": "7129",
            "score": "0.980",
            "index": 28,
            "selectedWords": [
                "d\u00e9termin\u00e9e",
                "autre",
                "autre",
                "autre",
                "autre",
                "autre",
                "autre",
                "hargneuse"
            ],
            "freeResponses": [
                "\u00c9nerv\u00e9",
                "Limpide",
                "Dur"
            ],
            "nbPlayClick": 2,
            "response": "Dur",
            "expression": "COLERE",
            "csv_id": 7163,
            "video_name": "DIVERS_PARL_COLERE_AD_01_0003"
        },
        {
            "name": "9139",
            "score": "0.989",
            "index": 29,
            "selectedWords": [],
            "freeResponses": [
                "Clair",
                "Rythm\u00e9",
                "Lourd ",
                "Limpide",
                "Officiel"
            ],
            "nbPlayClick": 1,
            "response": "Officiel",
            "expression": "NEUTRE",
            "csv_id": 9173,
            "video_name": "DIVERS_BOOK_AD_03_0002"
        },
        {
            "name": "9809",
            "score": "0.991",
            "index": 30,
            "selectedWords": [
                "autre",
                "autre",
                "autre",
                "attrist\u00e9e",
                "afflig\u00e9e",
                "autre",
                "autre",
                "autre",
                "autre",
                "autre",
                "autre",
                "certaine"
            ],
            "freeResponses": [
                "Moqueur",
                "Hautaine",
                "Sur"
            ],
            "nbPlayClick": 1,
            "response": "Sur",
            "expression": "ENTHOUSIASTE",
            "csv_id": 9843,
            "video_name": "DIVERS_PARL_ENTHOUSIASTE_AD_02_0001"
        },
        {
            "name": "2797",
            "score": "0.934",
            "index": 31,
            "selectedWords": [],
            "freeResponses": [
                "Grave",
                "Limpide",
                "Soporifique"
            ],
            "nbPlayClick": 1,
            "response": "Soporifique",
            "expression": "NEUTRE",
            "csv_id": 2797,
            "video_name": "DIVERS_PARL_AD_01_0005"
        },
        {
            "name": "7209",
            "score": "0.981",
            "index": 32,
            "selectedWords": [],
            "freeResponses": [
                "Clair",
                "Limpide",
                "Articul\u00e9",
                "Agr\u00e9able"
            ],
            "nbPlayClick": 1,
            "response": "Agr\u00e9able",
            "expression": "NEUTRE",
            "csv_id": 7243,
            "video_name": "DIVERS_PARL_AD_01_0000"
        },
        {
            "name": "12101",
            "score": "0.997",
            "index": 33,
            "selectedWords": [
                "d\u00e9termin\u00e9e",
                "autre",
                "autre",
                "autre",
                "autre",
                "autre",
                "autre",
                "autre",
                "autre",
                "autre",
                "autre",
                "d\u00e9termin\u00e9e",
                "encourageante",
                "ind\u00e9niable"
            ],
            "freeResponses": [
                "S\u00fbre",
                "Indiscutable"
            ],
            "nbPlayClick": 1,
            "response": "Indiscutable",
            "expression": "NEUTRE",
            "csv_id": 12138,
            "video_name": "DIVERS_PARL_AD_02_0003"
        },
        {
            "name": "12368",
            "score": "0.999",
            "index": 34,
            "selectedWords": [],
            "freeResponses": [
                "Apaisant",
                "Clair"
            ],
            "nbPlayClick": 1,
            "response": "Clair",
            "expression": "NEUTRE",
            "csv_id": 12405,
            "video_name": "DIVERS_BOOK_AD_04_0002"
        },
        {
            "name": "8142",
            "score": "0.985",
            "index": 35,
            "selectedWords": [
                "r\u00e9confortante",
                "stimulante",
                "pensante",
                "r\u00e9fl\u00e9chissante"
            ],
            "freeResponses": [
                "Vivant"
            ],
            "nbPlayClick": 1,
            "response": "Vivant",
            "expression": "PENSIF",
            "csv_id": 8176,
            "video_name": "DIVERS_BOOK_PENSIF_AD_03_0002"
        },
        {
            "name": "7523",
            "score": "0.982",
            "index": 36,
            "selectedWords": [
                "autre",
                "dubitative",
                "sceptique",
                "autre",
                "autre",
                "autre",
                "autre",
                "autre",
                "autre",
                "autre",
                "autre",
                "autre",
                "autre",
                "autre",
                "autre",
                "autre",
                "autre"
            ],
            "freeResponses": [
                "R\u00e9fl\u00e9chissant",
                "D\u00e9pit\u00e9"
            ],
            "nbPlayClick": 2,
            "response": "D\u00e9pit\u00e9",
            "expression": "PENSIF",
            "csv_id": 7557,
            "video_name": "DIVERS_PARL_PENSIF_AD_01_0002"
        },
        {
            "name": "3479",
            "score": "0.946",
            "index": 37,
            "selectedWords": [
                "autre",
                "autre",
                "autre",
                "autre",
                "autre"
            ],
            "freeResponses": [
                "\u00c9nerv\u00e9e",
                "Limpide",
                "Ennuy\u00e9e"
            ],
            "nbPlayClick": 1,
            "response": "Ennuy\u00e9e",
            "expression": "EVIDENCE",
            "csv_id": 3479,
            "video_name": "DIVERS_BOOK_EVIDENCE_AD_01_0002"
        },
        {
            "name": "11526",
            "score": "0.996",
            "index": 38,
            "selectedWords": [
                "neutre",
                "limpide",
                "\u00e9loquente"
            ],
            "freeResponses": [],
            "nbPlayClick": 1,
            "expression": "NEUTRE",
            "csv_id": 11563,
            "video_name": "DIVERS_BOOK_AD_03_0002"
        },
        {
            "name": "7095",
            "score": "0.980",
            "index": 39,
            "selectedWords": [
                "\u00e9vidente",
                "autre",
                "autre"
            ],
            "freeResponses": [
                "Mou",
                "Peu convaincu",
                "D\u00e9pit\u00e9e ",
                "Implorante"
            ],
            "nbPlayClick": 1,
            "response": "Implorante",
            "expression": "SUPPLIANT",
            "csv_id": 7129,
            "video_name": "DIVERS_PARL_SUPPLIANT_AD_02_0001"
        },
        {
            "name": "9765",
            "score": "0.991",
            "index": 40,
            "selectedWords": [
                "neutre"
            ],
            "freeResponses": [
                "Clair"
            ],
            "nbPlayClick": 1,
            "response": "Clair",
            "expression": "NEUTRE",
            "csv_id": 9799,
            "video_name": "DIVERS_BOOK_AD_03_0002"
        },
        {
            "name": "5641",
            "score": "0.971",
            "index": 41,
            "selectedWords": [
                "neutre",
                "s\u00fbre",
                "r\u00e9fl\u00e9chie",
                "autre",
                "autre",
                "autre",
                "encourageante"
            ],
            "freeResponses": [
                "Apaisant "
            ],
            "nbPlayClick": 2,
            "response": "Apaisant ",
            "expression": "NEUTRE",
            "csv_id": 5675,
            "video_name": "DIVERS_PARL_AD_05_0001"
        },
        {
            "name": "8649",
            "score": "0.987",
            "index": 42,
            "selectedWords": [
                "d\u00e9termin\u00e9e",
                "r\u00e9solue",
                "convaincue",
                "indiscutable",
                "autre",
                "autre"
            ],
            "freeResponses": [],
            "nbPlayClick": 1,
            "expression": "NEUTRE",
            "csv_id": 8683,
            "video_name": "DIVERS_PARL_AD_03_0001"
        },
        {
            "name": "2892",
            "score": "0.936",
            "index": 43,
            "selectedWords": [
                "\u00e9tonn\u00e9e",
                "sinc\u00e8re"
            ],
            "freeResponses": [
                "Surprise",
                "Dubitative",
                "R\u00e9fl\u00e9chis"
            ],
            "nbPlayClick": 5,
            "response": "R\u00e9fl\u00e9chis",
            "expression": "ETONNE",
            "csv_id": 2892,
            "video_name": "DIVERS_PARL_ETONNE_AD_01_0001"
        },
        {
            "name": "3757",
            "score": "0.951",
            "index": 44,
            "selectedWords": [],
            "freeResponses": [
                "Fausse",
                "Forc\u00e9e "
            ],
            "nbPlayClick": 1,
            "response": "Forc\u00e9e ",
            "expression": "ENTHOUSIASTE",
            "csv_id": 3757,
            "video_name": "DIVERS_PARL_ENTHOUSIASTE_AD_01_0003"
        },
        {
            "name": "11159",
            "score": "0.995",
            "index": 45,
            "selectedWords": [],
            "freeResponses": [
                "Mou",
                "Mal pr\u00e9par\u00e9 ",
                "Peu professionnel"
            ],
            "nbPlayClick": 1,
            "response": "Peu professionnel",
            "expression": "PENSIF",
            "csv_id": 11193,
            "video_name": "DIVERS_PARL_PENSIF_AD_01_0002"
        },
        {
            "name": "3967",
            "score": "0.954",
            "index": 46,
            "selectedWords": [
                "d\u00e9termin\u00e9e",
                "r\u00e9solue"
            ],
            "freeResponses": [],
            "nbPlayClick": 1,
            "expression": "NEUTRE",
            "csv_id": 3967,
            "video_name": "DIVERS_PARL_AD_01_0000"
        },
        {
            "name": "8268",
            "score": "0.985",
            "index": 47,
            "selectedWords": [
                "\u00e9vidente",
                "indubitable",
                "limpide",
                "\u00e9loquente",
                "autre",
                "autre",
                "autre"
            ],
            "freeResponses": [
                "Sur"
            ],
            "nbPlayClick": 2,
            "response": "Sur",
            "expression": "NEUTRE",
            "csv_id": 8302,
            "video_name": "DIVERS_PARL_AD_06_0003"
        },
        {
            "name": "6764",
            "score": "0.978",
            "index": 48,
            "selectedWords": [
                "neutre",
                "s\u00fbre",
                "nette"
            ],
            "freeResponses": [
                "Recital"
            ],
            "nbPlayClick": 1,
            "response": "Recital",
            "expression": "DESOLE",
            "csv_id": 6798,
            "video_name": "DIVERS_BOOK_DESOLE_AD_03_0002"
        },
        {
            "name": "3311",
            "score": "0.944",
            "index": 49,
            "selectedWords": [
                "neutre",
                "autre",
                "autre",
                "inexpressive"
            ],
            "freeResponses": [
                "Fatigu\u00e9e"
            ],
            "nbPlayClick": 1,
            "response": "Fatigu\u00e9e",
            "expression": "NEUTRE",
            "csv_id": 3311,
            "video_name": "DIVERS_PARL_AD_03_0001"
        },
        {
            "name": "788",
            "score": "0.841",
            "index": 50,
            "selectedWords": [
                "d\u00e9termin\u00e9e",
                "r\u00e9solue",
                "convaincue",
                "indiscutable",
                "autre",
                "autre",
                "autre",
                "autre"
            ],
            "freeResponses": [
                "Moqueuse"
            ],
            "nbPlayClick": 2,
            "response": "Moqueuse",
            "expression": "ENTHOUSIASTE",
            "csv_id": 788,
            "video_name": "DIVERS_PARL_ENTHOUSIASTE_AD_01_0003"
        },
        {
            "name": "8764",
            "score": "0.987",
            "index": 51,
            "selectedWords": [
                "autre"
            ],
            "freeResponses": [
                "Soporifique",
                "Peu convaincue"
            ],
            "nbPlayClick": 1,
            "response": "Peu convaincue",
            "expression": "NEUTRE",
            "csv_id": 8798,
            "video_name": "DIVERS_PARL_AD_01_0001"
        },
        {
            "name": "9940",
            "score": "0.991",
            "index": 52,
            "selectedWords": [
                "\u00e9vidente",
                "indubitable",
                "certaine",
                "tonique"
            ],
            "freeResponses": [
                "Dynamique",
                "Moqueuse"
            ],
            "nbPlayClick": 3,
            "response": "Moqueuse",
            "expression": "ENTHOUSIASTE",
            "csv_id": 9974,
            "video_name": "DIVERS_PARL_ENTHOUSIASTE_AD_01_0003"
        },
        {
            "name": "10628",
            "score": "0.993",
            "index": 53,
            "selectedWords": [
                "espi\u00e8gle",
                "narquoise",
                "autre",
                "autre",
                "autre",
                "autre",
                "autre"
            ],
            "freeResponses": [
                "S\u00fbre"
            ],
            "nbPlayClick": 1,
            "response": "S\u00fbre",
            "expression": "NEUTRE",
            "csv_id": 10662,
            "video_name": "DIVERS_PARL_AD_02_0004"
        },
        {
            "name": "9764",
            "score": "0.991",
            "index": 54,
            "selectedWords": [],
            "freeResponses": [
                "\u00c9loquent",
                "Recital"
            ],
            "nbPlayClick": 2,
            "response": "Recital",
            "expression": "NEUTRE",
            "csv_id": 9798,
            "video_name": "DIVERS_BOOK_AD_04_0001"
        },
        {
            "name": "3434",
            "score": "0.946",
            "index": 55,
            "selectedWords": [
                "incr\u00e9dule",
                "dubitative",
                "sceptique",
                "autre",
                "autre",
                "autre",
                "autre",
                "autre",
                "autre"
            ],
            "freeResponses": [
                "\u00c9tonn\u00e9e",
                "Moqueur"
            ],
            "nbPlayClick": 1,
            "response": "Moqueur",
            "expression": "INCREDULE",
            "csv_id": 3434,
            "video_name": "DIVERS_PARL_INCREDULE_AD_02_0003"
        },
        {
            "name": "3124",
            "score": "0.941",
            "index": 56,
            "selectedWords": [
                "espi\u00e8gle",
                "narquoise",
                "autre",
                "autre",
                "autre",
                "autre",
                "autre",
                "autre",
                "autre",
                "autre",
                "autre",
                "autre",
                "agit\u00e9e"
            ],
            "freeResponses": [],
            "nbPlayClick": 2,
            "expression": "ESPIEGLE",
            "csv_id": 3124,
            "video_name": "DIVERS_PARL_ESPIEGLE_AD_01_0001"
        },
        {
            "name": "8208",
            "score": "0.985",
            "index": 57,
            "selectedWords": [
                "neutre",
                "autre",
                "imp\u00e9n\u00e9trable"
            ],
            "freeResponses": [],
            "nbPlayClick": 2,
            "expression": "NEUTRE",
            "csv_id": 8242,
            "video_name": "DIVERS_BOOK_AD_01_0001"
        },
        {
            "name": "7700",
            "score": "0.983",
            "index": 58,
            "selectedWords": [
                "neutre",
                "limpide",
                "officielle",
                "autre"
            ],
            "freeResponses": [
                "Ennuyant"
            ],
            "nbPlayClick": 1,
            "response": "Ennuyant",
            "expression": "NEUTRE",
            "csv_id": 7734,
            "video_name": "DIVERS_PARL_AD_06_0002"
        },
        {
            "name": "2263",
            "score": "0.920",
            "index": 59,
            "selectedWords": [
                "neutre",
                "s\u00fbre",
                "nette",
                "autre",
                "convaincue"
            ],
            "freeResponses": [],
            "nbPlayClick": 1,
            "expression": "NEUTRE",
            "csv_id": 2263,
            "video_name": "DIVERS_PARL_AD_03_0003"
        }
    ],
    "training": [
        {
            "name": "77",
            "score": "0.639",
            "index": 0,
            "selectedWords": [
                "neutre",
                "autre",
                "autre",
                "inexpressive"
            ],
            "freeResponses": [],
            "nbPlayClick": 3,
            "expression": "NEUTRE"
        }
    ],
    "filenameDate": "2023-08-31_11-49"
}