{
    "user": {
        "isProlific": true,
        "id": "61530718d112878a50e709d6",
        "session": "660872a16f3484d318984afc",
        "study": "64ef977375f88e4e1174dce0"
    },
    "userAgent": "Mozilla/5.0 (X11; Linux x86_64) AppleWebKit/537.36 (KHTML, like Gecko) Chrome/123.0.0.0 Safari/537.36",
    "landingDate": "2024-03-30T20:14:40.255Z",
    "startDate": "2024-03-30T20:19:24.111Z",
    "endDate": "2024-03-30T20:44:49.003Z",
    "reviews": [
        {
            "name": "9215",
            "score": "0.989",
            "index": 0,
            "selectedWords": [
                "neutre",
                "s\u00fbre",
                "ennuy\u00e9e"
            ],
            "freeResponses": [],
            "nbPlayClick": 2,
            "expression": "NEUTRE",
            "csv_id": 9249,
            "video_name": "DIVERS_PARL_AD_06_0004"
        },
        {
            "name": "7644",
            "score": "0.983",
            "index": 1,
            "selectedWords": [
                "ennuy\u00e9e",
                "neutre",
                "pensive"
            ],
            "freeResponses": [],
            "nbPlayClick": 5,
            "response": "neu",
            "expression": "NEUTRE",
            "csv_id": 7678,
            "video_name": "DIVERS_PARL_AD_01_0000"
        },
        {
            "name": "1237",
            "score": "0.877",
            "index": 2,
            "selectedWords": [
                "espi\u00e8gle",
                "enthousiaste"
            ],
            "freeResponses": [],
            "nbPlayClick": 3,
            "response": "ent",
            "expression": "ESPIEGLE",
            "csv_id": 1237,
            "video_name": "DIVERS_BOOK_ESPIEGLE_AD_03_0001"
        },
        {
            "name": "6895",
            "score": "0.979",
            "index": 3,
            "selectedWords": [
                "neutre",
                "certaine",
                "nette"
            ],
            "freeResponses": [],
            "nbPlayClick": 2,
            "expression": "NEUTRE",
            "csv_id": 6929,
            "video_name": "DIVERS_PARL_AD_06_0003"
        },
        {
            "name": "8148",
            "score": "0.985",
            "index": 4,
            "selectedWords": [
                "espi\u00e8gle",
                "autre",
                "exalt\u00e9e"
            ],
            "freeResponses": [],
            "nbPlayClick": 1,
            "expression": "ESPIEGLE",
            "csv_id": 8182,
            "video_name": "DIVERS_BOOK_ESPIEGLE_AD_03_0001"
        },
        {
            "name": "7628",
            "score": "0.983",
            "index": 5,
            "selectedWords": [
                "incr\u00e9dule",
                "autre",
                "d\u00e9termin\u00e9e"
            ],
            "freeResponses": [],
            "nbPlayClick": 2,
            "expression": "NEUTRE",
            "csv_id": 7662,
            "video_name": "DIVERS_PARL_AD_05_0003"
        },
        {
            "name": "1566",
            "score": "0.895",
            "index": 6,
            "selectedWords": [
                "d\u00e9sol\u00e9e",
                "ennuy\u00e9e",
                "contrari\u00e9e"
            ],
            "freeResponses": [],
            "nbPlayClick": 2,
            "expression": "EVIDENCE",
            "csv_id": 1566,
            "video_name": "DIVERS_PARL_EVIDENCE_AD_01_0001"
        },
        {
            "name": "5981",
            "score": "0.974",
            "index": 7,
            "selectedWords": [
                "neutre",
                "ennuy\u00e9e"
            ],
            "freeResponses": [],
            "nbPlayClick": 1,
            "expression": "NEUTRE",
            "csv_id": 6015,
            "video_name": "DIVERS_PARL_AD_05_0001"
        },
        {
            "name": "5244",
            "score": "0.968",
            "index": 8,
            "selectedWords": [
                "d\u00e9termin\u00e9e",
                "r\u00e9solue",
                "entreprenante"
            ],
            "freeResponses": [],
            "nbPlayClick": 2,
            "expression": "NEUTRE",
            "csv_id": 5278,
            "video_name": "DIVERS_BOOK_AD_04_0002"
        },
        {
            "name": "9355",
            "score": "0.989",
            "index": 9,
            "selectedWords": [
                "d\u00e9cid\u00e9e",
                "courrouc\u00e9e",
                "d\u00e9termin\u00e9e"
            ],
            "freeResponses": [],
            "nbPlayClick": 2,
            "expression": "NEUTRE",
            "csv_id": 9389,
            "video_name": "DIVERS_PARL_AD_02_0004"
        },
        {
            "name": "5177",
            "score": "0.967",
            "index": 10,
            "selectedWords": [
                "d\u00e9termin\u00e9e",
                "m\u00e9contente",
                "autre",
                "autre"
            ],
            "freeResponses": [],
            "nbPlayClick": 2,
            "expression": "COLERE",
            "csv_id": 5211,
            "video_name": "DIVERS_PARL_COLERE_AD_02_0002"
        },
        {
            "name": "6542",
            "score": "0.977",
            "index": 11,
            "selectedWords": [
                "neutre",
                "inexpressive"
            ],
            "freeResponses": [],
            "nbPlayClick": 3,
            "expression": "NEUTRE",
            "csv_id": 6576,
            "video_name": "DIVERS_PARL_AD_05_0001"
        },
        {
            "name": "7006",
            "score": "0.980",
            "index": 12,
            "selectedWords": [
                "neutre",
                "limpide"
            ],
            "freeResponses": [],
            "nbPlayClick": 1,
            "expression": "NEUTRE",
            "csv_id": 7040,
            "video_name": "DIVERS_PARL_AD_04_0002"
        },
        {
            "name": "9887",
            "score": "0.991",
            "index": 13,
            "selectedWords": [
                "neutre",
                "autre",
                "r\u00e9solue"
            ],
            "freeResponses": [],
            "nbPlayClick": 1,
            "expression": "NEUTRE",
            "csv_id": 9921,
            "video_name": "DIVERS_PARL_AD_06_0001"
        },
        {
            "name": "10819",
            "score": "0.994",
            "index": 14,
            "selectedWords": [
                "ennuy\u00e9e",
                "r\u00e9solue"
            ],
            "freeResponses": [],
            "nbPlayClick": 2,
            "expression": "NEUTRE",
            "csv_id": 10853,
            "video_name": "DIVERS_PARL_AD_03_0002"
        },
        {
            "name": "11761",
            "score": "0.996",
            "index": 15,
            "selectedWords": [
                "neutre",
                "intuitive"
            ],
            "freeResponses": [],
            "nbPlayClick": 2,
            "expression": "NEUTRE",
            "csv_id": 11798,
            "video_name": "DIVERS_BOOK_AD_01_0001"
        },
        {
            "name": "11198",
            "score": "0.995",
            "index": 16,
            "selectedWords": [
                "d\u00e9termin\u00e9e",
                "r\u00e9fl\u00e9chie"
            ],
            "freeResponses": [],
            "nbPlayClick": 3,
            "expression": "NEUTRE",
            "csv_id": 11232,
            "video_name": "DIVERS_PARL_AD_02_0001"
        },
        {
            "name": "4313",
            "score": "0.958",
            "index": 17,
            "selectedWords": [
                "taquine",
                "sceptique"
            ],
            "freeResponses": [],
            "nbPlayClick": 1,
            "expression": "NEUTRE",
            "csv_id": 4313,
            "video_name": "DIVERS_PARL_AD_02_0001"
        },
        {
            "name": "2640",
            "score": "0.930",
            "index": 18,
            "selectedWords": [
                "irrit\u00e9e",
                "\u00e9nerv\u00e9e"
            ],
            "freeResponses": [],
            "nbPlayClick": 1,
            "expression": "COLERE",
            "csv_id": 2640,
            "video_name": "DIVERS_PARL_COLERE_AD_01_0003"
        },
        {
            "name": "1773",
            "score": "0.904",
            "index": 19,
            "selectedWords": [
                "sceptique",
                "r\u00e9fl\u00e9chie"
            ],
            "freeResponses": [],
            "nbPlayClick": 2,
            "expression": "NEUTRE",
            "csv_id": 1773,
            "video_name": "DIVERS_PARL_AD_04_0003"
        },
        {
            "name": "5339",
            "score": "0.969",
            "index": 20,
            "selectedWords": [
                "enthousiaste",
                "excit\u00e9e"
            ],
            "freeResponses": [],
            "nbPlayClick": 1,
            "expression": "ENTHOUSIASTE",
            "csv_id": 5373,
            "video_name": "DIVERS_BOOK_ENTHOUSIASTE_AD_01_0004"
        },
        {
            "name": "8303",
            "score": "0.985",
            "index": 21,
            "selectedWords": [
                "enthousiaste",
                "exalt\u00e9e"
            ],
            "freeResponses": [],
            "nbPlayClick": 1,
            "expression": "ENTHOUSIASTE",
            "csv_id": 8337,
            "video_name": "DIVERS_BOOK_ENTHOUSIASTE_AD_01_0004"
        },
        {
            "name": "12068",
            "score": "0.997",
            "index": 22,
            "selectedWords": [
                "neutre",
                "ennuy\u00e9e"
            ],
            "freeResponses": [],
            "nbPlayClick": 1,
            "expression": "NEUTRE",
            "csv_id": 12105,
            "video_name": "DIVERS_BOOK_AD_04_0001"
        },
        {
            "name": "7184",
            "score": "0.980",
            "index": 23,
            "selectedWords": [
                "neutre",
                "notoire"
            ],
            "freeResponses": [],
            "nbPlayClick": 1,
            "expression": "NEUTRE",
            "csv_id": 7218,
            "video_name": "DIVERS_BOOK_AD_04_0001"
        },
        {
            "name": "3186",
            "score": "0.942",
            "index": 24,
            "selectedWords": [
                "enthousiaste",
                "exalt\u00e9e"
            ],
            "freeResponses": [],
            "nbPlayClick": 1,
            "expression": "ENTHOUSIASTE",
            "csv_id": 3186,
            "video_name": "DIVERS_BOOK_ENTHOUSIASTE_AD_01_0004"
        },
        {
            "name": "11696",
            "score": "0.996",
            "index": 25,
            "selectedWords": [
                "neutre",
                "nette"
            ],
            "freeResponses": [],
            "nbPlayClick": 1,
            "expression": "NEUTRE",
            "csv_id": 11733,
            "video_name": "DIVERS_BOOK_AD_03_0002"
        },
        {
            "name": "10925",
            "score": "0.994",
            "index": 26,
            "selectedWords": [
                "neutre",
                "notoire"
            ],
            "freeResponses": [],
            "nbPlayClick": 1,
            "expression": "NEUTRE",
            "csv_id": 10959,
            "video_name": "DIVERS_PARL_AD_02_0001"
        },
        {
            "name": "5658",
            "score": "0.971",
            "index": 27,
            "selectedWords": [
                "enthousiaste",
                "tonique"
            ],
            "freeResponses": [],
            "nbPlayClick": 1,
            "expression": "ENTHOUSIASTE",
            "csv_id": 5692,
            "video_name": "DIVERS_PARL_ENTHOUSIASTE_AD_02_0001"
        },
        {
            "name": "3430",
            "score": "0.946",
            "index": 28,
            "selectedWords": [
                "espi\u00e8gle",
                "fac\u00e9tieuse"
            ],
            "freeResponses": [],
            "nbPlayClick": 1,
            "expression": "INCREDULE",
            "csv_id": 3430,
            "video_name": "DIVERS_BOOK_INCREDULE_AD_01_0001"
        },
        {
            "name": "11785",
            "score": "0.996",
            "index": 29,
            "selectedWords": [
                "d\u00e9termin\u00e9e",
                "ardente"
            ],
            "freeResponses": [],
            "nbPlayClick": 2,
            "expression": "DETERMINE",
            "csv_id": 11822,
            "video_name": "DIVERS_PARL_DETERMINE_AD_01_0004"
        },
        {
            "name": "8543",
            "score": "0.987",
            "index": 30,
            "selectedWords": [
                "neutre",
                "autre",
                "autre",
                "ennuy\u00e9e"
            ],
            "freeResponses": [],
            "nbPlayClick": 2,
            "expression": "NEUTRE",
            "csv_id": 8577,
            "video_name": "DIVERS_BOOK_AD_01_0001"
        },
        {
            "name": "11879",
            "score": "0.997",
            "index": 31,
            "selectedWords": [
                "\u00e9vidente",
                "neutre"
            ],
            "freeResponses": [],
            "nbPlayClick": 2,
            "expression": "NEUTRE",
            "csv_id": 11916,
            "video_name": "DIVERS_PARL_AD_01_0005"
        },
        {
            "name": "5226",
            "score": "0.968",
            "index": 32,
            "selectedWords": [
                "certaine",
                "d\u00e9cid\u00e9e"
            ],
            "freeResponses": [],
            "nbPlayClick": 1,
            "expression": "NEUTRE",
            "csv_id": 5260,
            "video_name": "DIVERS_PARL_AD_06_0002"
        },
        {
            "name": "9009",
            "score": "0.988",
            "index": 33,
            "selectedWords": [
                "neutre",
                "ennuy\u00e9e"
            ],
            "freeResponses": [],
            "nbPlayClick": 1,
            "expression": "NEUTRE",
            "csv_id": 9043,
            "video_name": "DIVERS_PARL_AD_04_0004"
        },
        {
            "name": "10775",
            "score": "0.994",
            "index": 34,
            "selectedWords": [
                "malicieuse",
                "m\u00e9fiante"
            ],
            "freeResponses": [],
            "nbPlayClick": 2,
            "expression": "INCREDULE",
            "csv_id": 10809,
            "video_name": "DIVERS_BOOK_INCREDULE_AD_01_0001"
        },
        {
            "name": "8635",
            "score": "0.987",
            "index": 35,
            "selectedWords": [
                "incr\u00e9dule",
                "dubitative"
            ],
            "freeResponses": [],
            "nbPlayClick": 1,
            "expression": "SUPPLIANT",
            "csv_id": 8669,
            "video_name": "DIVERS_PARL_SUPPLIANT_AD_02_0001"
        },
        {
            "name": "10315",
            "score": "0.993",
            "index": 36,
            "selectedWords": [
                "d\u00e9sol\u00e9e",
                "manifeste"
            ],
            "freeResponses": [],
            "nbPlayClick": 2,
            "expression": "DETERMINE",
            "csv_id": 10349,
            "video_name": "DIVERS_PARL_DETERMINE_AD_01_0002"
        },
        {
            "name": "835",
            "score": "0.846",
            "index": 37,
            "selectedWords": [
                "incr\u00e9dule",
                "dubitative"
            ],
            "freeResponses": [],
            "nbPlayClick": 1,
            "expression": "NEUTRE",
            "csv_id": 835,
            "video_name": "DIVERS_PARL_AD_03_0001"
        },
        {
            "name": "11908",
            "score": "0.997",
            "index": 38,
            "selectedWords": [
                "d\u00e9termin\u00e9e",
                "manifeste"
            ],
            "freeResponses": [],
            "nbPlayClick": 1,
            "expression": "NEUTRE",
            "csv_id": 11945,
            "video_name": "DIVERS_PARL_AD_01_0005"
        },
        {
            "name": "10158",
            "score": "0.992",
            "index": 39,
            "selectedWords": [
                "\u00e9tonn\u00e9e",
                "taquine"
            ],
            "freeResponses": [],
            "nbPlayClick": 1,
            "expression": "ETONNE",
            "csv_id": 10192,
            "video_name": "DIVERS_BOOK_ETONNE_AD_01_0002"
        },
        {
            "name": "3962",
            "score": "0.954",
            "index": 40,
            "selectedWords": [
                "d\u00e9termin\u00e9e",
                "bouillonnante"
            ],
            "freeResponses": [],
            "nbPlayClick": 3,
            "expression": "DETERMINE",
            "csv_id": 3962,
            "video_name": "DIVERS_PARL_DETERMINE_AD_01_0004"
        },
        {
            "name": "9249",
            "score": "0.989",
            "index": 41,
            "selectedWords": [
                "neutre",
                "certaine"
            ],
            "freeResponses": [],
            "nbPlayClick": 1,
            "expression": "NEUTRE",
            "csv_id": 9283,
            "video_name": "DIVERS_PARL_AD_01_0004"
        },
        {
            "name": "4239",
            "score": "0.957",
            "index": 42,
            "selectedWords": [
                "d\u00e9termin\u00e9e",
                "certaine"
            ],
            "freeResponses": [],
            "nbPlayClick": 1,
            "expression": "NEUTRE",
            "csv_id": 4239,
            "video_name": "DIVERS_PARL_AD_06_0004"
        },
        {
            "name": "2823",
            "score": "0.934",
            "index": 43,
            "selectedWords": [
                "certaine",
                "s\u00fbre"
            ],
            "freeResponses": [],
            "nbPlayClick": 1,
            "expression": "NEUTRE",
            "csv_id": 2823,
            "video_name": "DIVERS_PARL_AD_01_0005"
        },
        {
            "name": "8576",
            "score": "0.987",
            "index": 44,
            "selectedWords": [
                "espi\u00e8gle",
                "fac\u00e9tieuse"
            ],
            "freeResponses": [],
            "nbPlayClick": 2,
            "expression": "ESPIEGLE",
            "csv_id": 8610,
            "video_name": "DIVERS_BOOK_ESPIEGLE_AD_03_0001"
        },
        {
            "name": "11206",
            "score": "0.995",
            "index": 45,
            "selectedWords": [
                "neutre",
                "certaine"
            ],
            "freeResponses": [],
            "nbPlayClick": 1,
            "expression": "NEUTRE",
            "csv_id": 11240,
            "video_name": "DIVERS_BOOK_AD_04_0001"
        },
        {
            "name": "7270",
            "score": "0.981",
            "index": 46,
            "selectedWords": [
                "d\u00e9termin\u00e9e",
                "r\u00e9solue"
            ],
            "freeResponses": [],
            "nbPlayClick": 1,
            "expression": "NEUTRE",
            "csv_id": 7304,
            "video_name": "DIVERS_PARL_AD_01_0002"
        },
        {
            "name": "9437",
            "score": "0.990",
            "index": 47,
            "selectedWords": [
                "neutre",
                "limpide"
            ],
            "freeResponses": [],
            "nbPlayClick": 1,
            "expression": "NEUTRE",
            "csv_id": 9471,
            "video_name": "DIVERS_PARL_AD_06_0001"
        },
        {
            "name": "11359",
            "score": "0.995",
            "index": 48,
            "selectedWords": [
                "neutre",
                "certaine"
            ],
            "freeResponses": [],
            "nbPlayClick": 2,
            "expression": "NEUTRE",
            "csv_id": 11393,
            "video_name": "DIVERS_PARL_AD_03_0001"
        },
        {
            "name": "6601",
            "score": "0.977",
            "index": 49,
            "selectedWords": [
                "incr\u00e9dule",
                "sinc\u00e8re"
            ],
            "freeResponses": [],
            "nbPlayClick": 2,
            "expression": "DESOLE",
            "csv_id": 6635,
            "video_name": "DIVERS_PARL_DESOLE_AD_01_0004"
        },
        {
            "name": "11395",
            "score": "0.995",
            "index": 50,
            "selectedWords": [
                "confuse",
                "ennuy\u00e9e"
            ],
            "freeResponses": [],
            "nbPlayClick": 2,
            "expression": "PENSIF",
            "csv_id": 11429,
            "video_name": "DIVERS_BOOK_PENSIF_AD_01_0003"
        },
        {
            "name": "1551",
            "score": "0.894",
            "index": 51,
            "selectedWords": [
                "courrouc\u00e9e",
                "d\u00e9termin\u00e9e"
            ],
            "freeResponses": [],
            "nbPlayClick": 1,
            "expression": "COLERE",
            "csv_id": 1551,
            "video_name": "DIVERS_PARL_COLERE_AD_01_0003"
        },
        {
            "name": "5184",
            "score": "0.967",
            "index": 52,
            "selectedWords": [
                "contrari\u00e9e",
                "d\u00e9pit\u00e9e"
            ],
            "freeResponses": [],
            "nbPlayClick": 2,
            "expression": "EVIDENCE",
            "csv_id": 5218,
            "video_name": "DIVERS_PARL_EVIDENCE_AD_02_0002"
        },
        {
            "name": "5192",
            "score": "0.967",
            "index": 53,
            "selectedWords": [
                "neutre",
                "enthousiaste"
            ],
            "freeResponses": [],
            "nbPlayClick": 1,
            "expression": "RECONFORTANT",
            "csv_id": 5226,
            "video_name": "DIVERS_BOOK_RECONFORTANT_AD_01_0002"
        },
        {
            "name": "8921",
            "score": "0.988",
            "index": 54,
            "selectedWords": [
                "enthousiaste",
                "tonique"
            ],
            "freeResponses": [],
            "nbPlayClick": 1,
            "expression": "ENTHOUSIASTE",
            "csv_id": 8955,
            "video_name": "DIVERS_PARL_ENTHOUSIASTE_AD_02_0001"
        },
        {
            "name": "7462",
            "score": "0.982",
            "index": 55,
            "selectedWords": [
                "neutre",
                "limpide"
            ],
            "freeResponses": [],
            "nbPlayClick": 1,
            "expression": "NEUTRE",
            "csv_id": 7496,
            "video_name": "DIVERS_PARL_AD_01_0002"
        },
        {
            "name": "8300",
            "score": "0.985",
            "index": 56,
            "selectedWords": [
                "neutre",
                "inexpressive"
            ],
            "freeResponses": [],
            "nbPlayClick": 1,
            "expression": "NEUTRE",
            "csv_id": 8334,
            "video_name": "DIVERS_PARL_AD_02_0001"
        },
        {
            "name": "7161",
            "score": "0.980",
            "index": 57,
            "selectedWords": [
                "neutre",
                "certaine"
            ],
            "freeResponses": [],
            "nbPlayClick": 1,
            "expression": "NEUTRE",
            "csv_id": 7195,
            "video_name": "DIVERS_PARL_AD_06_0001"
        },
        {
            "name": "9681",
            "score": "0.991",
            "index": 58,
            "selectedWords": [
                "ardente",
                "d\u00e9sol\u00e9e"
            ],
            "freeResponses": [],
            "nbPlayClick": 2,
            "expression": "SUPPLIANT",
            "csv_id": 9715,
            "video_name": "DIVERS_BOOK_SUPPLIANT_AD_01_0002"
        },
        {
            "name": "2334",
            "score": "0.922",
            "index": 59,
            "selectedWords": [
                "convaincue",
                "malicieuse"
            ],
            "freeResponses": [],
            "nbPlayClick": 3,
            "expression": "EVIDENCE",
            "csv_id": 2334,
            "video_name": "DIVERS_PARL_EVIDENCE_AD_01_0001"
        }
    ],
    "training": [
        {
            "name": "77",
            "score": "0.639",
            "index": 0,
            "selectedWords": [
                "neutre",
                "certaine",
                "autre",
                "autre",
                "autre",
                "autre",
                "autre",
                "autre",
                "autre",
                "d\u00e9termin\u00e9e"
            ],
            "freeResponses": [],
            "nbPlayClick": 6,
            "expression": "NEUTRE"
        }
    ],
    "filenameDate": "2024-03-30_21-44"
}