{
    "user": {
        "isProlific": true,
        "id": "6162a881b823e80dfcf94792",
        "session": "64ef1605552deb127b86234e",
        "study": "64ef1049f5f983abff3d7d01"
    },
    "userAgent": "Mozilla/5.0 (Macintosh; Intel Mac OS X 10_15_7) AppleWebKit/537.36 (KHTML, like Gecko) Chrome/116.0.0.0 Safari/537.36",
    "landingDate": "2023-08-30T10:14:49.285Z",
    "startDate": "2023-08-30T10:19:24.961Z",
    "endDate": "2023-08-30T10:41:48.617Z",
    "reviews": [
        {
            "name": "223",
            "score": "0.736",
            "index": 0,
            "selectedWords": [
                "autre",
                "fac\u00e9tieuse",
                "autre",
                "opini\u00e2tre"
            ],
            "freeResponses": [],
            "nbPlayClick": 2,
            "expression": "EVIDENCE",
            "csv_id": 223,
            "video_name": "DIVERS_BOOK_EVIDENCE_AD_01_0002"
        },
        {
            "name": "277",
            "score": "0.754",
            "index": 1,
            "selectedWords": [
                "incr\u00e9dule",
                "indiscutable"
            ],
            "freeResponses": [],
            "nbPlayClick": 2,
            "expression": "DESOLE",
            "csv_id": 277,
            "video_name": "ESTYLE_DESOLE_AD_02_0001"
        },
        {
            "name": "362",
            "score": "0.780",
            "index": 2,
            "selectedWords": [
                "enthousiaste",
                "\u00e9loquente",
                "emball\u00e9e"
            ],
            "freeResponses": [],
            "nbPlayClick": 1,
            "expression": "ENTHOUSIASTE",
            "csv_id": 362,
            "video_name": "DIVERS_PARL_ENTHOUSIASTE_AD_01_0003"
        },
        {
            "name": "522",
            "score": "0.808",
            "index": 3,
            "selectedWords": [
                "espi\u00e8gle",
                "malicieuse"
            ],
            "freeResponses": [],
            "nbPlayClick": 1,
            "expression": "ESPIEGLE",
            "csv_id": 522,
            "video_name": "DIVERS_BOOK_ESPIEGLE_AD_03_0001"
        },
        {
            "name": "420",
            "score": "0.793",
            "index": 4,
            "selectedWords": [
                "\u00e9tonn\u00e9e",
                "autre",
                "autre",
                "\u00e9bahie",
                "autre",
                "autre",
                "autre",
                "autre",
                "autre",
                "autre"
            ],
            "freeResponses": [],
            "nbPlayClick": 2,
            "expression": "INCREDULE",
            "csv_id": 420,
            "video_name": "DIVERS_PARL_INCREDULE_AD_01_0001"
        },
        {
            "name": "412",
            "score": "0.792",
            "index": 5,
            "selectedWords": [
                "neutre",
                "autre",
                "autre",
                "ennuy\u00e9e"
            ],
            "freeResponses": [],
            "nbPlayClick": 2,
            "expression": "NEUTRE",
            "csv_id": 412,
            "video_name": "DIVERS_PARL_AD_04_0003"
        },
        {
            "name": "407",
            "score": "0.792",
            "index": 6,
            "selectedWords": [
                "d\u00e9termin\u00e9e",
                "manifeste"
            ],
            "freeResponses": [],
            "nbPlayClick": 3,
            "expression": "INCREDULE",
            "csv_id": 407,
            "video_name": "DIVERS_PARL_INCREDULE_AD_01_0001"
        },
        {
            "name": "524",
            "score": "0.809",
            "index": 7,
            "selectedWords": [
                "autre",
                "autre",
                "autre",
                "autre",
                "ennuy\u00e9e",
                "autre",
                "autre",
                "sceptique"
            ],
            "freeResponses": [],
            "nbPlayClick": 2,
            "expression": "NEUTRE",
            "csv_id": 524,
            "video_name": "DIVERS_PARL_AD_03_0002"
        },
        {
            "name": "186",
            "score": "0.721",
            "index": 8,
            "selectedWords": [
                "neutre",
                "s\u00fbre"
            ],
            "freeResponses": [],
            "nbPlayClick": 3,
            "expression": "NEUTRE",
            "csv_id": 186,
            "video_name": "DIVERS_PARL_AD_05_0001"
        },
        {
            "name": "325",
            "score": "0.772",
            "index": 9,
            "selectedWords": [
                "en col\u00e8re",
                "autre",
                "autre",
                "\u00e9bahie"
            ],
            "freeResponses": [],
            "nbPlayClick": 1,
            "expression": "ETONNE",
            "csv_id": 325,
            "video_name": "ESTYLE_ETONNE_AD_02_0001"
        },
        {
            "name": "190",
            "score": "0.722",
            "index": 10,
            "selectedWords": [
                "neutre",
                "certaine"
            ],
            "freeResponses": [],
            "nbPlayClick": 1,
            "expression": "DETERMINE",
            "csv_id": 190,
            "video_name": "DIVERS_PARL_DETERMINE_AD_01_0002"
        },
        {
            "name": "380",
            "score": "0.784",
            "index": 11,
            "selectedWords": [
                "autre",
                "inexpressive",
                "fade"
            ],
            "freeResponses": [],
            "nbPlayClick": 2,
            "expression": "NEUTRE",
            "csv_id": 380,
            "video_name": "DIVERS_PARL_AD_03_0003"
        },
        {
            "name": "317",
            "score": "0.768",
            "index": 12,
            "selectedWords": [
                "r\u00e9confortante",
                "apaisante"
            ],
            "freeResponses": [],
            "nbPlayClick": 2,
            "expression": "RECONFORTANT",
            "csv_id": 317,
            "video_name": "ESTYLE_RECONFORTANT_AD_02_0001"
        },
        {
            "name": "236",
            "score": "0.741",
            "index": 13,
            "selectedWords": [
                "pensive",
                "m\u00e9ditative"
            ],
            "freeResponses": [],
            "nbPlayClick": 1,
            "expression": "PENSIF",
            "csv_id": 236,
            "video_name": "DIVERS_BOOK_PENSIF_AD_03_0002"
        },
        {
            "name": "265",
            "score": "0.751",
            "index": 14,
            "selectedWords": [
                "\u00e9vidente",
                "prouv\u00e9e"
            ],
            "freeResponses": [],
            "nbPlayClick": 1,
            "expression": "EVIDENCE",
            "csv_id": 265,
            "video_name": "DIVERS_PARL_EVIDENCE_AD_02_0002"
        },
        {
            "name": "518",
            "score": "0.808",
            "index": 15,
            "selectedWords": [
                "d\u00e9sol\u00e9e",
                "r\u00e9fl\u00e9chie"
            ],
            "freeResponses": [],
            "nbPlayClick": 2,
            "expression": "INCREDULE",
            "csv_id": 518,
            "video_name": "DIVERS_PARL_INCREDULE_AD_01_0001"
        },
        {
            "name": "77",
            "score": "0.639",
            "index": 16,
            "selectedWords": [
                "d\u00e9termin\u00e9e",
                "r\u00e9solue"
            ],
            "freeResponses": [],
            "nbPlayClick": 1,
            "expression": "NEUTRE",
            "csv_id": 77,
            "video_name": "ESTYLE_NEUTRE_AD_02_0001"
        },
        {
            "name": "295",
            "score": "0.760",
            "index": 17,
            "selectedWords": [
                "espi\u00e8gle",
                "narquoise"
            ],
            "freeResponses": [],
            "nbPlayClick": 1,
            "expression": "ENTHOUSIASTE",
            "csv_id": 295,
            "video_name": "DIVERS_PARL_ENTHOUSIASTE_AD_01_0003"
        },
        {
            "name": "525",
            "score": "0.809",
            "index": 18,
            "selectedWords": [
                "\u00e9vidente",
                "autre",
                "autre",
                "autre",
                "autre",
                "opini\u00e2tre"
            ],
            "freeResponses": [],
            "nbPlayClick": 1,
            "expression": "INCREDULE",
            "csv_id": 525,
            "video_name": "DIVERS_PARL_INCREDULE_AD_01_0001"
        },
        {
            "name": "242",
            "score": "0.743",
            "index": 19,
            "selectedWords": [
                "neutre",
                "autre",
                "autre",
                "m\u00e9fiante"
            ],
            "freeResponses": [],
            "nbPlayClick": 4,
            "expression": "RECONFORTANT",
            "csv_id": 242,
            "video_name": "DIVERS_BOOK_RECONFORTANT_AD_01_0002"
        },
        {
            "name": "373",
            "score": "0.783",
            "index": 20,
            "selectedWords": [
                "incr\u00e9dule",
                "indiscutable"
            ],
            "freeResponses": [],
            "nbPlayClick": 2,
            "expression": "NEUTRE",
            "csv_id": 373,
            "video_name": "DIVERS_PARL_AD_05_0002"
        },
        {
            "name": "388",
            "score": "0.786",
            "index": 21,
            "selectedWords": [
                "neutre",
                "notoire"
            ],
            "freeResponses": [],
            "nbPlayClick": 1,
            "expression": "NEUTRE",
            "csv_id": 388,
            "video_name": "ESTYLE_NEUTRE_AD_02_0001"
        },
        {
            "name": "298",
            "score": "0.762",
            "index": 22,
            "selectedWords": [
                "pensive",
                "autre",
                "autre",
                "autre",
                "autre",
                "autre",
                "autre",
                "autre",
                "sceptique"
            ],
            "freeResponses": [],
            "nbPlayClick": 1,
            "expression": "INCREDULE",
            "csv_id": 298,
            "video_name": "DIVERS_PARL_INCREDULE_AD_01_0001"
        },
        {
            "name": "80",
            "score": "0.640",
            "index": 23,
            "selectedWords": [
                "incr\u00e9dule",
                "ennuy\u00e9e"
            ],
            "freeResponses": [],
            "nbPlayClick": 2,
            "expression": "PENSIF",
            "csv_id": 80,
            "video_name": "DIVERS_PARL_PENSIF_AD_01_0002"
        },
        {
            "name": "400",
            "score": "0.789",
            "index": 24,
            "selectedWords": [
                "d\u00e9termin\u00e9e",
                "transport\u00e9e"
            ],
            "freeResponses": [],
            "nbPlayClick": 1,
            "expression": "SUPPLIANT",
            "csv_id": 400,
            "video_name": "DIVERS_PARL_SUPPLIANT_AD_02_0001"
        },
        {
            "name": "345",
            "score": "0.775",
            "index": 25,
            "selectedWords": [
                "d\u00e9termin\u00e9e",
                "manifeste"
            ],
            "freeResponses": [],
            "nbPlayClick": 1,
            "expression": "DETERMINE",
            "csv_id": 345,
            "video_name": "ESTYLE_DETERMINE_AD_02_0001"
        },
        {
            "name": "502",
            "score": "0.805",
            "index": 26,
            "selectedWords": [
                "autre",
                "autre",
                "atone",
                "terne"
            ],
            "freeResponses": [],
            "nbPlayClick": 2,
            "expression": "PENSIF",
            "csv_id": 502,
            "video_name": "DIVERS_BOOK_PENSIF_AD_01_0003"
        },
        {
            "name": "312",
            "score": "0.767",
            "index": 27,
            "selectedWords": [
                "d\u00e9termin\u00e9e",
                "r\u00e9solue"
            ],
            "freeResponses": [],
            "nbPlayClick": 1,
            "expression": "NEUTRE",
            "csv_id": 312,
            "video_name": "DIVERS_PARL_AD_04_0004"
        },
        {
            "name": "169",
            "score": "0.713",
            "index": 28,
            "selectedWords": [
                "autre",
                "autre",
                "apaisante",
                "reconstituante"
            ],
            "freeResponses": [],
            "nbPlayClick": 1,
            "expression": "RECONFORTANT",
            "csv_id": 169,
            "video_name": "DIVERS_BOOK_RECONFORTANT_AD_01_0002"
        },
        {
            "name": "346",
            "score": "0.775",
            "index": 29,
            "selectedWords": [
                "en col\u00e8re",
                "autre",
                "dubitative"
            ],
            "freeResponses": [],
            "nbPlayClick": 1,
            "expression": "INCREDULE",
            "csv_id": 346,
            "video_name": "DIVERS_PARL_INCREDULE_AD_02_0003"
        },
        {
            "name": "500",
            "score": "0.805",
            "index": 30,
            "selectedWords": [
                "pensive",
                "autre",
                "dubitative",
                "sceptique"
            ],
            "freeResponses": [],
            "nbPlayClick": 1,
            "expression": "PENSIF",
            "csv_id": 500,
            "video_name": "DIVERS_BOOK_PENSIF_AD_01_0003"
        },
        {
            "name": "480",
            "score": "0.802",
            "index": 31,
            "selectedWords": [
                "d\u00e9termin\u00e9e",
                "autre",
                "autre",
                "autre",
                "encourageante"
            ],
            "freeResponses": [],
            "nbPlayClick": 1,
            "expression": "EVIDENCE",
            "csv_id": 480,
            "video_name": "DIVERS_PARL_EVIDENCE_AD_02_0002"
        },
        {
            "name": "139",
            "score": "0.696",
            "index": 32,
            "selectedWords": [
                "\u00e9vidente",
                "prouv\u00e9e"
            ],
            "freeResponses": [],
            "nbPlayClick": 1,
            "expression": "NEUTRE",
            "csv_id": 139,
            "video_name": "DIVERS_PARL_AD_05_0004"
        },
        {
            "name": "352",
            "score": "0.778",
            "index": 33,
            "selectedWords": [
                "enthousiaste",
                "tonique"
            ],
            "freeResponses": [],
            "nbPlayClick": 1,
            "expression": "ESPIEGLE",
            "csv_id": 352,
            "video_name": "DIVERS_PARL_ESPIEGLE_AD_01_0001"
        },
        {
            "name": "256",
            "score": "0.748",
            "index": 34,
            "selectedWords": [
                "r\u00e9confortante",
                "consolatrice"
            ],
            "freeResponses": [],
            "nbPlayClick": 1,
            "expression": "DESOLE",
            "csv_id": 256,
            "video_name": "ESTYLE_DESOLE_AD_02_0001"
        },
        {
            "name": "286",
            "score": "0.758",
            "index": 35,
            "selectedWords": [
                "\u00e9vidente",
                "indubitable"
            ],
            "freeResponses": [],
            "nbPlayClick": 1,
            "expression": "NEUTRE",
            "csv_id": 286,
            "video_name": "DIVERS_PARL_AD_05_0001"
        },
        {
            "name": "258",
            "score": "0.748",
            "index": 36,
            "selectedWords": [
                "d\u00e9termin\u00e9e",
                "agit\u00e9e"
            ],
            "freeResponses": [],
            "nbPlayClick": 1,
            "expression": "DETERMINE",
            "csv_id": 258,
            "video_name": "ESTYLE_DETERMINE_AD_02_0001"
        },
        {
            "name": "385",
            "score": "0.786",
            "index": 37,
            "selectedWords": [
                "incr\u00e9dule",
                "autre",
                "autre",
                "attrist\u00e9e"
            ],
            "freeResponses": [],
            "nbPlayClick": 1,
            "expression": "DESOLE",
            "csv_id": 385,
            "video_name": "DIVERS_BOOK_DESOLE_AD_03_0002"
        },
        {
            "name": "489",
            "score": "0.803",
            "index": 38,
            "selectedWords": [
                "enthousiaste",
                "autre",
                "autre",
                "consolante"
            ],
            "freeResponses": [],
            "nbPlayClick": 1,
            "expression": "RECONFORTANT",
            "csv_id": 489,
            "video_name": "DIVERS_BOOK_RECONFORTANT_AD_01_0002"
        },
        {
            "name": "369",
            "score": "0.781",
            "index": 39,
            "selectedWords": [
                "\u00e9vidente",
                "indubitable"
            ],
            "freeResponses": [],
            "nbPlayClick": 2,
            "expression": "EVIDENCE",
            "csv_id": 369,
            "video_name": "DIVERS_BOOK_EVIDENCE_AD_01_0002"
        }
    ],
    "training": [
        {
            "name": "77",
            "score": "0.639",
            "index": 0,
            "selectedWords": [
                "d\u00e9termin\u00e9e",
                "r\u00e9fl\u00e9chie"
            ],
            "freeResponses": [],
            "nbPlayClick": 1,
            "expression": "NEUTRE"
        }
    ],
    "filenameDate": "2023-08-30_11-41"
}