{
    "user": {
        "isProlific": true,
        "id": "6167dd94540603e000ef5840",
        "session": "66360b670749d294b2b831da",
        "study": "64ef977375f88e4e1174dce0"
    },
    "userAgent": "Mozilla/5.0 (Macintosh; Intel Mac OS X 10_15_7) AppleWebKit/605.1.15 (KHTML, like Gecko) Version/17.2.1 Safari/605.1.15",
    "landingDate": "2024-05-04T10:18:35.225Z",
    "startDate": "2024-05-04T10:20:01.844Z",
    "endDate": "2024-05-04T10:49:57.646Z",
    "reviews": [
        {
            "name": "1253",
            "score": "0.878",
            "index": 0,
            "selectedWords": [
                "autre",
                "autre",
                "malicieuse",
                "espi\u00e8gle"
            ],
            "freeResponses": [],
            "nbPlayClick": 2,
            "response": "",
            "expression": "ENTHOUSIASTE",
            "csv_id": 1253,
            "video_name": "DIVERS_PARL_ENTHOUSIASTE_AD_01_0003"
        },
        {
            "name": "5351",
            "score": "0.969",
            "index": 1,
            "selectedWords": [
                "\u00e9vidente",
                "attrist\u00e9e",
                "d\u00e9concert\u00e9e",
                "d\u00e9courag\u00e9e"
            ],
            "freeResponses": [],
            "nbPlayClick": 1,
            "response": "d\u00e9cour",
            "expression": "ENTHOUSIASTE",
            "csv_id": 5385,
            "video_name": "DIVERS_PARL_ENTHOUSIASTE_AD_01_0003"
        },
        {
            "name": "8259",
            "score": "0.985",
            "index": 2,
            "selectedWords": [
                "attrist\u00e9e",
                "afflig\u00e9e",
                "d\u00e9pit\u00e9e"
            ],
            "freeResponses": [],
            "nbPlayClick": 4,
            "response": "tri",
            "expression": "SUPPLIANT",
            "csv_id": 8293,
            "video_name": "DIVERS_PARL_SUPPLIANT_AD_02_0002"
        },
        {
            "name": "6236",
            "score": "0.975",
            "index": 3,
            "selectedWords": [
                "agressive",
                "convaincue",
                "d\u00e9termin\u00e9e"
            ],
            "freeResponses": [],
            "nbPlayClick": 3,
            "expression": "RECONFORTANT",
            "csv_id": 6270,
            "video_name": "DIVERS_BOOK_RECONFORTANT_AD_01_0004"
        },
        {
            "name": "4802",
            "score": "0.964",
            "index": 4,
            "selectedWords": [
                "neutre",
                "s\u00fbre"
            ],
            "freeResponses": [],
            "nbPlayClick": 1,
            "expression": "NEUTRE",
            "csv_id": 4836,
            "video_name": "DIVERS_PARL_AD_01_0004"
        },
        {
            "name": "5210",
            "score": "0.968",
            "index": 5,
            "selectedWords": [
                "convaincue",
                "indiscutable",
                "entreprenante"
            ],
            "freeResponses": [],
            "nbPlayClick": 2,
            "expression": "DETERMINE",
            "csv_id": 5244,
            "video_name": "DIVERS_PARL_DETERMINE_AD_01_0002"
        },
        {
            "name": "10118",
            "score": "0.992",
            "index": 6,
            "selectedWords": [
                "d\u00e9termin\u00e9e",
                "r\u00e9fl\u00e9chie",
                "nette",
                "entreprenante",
                "hargneuse"
            ],
            "freeResponses": [],
            "nbPlayClick": 1,
            "expression": "EVIDENCE",
            "csv_id": 10152,
            "video_name": "DIVERS_PARL_EVIDENCE_AD_02_0002"
        },
        {
            "name": "1797",
            "score": "0.905",
            "index": 7,
            "selectedWords": [
                "neutre",
                "certaine",
                "pensive"
            ],
            "freeResponses": [],
            "nbPlayClick": 1,
            "response": "pen",
            "expression": "NEUTRE",
            "csv_id": 1797,
            "video_name": "DIVERS_PARL_AD_04_0002"
        },
        {
            "name": "11743",
            "score": "0.996",
            "index": 8,
            "selectedWords": [
                "neutre",
                "absente"
            ],
            "freeResponses": [],
            "nbPlayClick": 2,
            "response": "neu",
            "expression": "NEUTRE",
            "csv_id": 11780,
            "video_name": "DIVERS_BOOK_AD_03_0001"
        },
        {
            "name": "7000",
            "score": "0.980",
            "index": 9,
            "selectedWords": [
                "\u00e9vidente",
                "irr\u00e9cusable",
                "manifeste",
                "convaincue",
                "nette"
            ],
            "freeResponses": [],
            "nbPlayClick": 1,
            "expression": "NEUTRE",
            "csv_id": 7034,
            "video_name": "DIVERS_PARL_AD_05_0001"
        },
        {
            "name": "7795",
            "score": "0.983",
            "index": 10,
            "selectedWords": [
                "espi\u00e8gle",
                "narquoise",
                "maligne"
            ],
            "freeResponses": [
                "hautaine"
            ],
            "nbPlayClick": 1,
            "response": "hautaine",
            "expression": "INCREDULE",
            "csv_id": 7829,
            "video_name": "DIVERS_BOOK_INCREDULE_AD_01_0001"
        },
        {
            "name": "9372",
            "score": "0.990",
            "index": 11,
            "selectedWords": [
                "neutre",
                "s\u00fbre"
            ],
            "freeResponses": [],
            "nbPlayClick": 1,
            "expression": "NEUTRE",
            "csv_id": 9406,
            "video_name": "DIVERS_PARL_AD_04_0001"
        },
        {
            "name": "10765",
            "score": "0.994",
            "index": 12,
            "selectedWords": [
                "abasourdie",
                "accabl\u00e9e",
                "afflig\u00e9e"
            ],
            "freeResponses": [],
            "nbPlayClick": 1,
            "expression": "NEUTRE",
            "csv_id": 10799,
            "video_name": "DIVERS_PARL_AD_02_0001"
        },
        {
            "name": "11494",
            "score": "0.996",
            "index": 13,
            "selectedWords": [
                "neutre",
                "afflig\u00e9e",
                "d\u00e9courag\u00e9e"
            ],
            "freeResponses": [
                "fatigu\u00e9e"
            ],
            "nbPlayClick": 1,
            "response": "fatigu\u00e9e",
            "expression": "NEUTRE",
            "csv_id": 11531,
            "video_name": "DIVERS_BOOK_AD_03_0001"
        },
        {
            "name": "2132",
            "score": "0.916",
            "index": 14,
            "selectedWords": [
                "d\u00e9pit\u00e9e",
                "ennuy\u00e9e",
                "d\u00e9courag\u00e9e",
                "d\u00e9concert\u00e9e",
                "m\u00e9dus\u00e9e"
            ],
            "freeResponses": [],
            "nbPlayClick": 2,
            "expression": "SUPPLIANT",
            "csv_id": 2132,
            "video_name": "DIVERS_PARL_SUPPLIANT_AD_02_0001"
        },
        {
            "name": "1573",
            "score": "0.895",
            "index": 15,
            "selectedWords": [
                "d\u00e9termin\u00e9e",
                "r\u00e9solue",
                "agit\u00e9e",
                "convaincue",
                "d\u00e9concert\u00e9e"
            ],
            "freeResponses": [],
            "nbPlayClick": 1,
            "expression": "EVIDENCE",
            "csv_id": 1573,
            "video_name": "DIVERS_BOOK_EVIDENCE_AD_01_0002"
        },
        {
            "name": "1105",
            "score": "0.869",
            "index": 16,
            "selectedWords": [
                "contrari\u00e9e"
            ],
            "freeResponses": [
                "hautaine"
            ],
            "nbPlayClick": 2,
            "response": "hautaine",
            "expression": "SUPPLIANT",
            "csv_id": 1105,
            "video_name": "DIVERS_PARL_SUPPLIANT_AD_02_0001"
        },
        {
            "name": "4418",
            "score": "0.959",
            "index": 17,
            "selectedWords": [
                "enthousiaste",
                "triomphale",
                "\u00e9loquente"
            ],
            "freeResponses": [],
            "nbPlayClick": 2,
            "expression": "RECONFORTANT",
            "csv_id": 4418,
            "video_name": "DIVERS_BOOK_RECONFORTANT_AD_03_0002"
        },
        {
            "name": "5089",
            "score": "0.967",
            "index": 18,
            "selectedWords": [
                "\u00e9vidente",
                "incontestable",
                "certaine"
            ],
            "freeResponses": [],
            "nbPlayClick": 2,
            "expression": "NEUTRE",
            "csv_id": 5123,
            "video_name": "DIVERS_PARL_AD_03_0004"
        },
        {
            "name": "4524",
            "score": "0.961",
            "index": 19,
            "selectedWords": [
                "tonique",
                "s\u00fbre",
                "certaine",
                "d\u00e9cid\u00e9e"
            ],
            "freeResponses": [],
            "nbPlayClick": 1,
            "expression": "NEUTRE",
            "csv_id": 4558,
            "video_name": "DIVERS_PARL_AD_03_0003"
        },
        {
            "name": "7388",
            "score": "0.981",
            "index": 20,
            "selectedWords": [
                "afflig\u00e9e",
                "accabl\u00e9e",
                "d\u00e9termin\u00e9e",
                "effar\u00e9e"
            ],
            "freeResponses": [
                "hautaine"
            ],
            "nbPlayClick": 1,
            "response": "effar",
            "expression": "EVIDENCE",
            "csv_id": 7422,
            "video_name": "DIVERS_PARL_EVIDENCE_AD_02_0002"
        },
        {
            "name": "10155",
            "score": "0.992",
            "index": 21,
            "selectedWords": [
                "pensive",
                "r\u00eaveuse"
            ],
            "freeResponses": [],
            "nbPlayClick": 1,
            "expression": "NEUTRE",
            "csv_id": 10189,
            "video_name": "DIVERS_BOOK_AD_01_0002"
        },
        {
            "name": "10612",
            "score": "0.993",
            "index": 22,
            "selectedWords": [
                "contrari\u00e9e",
                "abasourdie",
                "confuse"
            ],
            "freeResponses": [],
            "nbPlayClick": 3,
            "response": "confu",
            "expression": "NEUTRE",
            "csv_id": 10646,
            "video_name": "DIVERS_BOOK_AD_01_0001"
        },
        {
            "name": "9313",
            "score": "0.989",
            "index": 23,
            "selectedWords": [
                "\u00e9vidente",
                "incontestable",
                "in\u00e9branlable"
            ],
            "freeResponses": [],
            "nbPlayClick": 2,
            "expression": "NEUTRE",
            "csv_id": 9347,
            "video_name": "DIVERS_PARL_AD_02_0002"
        },
        {
            "name": "4545",
            "score": "0.961",
            "index": 24,
            "selectedWords": [
                "infaillible",
                "agressive",
                "certaine",
                "bouillonnante"
            ],
            "freeResponses": [],
            "nbPlayClick": 3,
            "expression": "NEUTRE",
            "csv_id": 4579,
            "video_name": "DIVERS_PARL_AD_03_0003"
        },
        {
            "name": "10205",
            "score": "0.992",
            "index": 25,
            "selectedWords": [
                "d\u00e9pit\u00e9e",
                "sid\u00e9r\u00e9e"
            ],
            "freeResponses": [
                "surprise"
            ],
            "nbPlayClick": 1,
            "response": "sid",
            "expression": "ETONNE",
            "csv_id": 10239,
            "video_name": "DIVERS_BOOK_ETONNE_AD_01_0002"
        },
        {
            "name": "9423",
            "score": "0.990",
            "index": 26,
            "selectedWords": [
                "suffoqu\u00e9e",
                "interloqu\u00e9e",
                "abasourdie",
                "attrist\u00e9e"
            ],
            "freeResponses": [],
            "nbPlayClick": 1,
            "expression": "ENTHOUSIASTE",
            "csv_id": 9457,
            "video_name": "DIVERS_PARL_ENTHOUSIASTE_AD_02_0001"
        },
        {
            "name": "8629",
            "score": "0.987",
            "index": 27,
            "selectedWords": [
                "neutre",
                "patente"
            ],
            "freeResponses": [],
            "nbPlayClick": 1,
            "expression": "NEUTRE",
            "csv_id": 8663,
            "video_name": "DIVERS_PARL_AD_06_0003"
        },
        {
            "name": "5428",
            "score": "0.969",
            "index": 28,
            "selectedWords": [
                "prouv\u00e9e",
                "indubitable"
            ],
            "freeResponses": [],
            "nbPlayClick": 1,
            "expression": "NEUTRE",
            "csv_id": 5462,
            "video_name": "DIVERS_BOOK_AD_04_0002"
        },
        {
            "name": "9574",
            "score": "0.990",
            "index": 29,
            "selectedWords": [
                "nette",
                "certaine"
            ],
            "freeResponses": [],
            "nbPlayClick": 2,
            "expression": "NEUTRE",
            "csv_id": 9608,
            "video_name": "DIVERS_PARL_AD_02_0003"
        },
        {
            "name": "9075",
            "score": "0.989",
            "index": 30,
            "selectedWords": [
                "\u00e9vidente",
                "manifeste",
                "convaincue",
                "autre"
            ],
            "freeResponses": [],
            "nbPlayClick": 1,
            "expression": "NEUTRE",
            "csv_id": 9109,
            "video_name": "DIVERS_PARL_AD_05_0003"
        },
        {
            "name": "1459",
            "score": "0.889",
            "index": 31,
            "selectedWords": [
                "espi\u00e8gle",
                "narquoise",
                "taquine"
            ],
            "freeResponses": [],
            "nbPlayClick": 3,
            "expression": "ENTHOUSIASTE",
            "csv_id": 1459,
            "video_name": "DIVERS_BOOK_ENTHOUSIASTE_AD_01_0004"
        },
        {
            "name": "11053",
            "score": "0.994",
            "index": 32,
            "selectedWords": [
                "d\u00e9termin\u00e9e",
                "manifeste",
                "ardente"
            ],
            "freeResponses": [],
            "nbPlayClick": 2,
            "expression": "NEUTRE",
            "csv_id": 11087,
            "video_name": "DIVERS_PARL_AD_01_0005"
        },
        {
            "name": "3964",
            "score": "0.954",
            "index": 33,
            "selectedWords": [
                "pensive",
                "r\u00eaveuse",
                "occup\u00e9e"
            ],
            "freeResponses": [],
            "nbPlayClick": 1,
            "response": "pen",
            "expression": "NEUTRE",
            "csv_id": 3964,
            "video_name": "DIVERS_BOOK_AD_04_0002"
        },
        {
            "name": "10129",
            "score": "0.992",
            "index": 34,
            "selectedWords": [
                "passionn\u00e9e",
                "sid\u00e9r\u00e9e"
            ],
            "freeResponses": [],
            "nbPlayClick": 1,
            "response": "sid\u00e9",
            "expression": "ETONNE",
            "csv_id": 10163,
            "video_name": "DIVERS_BOOK_ETONNE_AD_01_0002"
        },
        {
            "name": "8610",
            "score": "0.987",
            "index": 35,
            "selectedWords": [
                "d\u00e9concert\u00e9e",
                "certaine",
                "d\u00e9cid\u00e9e"
            ],
            "freeResponses": [],
            "nbPlayClick": 1,
            "expression": "NEUTRE",
            "csv_id": 8644,
            "video_name": "DIVERS_PARL_AD_04_0004"
        },
        {
            "name": "9331",
            "score": "0.989",
            "index": 36,
            "selectedWords": [
                "absente",
                "neutre"
            ],
            "freeResponses": [],
            "nbPlayClick": 2,
            "response": "neu",
            "expression": "NEUTRE",
            "csv_id": 9365,
            "video_name": "DIVERS_BOOK_AD_04_0001"
        },
        {
            "name": "5583",
            "score": "0.971",
            "index": 37,
            "selectedWords": [
                "certaine",
                "abasourdie",
                "bouillonnante",
                "contrari\u00e9e"
            ],
            "freeResponses": [
                "saoul\u00e9e"
            ],
            "nbPlayClick": 3,
            "response": "saoul\u00e9e",
            "expression": "INCREDULE",
            "csv_id": 5617,
            "video_name": "DIVERS_PARL_INCREDULE_AD_01_0001"
        },
        {
            "name": "8088",
            "score": "0.985",
            "index": 38,
            "selectedWords": [
                "accabl\u00e9e",
                "attrist\u00e9e",
                "pein\u00e9e"
            ],
            "freeResponses": [],
            "nbPlayClick": 1,
            "expression": "INCREDULE",
            "csv_id": 8122,
            "video_name": "DIVERS_BOOK_INCREDULE_AD_01_0001"
        },
        {
            "name": "205",
            "score": "0.729",
            "index": 39,
            "selectedWords": [
                "nette",
                "atone"
            ],
            "freeResponses": [],
            "nbPlayClick": 1,
            "expression": "NEUTRE",
            "csv_id": 205,
            "video_name": "DIVERS_PARL_AD_05_0003"
        },
        {
            "name": "10182",
            "score": "0.992",
            "index": 40,
            "selectedWords": [
                "tonique",
                "effar\u00e9e"
            ],
            "freeResponses": [],
            "nbPlayClick": 1,
            "expression": "ETONNE",
            "csv_id": 10216,
            "video_name": "DIVERS_BOOK_ETONNE_AD_01_0002"
        },
        {
            "name": "12118",
            "score": "0.997",
            "index": 41,
            "selectedWords": [
                "\u00e9tonn\u00e9e",
                "nette",
                "confuse"
            ],
            "freeResponses": [],
            "nbPlayClick": 1,
            "expression": "ETONNE",
            "csv_id": 12155,
            "video_name": "DIVERS_PARL_ETONNE_AD_01_0001"
        },
        {
            "name": "9264",
            "score": "0.989",
            "index": 42,
            "selectedWords": [
                "\u00e9loquente",
                "atone",
                "absente"
            ],
            "freeResponses": [],
            "nbPlayClick": 3,
            "expression": "NEUTRE",
            "csv_id": 9298,
            "video_name": "DIVERS_PARL_AD_01_0004"
        },
        {
            "name": "10233",
            "score": "0.992",
            "index": 43,
            "selectedWords": [
                "tonique",
                "froide",
                "ardente"
            ],
            "freeResponses": [],
            "nbPlayClick": 2,
            "response": "ton",
            "expression": "NEUTRE",
            "csv_id": 10267,
            "video_name": "DIVERS_BOOK_AD_03_0002"
        },
        {
            "name": "6473",
            "score": "0.977",
            "index": 44,
            "selectedWords": [
                "confuse",
                "malicieuse",
                "maligne"
            ],
            "freeResponses": [],
            "nbPlayClick": 1,
            "expression": "RECONFORTANT",
            "csv_id": 6507,
            "video_name": "DIVERS_BOOK_RECONFORTANT_AD_01_0002"
        },
        {
            "name": "4568",
            "score": "0.961",
            "index": 45,
            "selectedWords": [
                "ferme",
                "froide",
                "limpide"
            ],
            "freeResponses": [],
            "nbPlayClick": 1,
            "expression": "NEUTRE",
            "csv_id": 4602,
            "video_name": "DIVERS_PARL_AD_05_0004"
        },
        {
            "name": "3181",
            "score": "0.942",
            "index": 46,
            "selectedWords": [
                "ardente",
                "d\u00e9termin\u00e9e",
                "irrit\u00e9e"
            ],
            "freeResponses": [],
            "nbPlayClick": 2,
            "response": "irri",
            "expression": "ENTHOUSIASTE",
            "csv_id": 3181,
            "video_name": "DIVERS_PARL_ENTHOUSIASTE_AD_02_0001"
        },
        {
            "name": "11646",
            "score": "0.996",
            "index": 47,
            "selectedWords": [
                "neutre",
                "absente",
                "atone"
            ],
            "freeResponses": [],
            "nbPlayClick": 1,
            "response": "neut",
            "expression": "NEUTRE",
            "csv_id": 11683,
            "video_name": "DIVERS_BOOK_AD_03_0001"
        },
        {
            "name": "12361",
            "score": "0.999",
            "index": 48,
            "selectedWords": [
                "imp\u00e9n\u00e9trable",
                "tonique"
            ],
            "freeResponses": [],
            "nbPlayClick": 2,
            "expression": "NEUTRE",
            "csv_id": 12398,
            "video_name": "DIVERS_BOOK_AD_04_0001"
        },
        {
            "name": "9663",
            "score": "0.991",
            "index": 49,
            "selectedWords": [
                "pensive",
                "r\u00e9fl\u00e9chissante",
                "pensante",
                "reconstituante",
                "vivifiante"
            ],
            "freeResponses": [],
            "nbPlayClick": 1,
            "expression": "NEUTRE",
            "csv_id": 9697,
            "video_name": "DIVERS_BOOK_AD_04_0002"
        },
        {
            "name": "4489",
            "score": "0.960",
            "index": 50,
            "selectedWords": [
                "espi\u00e8gle",
                "malicieuse",
                "maligne"
            ],
            "freeResponses": [],
            "nbPlayClick": 2,
            "expression": "INCREDULE",
            "csv_id": 4523,
            "video_name": "DIVERS_BOOK_INCREDULE_AD_01_0001"
        },
        {
            "name": "3139",
            "score": "0.941",
            "index": 51,
            "selectedWords": [
                "espi\u00e8gle",
                "incr\u00e9dule"
            ],
            "freeResponses": [],
            "nbPlayClick": 1,
            "response": "incr\u00e9",
            "expression": "INCREDULE",
            "csv_id": 3139,
            "video_name": "DIVERS_PARL_INCREDULE_AD_01_0001"
        },
        {
            "name": "9008",
            "score": "0.988",
            "index": 52,
            "selectedWords": [
                "en col\u00e8re",
                "d\u00e9termin\u00e9e",
                "r\u00e9solue"
            ],
            "freeResponses": [],
            "nbPlayClick": 1,
            "expression": "COLERE",
            "csv_id": 9042,
            "video_name": "DIVERS_PARL_COLERE_AD_02_0002"
        },
        {
            "name": "8404",
            "score": "0.986",
            "index": 53,
            "selectedWords": [
                "suppliante",
                "implorante",
                "larmoyante",
                "malheureuse"
            ],
            "freeResponses": [],
            "nbPlayClick": 2,
            "expression": "SUPPLIANT",
            "csv_id": 8438,
            "video_name": "DIVERS_BOOK_SUPPLIANT_AD_01_0004"
        },
        {
            "name": "4394",
            "score": "0.959",
            "index": 54,
            "selectedWords": [
                "apaisante",
                "consolante"
            ],
            "freeResponses": [],
            "nbPlayClick": 2,
            "expression": "RECONFORTANT",
            "csv_id": 4394,
            "video_name": "DIVERS_PARL_RECONFORTANT_AD_02_0001"
        },
        {
            "name": "6237",
            "score": "0.975",
            "index": 55,
            "selectedWords": [
                "pensante",
                "reconstituante",
                "r\u00e9fl\u00e9chissante"
            ],
            "freeResponses": [],
            "nbPlayClick": 2,
            "expression": "PENSIF",
            "csv_id": 6271,
            "video_name": "DIVERS_PARL_PENSIF_AD_01_0002"
        },
        {
            "name": "4047",
            "score": "0.955",
            "index": 56,
            "selectedWords": [
                "transport\u00e9e",
                "m\u00e9dus\u00e9e",
                "passionn\u00e9e"
            ],
            "freeResponses": [],
            "nbPlayClick": 1,
            "expression": "NEUTRE",
            "csv_id": 4047,
            "video_name": "DIVERS_PARL_AD_05_0004"
        },
        {
            "name": "9133",
            "score": "0.989",
            "index": 57,
            "selectedWords": [
                "neutre",
                "absente",
                "atone"
            ],
            "freeResponses": [],
            "nbPlayClick": 1,
            "expression": "NEUTRE",
            "csv_id": 9167,
            "video_name": "DIVERS_BOOK_AD_01_0002"
        },
        {
            "name": "11940",
            "score": "0.997",
            "index": 58,
            "selectedWords": [
                "froide",
                "atone",
                "neutre"
            ],
            "freeResponses": [],
            "nbPlayClick": 1,
            "response": "neutre",
            "expression": "NEUTRE",
            "csv_id": 11977,
            "video_name": "DIVERS_BOOK_AD_03_0002"
        },
        {
            "name": "11688",
            "score": "0.996",
            "index": 59,
            "selectedWords": [
                "atone",
                "confuse",
                "abasourdie"
            ],
            "freeResponses": [],
            "nbPlayClick": 2,
            "expression": "NEUTRE",
            "csv_id": 11725,
            "video_name": "DIVERS_BOOK_AD_01_0001"
        }
    ],
    "training": [
        {
            "name": "77",
            "score": "0.639",
            "index": 0,
            "selectedWords": [
                "\u00e9vidente",
                "incontestable"
            ],
            "freeResponses": [],
            "nbPlayClick": 3,
            "expression": "NEUTRE"
        }
    ],
    "filenameDate": "2024-05-04_22-49"
}