{
    "user": {
        "isProlific": true,
        "id": "623490f9bba86d56c4d27831",
        "session": "656ce1e1d340c017d89cdc54",
        "study": "64ef977375f88e4e1174dce0"
    },
    "userAgent": "Mozilla/5.0 (Windows NT 10.0; Win64; x64) AppleWebKit/537.36 (KHTML, like Gecko) Chrome/119.0.0.0 Safari/537.36",
    "landingDate": "2023-12-03T20:19:24.479Z",
    "startDate": "2023-12-03T20:24:22.995Z",
    "endDate": "2023-12-03T21:33:39.853Z",
    "reviews": [
        {
            "name": "5431",
            "score": "0.969",
            "index": 0,
            "selectedWords": [
                "enthousiaste",
                "autre",
                "autre",
                "autre",
                "autre",
                "autre",
                "stimulante"
            ],
            "freeResponses": [],
            "nbPlayClick": 2,
            "response": "",
            "expression": "DETERMINE",
            "csv_id": 5465,
            "video_name": "DIVERS_BOOK_DETERMINE_AD_03_0001"
        },
        {
            "name": "9764",
            "score": "0.991",
            "index": 1,
            "selectedWords": [
                "neutre",
                "autre",
                "autre",
                "inexpressive"
            ],
            "freeResponses": [],
            "nbPlayClick": 3,
            "expression": "NEUTRE",
            "csv_id": 9798,
            "video_name": "DIVERS_BOOK_AD_04_0001"
        },
        {
            "name": "3320",
            "score": "0.944",
            "index": 2,
            "selectedWords": [
                "\u00e9vidente",
                "coquine"
            ],
            "freeResponses": [],
            "nbPlayClick": 1,
            "response": "coq",
            "expression": "ESPIEGLE",
            "csv_id": 3320,
            "video_name": "DIVERS_PARL_ESPIEGLE_AD_01_0001"
        },
        {
            "name": "10656",
            "score": "0.994",
            "index": 3,
            "selectedWords": [
                "pensive",
                "autre",
                "autre",
                "autre",
                "autre",
                "autre",
                "autre",
                "autre",
                "autre",
                "autre",
                "autre",
                "autre",
                "convaincue"
            ],
            "freeResponses": [],
            "nbPlayClick": 3,
            "response": "no",
            "expression": "ETONNE",
            "csv_id": 10690,
            "video_name": "DIVERS_PARL_ETONNE_AD_01_0001"
        },
        {
            "name": "2442",
            "score": "0.925",
            "index": 4,
            "selectedWords": [
                "autre",
                "autre",
                "autre",
                "autre",
                "autre",
                "autre",
                "autre",
                "reconstituante",
                "certaine"
            ],
            "freeResponses": [],
            "nbPlayClick": 2,
            "expression": "NEUTRE",
            "csv_id": 2442,
            "video_name": "DIVERS_PARL_AD_04_0003"
        },
        {
            "name": "7010",
            "score": "0.980",
            "index": 5,
            "selectedWords": [
                "notoire",
                "r\u00e9fl\u00e9chissante"
            ],
            "freeResponses": [],
            "nbPlayClick": 3,
            "expression": "NEUTRE",
            "csv_id": 7044,
            "video_name": "DIVERS_PARL_AD_04_0002"
        },
        {
            "name": "7901",
            "score": "0.984",
            "index": 6,
            "selectedWords": [
                "opini\u00e2tre",
                "perplexe"
            ],
            "freeResponses": [],
            "nbPlayClick": 1,
            "expression": "INCREDULE",
            "csv_id": 7935,
            "video_name": "DIVERS_PARL_INCREDULE_AD_02_0003"
        },
        {
            "name": "3900",
            "score": "0.953",
            "index": 7,
            "selectedWords": [
                "\u00e9vidente",
                "indubitable"
            ],
            "freeResponses": [],
            "nbPlayClick": 1,
            "response": "",
            "expression": "EVIDENCE",
            "csv_id": 3900,
            "video_name": "DIVERS_PARL_EVIDENCE_AD_02_0002"
        },
        {
            "name": "9791",
            "score": "0.991",
            "index": 8,
            "selectedWords": [
                "autre",
                "autre",
                "apaisante",
                "encourageante"
            ],
            "freeResponses": [],
            "nbPlayClick": 3,
            "expression": "NEUTRE",
            "csv_id": 9825,
            "video_name": "DIVERS_PARL_AD_02_0001"
        },
        {
            "name": "10864",
            "score": "0.994",
            "index": 9,
            "selectedWords": [
                "\u00e9vidente",
                "prouv\u00e9e"
            ],
            "freeResponses": [],
            "nbPlayClick": 4,
            "expression": "NEUTRE",
            "csv_id": 10898,
            "video_name": "DIVERS_PARL_AD_02_0004"
        },
        {
            "name": "7436",
            "score": "0.982",
            "index": 10,
            "selectedWords": [
                "pensive",
                "autre",
                "autre",
                "autre",
                "autre",
                "apaisante"
            ],
            "freeResponses": [],
            "nbPlayClick": 4,
            "expression": "NEUTRE",
            "csv_id": 7470,
            "video_name": "DIVERS_PARL_AD_02_0002"
        },
        {
            "name": "1073",
            "score": "0.867",
            "index": 11,
            "selectedWords": [
                "en col\u00e8re",
                "irrit\u00e9e"
            ],
            "freeResponses": [],
            "nbPlayClick": 2,
            "expression": "EVIDENCE",
            "csv_id": 1073,
            "video_name": "DIVERS_PARL_EVIDENCE_AD_02_0002"
        },
        {
            "name": "5343",
            "score": "0.969",
            "index": 12,
            "selectedWords": [
                "neutre",
                "notoire"
            ],
            "freeResponses": [],
            "nbPlayClick": 1,
            "expression": "NEUTRE",
            "csv_id": 5377,
            "video_name": "DIVERS_PARL_AD_06_0004"
        },
        {
            "name": "8736",
            "score": "0.987",
            "index": 13,
            "selectedWords": [
                "autre",
                "autre",
                "autre",
                "autre",
                "autre",
                "autre",
                "autre",
                "autre",
                "autre",
                "autre",
                "officielle",
                "notoire"
            ],
            "freeResponses": [],
            "nbPlayClick": 3,
            "expression": "NEUTRE",
            "csv_id": 8770,
            "video_name": "DIVERS_BOOK_AD_01_0002"
        },
        {
            "name": "6956",
            "score": "0.979",
            "index": 14,
            "selectedWords": [
                "passionn\u00e9e",
                "\u00e9loquente"
            ],
            "freeResponses": [],
            "nbPlayClick": 1,
            "expression": "NEUTRE",
            "csv_id": 6990,
            "video_name": "DIVERS_PARL_AD_01_0005"
        },
        {
            "name": "8047",
            "score": "0.984",
            "index": 15,
            "selectedWords": [
                "enthousiaste",
                "stimulante"
            ],
            "freeResponses": [],
            "nbPlayClick": 3,
            "expression": "DETERMINE",
            "csv_id": 8081,
            "video_name": "DIVERS_PARL_DETERMINE_AD_01_0004"
        },
        {
            "name": "9596",
            "score": "0.990",
            "index": 16,
            "selectedWords": [
                "d\u00e9sol\u00e9e",
                "r\u00e9fl\u00e9chie"
            ],
            "freeResponses": [],
            "nbPlayClick": 2,
            "expression": "NEUTRE",
            "csv_id": 9630,
            "video_name": "DIVERS_PARL_AD_01_0006"
        },
        {
            "name": "1071",
            "score": "0.866",
            "index": 17,
            "selectedWords": [
                "\u00e9vidente",
                "autre",
                "autre",
                "autre",
                "autre",
                "autre",
                "autre",
                "autre",
                "d\u00e9courag\u00e9e"
            ],
            "freeResponses": [],
            "nbPlayClick": 1,
            "expression": "EVIDENCE",
            "csv_id": 1071,
            "video_name": "DIVERS_PARL_EVIDENCE_AD_02_0002"
        },
        {
            "name": "10294",
            "score": "0.993",
            "index": 18,
            "selectedWords": [
                "nette",
                "s\u00fbre"
            ],
            "freeResponses": [],
            "nbPlayClick": 1,
            "expression": "NEUTRE",
            "csv_id": 10328,
            "video_name": "DIVERS_PARL_AD_03_0002"
        },
        {
            "name": "3088",
            "score": "0.940",
            "index": 19,
            "selectedWords": [
                "enthousiaste",
                "excit\u00e9e"
            ],
            "freeResponses": [],
            "nbPlayClick": 1,
            "expression": "NEUTRE",
            "csv_id": 3088,
            "video_name": "DIVERS_PARL_AD_05_0003"
        },
        {
            "name": "6387",
            "score": "0.976",
            "index": 20,
            "selectedWords": [
                "\u00e9tonn\u00e9e",
                "sinc\u00e8re"
            ],
            "freeResponses": [],
            "nbPlayClick": 1,
            "expression": "ETONNE",
            "csv_id": 6421,
            "video_name": "DIVERS_BOOK_ETONNE_AD_01_0002"
        },
        {
            "name": "9436",
            "score": "0.990",
            "index": 21,
            "selectedWords": [
                "neutre",
                "notoire"
            ],
            "freeResponses": [],
            "nbPlayClick": 1,
            "expression": "NEUTRE",
            "csv_id": 9470,
            "video_name": "DIVERS_BOOK_AD_01_0001"
        },
        {
            "name": "7671",
            "score": "0.983",
            "index": 22,
            "selectedWords": [
                "attrist\u00e9e",
                "navr\u00e9e"
            ],
            "freeResponses": [],
            "nbPlayClick": 1,
            "expression": "DESOLE",
            "csv_id": 7705,
            "video_name": "DIVERS_PARL_DESOLE_AD_02_0002"
        },
        {
            "name": "9276",
            "score": "0.989",
            "index": 23,
            "selectedWords": [
                "d\u00e9termin\u00e9e",
                "en col\u00e8re"
            ],
            "freeResponses": [],
            "nbPlayClick": 1,
            "expression": "COLERE",
            "csv_id": 9310,
            "video_name": "DIVERS_PARL_COLERE_AD_01_0004"
        },
        {
            "name": "11964",
            "score": "0.997",
            "index": 24,
            "selectedWords": [
                "\u00e9vidente",
                "prouv\u00e9e"
            ],
            "freeResponses": [],
            "nbPlayClick": 1,
            "expression": "NEUTRE",
            "csv_id": 12001,
            "video_name": "DIVERS_BOOK_AD_03_0002"
        },
        {
            "name": "11410",
            "score": "0.995",
            "index": 25,
            "selectedWords": [
                "neutre",
                "notoire"
            ],
            "freeResponses": [],
            "nbPlayClick": 1,
            "expression": "NEUTRE",
            "csv_id": 11447,
            "video_name": "DIVERS_BOOK_AD_03_0002"
        },
        {
            "name": "8237",
            "score": "0.985",
            "index": 26,
            "selectedWords": [
                "certaine",
                "vivifiante"
            ],
            "freeResponses": [],
            "nbPlayClick": 2,
            "expression": "NEUTRE",
            "csv_id": 8271,
            "video_name": "DIVERS_PARL_AD_01_0004"
        },
        {
            "name": "3077",
            "score": "0.940",
            "index": 27,
            "selectedWords": [
                "\u00e9vidente",
                "irr\u00e9cusable"
            ],
            "freeResponses": [],
            "nbPlayClick": 1,
            "expression": "EVIDENCE",
            "csv_id": 3077,
            "video_name": "DIVERS_PARL_EVIDENCE_AD_02_0002"
        },
        {
            "name": "10360",
            "score": "0.993",
            "index": 28,
            "selectedWords": [
                "d\u00e9sol\u00e9e",
                "autre",
                "implorante"
            ],
            "freeResponses": [],
            "nbPlayClick": 1,
            "expression": "SUPPLIANT",
            "csv_id": 10394,
            "video_name": "DIVERS_BOOK_SUPPLIANT_AD_01_0004"
        },
        {
            "name": "9180",
            "score": "0.989",
            "index": 29,
            "selectedWords": [
                "\u00e9vidente",
                "autre",
                "autre",
                "autre",
                "autre",
                "opini\u00e2tre"
            ],
            "freeResponses": [],
            "nbPlayClick": 3,
            "expression": "NEUTRE",
            "csv_id": 9214,
            "video_name": "DIVERS_BOOK_AD_03_0001"
        },
        {
            "name": "2754",
            "score": "0.933",
            "index": 30,
            "selectedWords": [
                "larmoyante",
                "implorante"
            ],
            "freeResponses": [],
            "nbPlayClick": 2,
            "expression": "EVIDENCE",
            "csv_id": 2754,
            "video_name": "DIVERS_PARL_EVIDENCE_AD_01_0001"
        },
        {
            "name": "6474",
            "score": "0.977",
            "index": 31,
            "selectedWords": [
                "irrit\u00e9e",
                "ennuy\u00e9e"
            ],
            "freeResponses": [],
            "nbPlayClick": 1,
            "expression": "INCREDULE",
            "csv_id": 6508,
            "video_name": "DIVERS_BOOK_INCREDULE_AD_01_0001"
        },
        {
            "name": "9394",
            "score": "0.990",
            "index": 32,
            "selectedWords": [
                "r\u00e9fl\u00e9chissante",
                "songeuse"
            ],
            "freeResponses": [],
            "nbPlayClick": 1,
            "response": "",
            "expression": "PENSIF",
            "csv_id": 9428,
            "video_name": "DIVERS_BOOK_PENSIF_AD_01_0003"
        },
        {
            "name": "8592",
            "score": "0.987",
            "index": 33,
            "selectedWords": [
                "neutre",
                "notoire"
            ],
            "freeResponses": [],
            "nbPlayClick": 1,
            "expression": "NEUTRE",
            "csv_id": 8626,
            "video_name": "DIVERS_PARL_AD_06_0003"
        },
        {
            "name": "7290",
            "score": "0.981",
            "index": 34,
            "selectedWords": [
                "enthousiaste",
                "\u00e9loquente"
            ],
            "freeResponses": [],
            "nbPlayClick": 1,
            "expression": "RECONFORTANT",
            "csv_id": 7324,
            "video_name": "DIVERS_BOOK_RECONFORTANT_AD_01_0002"
        },
        {
            "name": "10885",
            "score": "0.994",
            "index": 35,
            "selectedWords": [
                "s\u00fbre",
                "nette"
            ],
            "freeResponses": [],
            "nbPlayClick": 1,
            "response": "s",
            "expression": "NEUTRE",
            "csv_id": 10919,
            "video_name": "DIVERS_PARL_AD_01_0002"
        },
        {
            "name": "7021",
            "score": "0.980",
            "index": 36,
            "selectedWords": [
                "m\u00e9contente",
                "autre",
                "autre",
                "nette"
            ],
            "freeResponses": [],
            "nbPlayClick": 1,
            "response": "nett",
            "expression": "NEUTRE",
            "csv_id": 7055,
            "video_name": "DIVERS_PARL_AD_04_0002"
        },
        {
            "name": "3041",
            "score": "0.939",
            "index": 37,
            "selectedWords": [
                "notoire",
                "officielle"
            ],
            "freeResponses": [],
            "nbPlayClick": 1,
            "response": "off",
            "expression": "NEUTRE",
            "csv_id": 3041,
            "video_name": "DIVERS_PARL_AD_04_0003"
        },
        {
            "name": "5971",
            "score": "0.974",
            "index": 38,
            "selectedWords": [
                "consolante",
                "encourageante"
            ],
            "freeResponses": [],
            "nbPlayClick": 1,
            "response": "co",
            "expression": "NEUTRE",
            "csv_id": 6005,
            "video_name": "DIVERS_BOOK_AD_04_0002"
        },
        {
            "name": "3640",
            "score": "0.949",
            "index": 39,
            "selectedWords": [
                "confuse",
                "autre",
                "pensive"
            ],
            "freeResponses": [],
            "nbPlayClick": 1,
            "response": "pe",
            "expression": "PENSIF",
            "csv_id": 3640,
            "video_name": "DIVERS_PARL_PENSIF_AD_01_0002"
        },
        {
            "name": "8732",
            "score": "0.987",
            "index": 40,
            "selectedWords": [
                "officielle",
                "malicieuse"
            ],
            "freeResponses": [],
            "nbPlayClick": 1,
            "response": "off",
            "expression": "RECONFORTANT",
            "csv_id": 8766,
            "video_name": "DIVERS_BOOK_RECONFORTANT_AD_01_0004"
        },
        {
            "name": "2852",
            "score": "0.935",
            "index": 41,
            "selectedWords": [
                "larmoyante",
                "autre",
                "autre",
                "autre",
                "estomaqu\u00e9e"
            ],
            "freeResponses": [],
            "nbPlayClick": 1,
            "response": "m",
            "expression": "SUPPLIANT",
            "csv_id": 2852,
            "video_name": "DIVERS_PARL_SUPPLIANT_AD_02_0001"
        },
        {
            "name": "4471",
            "score": "0.960",
            "index": 42,
            "selectedWords": [
                "d\u00e9sol\u00e9e",
                "r\u00e9fl\u00e9chie"
            ],
            "freeResponses": [],
            "nbPlayClick": 1,
            "expression": "DESOLE",
            "csv_id": 4505,
            "video_name": "DIVERS_BOOK_DESOLE_AD_03_0002"
        },
        {
            "name": "10888",
            "score": "0.994",
            "index": 43,
            "selectedWords": [
                "officielle",
                "tonique"
            ],
            "freeResponses": [],
            "nbPlayClick": 1,
            "response": "offi",
            "expression": "NEUTRE",
            "csv_id": 10922,
            "video_name": "DIVERS_PARL_AD_02_0001"
        },
        {
            "name": "10947",
            "score": "0.994",
            "index": 44,
            "selectedWords": [
                "irrit\u00e9e",
                "autre",
                "autre",
                "d\u00e9courag\u00e9e"
            ],
            "freeResponses": [],
            "nbPlayClick": 1,
            "expression": "NEUTRE",
            "csv_id": 10981,
            "video_name": "DIVERS_PARL_AD_02_0003"
        },
        {
            "name": "11470",
            "score": "0.996",
            "index": 45,
            "selectedWords": [
                "officielle",
                "notoire"
            ],
            "freeResponses": [],
            "nbPlayClick": 2,
            "response": "off",
            "expression": "NEUTRE",
            "csv_id": 11507,
            "video_name": "DIVERS_PARL_AD_01_0005"
        },
        {
            "name": "3903",
            "score": "0.953",
            "index": 46,
            "selectedWords": [
                "notoire",
                "tonique"
            ],
            "freeResponses": [],
            "nbPlayClick": 1,
            "response": "not",
            "expression": "NEUTRE",
            "csv_id": 3903,
            "video_name": "DIVERS_PARL_AD_05_0003"
        },
        {
            "name": "11999",
            "score": "0.997",
            "index": 47,
            "selectedWords": [
                "effar\u00e9e",
                "d\u00e9concert\u00e9e"
            ],
            "freeResponses": [],
            "nbPlayClick": 1,
            "response": "f",
            "expression": "NEUTRE",
            "csv_id": 12036,
            "video_name": "DIVERS_PARL_AD_03_0003"
        },
        {
            "name": "451",
            "score": "0.796",
            "index": 48,
            "selectedWords": [
                "excit\u00e9e",
                "\u00e9loquente"
            ],
            "freeResponses": [],
            "nbPlayClick": 1,
            "expression": "ESPIEGLE",
            "csv_id": 451,
            "video_name": "DIVERS_PARL_ESPIEGLE_AD_01_0001"
        },
        {
            "name": "5698",
            "score": "0.972",
            "index": 49,
            "selectedWords": [
                "autre",
                "autre",
                "apaisante",
                "reconstituante"
            ],
            "freeResponses": [],
            "nbPlayClick": 1,
            "expression": "RECONFORTANT",
            "csv_id": 5732,
            "video_name": "DIVERS_BOOK_RECONFORTANT_AD_03_0002"
        },
        {
            "name": "12137",
            "score": "0.997",
            "index": 50,
            "selectedWords": [
                "pensante",
                "en peine"
            ],
            "freeResponses": [],
            "nbPlayClick": 3,
            "response": "pe",
            "expression": "NEUTRE",
            "csv_id": 12174,
            "video_name": "DIVERS_BOOK_AD_01_0001"
        },
        {
            "name": "5701",
            "score": "0.972",
            "index": 51,
            "selectedWords": [
                "excit\u00e9e",
                "euphorique"
            ],
            "freeResponses": [],
            "nbPlayClick": 1,
            "response": "exci",
            "expression": "ENTHOUSIASTE",
            "csv_id": 5735,
            "video_name": "DIVERS_BOOK_ENTHOUSIASTE_AD_01_0001"
        },
        {
            "name": "5722",
            "score": "0.972",
            "index": 52,
            "selectedWords": [
                "d\u00e9sol\u00e9e",
                "autre",
                "autre",
                "autre",
                "froide"
            ],
            "freeResponses": [],
            "nbPlayClick": 2,
            "expression": "NEUTRE",
            "csv_id": 5756,
            "video_name": "DIVERS_BOOK_AD_01_0002"
        },
        {
            "name": "12147",
            "score": "0.997",
            "index": 53,
            "selectedWords": [
                "pensive",
                "r\u00eaveuse"
            ],
            "freeResponses": [],
            "nbPlayClick": 1,
            "expression": "PENSIF",
            "csv_id": 12184,
            "video_name": "DIVERS_BOOK_PENSIF_AD_01_0003"
        },
        {
            "name": "7259",
            "score": "0.981",
            "index": 54,
            "selectedWords": [
                "officielle",
                "notoire"
            ],
            "freeResponses": [],
            "nbPlayClick": 1,
            "response": "off",
            "expression": "NEUTRE",
            "csv_id": 7293,
            "video_name": "DIVERS_PARL_AD_04_0002"
        },
        {
            "name": "4852",
            "score": "0.964",
            "index": 55,
            "selectedWords": [
                "en col\u00e8re",
                "enthousiaste"
            ],
            "freeResponses": [],
            "nbPlayClick": 1,
            "expression": "DETERMINE",
            "csv_id": 4886,
            "video_name": "DIVERS_PARL_DETERMINE_AD_01_0004"
        },
        {
            "name": "11189",
            "score": "0.995",
            "index": 56,
            "selectedWords": [
                "en col\u00e8re",
                "irrit\u00e9e"
            ],
            "freeResponses": [],
            "nbPlayClick": 1,
            "expression": "COLERE",
            "csv_id": 11223,
            "video_name": "DIVERS_PARL_COLERE_AD_02_0002"
        },
        {
            "name": "11776",
            "score": "0.996",
            "index": 57,
            "selectedWords": [
                "neutre",
                "officielle"
            ],
            "freeResponses": [],
            "nbPlayClick": 1,
            "response": "offi",
            "expression": "NEUTRE",
            "csv_id": 11813,
            "video_name": "DIVERS_PARL_AD_05_0001"
        },
        {
            "name": "7341",
            "score": "0.981",
            "index": 58,
            "selectedWords": [
                "\u00e9tonn\u00e9e",
                "autre",
                "vivifiante"
            ],
            "freeResponses": [],
            "nbPlayClick": 2,
            "expression": "ETONNE",
            "csv_id": 7375,
            "video_name": "DIVERS_BOOK_ETONNE_AD_01_0004"
        },
        {
            "name": "11590",
            "score": "0.996",
            "index": 59,
            "selectedWords": [
                "d\u00e9termin\u00e9e",
                "r\u00e9solue"
            ],
            "freeResponses": [],
            "nbPlayClick": 1,
            "expression": "NEUTRE",
            "csv_id": 11627,
            "video_name": "DIVERS_PARL_AD_02_0001"
        }
    ],
    "training": [
        {
            "name": "77",
            "score": "0.639",
            "index": 0,
            "selectedWords": [
                "neutre",
                "notoire"
            ],
            "freeResponses": [],
            "nbPlayClick": 4,
            "expression": "NEUTRE"
        }
    ],
    "filenameDate": "2023-12-03_21-33"
}