{
    "user": {
        "isProlific": true,
        "id": "636a30e7ba4faca50bd10fcf",
        "session": "64f1f4012ded77fcb0dc4782",
        "study": "64ef977375f88e4e1174dce0"
    },
    "userAgent": "Mozilla/5.0 (Windows NT 10.0; Win64; x64) AppleWebKit/537.36 (KHTML, like Gecko) Chrome/116.0.0.0 Safari/537.36",
    "landingDate": "2023-09-01T14:24:36.389Z",
    "startDate": "2023-09-01T14:29:57.456Z",
    "endDate": "2023-09-01T15:07:28.099Z",
    "reviews": [
        {
            "name": "10202",
            "score": "0.992",
            "index": 0,
            "selectedWords": [
                "autre",
                "autre",
                "autre",
                "autre",
                "autre",
                "autre",
                "autre",
                "navr\u00e9e",
                "narquoise"
            ],
            "freeResponses": [],
            "nbPlayClick": 2,
            "expression": "NEUTRE",
            "csv_id": 10236,
            "video_name": "DIVERS_PARL_AD_01_0006"
        },
        {
            "name": "8335",
            "score": "0.986",
            "index": 1,
            "selectedWords": [
                "absente",
                "atone"
            ],
            "freeResponses": [],
            "nbPlayClick": 2,
            "expression": "NEUTRE",
            "csv_id": 8369,
            "video_name": "DIVERS_PARL_AD_04_0001"
        },
        {
            "name": "6479",
            "score": "0.977",
            "index": 2,
            "selectedWords": [
                "espi\u00e8gle",
                "mutine",
                "malicieuse"
            ],
            "freeResponses": [],
            "nbPlayClick": 1,
            "expression": "ENTHOUSIASTE",
            "csv_id": 6513,
            "video_name": "DIVERS_PARL_ENTHOUSIASTE_AD_02_0001"
        },
        {
            "name": "10739",
            "score": "0.994",
            "index": 3,
            "selectedWords": [
                "neutre",
                "patente"
            ],
            "freeResponses": [],
            "nbPlayClick": 3,
            "expression": "NEUTRE",
            "csv_id": 10773,
            "video_name": "DIVERS_PARL_AD_02_0001"
        },
        {
            "name": "3919",
            "score": "0.953",
            "index": 4,
            "selectedWords": [
                "suppliante",
                "consolante"
            ],
            "freeResponses": [],
            "nbPlayClick": 1,
            "expression": "RECONFORTANT",
            "csv_id": 3919,
            "video_name": "DIVERS_PARL_RECONFORTANT_AD_02_0001"
        },
        {
            "name": "12065",
            "score": "0.997",
            "index": 5,
            "selectedWords": [
                "neutre",
                "limpide"
            ],
            "freeResponses": [],
            "nbPlayClick": 3,
            "expression": "NEUTRE",
            "csv_id": 12102,
            "video_name": "DIVERS_BOOK_AD_04_0002"
        },
        {
            "name": "11744",
            "score": "0.996",
            "index": 6,
            "selectedWords": [
                "espi\u00e8gle",
                "fac\u00e9tieuse",
                "rus\u00e9e"
            ],
            "freeResponses": [],
            "nbPlayClick": 1,
            "expression": "ESPIEGLE",
            "csv_id": 11781,
            "video_name": "DIVERS_BOOK_ESPIEGLE_AD_03_0001"
        },
        {
            "name": "5303",
            "score": "0.968",
            "index": 7,
            "selectedWords": [
                "en col\u00e8re",
                "courrouc\u00e9e",
                "indign\u00e9e",
                "autre"
            ],
            "freeResponses": [],
            "nbPlayClick": 1,
            "expression": "COLERE",
            "csv_id": 5337,
            "video_name": "DIVERS_PARL_COLERE_AD_02_0002"
        },
        {
            "name": "10501",
            "score": "0.993",
            "index": 8,
            "selectedWords": [
                "\u00e9vidente",
                "manifeste"
            ],
            "freeResponses": [],
            "nbPlayClick": 1,
            "expression": "NEUTRE",
            "csv_id": 10535,
            "video_name": "DIVERS_BOOK_AD_04_0001"
        },
        {
            "name": "8730",
            "score": "0.987",
            "index": 9,
            "selectedWords": [
                "espi\u00e8gle",
                "narquoise"
            ],
            "freeResponses": [],
            "nbPlayClick": 1,
            "expression": "ESPIEGLE",
            "csv_id": 8764,
            "video_name": "DIVERS_PARL_ESPIEGLE_AD_01_0001"
        },
        {
            "name": "5707",
            "score": "0.972",
            "index": 10,
            "selectedWords": [
                "neutre",
                "atone"
            ],
            "freeResponses": [],
            "nbPlayClick": 1,
            "expression": "NEUTRE",
            "csv_id": 5741,
            "video_name": "DIVERS_BOOK_AD_04_0002"
        },
        {
            "name": "9336",
            "score": "0.989",
            "index": 11,
            "selectedWords": [
                "d\u00e9termin\u00e9e",
                "r\u00e9fl\u00e9chie"
            ],
            "freeResponses": [],
            "nbPlayClick": 1,
            "expression": "DETERMINE",
            "csv_id": 9370,
            "video_name": "DIVERS_PARL_DETERMINE_AD_01_0002"
        },
        {
            "name": "1267",
            "score": "0.879",
            "index": 12,
            "selectedWords": [
                "\u00e9vidente",
                "incontestable"
            ],
            "freeResponses": [],
            "nbPlayClick": 2,
            "expression": "NEUTRE",
            "csv_id": 1267,
            "video_name": "DIVERS_PARL_AD_03_0002"
        },
        {
            "name": "6884",
            "score": "0.979",
            "index": 13,
            "selectedWords": [
                "suppliante",
                "implorante"
            ],
            "freeResponses": [],
            "nbPlayClick": 1,
            "expression": "RECONFORTANT",
            "csv_id": 6918,
            "video_name": "DIVERS_PARL_RECONFORTANT_AD_02_0001"
        },
        {
            "name": "10782",
            "score": "0.994",
            "index": 14,
            "selectedWords": [
                "neutre",
                "patente"
            ],
            "freeResponses": [],
            "nbPlayClick": 1,
            "expression": "NEUTRE",
            "csv_id": 10816,
            "video_name": "DIVERS_PARL_AD_04_0001"
        },
        {
            "name": "9992",
            "score": "0.992",
            "index": 15,
            "selectedWords": [
                "d\u00e9sol\u00e9e",
                "nette",
                "s\u00fbre"
            ],
            "freeResponses": [],
            "nbPlayClick": 1,
            "expression": "NEUTRE",
            "csv_id": 10026,
            "video_name": "DIVERS_PARL_AD_03_0001"
        },
        {
            "name": "8426",
            "score": "0.986",
            "index": 16,
            "selectedWords": [
                "neutre",
                "patente"
            ],
            "freeResponses": [],
            "nbPlayClick": 1,
            "expression": "NEUTRE",
            "csv_id": 8460,
            "video_name": "DIVERS_PARL_AD_06_0003"
        },
        {
            "name": "7838",
            "score": "0.984",
            "index": 17,
            "selectedWords": [
                "suppliante",
                "implorante"
            ],
            "freeResponses": [],
            "nbPlayClick": 4,
            "expression": "EVIDENCE",
            "csv_id": 7872,
            "video_name": "DIVERS_PARL_EVIDENCE_AD_02_0002"
        },
        {
            "name": "6178",
            "score": "0.975",
            "index": 18,
            "selectedWords": [
                "accabl\u00e9e",
                "contrari\u00e9e"
            ],
            "freeResponses": [],
            "nbPlayClick": 2,
            "expression": "NEUTRE",
            "csv_id": 6212,
            "video_name": "DIVERS_PARL_AD_01_0005"
        },
        {
            "name": "11322",
            "score": "0.995",
            "index": 19,
            "selectedWords": [
                "suppliante",
                "ardente"
            ],
            "freeResponses": [],
            "nbPlayClick": 1,
            "expression": "SUPPLIANT",
            "csv_id": 11356,
            "video_name": "DIVERS_PARL_SUPPLIANT_AD_02_0002"
        },
        {
            "name": "7801",
            "score": "0.983",
            "index": 20,
            "selectedWords": [
                "enthousiaste",
                "tonique"
            ],
            "freeResponses": [],
            "nbPlayClick": 1,
            "expression": "ENTHOUSIASTE",
            "csv_id": 7835,
            "video_name": "DIVERS_PARL_ENTHOUSIASTE_AD_02_0001"
        },
        {
            "name": "9251",
            "score": "0.989",
            "index": 21,
            "selectedWords": [
                "incr\u00e9dule",
                "m\u00e9fiante"
            ],
            "freeResponses": [],
            "nbPlayClick": 2,
            "expression": "ETONNE",
            "csv_id": 9285,
            "video_name": "DIVERS_BOOK_ETONNE_AD_01_0004"
        },
        {
            "name": "2181",
            "score": "0.917",
            "index": 22,
            "selectedWords": [
                "d\u00e9sol\u00e9e",
                "contrari\u00e9e"
            ],
            "freeResponses": [],
            "nbPlayClick": 2,
            "expression": "NEUTRE",
            "csv_id": 2181,
            "video_name": "DIVERS_PARL_AD_05_0003"
        },
        {
            "name": "8353",
            "score": "0.986",
            "index": 23,
            "selectedWords": [
                "agressive",
                "froide"
            ],
            "freeResponses": [],
            "nbPlayClick": 2,
            "expression": "NEUTRE",
            "csv_id": 8387,
            "video_name": "DIVERS_BOOK_AD_03_0002"
        },
        {
            "name": "8635",
            "score": "0.987",
            "index": 24,
            "selectedWords": [
                "suppliante",
                "mendiante"
            ],
            "freeResponses": [],
            "nbPlayClick": 1,
            "expression": "SUPPLIANT",
            "csv_id": 8669,
            "video_name": "DIVERS_PARL_SUPPLIANT_AD_02_0001"
        },
        {
            "name": "11485",
            "score": "0.996",
            "index": 25,
            "selectedWords": [
                "neutre",
                "patente"
            ],
            "freeResponses": [],
            "nbPlayClick": 2,
            "expression": "NEUTRE",
            "csv_id": 11522,
            "video_name": "DIVERS_PARL_AD_03_0001"
        },
        {
            "name": "9168",
            "score": "0.989",
            "index": 26,
            "selectedWords": [
                "d\u00e9termin\u00e9e",
                "r\u00e9solue"
            ],
            "freeResponses": [],
            "nbPlayClick": 1,
            "expression": "NEUTRE",
            "csv_id": 9202,
            "video_name": "DIVERS_PARL_AD_01_0005"
        },
        {
            "name": "7741",
            "score": "0.983",
            "index": 27,
            "selectedWords": [
                "\u00e9vidente",
                "incontestable"
            ],
            "freeResponses": [],
            "nbPlayClick": 1,
            "expression": "NEUTRE",
            "csv_id": 7775,
            "video_name": "DIVERS_PARL_AD_04_0001"
        },
        {
            "name": "11365",
            "score": "0.995",
            "index": 28,
            "selectedWords": [
                "pensive",
                "songeuse"
            ],
            "freeResponses": [],
            "nbPlayClick": 1,
            "expression": "PENSIF",
            "csv_id": 11399,
            "video_name": "DIVERS_BOOK_PENSIF_AD_01_0003"
        },
        {
            "name": "6948",
            "score": "0.979",
            "index": 29,
            "selectedWords": [
                "neutre",
                "limpide"
            ],
            "freeResponses": [],
            "nbPlayClick": 1,
            "expression": "NEUTRE",
            "csv_id": 6982,
            "video_name": "DIVERS_PARL_AD_06_0003"
        },
        {
            "name": "2023",
            "score": "0.912",
            "index": 30,
            "selectedWords": [
                "espi\u00e8gle",
                "mutine",
                "tonique"
            ],
            "freeResponses": [],
            "nbPlayClick": 1,
            "expression": "ENTHOUSIASTE",
            "csv_id": 2023,
            "video_name": "DIVERS_BOOK_ENTHOUSIASTE_AD_01_0004"
        },
        {
            "name": "6531",
            "score": "0.977",
            "index": 31,
            "selectedWords": [
                "\u00e9tonn\u00e9e",
                "r\u00e9fl\u00e9chie"
            ],
            "freeResponses": [],
            "nbPlayClick": 2,
            "expression": "NEUTRE",
            "csv_id": 6565,
            "video_name": "DIVERS_BOOK_AD_01_0002"
        },
        {
            "name": "9507",
            "score": "0.990",
            "index": 32,
            "selectedWords": [
                "narquoise",
                "dubitative"
            ],
            "freeResponses": [],
            "nbPlayClick": 2,
            "response": "Narquoise",
            "expression": "NEUTRE",
            "csv_id": 9541,
            "video_name": "DIVERS_PARL_AD_06_0003"
        },
        {
            "name": "9087",
            "score": "0.989",
            "index": 33,
            "selectedWords": [
                "fade",
                "sinc\u00e8re"
            ],
            "freeResponses": [],
            "nbPlayClick": 3,
            "expression": "NEUTRE",
            "csv_id": 9121,
            "video_name": "DIVERS_PARL_AD_04_0003"
        },
        {
            "name": "6542",
            "score": "0.977",
            "index": 34,
            "selectedWords": [
                "neutre",
                "certaine"
            ],
            "freeResponses": [],
            "nbPlayClick": 1,
            "expression": "NEUTRE",
            "csv_id": 6576,
            "video_name": "DIVERS_PARL_AD_05_0001"
        },
        {
            "name": "1505",
            "score": "0.891",
            "index": 35,
            "selectedWords": [
                "enthousiaste",
                "triomphale",
                "exalt\u00e9e"
            ],
            "freeResponses": [],
            "nbPlayClick": 1,
            "expression": "ENTHOUSIASTE",
            "csv_id": 1505,
            "video_name": "DIVERS_PARL_ENTHOUSIASTE_AD_01_0003"
        },
        {
            "name": "7320",
            "score": "0.981",
            "index": 36,
            "selectedWords": [
                "suppliante",
                "indign\u00e9e"
            ],
            "freeResponses": [],
            "nbPlayClick": 2,
            "expression": "SUPPLIANT",
            "csv_id": 7354,
            "video_name": "DIVERS_PARL_SUPPLIANT_AD_02_0001"
        },
        {
            "name": "2511",
            "score": "0.927",
            "index": 37,
            "selectedWords": [
                "r\u00e9confortante",
                "apaisante"
            ],
            "freeResponses": [],
            "nbPlayClick": 1,
            "expression": "RECONFORTANT",
            "csv_id": 2511,
            "video_name": "DIVERS_BOOK_RECONFORTANT_AD_03_0002"
        },
        {
            "name": "7734",
            "score": "0.983",
            "index": 38,
            "selectedWords": [
                "incr\u00e9dule",
                "narquoise"
            ],
            "freeResponses": [],
            "nbPlayClick": 1,
            "expression": "INCREDULE",
            "csv_id": 7768,
            "video_name": "DIVERS_BOOK_INCREDULE_AD_01_0001"
        },
        {
            "name": "412",
            "score": "0.792",
            "index": 39,
            "selectedWords": [
                "incr\u00e9dule",
                "m\u00e9fiante",
                "sceptique"
            ],
            "freeResponses": [],
            "nbPlayClick": 1,
            "expression": "NEUTRE",
            "csv_id": 412,
            "video_name": "DIVERS_PARL_AD_04_0003"
        },
        {
            "name": "4867",
            "score": "0.964",
            "index": 40,
            "selectedWords": [
                "atone",
                "accabl\u00e9e"
            ],
            "freeResponses": [],
            "nbPlayClick": 2,
            "expression": "DESOLE",
            "csv_id": 4901,
            "video_name": "DIVERS_PARL_DESOLE_AD_02_0002"
        },
        {
            "name": "11861",
            "score": "0.997",
            "index": 41,
            "selectedWords": [
                "neutre",
                "limpide"
            ],
            "freeResponses": [],
            "nbPlayClick": 1,
            "expression": "NEUTRE",
            "csv_id": 11898,
            "video_name": "DIVERS_BOOK_AD_01_0002"
        },
        {
            "name": "10182",
            "score": "0.992",
            "index": 42,
            "selectedWords": [
                "incr\u00e9dule",
                "indign\u00e9e"
            ],
            "freeResponses": [],
            "nbPlayClick": 1,
            "expression": "ETONNE",
            "csv_id": 10216,
            "video_name": "DIVERS_BOOK_ETONNE_AD_01_0002"
        },
        {
            "name": "11085",
            "score": "0.995",
            "index": 43,
            "selectedWords": [
                "neutre",
                "limpide"
            ],
            "freeResponses": [],
            "nbPlayClick": 1,
            "expression": "NEUTRE",
            "csv_id": 11119,
            "video_name": "DIVERS_BOOK_AD_03_0001"
        },
        {
            "name": "9109",
            "score": "0.989",
            "index": 44,
            "selectedWords": [
                "d\u00e9termin\u00e9e",
                "r\u00e9solue"
            ],
            "freeResponses": [],
            "nbPlayClick": 2,
            "expression": "NEUTRE",
            "csv_id": 9143,
            "video_name": "DIVERS_PARL_AD_01_0000"
        },
        {
            "name": "7813",
            "score": "0.983",
            "index": 45,
            "selectedWords": [
                "d\u00e9termin\u00e9e",
                "encourageante"
            ],
            "freeResponses": [],
            "nbPlayClick": 1,
            "expression": "DETERMINE",
            "csv_id": 7847,
            "video_name": "DIVERS_PARL_DETERMINE_AD_01_0002"
        },
        {
            "name": "7614",
            "score": "0.983",
            "index": 46,
            "selectedWords": [
                "en col\u00e8re",
                "hargneuse",
                "m\u00e9contente"
            ],
            "freeResponses": [],
            "nbPlayClick": 1,
            "expression": "COLERE",
            "csv_id": 7648,
            "video_name": "DIVERS_PARL_COLERE_AD_01_0003"
        },
        {
            "name": "9481",
            "score": "0.990",
            "index": 47,
            "selectedWords": [
                "pensive",
                "r\u00e9fl\u00e9chissante"
            ],
            "freeResponses": [],
            "nbPlayClick": 1,
            "expression": "NEUTRE",
            "csv_id": 9515,
            "video_name": "DIVERS_PARL_AD_04_0001"
        },
        {
            "name": "9418",
            "score": "0.990",
            "index": 48,
            "selectedWords": [
                "neutre",
                "limpide"
            ],
            "freeResponses": [],
            "nbPlayClick": 1,
            "expression": "NEUTRE",
            "csv_id": 9452,
            "video_name": "DIVERS_BOOK_AD_01_0001"
        },
        {
            "name": "11664",
            "score": "0.996",
            "index": 49,
            "selectedWords": [
                "neutre",
                "patente"
            ],
            "freeResponses": [],
            "nbPlayClick": 1,
            "expression": "NEUTRE",
            "csv_id": 11701,
            "video_name": "DIVERS_PARL_AD_05_0001"
        },
        {
            "name": "6078",
            "score": "0.974",
            "index": 50,
            "selectedWords": [
                "d\u00e9termin\u00e9e",
                "tonique"
            ],
            "freeResponses": [],
            "nbPlayClick": 2,
            "expression": "DETERMINE",
            "csv_id": 6112,
            "video_name": "DIVERS_BOOK_DETERMINE_AD_03_0001"
        },
        {
            "name": "1041",
            "score": "0.864",
            "index": 51,
            "selectedWords": [
                "suppliante",
                "implorante"
            ],
            "freeResponses": [],
            "nbPlayClick": 1,
            "expression": "EVIDENCE",
            "csv_id": 1041,
            "video_name": "DIVERS_PARL_EVIDENCE_AD_02_0002"
        },
        {
            "name": "11540",
            "score": "0.996",
            "index": 52,
            "selectedWords": [
                "neutre",
                "limpide",
                "officielle"
            ],
            "freeResponses": [],
            "nbPlayClick": 1,
            "expression": "NEUTRE",
            "csv_id": 11577,
            "video_name": "DIVERS_PARL_AD_01_0005"
        },
        {
            "name": "7832",
            "score": "0.984",
            "index": 53,
            "selectedWords": [
                "neutre",
                "atone"
            ],
            "freeResponses": [],
            "nbPlayClick": 1,
            "expression": "NEUTRE",
            "csv_id": 7866,
            "video_name": "DIVERS_PARL_AD_03_0003"
        },
        {
            "name": "10215",
            "score": "0.992",
            "index": 54,
            "selectedWords": [
                "d\u00e9courag\u00e9e",
                "d\u00e9pit\u00e9e"
            ],
            "freeResponses": [],
            "nbPlayClick": 2,
            "expression": "NEUTRE",
            "csv_id": 10249,
            "video_name": "DIVERS_PARL_AD_03_0001"
        },
        {
            "name": "11626",
            "score": "0.996",
            "index": 55,
            "selectedWords": [
                "d\u00e9sol\u00e9e",
                "r\u00e9fl\u00e9chie"
            ],
            "freeResponses": [],
            "nbPlayClick": 1,
            "expression": "NEUTRE",
            "csv_id": 11663,
            "video_name": "DIVERS_PARL_AD_03_0001"
        },
        {
            "name": "9917",
            "score": "0.991",
            "index": 56,
            "selectedWords": [
                "en col\u00e8re",
                "hargneuse",
                "\u00e9nergique"
            ],
            "freeResponses": [],
            "nbPlayClick": 1,
            "expression": "COLERE",
            "csv_id": 9951,
            "video_name": "DIVERS_PARL_COLERE_AD_01_0003"
        },
        {
            "name": "11522",
            "score": "0.996",
            "index": 57,
            "selectedWords": [
                "neutre",
                "ennuy\u00e9e"
            ],
            "freeResponses": [],
            "nbPlayClick": 1,
            "expression": "NEUTRE",
            "csv_id": 11559,
            "video_name": "DIVERS_BOOK_AD_04_0001"
        },
        {
            "name": "4662",
            "score": "0.963",
            "index": 58,
            "selectedWords": [
                "neutre",
                "limpide"
            ],
            "freeResponses": [],
            "nbPlayClick": 1,
            "expression": "NEUTRE",
            "csv_id": 4696,
            "video_name": "DIVERS_PARL_AD_06_0003"
        },
        {
            "name": "10611",
            "score": "0.993",
            "index": 59,
            "selectedWords": [
                "en col\u00e8re",
                "en rage",
                "m\u00e9contente"
            ],
            "freeResponses": [],
            "nbPlayClick": 1,
            "expression": "COLERE",
            "csv_id": 10645,
            "video_name": "DIVERS_PARL_COLERE_AD_02_0002"
        }
    ],
    "training": [
        {
            "name": "77",
            "score": "0.639",
            "index": 0,
            "selectedWords": [
                "autre",
                "autre",
                "autre",
                "autre",
                "autre",
                "autre",
                "autre",
                "autre",
                "autre",
                "autre",
                "autre",
                "autre",
                "autre",
                "autre",
                "convaincue",
                "manifeste"
            ],
            "freeResponses": [],
            "nbPlayClick": 5,
            "expression": "NEUTRE"
        }
    ],
    "filenameDate": "2023-09-01_16-7"
}