{
    "user": {
        "isProlific": true,
        "id": "6481d6bc0b6df42e81a1a7f8",
        "session": "64f2a8b5425e2bf1e37fc842",
        "study": "64ef977375f88e4e1174dce0"
    },
    "userAgent": "Mozilla/5.0 (Macintosh; Intel Mac OS X 10_15_7) AppleWebKit/605.1.15 (KHTML, like Gecko) Version/16.6 Safari/605.1.15",
    "landingDate": "2023-09-02T03:16:01.156Z",
    "startDate": "2023-09-02T03:17:12.671Z",
    "endDate": "2023-09-02T03:44:37.370Z",
    "reviews": [
        {
            "name": "3320",
            "score": "0.944",
            "index": 0,
            "selectedWords": [
                "enthousiaste",
                "autre",
                "coquine"
            ],
            "freeResponses": [],
            "nbPlayClick": 1,
            "expression": "ESPIEGLE",
            "csv_id": 3320,
            "video_name": "DIVERS_PARL_ESPIEGLE_AD_01_0001"
        },
        {
            "name": "7893",
            "score": "0.984",
            "index": 1,
            "selectedWords": [
                "neutre",
                "certaine"
            ],
            "freeResponses": [],
            "nbPlayClick": 1,
            "expression": "NEUTRE",
            "csv_id": 7927,
            "video_name": "DIVERS_PARL_AD_01_0004"
        },
        {
            "name": "11912",
            "score": "0.997",
            "index": 2,
            "selectedWords": [
                "d\u00e9termin\u00e9e",
                "autre",
                "autre",
                "autre",
                "autre",
                "autre",
                "autre",
                "autre",
                "autre",
                "autre",
                "m\u00e9contente"
            ],
            "freeResponses": [],
            "nbPlayClick": 1,
            "expression": "COLERE",
            "csv_id": 11949,
            "video_name": "DIVERS_PARL_COLERE_AD_01_0003"
        },
        {
            "name": "10222",
            "score": "0.992",
            "index": 3,
            "selectedWords": [
                "neutre",
                "s\u00fbre"
            ],
            "freeResponses": [],
            "nbPlayClick": 1,
            "expression": "NEUTRE",
            "csv_id": 10256,
            "video_name": "DIVERS_PARL_AD_01_0005"
        },
        {
            "name": "7758",
            "score": "0.983",
            "index": 4,
            "selectedWords": [
                "pensive",
                "autre",
                "autre",
                "in\u00e9branlable"
            ],
            "freeResponses": [],
            "nbPlayClick": 1,
            "expression": "NEUTRE",
            "csv_id": 7792,
            "video_name": "DIVERS_PARL_AD_05_0001"
        },
        {
            "name": "8422",
            "score": "0.986",
            "index": 5,
            "selectedWords": [
                "en col\u00e8re",
                "irrit\u00e9e"
            ],
            "freeResponses": [],
            "nbPlayClick": 1,
            "expression": "COLERE",
            "csv_id": 8456,
            "video_name": "DIVERS_PARL_COLERE_AD_01_0003"
        },
        {
            "name": "12223",
            "score": "0.998",
            "index": 6,
            "selectedWords": [
                "d\u00e9termin\u00e9e",
                "agit\u00e9e"
            ],
            "freeResponses": [],
            "nbPlayClick": 1,
            "expression": "COLERE",
            "csv_id": 12260,
            "video_name": "DIVERS_PARL_COLERE_AD_02_0002"
        },
        {
            "name": "8078",
            "score": "0.985",
            "index": 7,
            "selectedWords": [
                "d\u00e9sol\u00e9e",
                "autre",
                "autre",
                "autre",
                "inexpressive"
            ],
            "freeResponses": [],
            "nbPlayClick": 1,
            "expression": "DESOLE",
            "csv_id": 8112,
            "video_name": "DIVERS_BOOK_DESOLE_AD_03_0002"
        },
        {
            "name": "7397",
            "score": "0.981",
            "index": 8,
            "selectedWords": [
                "neutre",
                "autre",
                "autre",
                "inexpressive"
            ],
            "freeResponses": [],
            "nbPlayClick": 1,
            "expression": "NEUTRE",
            "csv_id": 7431,
            "video_name": "DIVERS_PARL_AD_02_0001"
        },
        {
            "name": "8927",
            "score": "0.988",
            "index": 9,
            "selectedWords": [
                "incr\u00e9dule",
                "m\u00e9fiante"
            ],
            "freeResponses": [],
            "nbPlayClick": 1,
            "expression": "INCREDULE",
            "csv_id": 8961,
            "video_name": "DIVERS_BOOK_INCREDULE_AD_01_0001"
        },
        {
            "name": "7447",
            "score": "0.982",
            "index": 10,
            "selectedWords": [
                "enthousiaste",
                "tonique"
            ],
            "freeResponses": [],
            "nbPlayClick": 1,
            "expression": "RECONFORTANT",
            "csv_id": 7481,
            "video_name": "DIVERS_BOOK_RECONFORTANT_AD_01_0002"
        },
        {
            "name": "9381",
            "score": "0.990",
            "index": 11,
            "selectedWords": [
                "d\u00e9termin\u00e9e",
                "r\u00e9solue"
            ],
            "freeResponses": [],
            "nbPlayClick": 1,
            "expression": "NEUTRE",
            "csv_id": 9415,
            "video_name": "DIVERS_BOOK_AD_01_0002"
        },
        {
            "name": "10146",
            "score": "0.992",
            "index": 12,
            "selectedWords": [
                "neutre",
                "limpide"
            ],
            "freeResponses": [],
            "nbPlayClick": 1,
            "expression": "NEUTRE",
            "csv_id": 10180,
            "video_name": "DIVERS_PARL_AD_04_0004"
        },
        {
            "name": "3714",
            "score": "0.950",
            "index": 13,
            "selectedWords": [
                "espi\u00e8gle",
                "autre",
                "autre",
                "autre",
                "autre",
                "sceptique"
            ],
            "freeResponses": [],
            "nbPlayClick": 1,
            "expression": "INCREDULE",
            "csv_id": 3714,
            "video_name": "DIVERS_BOOK_INCREDULE_AD_01_0001"
        },
        {
            "name": "5557",
            "score": "0.970",
            "index": 14,
            "selectedWords": [
                "enthousiaste",
                "euphorique"
            ],
            "freeResponses": [],
            "nbPlayClick": 1,
            "expression": "RECONFORTANT",
            "csv_id": 5591,
            "video_name": "DIVERS_BOOK_RECONFORTANT_AD_03_0002"
        },
        {
            "name": "7970",
            "score": "0.984",
            "index": 15,
            "selectedWords": [
                "\u00e9tonn\u00e9e",
                "autre",
                "autre",
                "autre",
                "estomaqu\u00e9e"
            ],
            "freeResponses": [],
            "nbPlayClick": 1,
            "expression": "ETONNE",
            "csv_id": 8004,
            "video_name": "DIVERS_BOOK_ETONNE_AD_03_0001"
        },
        {
            "name": "6519",
            "score": "0.977",
            "index": 16,
            "selectedWords": [
                "\u00e9vidente",
                "incontestable"
            ],
            "freeResponses": [],
            "nbPlayClick": 1,
            "expression": "NEUTRE",
            "csv_id": 6553,
            "video_name": "DIVERS_PARL_AD_01_0005"
        },
        {
            "name": "7613",
            "score": "0.983",
            "index": 17,
            "selectedWords": [
                "neutre",
                "notoire"
            ],
            "freeResponses": [],
            "nbPlayClick": 1,
            "expression": "NEUTRE",
            "csv_id": 7647,
            "video_name": "DIVERS_PARL_AD_01_0001"
        },
        {
            "name": "5963",
            "score": "0.974",
            "index": 18,
            "selectedWords": [
                "neutre",
                "certaine"
            ],
            "freeResponses": [],
            "nbPlayClick": 1,
            "expression": "NEUTRE",
            "csv_id": 5997,
            "video_name": "DIVERS_PARL_AD_04_0001"
        },
        {
            "name": "9799",
            "score": "0.991",
            "index": 19,
            "selectedWords": [
                "d\u00e9termin\u00e9e",
                "r\u00e9fl\u00e9chie"
            ],
            "freeResponses": [],
            "nbPlayClick": 1,
            "expression": "DETERMINE",
            "csv_id": 9833,
            "video_name": "DIVERS_PARL_DETERMINE_AD_01_0002"
        },
        {
            "name": "11652",
            "score": "0.996",
            "index": 20,
            "selectedWords": [
                "\u00e9tonn\u00e9e",
                "autre",
                "autre",
                "\u00e9bahie"
            ],
            "freeResponses": [],
            "nbPlayClick": 1,
            "expression": "ETONNE",
            "csv_id": 11689,
            "video_name": "DIVERS_BOOK_ETONNE_AD_03_0001"
        },
        {
            "name": "3571",
            "score": "0.948",
            "index": 21,
            "selectedWords": [
                "pensive",
                "r\u00e9fl\u00e9chissante"
            ],
            "freeResponses": [],
            "nbPlayClick": 1,
            "expression": "NEUTRE",
            "csv_id": 3571,
            "video_name": "DIVERS_PARL_AD_05_0004"
        },
        {
            "name": "7660",
            "score": "0.983",
            "index": 22,
            "selectedWords": [
                "pensive",
                "m\u00e9ditative"
            ],
            "freeResponses": [],
            "nbPlayClick": 1,
            "expression": "NEUTRE",
            "csv_id": 7694,
            "video_name": "DIVERS_BOOK_AD_03_0002"
        },
        {
            "name": "1115",
            "score": "0.869",
            "index": 23,
            "selectedWords": [
                "neutre",
                "autre",
                "autre",
                "inexpressive"
            ],
            "freeResponses": [],
            "nbPlayClick": 1,
            "expression": "PENSIF",
            "csv_id": 1115,
            "video_name": "ESTYLE_PENSIF_AD_02_0001"
        },
        {
            "name": "2537",
            "score": "0.928",
            "index": 24,
            "selectedWords": [
                "incr\u00e9dule",
                "autre",
                "autre",
                "autre",
                "songeuse"
            ],
            "freeResponses": [],
            "nbPlayClick": 1,
            "expression": "NEUTRE",
            "csv_id": 2537,
            "video_name": "DIVERS_BOOK_AD_04_0001"
        },
        {
            "name": "4299",
            "score": "0.958",
            "index": 25,
            "selectedWords": [
                "d\u00e9termin\u00e9e",
                "r\u00e9solue"
            ],
            "freeResponses": [],
            "nbPlayClick": 1,
            "expression": "NEUTRE",
            "csv_id": 4299,
            "video_name": "DIVERS_PARL_AD_04_0003"
        },
        {
            "name": "11633",
            "score": "0.996",
            "index": 26,
            "selectedWords": [
                "en col\u00e8re",
                "irrit\u00e9e"
            ],
            "freeResponses": [],
            "nbPlayClick": 1,
            "expression": "COLERE",
            "csv_id": 11670,
            "video_name": "DIVERS_PARL_COLERE_AD_02_0002"
        },
        {
            "name": "7469",
            "score": "0.982",
            "index": 27,
            "selectedWords": [
                "pensive",
                "autre",
                "autre",
                "atone"
            ],
            "freeResponses": [],
            "nbPlayClick": 2,
            "expression": "DESOLE",
            "csv_id": 7503,
            "video_name": "DIVERS_PARL_DESOLE_AD_01_0004"
        },
        {
            "name": "6476",
            "score": "0.977",
            "index": 28,
            "selectedWords": [
                "neutre",
                "s\u00fbre"
            ],
            "freeResponses": [],
            "nbPlayClick": 1,
            "expression": "NEUTRE",
            "csv_id": 6510,
            "video_name": "DIVERS_PARL_AD_04_0002"
        },
        {
            "name": "10305",
            "score": "0.993",
            "index": 29,
            "selectedWords": [
                "irr\u00e9cusable",
                "certaine"
            ],
            "freeResponses": [],
            "nbPlayClick": 1,
            "expression": "NEUTRE",
            "csv_id": 10339,
            "video_name": "DIVERS_PARL_AD_03_0002"
        },
        {
            "name": "2360",
            "score": "0.923",
            "index": 30,
            "selectedWords": [
                "enthousiaste",
                "autre",
                "autre",
                "autre",
                "autre",
                "vivifiante"
            ],
            "freeResponses": [],
            "nbPlayClick": 1,
            "expression": "RECONFORTANT",
            "csv_id": 2360,
            "video_name": "DIVERS_BOOK_RECONFORTANT_AD_01_0002"
        },
        {
            "name": "5700",
            "score": "0.972",
            "index": 31,
            "selectedWords": [
                "enthousiaste",
                "euphorique",
                "z\u00e9l\u00e9e"
            ],
            "freeResponses": [],
            "nbPlayClick": 1,
            "expression": "ESPIEGLE",
            "csv_id": 5734,
            "video_name": "DIVERS_PARL_ESPIEGLE_AD_01_0001"
        },
        {
            "name": "11883",
            "score": "0.997",
            "index": 32,
            "selectedWords": [
                "\u00e9tonn\u00e9e",
                "sinc\u00e8re"
            ],
            "freeResponses": [],
            "nbPlayClick": 1,
            "expression": "NEUTRE",
            "csv_id": 11920,
            "video_name": "DIVERS_PARL_AD_02_0001"
        },
        {
            "name": "10582",
            "score": "0.993",
            "index": 33,
            "selectedWords": [
                "pensive",
                "r\u00e9fl\u00e9chie"
            ],
            "freeResponses": [],
            "nbPlayClick": 1,
            "expression": "NEUTRE",
            "csv_id": 10616,
            "video_name": "DIVERS_PARL_AD_05_0002"
        },
        {
            "name": "11886",
            "score": "0.997",
            "index": 34,
            "selectedWords": [
                "espi\u00e8gle",
                "autre",
                "autre",
                "vivifiante"
            ],
            "freeResponses": [],
            "nbPlayClick": 1,
            "expression": "NEUTRE",
            "csv_id": 11923,
            "video_name": "DIVERS_BOOK_AD_03_0002"
        },
        {
            "name": "9690",
            "score": "0.991",
            "index": 35,
            "selectedWords": [
                "pensive",
                "r\u00e9fl\u00e9chissante"
            ],
            "freeResponses": [],
            "nbPlayClick": 1,
            "expression": "NEUTRE",
            "csv_id": 9724,
            "video_name": "DIVERS_BOOK_AD_01_0002"
        },
        {
            "name": "1823",
            "score": "0.906",
            "index": 36,
            "selectedWords": [
                "pensive",
                "m\u00e9ditative",
                "pensante"
            ],
            "freeResponses": [],
            "nbPlayClick": 1,
            "expression": "RECONFORTANT",
            "csv_id": 1823,
            "video_name": "DIVERS_PARL_RECONFORTANT_AD_02_0001"
        },
        {
            "name": "7137",
            "score": "0.980",
            "index": 37,
            "selectedWords": [
                "\u00e9vidente",
                "manifeste"
            ],
            "freeResponses": [],
            "nbPlayClick": 1,
            "expression": "NEUTRE",
            "csv_id": 7171,
            "video_name": "DIVERS_PARL_AD_04_0004"
        },
        {
            "name": "10282",
            "score": "0.992",
            "index": 38,
            "selectedWords": [
                "en col\u00e8re",
                "en rage",
                "f\u00e2ch\u00e9e"
            ],
            "freeResponses": [],
            "nbPlayClick": 1,
            "expression": "COLERE",
            "csv_id": 10316,
            "video_name": "DIVERS_PARL_COLERE_AD_02_0002"
        },
        {
            "name": "7039",
            "score": "0.980",
            "index": 39,
            "selectedWords": [
                "\u00e9vidente",
                "incontestable"
            ],
            "freeResponses": [],
            "nbPlayClick": 1,
            "expression": "INCREDULE",
            "csv_id": 7073,
            "video_name": "DIVERS_PARL_INCREDULE_AD_02_0003"
        },
        {
            "name": "7425",
            "score": "0.982",
            "index": 40,
            "selectedWords": [
                "neutre",
                "notoire",
                "terne"
            ],
            "freeResponses": [],
            "nbPlayClick": 1,
            "expression": "NEUTRE",
            "csv_id": 7459,
            "video_name": "DIVERS_PARL_AD_06_0003"
        },
        {
            "name": "2409",
            "score": "0.924",
            "index": 41,
            "selectedWords": [
                "suppliante",
                "implorante",
                "pensante",
                "consolatrice"
            ],
            "freeResponses": [],
            "nbPlayClick": 1,
            "expression": "PENSIF",
            "csv_id": 2409,
            "video_name": "DIVERS_PARL_PENSIF_AD_01_0002"
        },
        {
            "name": "6655",
            "score": "0.978",
            "index": 42,
            "selectedWords": [
                "neutre",
                "autre",
                "autre",
                "autre",
                "songeuse"
            ],
            "freeResponses": [],
            "nbPlayClick": 1,
            "expression": "RECONFORTANT",
            "csv_id": 6689,
            "video_name": "DIVERS_BOOK_RECONFORTANT_AD_01_0002"
        },
        {
            "name": "8676",
            "score": "0.987",
            "index": 43,
            "selectedWords": [
                "incr\u00e9dule",
                "autre",
                "implorante"
            ],
            "freeResponses": [],
            "nbPlayClick": 1,
            "expression": "INCREDULE",
            "csv_id": 8710,
            "video_name": "DIVERS_PARL_INCREDULE_AD_01_0001"
        },
        {
            "name": "10301",
            "score": "0.993",
            "index": 44,
            "selectedWords": [
                "neutre",
                "certaine",
                "irr\u00e9cusable"
            ],
            "freeResponses": [],
            "nbPlayClick": 1,
            "expression": "NEUTRE",
            "csv_id": 10335,
            "video_name": "DIVERS_PARL_AD_02_0002"
        },
        {
            "name": "7705",
            "score": "0.983",
            "index": 45,
            "selectedWords": [
                "enthousiaste",
                "autre",
                "autre",
                "autre",
                "apaisante",
                "autre",
                "autre"
            ],
            "freeResponses": [],
            "nbPlayClick": 1,
            "expression": "NEUTRE",
            "csv_id": 7739,
            "video_name": "DIVERS_PARL_AD_05_0001"
        },
        {
            "name": "2442",
            "score": "0.925",
            "index": 46,
            "selectedWords": [
                "enthousiaste",
                "triomphale"
            ],
            "freeResponses": [],
            "nbPlayClick": 1,
            "expression": "NEUTRE",
            "csv_id": 2442,
            "video_name": "DIVERS_PARL_AD_04_0003"
        },
        {
            "name": "12069",
            "score": "0.997",
            "index": 47,
            "selectedWords": [
                "suppliante",
                "implorante",
                "pensante"
            ],
            "freeResponses": [],
            "nbPlayClick": 1,
            "expression": "NEUTRE",
            "csv_id": 12106,
            "video_name": "DIVERS_BOOK_AD_01_0001"
        },
        {
            "name": "4704",
            "score": "0.963",
            "index": 48,
            "selectedWords": [
                "\u00e9tonn\u00e9e",
                "autre",
                "autre",
                "\u00e9bahie"
            ],
            "freeResponses": [],
            "nbPlayClick": 1,
            "expression": "NEUTRE",
            "csv_id": 4738,
            "video_name": "DIVERS_BOOK_AD_01_0002"
        },
        {
            "name": "8748",
            "score": "0.987",
            "index": 49,
            "selectedWords": [
                "incr\u00e9dule",
                "autre",
                "autre",
                "\u00e9bahie"
            ],
            "freeResponses": [],
            "nbPlayClick": 1,
            "expression": "PENSIF",
            "csv_id": 8782,
            "video_name": "DIVERS_BOOK_PENSIF_AD_01_0003"
        },
        {
            "name": "4826",
            "score": "0.964",
            "index": 50,
            "selectedWords": [
                "pensive",
                "r\u00e9fl\u00e9chie"
            ],
            "freeResponses": [],
            "nbPlayClick": 1,
            "expression": "NEUTRE",
            "csv_id": 4860,
            "video_name": "DIVERS_PARL_AD_03_0002"
        },
        {
            "name": "10957",
            "score": "0.994",
            "index": 51,
            "selectedWords": [
                "nette",
                "ferme"
            ],
            "freeResponses": [],
            "nbPlayClick": 1,
            "expression": "NEUTRE",
            "csv_id": 10991,
            "video_name": "DIVERS_PARL_AD_02_0001"
        },
        {
            "name": "5890",
            "score": "0.973",
            "index": 52,
            "selectedWords": [
                "r\u00e9confortante",
                "encourageante"
            ],
            "freeResponses": [],
            "nbPlayClick": 1,
            "expression": "NEUTRE",
            "csv_id": 5924,
            "video_name": "DIVERS_PARL_AD_03_0001"
        },
        {
            "name": "10416",
            "score": "0.993",
            "index": 53,
            "selectedWords": [
                "neutre",
                "limpide",
                "froide"
            ],
            "freeResponses": [],
            "nbPlayClick": 1,
            "expression": "NEUTRE",
            "csv_id": 10450,
            "video_name": "DIVERS_PARL_AD_02_0003"
        },
        {
            "name": "465",
            "score": "0.799",
            "index": 54,
            "selectedWords": [
                "d\u00e9sol\u00e9e",
                "nette"
            ],
            "freeResponses": [],
            "nbPlayClick": 1,
            "expression": "DESOLE",
            "csv_id": 465,
            "video_name": "ESTYLE_DESOLE_AD_02_0001"
        },
        {
            "name": "8269",
            "score": "0.985",
            "index": 55,
            "selectedWords": [
                "neutre",
                "s\u00fbre"
            ],
            "freeResponses": [],
            "nbPlayClick": 1,
            "expression": "NEUTRE",
            "csv_id": 8303,
            "video_name": "DIVERS_PARL_AD_04_0002"
        },
        {
            "name": "11879",
            "score": "0.997",
            "index": 56,
            "selectedWords": [
                "pensive",
                "autre",
                "imp\u00e9n\u00e9trable"
            ],
            "freeResponses": [],
            "nbPlayClick": 1,
            "expression": "NEUTRE",
            "csv_id": 11916,
            "video_name": "DIVERS_PARL_AD_01_0005"
        },
        {
            "name": "6624",
            "score": "0.978",
            "index": 57,
            "selectedWords": [
                "enthousiaste",
                "autre",
                "implorante"
            ],
            "freeResponses": [],
            "nbPlayClick": 1,
            "expression": "EVIDENCE",
            "csv_id": 6658,
            "video_name": "DIVERS_BOOK_EVIDENCE_AD_01_0002"
        },
        {
            "name": "9716",
            "score": "0.991",
            "index": 58,
            "selectedWords": [
                "enthousiaste",
                "euphorique",
                "excit\u00e9e"
            ],
            "freeResponses": [],
            "nbPlayClick": 1,
            "expression": "RECONFORTANT",
            "csv_id": 9750,
            "video_name": "DIVERS_BOOK_RECONFORTANT_AD_01_0002"
        },
        {
            "name": "1254",
            "score": "0.879",
            "index": 59,
            "selectedWords": [
                "froide",
                "autre",
                "implorante"
            ],
            "freeResponses": [],
            "nbPlayClick": 1,
            "expression": "EVIDENCE",
            "csv_id": 1254,
            "video_name": "DIVERS_PARL_EVIDENCE_AD_02_0002"
        }
    ],
    "training": [
        {
            "name": "77",
            "score": "0.639",
            "index": 0,
            "selectedWords": [
                "neutre",
                "s\u00fbre",
                "autre",
                "autre",
                "autre",
                "autre"
            ],
            "freeResponses": [],
            "nbPlayClick": 3,
            "expression": "NEUTRE"
        }
    ],
    "filenameDate": "2023-09-02_23-44"
}