{
    "user": {
        "isProlific": true,
        "id": "64d50850441c94cc654a8fc4",
        "session": "663f6d4316f7bacf9bb680a4",
        "study": "64ef977375f88e4e1174dce0"
    },
    "userAgent": "Mozilla/5.0 (Macintosh; Intel Mac OS X 10_15_7) AppleWebKit/605.1.15 (KHTML, like Gecko) Version/17.4.1 Safari/605.1.15",
    "landingDate": "2024-05-11T13:06:33.581Z",
    "startDate": "2024-05-11T13:19:32.569Z",
    "endDate": "2024-05-11T13:52:26.537Z",
    "reviews": [
        {
            "name": "12372",
            "score": "0.999",
            "index": 0,
            "selectedWords": [
                "\u00e9tonn\u00e9e",
                "accabl\u00e9e"
            ],
            "freeResponses": [],
            "nbPlayClick": 1,
            "expression": "SUPPLIANT",
            "csv_id": 12409,
            "video_name": "DIVERS_BOOK_SUPPLIANT_AD_01_0002"
        },
        {
            "name": "1418",
            "score": "0.887",
            "index": 1,
            "selectedWords": [
                "d\u00e9sol\u00e9e",
                "d\u00e9sol\u00e9e"
            ],
            "freeResponses": [],
            "nbPlayClick": 3,
            "expression": "NEUTRE",
            "csv_id": 1418,
            "video_name": "DIVERS_BOOK_AD_01_0001"
        },
        {
            "name": "7958",
            "score": "0.984",
            "index": 2,
            "selectedWords": [
                "d\u00e9termin\u00e9e",
                "r\u00e9solue"
            ],
            "freeResponses": [],
            "nbPlayClick": 1,
            "expression": "NEUTRE",
            "csv_id": 7992,
            "video_name": "DIVERS_BOOK_AD_01_0001"
        },
        {
            "name": "10202",
            "score": "0.992",
            "index": 3,
            "selectedWords": [
                "enthousiaste",
                "apaisante"
            ],
            "freeResponses": [],
            "nbPlayClick": 1,
            "expression": "NEUTRE",
            "csv_id": 10236,
            "video_name": "DIVERS_PARL_AD_01_0006"
        },
        {
            "name": "6293",
            "score": "0.976",
            "index": 4,
            "selectedWords": [
                "neutre",
                "ardente"
            ],
            "freeResponses": [],
            "nbPlayClick": 1,
            "expression": "SUPPLIANT",
            "csv_id": 6327,
            "video_name": "DIVERS_PARL_SUPPLIANT_AD_02_0001"
        },
        {
            "name": "10112",
            "score": "0.992",
            "index": 5,
            "selectedWords": [
                "pensive",
                "songeuse"
            ],
            "freeResponses": [],
            "nbPlayClick": 2,
            "expression": "NEUTRE",
            "csv_id": 10146,
            "video_name": "DIVERS_BOOK_AD_04_0002"
        },
        {
            "name": "10075",
            "score": "0.992",
            "index": 6,
            "selectedWords": [
                "autre",
                "inexpressive",
                "fade"
            ],
            "freeResponses": [],
            "nbPlayClick": 1,
            "expression": "NEUTRE",
            "csv_id": 10109,
            "video_name": "DIVERS_BOOK_AD_01_0001"
        },
        {
            "name": "3679",
            "score": "0.950",
            "index": 7,
            "selectedWords": [
                "neutre",
                "limpide"
            ],
            "freeResponses": [],
            "nbPlayClick": 1,
            "expression": "NEUTRE",
            "csv_id": 3679,
            "video_name": "DIVERS_PARL_AD_06_0003"
        },
        {
            "name": "8546",
            "score": "0.987",
            "index": 8,
            "selectedWords": [
                "d\u00e9termin\u00e9e",
                "manifeste"
            ],
            "freeResponses": [],
            "nbPlayClick": 1,
            "expression": "NEUTRE",
            "csv_id": 8580,
            "video_name": "DIVERS_BOOK_AD_04_0002"
        },
        {
            "name": "12337",
            "score": "0.998",
            "index": 9,
            "selectedWords": [
                "\u00e9tonn\u00e9e",
                "r\u00e9fl\u00e9chie"
            ],
            "freeResponses": [],
            "nbPlayClick": 1,
            "expression": "ETONNE",
            "csv_id": 12374,
            "video_name": "DIVERS_BOOK_ETONNE_AD_01_0002"
        },
        {
            "name": "8468",
            "score": "0.986",
            "index": 10,
            "selectedWords": [
                "en col\u00e8re",
                "\u00e9nerv\u00e9e"
            ],
            "freeResponses": [],
            "nbPlayClick": 2,
            "expression": "EVIDENCE",
            "csv_id": 8502,
            "video_name": "DIVERS_PARL_EVIDENCE_AD_02_0002"
        },
        {
            "name": "11635",
            "score": "0.996",
            "index": 11,
            "selectedWords": [
                "r\u00e9confortante",
                "encourageante"
            ],
            "freeResponses": [],
            "nbPlayClick": 1,
            "expression": "NEUTRE",
            "csv_id": 11672,
            "video_name": "DIVERS_PARL_AD_04_0003"
        },
        {
            "name": "9762",
            "score": "0.991",
            "index": 12,
            "selectedWords": [
                "\u00e9tonn\u00e9e",
                "absente"
            ],
            "freeResponses": [],
            "nbPlayClick": 1,
            "expression": "PENSIF",
            "csv_id": 9796,
            "video_name": "DIVERS_BOOK_PENSIF_AD_03_0002"
        },
        {
            "name": "9177",
            "score": "0.989",
            "index": 13,
            "selectedWords": [
                "enthousiaste",
                "coquine"
            ],
            "freeResponses": [],
            "nbPlayClick": 1,
            "expression": "ENTHOUSIASTE",
            "csv_id": 9211,
            "video_name": "DIVERS_PARL_ENTHOUSIASTE_AD_01_0003"
        },
        {
            "name": "11343",
            "score": "0.995",
            "index": 14,
            "selectedWords": [
                "pensive",
                "r\u00e9fl\u00e9chie"
            ],
            "freeResponses": [],
            "nbPlayClick": 3,
            "expression": "NEUTRE",
            "csv_id": 11377,
            "video_name": "DIVERS_PARL_AD_02_0004"
        },
        {
            "name": "9632",
            "score": "0.990",
            "index": 15,
            "selectedWords": [
                "neutre",
                "patente"
            ],
            "freeResponses": [],
            "nbPlayClick": 2,
            "expression": "DESOLE",
            "csv_id": 9666,
            "video_name": "DIVERS_BOOK_DESOLE_AD_03_0002"
        },
        {
            "name": "4437",
            "score": "0.960",
            "index": 16,
            "selectedWords": [
                "incr\u00e9dule",
                "dubitative"
            ],
            "freeResponses": [],
            "nbPlayClick": 5,
            "expression": "EVIDENCE",
            "csv_id": 4471,
            "video_name": "DIVERS_PARL_EVIDENCE_AD_01_0001"
        },
        {
            "name": "4330",
            "score": "0.958",
            "index": 17,
            "selectedWords": [
                "enthousiaste",
                "coquine"
            ],
            "freeResponses": [],
            "nbPlayClick": 2,
            "expression": "RECONFORTANT",
            "csv_id": 4330,
            "video_name": "DIVERS_BOOK_RECONFORTANT_AD_03_0002"
        },
        {
            "name": "5491",
            "score": "0.970",
            "index": 18,
            "selectedWords": [
                "neutre",
                "notoire"
            ],
            "freeResponses": [],
            "nbPlayClick": 2,
            "expression": "NEUTRE",
            "csv_id": 5525,
            "video_name": "DIVERS_PARL_AD_04_0002"
        },
        {
            "name": "10873",
            "score": "0.994",
            "index": 19,
            "selectedWords": [
                "en col\u00e8re",
                "en rage"
            ],
            "freeResponses": [],
            "nbPlayClick": 3,
            "expression": "COLERE",
            "csv_id": 10907,
            "video_name": "DIVERS_PARL_COLERE_AD_01_0004"
        },
        {
            "name": "4305",
            "score": "0.958",
            "index": 20,
            "selectedWords": [
                "autre",
                "inexpressive",
                "froide"
            ],
            "freeResponses": [],
            "nbPlayClick": 2,
            "expression": "RECONFORTANT",
            "csv_id": 4305,
            "video_name": "DIVERS_BOOK_RECONFORTANT_AD_01_0004"
        },
        {
            "name": "10222",
            "score": "0.992",
            "index": 21,
            "selectedWords": [
                "d\u00e9sol\u00e9e",
                "absente"
            ],
            "freeResponses": [],
            "nbPlayClick": 3,
            "expression": "NEUTRE",
            "csv_id": 10256,
            "video_name": "DIVERS_PARL_AD_01_0005"
        },
        {
            "name": "7806",
            "score": "0.983",
            "index": 22,
            "selectedWords": [
                "d\u00e9sol\u00e9e",
                "nette"
            ],
            "freeResponses": [],
            "nbPlayClick": 3,
            "expression": "NEUTRE",
            "csv_id": 7840,
            "video_name": "DIVERS_BOOK_AD_01_0002"
        },
        {
            "name": "2553",
            "score": "0.928",
            "index": 23,
            "selectedWords": [
                "autre",
                "implorante",
                "autre",
                "atone"
            ],
            "freeResponses": [],
            "nbPlayClick": 4,
            "expression": "NEUTRE",
            "csv_id": 2553,
            "video_name": "DIVERS_PARL_AD_01_0004"
        },
        {
            "name": "9921",
            "score": "0.991",
            "index": 24,
            "selectedWords": [
                "neutre",
                "s\u00fbre"
            ],
            "freeResponses": [],
            "nbPlayClick": 3,
            "expression": "NEUTRE",
            "csv_id": 9955,
            "video_name": "DIVERS_PARL_AD_02_0003"
        },
        {
            "name": "3847",
            "score": "0.952",
            "index": 25,
            "selectedWords": [
                "d\u00e9sol\u00e9e",
                "nette"
            ],
            "freeResponses": [],
            "nbPlayClick": 4,
            "expression": "RECONFORTANT",
            "csv_id": 3847,
            "video_name": "DIVERS_PARL_RECONFORTANT_AD_02_0001"
        },
        {
            "name": "10562",
            "score": "0.993",
            "index": 26,
            "selectedWords": [
                "enthousiaste",
                "triomphale"
            ],
            "freeResponses": [],
            "nbPlayClick": 1,
            "expression": "ENTHOUSIASTE",
            "csv_id": 10596,
            "video_name": "DIVERS_PARL_ENTHOUSIASTE_AD_02_0001"
        },
        {
            "name": "11051",
            "score": "0.994",
            "index": 27,
            "selectedWords": [
                "neutre",
                "limpide"
            ],
            "freeResponses": [],
            "nbPlayClick": 2,
            "expression": "NEUTRE",
            "csv_id": 11085,
            "video_name": "DIVERS_PARL_AD_02_0004"
        },
        {
            "name": "2706",
            "score": "0.932",
            "index": 28,
            "selectedWords": [
                "en col\u00e8re",
                "en rage"
            ],
            "freeResponses": [],
            "nbPlayClick": 1,
            "expression": "COLERE",
            "csv_id": 2706,
            "video_name": "DIVERS_PARL_COLERE_AD_01_0004"
        },
        {
            "name": "1056",
            "score": "0.865",
            "index": 29,
            "selectedWords": [
                "d\u00e9termin\u00e9e",
                "agit\u00e9e"
            ],
            "freeResponses": [],
            "nbPlayClick": 1,
            "expression": "DETERMINE",
            "csv_id": 1056,
            "video_name": "DIVERS_PARL_DETERMINE_AD_01_0004"
        },
        {
            "name": "10771",
            "score": "0.994",
            "index": 30,
            "selectedWords": [
                "\u00e9tonn\u00e9e",
                "accabl\u00e9e"
            ],
            "freeResponses": [],
            "nbPlayClick": 3,
            "expression": "ETONNE",
            "csv_id": 10805,
            "video_name": "DIVERS_BOOK_ETONNE_AD_01_0004"
        },
        {
            "name": "6412",
            "score": "0.976",
            "index": 31,
            "selectedWords": [
                "\u00e9tonn\u00e9e",
                "agressive"
            ],
            "freeResponses": [],
            "nbPlayClick": 2,
            "expression": "INCREDULE",
            "csv_id": 6446,
            "video_name": "DIVERS_BOOK_INCREDULE_AD_01_0001"
        },
        {
            "name": "5829",
            "score": "0.973",
            "index": 32,
            "selectedWords": [
                "neutre",
                "notoire"
            ],
            "freeResponses": [],
            "nbPlayClick": 2,
            "expression": "NEUTRE",
            "csv_id": 5863,
            "video_name": "DIVERS_BOOK_AD_03_0001"
        },
        {
            "name": "2658",
            "score": "0.931",
            "index": 33,
            "selectedWords": [
                "en col\u00e8re",
                "en rage"
            ],
            "freeResponses": [],
            "nbPlayClick": 1,
            "expression": "COLERE",
            "csv_id": 2658,
            "video_name": "DIVERS_PARL_COLERE_AD_02_0002"
        },
        {
            "name": "11044",
            "score": "0.994",
            "index": 34,
            "selectedWords": [
                "\u00e9vidente",
                "incontestable"
            ],
            "freeResponses": [],
            "nbPlayClick": 1,
            "expression": "EVIDENCE",
            "csv_id": 11078,
            "video_name": "DIVERS_PARL_EVIDENCE_AD_02_0002"
        },
        {
            "name": "6716",
            "score": "0.978",
            "index": 35,
            "selectedWords": [
                "neutre",
                "certaine"
            ],
            "freeResponses": [],
            "nbPlayClick": 1,
            "expression": "NEUTRE",
            "csv_id": 6750,
            "video_name": "DIVERS_PARL_AD_01_0004"
        },
        {
            "name": "9648",
            "score": "0.990",
            "index": 36,
            "selectedWords": [
                "enthousiaste",
                "\u00e9loquente"
            ],
            "freeResponses": [],
            "nbPlayClick": 1,
            "expression": "ESPIEGLE",
            "csv_id": 9682,
            "video_name": "DIVERS_BOOK_ESPIEGLE_AD_03_0001"
        },
        {
            "name": "7264",
            "score": "0.981",
            "index": 37,
            "selectedWords": [
                "autre",
                "inexpressive",
                "atone"
            ],
            "freeResponses": [],
            "nbPlayClick": 1,
            "expression": "NEUTRE",
            "csv_id": 7298,
            "video_name": "DIVERS_PARL_AD_03_0003"
        },
        {
            "name": "4242",
            "score": "0.957",
            "index": 38,
            "selectedWords": [
                "enthousiaste",
                "autre",
                "apaisante"
            ],
            "freeResponses": [],
            "nbPlayClick": 1,
            "expression": "ENTHOUSIASTE",
            "csv_id": 4242,
            "video_name": "DIVERS_BOOK_ENTHOUSIASTE_AD_01_0001"
        },
        {
            "name": "11863",
            "score": "0.997",
            "index": 39,
            "selectedWords": [
                "\u00e9vidente",
                "prouv\u00e9e"
            ],
            "freeResponses": [],
            "nbPlayClick": 1,
            "expression": "NEUTRE",
            "csv_id": 11900,
            "video_name": "DIVERS_BOOK_AD_03_0002"
        },
        {
            "name": "7412",
            "score": "0.982",
            "index": 40,
            "selectedWords": [
                "neutre",
                "notoire"
            ],
            "freeResponses": [],
            "nbPlayClick": 1,
            "expression": "NEUTRE",
            "csv_id": 7446,
            "video_name": "DIVERS_PARL_AD_01_0004"
        },
        {
            "name": "11613",
            "score": "0.996",
            "index": 41,
            "selectedWords": [
                "enthousiaste",
                "autre",
                "autre",
                "malicieuse"
            ],
            "freeResponses": [],
            "nbPlayClick": 1,
            "expression": "ESPIEGLE",
            "csv_id": 11650,
            "video_name": "DIVERS_PARL_ESPIEGLE_AD_01_0001"
        },
        {
            "name": "6136",
            "score": "0.975",
            "index": 42,
            "selectedWords": [
                "en col\u00e8re",
                "irrit\u00e9e"
            ],
            "freeResponses": [],
            "nbPlayClick": 1,
            "expression": "SUPPLIANT",
            "csv_id": 6170,
            "video_name": "DIVERS_BOOK_SUPPLIANT_AD_01_0002"
        },
        {
            "name": "7537",
            "score": "0.982",
            "index": 43,
            "selectedWords": [
                "espi\u00e8gle",
                "d\u00e9lur\u00e9e"
            ],
            "freeResponses": [],
            "nbPlayClick": 1,
            "expression": "NEUTRE",
            "csv_id": 7571,
            "video_name": "DIVERS_BOOK_AD_04_0002"
        },
        {
            "name": "5467",
            "score": "0.970",
            "index": 44,
            "selectedWords": [
                "enthousiaste",
                "autre",
                "autre",
                "autre",
                "rus\u00e9e"
            ],
            "freeResponses": [],
            "nbPlayClick": 1,
            "expression": "ENTHOUSIASTE",
            "csv_id": 5501,
            "video_name": "DIVERS_PARL_ENTHOUSIASTE_AD_02_0001"
        },
        {
            "name": "11089",
            "score": "0.995",
            "index": 45,
            "selectedWords": [
                "neutre",
                "limpide"
            ],
            "freeResponses": [],
            "nbPlayClick": 1,
            "expression": "NEUTRE",
            "csv_id": 11123,
            "video_name": "DIVERS_PARL_AD_02_0002"
        },
        {
            "name": "10633",
            "score": "0.993",
            "index": 46,
            "selectedWords": [
                "d\u00e9sol\u00e9e",
                "nette"
            ],
            "freeResponses": [],
            "nbPlayClick": 1,
            "expression": "EVIDENCE",
            "csv_id": 10667,
            "video_name": "DIVERS_PARL_EVIDENCE_AD_02_0002"
        },
        {
            "name": "9413",
            "score": "0.990",
            "index": 47,
            "selectedWords": [
                "espi\u00e8gle",
                "d\u00e9lur\u00e9e"
            ],
            "freeResponses": [],
            "nbPlayClick": 1,
            "expression": "NEUTRE",
            "csv_id": 9447,
            "video_name": "DIVERS_BOOK_AD_01_0002"
        },
        {
            "name": "7179",
            "score": "0.980",
            "index": 48,
            "selectedWords": [
                "enthousiaste",
                "autre",
                "implorante"
            ],
            "freeResponses": [],
            "nbPlayClick": 1,
            "expression": "RECONFORTANT",
            "csv_id": 7213,
            "video_name": "DIVERS_BOOK_RECONFORTANT_AD_01_0004"
        },
        {
            "name": "2060",
            "score": "0.914",
            "index": 49,
            "selectedWords": [
                "d\u00e9termin\u00e9e",
                "r\u00e9solue"
            ],
            "freeResponses": [],
            "nbPlayClick": 1,
            "expression": "EVIDENCE",
            "csv_id": 2060,
            "video_name": "DIVERS_PARL_EVIDENCE_AD_02_0002"
        },
        {
            "name": "5827",
            "score": "0.973",
            "index": 50,
            "selectedWords": [
                "en col\u00e8re",
                "en rage"
            ],
            "freeResponses": [],
            "nbPlayClick": 1,
            "expression": "COLERE",
            "csv_id": 5861,
            "video_name": "DIVERS_PARL_COLERE_AD_01_0003"
        },
        {
            "name": "5812",
            "score": "0.973",
            "index": 51,
            "selectedWords": [
                "neutre",
                "tonique"
            ],
            "freeResponses": [],
            "nbPlayClick": 1,
            "expression": "EVIDENCE",
            "csv_id": 5846,
            "video_name": "DIVERS_BOOK_EVIDENCE_AD_01_0002"
        },
        {
            "name": "5538",
            "score": "0.970",
            "index": 52,
            "selectedWords": [
                "\u00e9tonn\u00e9e",
                "r\u00e9fl\u00e9chie"
            ],
            "freeResponses": [],
            "nbPlayClick": 1,
            "expression": "NEUTRE",
            "csv_id": 5572,
            "video_name": "DIVERS_BOOK_AD_01_0001"
        },
        {
            "name": "5053",
            "score": "0.966",
            "index": 53,
            "selectedWords": [
                "suppliante",
                "mendiante"
            ],
            "freeResponses": [],
            "nbPlayClick": 1,
            "expression": "RECONFORTANT",
            "csv_id": 5087,
            "video_name": "DIVERS_PARL_RECONFORTANT_AD_02_0001"
        },
        {
            "name": "4531",
            "score": "0.961",
            "index": 54,
            "selectedWords": [
                "\u00e9vidente",
                "prouv\u00e9e"
            ],
            "freeResponses": [],
            "nbPlayClick": 1,
            "expression": "NEUTRE",
            "csv_id": 4565,
            "video_name": "DIVERS_PARL_AD_06_0004"
        },
        {
            "name": "6423",
            "score": "0.976",
            "index": 55,
            "selectedWords": [
                "neutre",
                "s\u00fbre"
            ],
            "freeResponses": [],
            "nbPlayClick": 3,
            "expression": "NEUTRE",
            "csv_id": 6457,
            "video_name": "DIVERS_PARL_AD_04_0003"
        },
        {
            "name": "12405",
            "score": "0.999",
            "index": 56,
            "selectedWords": [
                "pensive",
                "songeuse"
            ],
            "freeResponses": [],
            "nbPlayClick": 2,
            "expression": "NEUTRE",
            "csv_id": 12442,
            "video_name": "DIVERS_BOOK_AD_03_0002"
        },
        {
            "name": "3624",
            "score": "0.949",
            "index": 57,
            "selectedWords": [
                "d\u00e9sol\u00e9e",
                "r\u00e9fl\u00e9chie"
            ],
            "freeResponses": [],
            "nbPlayClick": 2,
            "expression": "SUPPLIANT",
            "csv_id": 3624,
            "video_name": "DIVERS_PARL_SUPPLIANT_AD_02_0002"
        },
        {
            "name": "11902",
            "score": "0.997",
            "index": 58,
            "selectedWords": [
                "\u00e9tonn\u00e9e",
                "sinc\u00e8re"
            ],
            "freeResponses": [],
            "nbPlayClick": 2,
            "expression": "NEUTRE",
            "csv_id": 11939,
            "video_name": "DIVERS_BOOK_AD_04_0001"
        },
        {
            "name": "5437",
            "score": "0.969",
            "index": 59,
            "selectedWords": [
                "\u00e9vidente",
                "prouv\u00e9e"
            ],
            "freeResponses": [],
            "nbPlayClick": 1,
            "expression": "NEUTRE",
            "csv_id": 5471,
            "video_name": "DIVERS_PARL_AD_05_0003"
        }
    ],
    "training": [
        {
            "name": "77",
            "score": "0.639",
            "index": 0,
            "selectedWords": [
                "neutre",
                "confuse"
            ],
            "freeResponses": [],
            "nbPlayClick": 3,
            "expression": "NEUTRE"
        }
    ],
    "filenameDate": "2024-05-11_9-52"
}