{
    "user": {
        "isProlific": true,
        "id": "6543ae157e223cd25f03c164",
        "session": "656e2a88a95909bb5306465d",
        "study": "64ef977375f88e4e1174dce0"
    },
    "userAgent": "Mozilla/5.0 (Windows NT 10.0; Win64; x64) AppleWebKit/537.36 (KHTML, like Gecko) Chrome/119.0.0.0 Safari/537.36",
    "landingDate": "2023-12-04T19:37:59.216Z",
    "startDate": "2023-12-04T19:39:35.991Z",
    "endDate": "2023-12-04T20:21:37.400Z",
    "reviews": [
        {
            "name": "7538",
            "score": "0.982",
            "index": 0,
            "selectedWords": [
                "d\u00e9termin\u00e9e",
                "r\u00e9fl\u00e9chie",
                "s\u00fbre",
                "ardente",
                "autre",
                "autre",
                "autre",
                "stimulante"
            ],
            "freeResponses": [],
            "nbPlayClick": 3,
            "response": "irrit",
            "expression": "NEUTRE",
            "csv_id": 7572,
            "video_name": "DIVERS_PARL_AD_03_0003"
        },
        {
            "name": "2104",
            "score": "0.915",
            "index": 1,
            "selectedWords": [
                "d\u00e9termin\u00e9e",
                "manifeste",
                "convaincue",
                "indiscutable",
                "in\u00e9branlable",
                "certaine",
                "pr\u00e9occup\u00e9e",
                "contrari\u00e9e",
                "autre",
                "autre",
                "implorante"
            ],
            "freeResponses": [],
            "nbPlayClick": 2,
            "response": "im",
            "expression": "COLERE",
            "csv_id": 2104,
            "video_name": "DIVERS_PARL_COLERE_AD_02_0002"
        },
        {
            "name": "9400",
            "score": "0.990",
            "index": 2,
            "selectedWords": [
                "en col\u00e8re",
                "irrit\u00e9e",
                "m\u00e9contente",
                "indign\u00e9e",
                "autre",
                "autre",
                "autre",
                "in\u00e9branlable"
            ],
            "freeResponses": [],
            "nbPlayClick": 3,
            "expression": "COLERE",
            "csv_id": 9434,
            "video_name": "DIVERS_PARL_COLERE_AD_01_0003"
        },
        {
            "name": "11345",
            "score": "0.995",
            "index": 3,
            "selectedWords": [
                "d\u00e9sol\u00e9e",
                "r\u00e9fl\u00e9chie",
                "s\u00fbre",
                "autre",
                "autre",
                "autre",
                "autre",
                "opini\u00e2tre",
                "sceptique",
                "convaincue"
            ],
            "freeResponses": [],
            "nbPlayClick": 3,
            "expression": "NEUTRE",
            "csv_id": 11379,
            "video_name": "DIVERS_PARL_AD_04_0002"
        },
        {
            "name": "4356",
            "score": "0.958",
            "index": 4,
            "selectedWords": [
                "en col\u00e8re",
                "\u00e9nerv\u00e9e",
                "f\u00e2ch\u00e9e",
                "indign\u00e9e",
                "sid\u00e9r\u00e9e",
                "autre",
                "implorante"
            ],
            "freeResponses": [],
            "nbPlayClick": 1,
            "expression": "SUPPLIANT",
            "csv_id": 4356,
            "video_name": "DIVERS_PARL_SUPPLIANT_AD_02_0002"
        },
        {
            "name": "5434",
            "score": "0.969",
            "index": 5,
            "selectedWords": [
                "r\u00e9confortante",
                "apaisante",
                "r\u00e9fl\u00e9chissante",
                "autre",
                "autre",
                "autre",
                "inexpressive",
                "autre",
                "autre"
            ],
            "freeResponses": [],
            "nbPlayClick": 1,
            "expression": "INCREDULE",
            "csv_id": 5468,
            "video_name": "DIVERS_PARL_INCREDULE_AD_02_0003"
        },
        {
            "name": "8379",
            "score": "0.986",
            "index": 6,
            "selectedWords": [
                "d\u00e9sol\u00e9e",
                "r\u00e9fl\u00e9chie",
                "autre",
                "autre"
            ],
            "freeResponses": [],
            "nbPlayClick": 2,
            "expression": "DESOLE",
            "csv_id": 8413,
            "video_name": "DIVERS_PARL_DESOLE_AD_01_0004"
        },
        {
            "name": "8579",
            "score": "0.987",
            "index": 7,
            "selectedWords": [
                "\u00e9tonn\u00e9e",
                "rageuse",
                "agit\u00e9e",
                "convaincue"
            ],
            "freeResponses": [],
            "nbPlayClick": 1,
            "expression": "ETONNE",
            "csv_id": 8613,
            "video_name": "DIVERS_PARL_ETONNE_AD_01_0001"
        },
        {
            "name": "9857",
            "score": "0.991",
            "index": 8,
            "selectedWords": [
                "neutre",
                "notoire",
                "manifeste"
            ],
            "freeResponses": [],
            "nbPlayClick": 1,
            "expression": "NEUTRE",
            "csv_id": 9891,
            "video_name": "DIVERS_PARL_AD_03_0003"
        },
        {
            "name": "1829",
            "score": "0.906",
            "index": 9,
            "selectedWords": [
                "neutre",
                "tonique",
                "\u00e9loquente",
                "autre"
            ],
            "freeResponses": [],
            "nbPlayClick": 4,
            "expression": "NEUTRE",
            "csv_id": 1829,
            "video_name": "DIVERS_BOOK_AD_03_0001"
        },
        {
            "name": "9713",
            "score": "0.991",
            "index": 10,
            "selectedWords": [
                "\u00e9vidente",
                "indubitable",
                "limpide"
            ],
            "freeResponses": [],
            "nbPlayClick": 1,
            "expression": "NEUTRE",
            "csv_id": 9747,
            "video_name": "DIVERS_PARL_AD_04_0003"
        },
        {
            "name": "7388",
            "score": "0.981",
            "index": 11,
            "selectedWords": [
                "enthousiaste",
                "\u00e9loquente",
                "bouillonnante",
                "passionn\u00e9e"
            ],
            "freeResponses": [],
            "nbPlayClick": 1,
            "expression": "EVIDENCE",
            "csv_id": 7422,
            "video_name": "DIVERS_PARL_EVIDENCE_AD_02_0002"
        },
        {
            "name": "2991",
            "score": "0.938",
            "index": 12,
            "selectedWords": [
                "r\u00e9confortante",
                "apaisante",
                "consolante"
            ],
            "freeResponses": [],
            "nbPlayClick": 1,
            "expression": "NEUTRE",
            "csv_id": 2991,
            "video_name": "DIVERS_BOOK_AD_04_0002"
        },
        {
            "name": "8673",
            "score": "0.987",
            "index": 13,
            "selectedWords": [
                "d\u00e9termin\u00e9e",
                "manifeste",
                "convaincue"
            ],
            "freeResponses": [],
            "nbPlayClick": 1,
            "expression": "ETONNE",
            "csv_id": 8707,
            "video_name": "DIVERS_BOOK_ETONNE_AD_01_0004"
        },
        {
            "name": "4028",
            "score": "0.955",
            "index": 14,
            "selectedWords": [
                "\u00e9tonn\u00e9e",
                "autre",
                "dubitative",
                "autre",
                "autre",
                "autre",
                "autre",
                "autre",
                "autre",
                "interloqu\u00e9e"
            ],
            "freeResponses": [],
            "nbPlayClick": 3,
            "expression": "ETONNE",
            "csv_id": 4028,
            "video_name": "DIVERS_BOOK_ETONNE_AD_01_0002"
        },
        {
            "name": "803",
            "score": "0.843",
            "index": 15,
            "selectedWords": [
                "suppliante",
                "prostern\u00e9e",
                "malheureuse"
            ],
            "freeResponses": [],
            "nbPlayClick": 1,
            "expression": "SUPPLIANT",
            "csv_id": 803,
            "video_name": "DIVERS_PARL_SUPPLIANT_AD_02_0001"
        },
        {
            "name": "8208",
            "score": "0.985",
            "index": 16,
            "selectedWords": [
                "neutre",
                "autre",
                "autre",
                "inexpressive",
                "fade",
                "d\u00e9pit\u00e9e"
            ],
            "freeResponses": [],
            "nbPlayClick": 1,
            "expression": "NEUTRE",
            "csv_id": 8242,
            "video_name": "DIVERS_BOOK_AD_01_0001"
        },
        {
            "name": "9449",
            "score": "0.990",
            "index": 17,
            "selectedWords": [
                "\u00e9vidente",
                "autre",
                "autre",
                "autre",
                "songeuse"
            ],
            "freeResponses": [],
            "nbPlayClick": 1,
            "expression": "NEUTRE",
            "csv_id": 9483,
            "video_name": "DIVERS_BOOK_AD_04_0001"
        },
        {
            "name": "10940",
            "score": "0.994",
            "index": 18,
            "selectedWords": [
                "d\u00e9termin\u00e9e",
                "r\u00e9solue",
                "passionn\u00e9e",
                "\u00e9loquente"
            ],
            "freeResponses": [],
            "nbPlayClick": 1,
            "expression": "NEUTRE",
            "csv_id": 10974,
            "video_name": "DIVERS_PARL_AD_02_0001"
        },
        {
            "name": "11374",
            "score": "0.995",
            "index": 19,
            "selectedWords": [
                "enthousiaste",
                "autre",
                "\u00e9berlu\u00e9e",
                "abasourdie",
                "d\u00e9sorient\u00e9e"
            ],
            "freeResponses": [],
            "nbPlayClick": 2,
            "expression": "SUPPLIANT",
            "csv_id": 11408,
            "video_name": "DIVERS_BOOK_SUPPLIANT_AD_01_0002"
        },
        {
            "name": "8700",
            "score": "0.987",
            "index": 20,
            "selectedWords": [
                "d\u00e9termin\u00e9e",
                "autre",
                "autre",
                "autre",
                "autre",
                "autre",
                "prostern\u00e9e",
                "autre",
                "autre",
                "autre",
                "m\u00e9contente",
                "irrit\u00e9e"
            ],
            "freeResponses": [],
            "nbPlayClick": 1,
            "expression": "NEUTRE",
            "csv_id": 8734,
            "video_name": "DIVERS_PARL_AD_04_0001"
        },
        {
            "name": "11760",
            "score": "0.996",
            "index": 21,
            "selectedWords": [
                "incr\u00e9dule",
                "m\u00e9fiante",
                "en rogne",
                "m\u00e9contente"
            ],
            "freeResponses": [],
            "nbPlayClick": 1,
            "expression": "NEUTRE",
            "csv_id": 11797,
            "video_name": "DIVERS_PARL_AD_03_0001"
        },
        {
            "name": "8638",
            "score": "0.987",
            "index": 22,
            "selectedWords": [
                "r\u00e9confortante",
                "stimulante",
                "autre",
                "autre",
                "autre",
                "autre",
                "autre",
                "autre",
                "autre",
                "autre",
                "autre",
                "autre",
                "autre",
                "autre",
                "autre",
                "\u00e9nergique"
            ],
            "freeResponses": [],
            "nbPlayClick": 3,
            "expression": "NEUTRE",
            "csv_id": 8672,
            "video_name": "DIVERS_BOOK_AD_04_0001"
        },
        {
            "name": "4923",
            "score": "0.965",
            "index": 23,
            "selectedWords": [
                "d\u00e9termin\u00e9e",
                "manifeste",
                "autre",
                "autre",
                "autre",
                "autre",
                "autre",
                "m\u00e9fiante"
            ],
            "freeResponses": [],
            "nbPlayClick": 7,
            "expression": "INCREDULE",
            "csv_id": 4957,
            "video_name": "DIVERS_PARL_INCREDULE_AD_01_0001"
        },
        {
            "name": "4070",
            "score": "0.955",
            "index": 24,
            "selectedWords": [
                "autre",
                "autre",
                "autre",
                "autre",
                "autre",
                "autre",
                "autre",
                "autre",
                "narquoise",
                "taquine",
                "autre",
                "autre",
                "autre",
                "autre",
                "autre",
                "autre",
                "emball\u00e9e"
            ],
            "freeResponses": [],
            "nbPlayClick": 1,
            "expression": "ESPIEGLE",
            "csv_id": 4070,
            "video_name": "DIVERS_PARL_ESPIEGLE_AD_01_0001"
        },
        {
            "name": "3805",
            "score": "0.951",
            "index": 25,
            "selectedWords": [
                "neutre",
                "s\u00fbre",
                "nette",
                "autre"
            ],
            "freeResponses": [],
            "nbPlayClick": 2,
            "expression": "NEUTRE",
            "csv_id": 3805,
            "video_name": "DIVERS_PARL_AD_05_0002"
        },
        {
            "name": "4542",
            "score": "0.961",
            "index": 26,
            "selectedWords": [
                "pensive",
                "m\u00e9ditative",
                "pensante"
            ],
            "freeResponses": [],
            "nbPlayClick": 1,
            "expression": "PENSIF",
            "csv_id": 4576,
            "video_name": "ESTYLE_PENSIF_AD_02_0001"
        },
        {
            "name": "5356",
            "score": "0.969",
            "index": 27,
            "selectedWords": [
                "ferme",
                "autre",
                "autre",
                "autre",
                "autre",
                "ennuy\u00e9e",
                "autre",
                "autre",
                "d\u00e9sol\u00e9e"
            ],
            "freeResponses": [],
            "nbPlayClick": 2,
            "response": "d\u00e9so",
            "expression": "NEUTRE",
            "csv_id": 5390,
            "video_name": "DIVERS_PARL_AD_04_0001"
        },
        {
            "name": "11064",
            "score": "0.994",
            "index": 28,
            "selectedWords": [
                "neutre",
                "s\u00fbre",
                "r\u00e9fl\u00e9chie",
                "autre",
                "dubitative"
            ],
            "freeResponses": [],
            "nbPlayClick": 1,
            "expression": "NEUTRE",
            "csv_id": 11098,
            "video_name": "DIVERS_PARL_AD_02_0002"
        },
        {
            "name": "2852",
            "score": "0.935",
            "index": 29,
            "selectedWords": [
                "autre",
                "d\u00e9sorient\u00e9e",
                "contrari\u00e9e",
                "attrist\u00e9e",
                "pein\u00e9e"
            ],
            "freeResponses": [],
            "nbPlayClick": 1,
            "response": "d\u00e9so",
            "expression": "SUPPLIANT",
            "csv_id": 2852,
            "video_name": "DIVERS_PARL_SUPPLIANT_AD_02_0001"
        },
        {
            "name": "442",
            "score": "0.795",
            "index": 30,
            "selectedWords": [
                "en col\u00e8re",
                "irrit\u00e9e",
                "agit\u00e9e"
            ],
            "freeResponses": [],
            "nbPlayClick": 1,
            "expression": "NEUTRE",
            "csv_id": 442,
            "video_name": "DIVERS_PARL_AD_06_0002"
        },
        {
            "name": "2855",
            "score": "0.935",
            "index": 31,
            "selectedWords": [
                "d\u00e9sol\u00e9e",
                "autre",
                "autre",
                "autre",
                "autre",
                "attrist\u00e9e",
                "autre",
                "songeuse"
            ],
            "freeResponses": [],
            "nbPlayClick": 1,
            "expression": "SUPPLIANT",
            "csv_id": 2855,
            "video_name": "DIVERS_PARL_SUPPLIANT_AD_02_0002"
        },
        {
            "name": "3232",
            "score": "0.942",
            "index": 32,
            "selectedWords": [
                "autre",
                "\u00e9berlu\u00e9e",
                "estomaqu\u00e9e",
                "sid\u00e9r\u00e9e"
            ],
            "freeResponses": [],
            "nbPlayClick": 1,
            "expression": "SUPPLIANT",
            "csv_id": 3232,
            "video_name": "DIVERS_BOOK_SUPPLIANT_AD_01_0004"
        },
        {
            "name": "11962",
            "score": "0.997",
            "index": 33,
            "selectedWords": [
                "neutre",
                "ennuy\u00e9e",
                "absente"
            ],
            "freeResponses": [],
            "nbPlayClick": 1,
            "response": "abs",
            "expression": "PENSIF",
            "csv_id": 11999,
            "video_name": "DIVERS_PARL_PENSIF_AD_01_0002"
        },
        {
            "name": "9484",
            "score": "0.990",
            "index": 34,
            "selectedWords": [
                "neutre",
                "autre",
                "autre",
                "inexpressive",
                "terne"
            ],
            "freeResponses": [],
            "nbPlayClick": 1,
            "expression": "NEUTRE",
            "csv_id": 9518,
            "video_name": "DIVERS_BOOK_AD_03_0001"
        },
        {
            "name": "8147",
            "score": "0.985",
            "index": 35,
            "selectedWords": [
                "incr\u00e9dule",
                "m\u00e9fiante",
                "irrit\u00e9e"
            ],
            "freeResponses": [],
            "nbPlayClick": 1,
            "response": "irri",
            "expression": "NEUTRE",
            "csv_id": 8181,
            "video_name": "DIVERS_PARL_AD_01_0006"
        },
        {
            "name": "4844",
            "score": "0.964",
            "index": 36,
            "selectedWords": [
                "en col\u00e8re",
                "courrouc\u00e9e",
                "indign\u00e9e"
            ],
            "freeResponses": [],
            "nbPlayClick": 1,
            "expression": "COLERE",
            "csv_id": 4878,
            "video_name": "DIVERS_PARL_COLERE_AD_02_0002"
        },
        {
            "name": "7491",
            "score": "0.982",
            "index": 37,
            "selectedWords": [
                "incr\u00e9dule",
                "ennuy\u00e9e",
                "autre",
                "inexpressive"
            ],
            "freeResponses": [],
            "nbPlayClick": 3,
            "response": "ennuy",
            "expression": "NEUTRE",
            "csv_id": 7525,
            "video_name": "DIVERS_PARL_AD_04_0003"
        },
        {
            "name": "4261",
            "score": "0.957",
            "index": 38,
            "selectedWords": [
                "d\u00e9sol\u00e9e",
                "autre",
                "autre",
                "atone",
                "terne"
            ],
            "freeResponses": [],
            "nbPlayClick": 1,
            "expression": "DESOLE",
            "csv_id": 4261,
            "video_name": "DIVERS_BOOK_DESOLE_AD_03_0002"
        },
        {
            "name": "3166",
            "score": "0.941",
            "index": 39,
            "selectedWords": [
                "espi\u00e8gle",
                "fac\u00e9tieuse",
                "rus\u00e9e"
            ],
            "freeResponses": [],
            "nbPlayClick": 1,
            "expression": "EVIDENCE",
            "csv_id": 3166,
            "video_name": "DIVERS_PARL_EVIDENCE_AD_02_0002"
        },
        {
            "name": "9085",
            "score": "0.989",
            "index": 40,
            "selectedWords": [
                "\u00e9vidente",
                "autre",
                "autre",
                "inexpressive",
                "fade"
            ],
            "freeResponses": [],
            "nbPlayClick": 2,
            "expression": "NEUTRE",
            "csv_id": 9119,
            "video_name": "DIVERS_BOOK_AD_01_0002"
        },
        {
            "name": "4347",
            "score": "0.958",
            "index": 41,
            "selectedWords": [
                "d\u00e9pit\u00e9e",
                "irrit\u00e9e"
            ],
            "freeResponses": [],
            "nbPlayClick": 1,
            "response": "irrit",
            "expression": "SUPPLIANT",
            "csv_id": 4347,
            "video_name": "DIVERS_PARL_SUPPLIANT_AD_02_0002"
        },
        {
            "name": "6010",
            "score": "0.974",
            "index": 42,
            "selectedWords": [
                "d\u00e9termin\u00e9e",
                "r\u00e9fl\u00e9chie",
                "infaillible"
            ],
            "freeResponses": [],
            "nbPlayClick": 1,
            "expression": "NEUTRE",
            "csv_id": 6044,
            "video_name": "DIVERS_BOOK_AD_01_0001"
        },
        {
            "name": "11915",
            "score": "0.997",
            "index": 43,
            "selectedWords": [
                "\u00e9tonn\u00e9e",
                "autre",
                "dubitative",
                "sceptique"
            ],
            "freeResponses": [],
            "nbPlayClick": 1,
            "expression": "ETONNE",
            "csv_id": 11952,
            "video_name": "DIVERS_PARL_ETONNE_AD_01_0001"
        },
        {
            "name": "5624",
            "score": "0.971",
            "index": 44,
            "selectedWords": [
                "pensive",
                "songeuse",
                "pr\u00e9occup\u00e9e",
                "contrari\u00e9e"
            ],
            "freeResponses": [],
            "nbPlayClick": 1,
            "expression": "DESOLE",
            "csv_id": 5658,
            "video_name": "DIVERS_BOOK_DESOLE_AD_03_0002"
        },
        {
            "name": "5937",
            "score": "0.973",
            "index": 45,
            "selectedWords": [
                "d\u00e9sol\u00e9e",
                "manifeste",
                "autre",
                "implorante"
            ],
            "freeResponses": [],
            "nbPlayClick": 1,
            "expression": "RECONFORTANT",
            "csv_id": 5971,
            "video_name": "DIVERS_PARL_RECONFORTANT_AD_02_0001"
        },
        {
            "name": "8822",
            "score": "0.988",
            "index": 46,
            "selectedWords": [
                "neutre",
                "limpide",
                "officielle"
            ],
            "freeResponses": [],
            "nbPlayClick": 1,
            "expression": "NEUTRE",
            "csv_id": 8856,
            "video_name": "DIVERS_PARL_AD_02_0004"
        },
        {
            "name": "3007",
            "score": "0.939",
            "index": 47,
            "selectedWords": [
                "pensive",
                "r\u00e9fl\u00e9chissante",
                "pr\u00e9occup\u00e9e",
                "contrari\u00e9e",
                "emb\u00eat\u00e9e"
            ],
            "freeResponses": [],
            "nbPlayClick": 1,
            "expression": "DESOLE",
            "csv_id": 3007,
            "video_name": "DIVERS_PARL_DESOLE_AD_01_0004"
        },
        {
            "name": "3643",
            "score": "0.949",
            "index": 48,
            "selectedWords": [
                "enthousiaste",
                "triomphale",
                "excit\u00e9e",
                "autre",
                "autre"
            ],
            "freeResponses": [],
            "nbPlayClick": 1,
            "expression": "ESPIEGLE",
            "csv_id": 3643,
            "video_name": "DIVERS_PARL_ESPIEGLE_AD_01_0001"
        },
        {
            "name": "7030",
            "score": "0.980",
            "index": 49,
            "selectedWords": [
                "enthousiaste",
                "euphorique",
                "autre",
                "autre",
                "autre",
                "apaisante"
            ],
            "freeResponses": [],
            "nbPlayClick": 1,
            "expression": "RECONFORTANT",
            "csv_id": 7064,
            "video_name": "DIVERS_BOOK_RECONFORTANT_AD_03_0002"
        },
        {
            "name": "2130",
            "score": "0.916",
            "index": 50,
            "selectedWords": [
                "\u00e9vidente",
                "autre",
                "attrist\u00e9e",
                "contrari\u00e9e"
            ],
            "freeResponses": [],
            "nbPlayClick": 1,
            "expression": "DESOLE",
            "csv_id": 2130,
            "video_name": "DIVERS_PARL_DESOLE_AD_01_0004"
        },
        {
            "name": "8752",
            "score": "0.987",
            "index": 51,
            "selectedWords": [
                "en col\u00e8re",
                "\u00e9nerv\u00e9e",
                "\u00e9nergique",
                "notoire"
            ],
            "freeResponses": [],
            "nbPlayClick": 1,
            "expression": "SUPPLIANT",
            "csv_id": 8786,
            "video_name": "DIVERS_BOOK_SUPPLIANT_AD_01_0002"
        },
        {
            "name": "7316",
            "score": "0.981",
            "index": 52,
            "selectedWords": [
                "\u00e9vidente",
                "incontestable",
                "officielle",
                "s\u00fbre"
            ],
            "freeResponses": [],
            "nbPlayClick": 1,
            "expression": "NEUTRE",
            "csv_id": 7350,
            "video_name": "DIVERS_PARL_AD_05_0003"
        },
        {
            "name": "4876",
            "score": "0.964",
            "index": 53,
            "selectedWords": [
                "d\u00e9sol\u00e9e",
                "absente",
                "navr\u00e9e"
            ],
            "freeResponses": [],
            "nbPlayClick": 1,
            "expression": "SUPPLIANT",
            "csv_id": 4910,
            "video_name": "DIVERS_PARL_SUPPLIANT_AD_02_0001"
        },
        {
            "name": "2030",
            "score": "0.913",
            "index": 54,
            "selectedWords": [
                "neutre",
                "s\u00fbre",
                "prouv\u00e9e",
                "officielle"
            ],
            "freeResponses": [],
            "nbPlayClick": 1,
            "expression": "NEUTRE",
            "csv_id": 2030,
            "video_name": "DIVERS_PARL_AD_06_0004"
        },
        {
            "name": "11174",
            "score": "0.995",
            "index": 55,
            "selectedWords": [
                "pensive",
                "r\u00e9fl\u00e9chissante",
                "pr\u00e9occup\u00e9e"
            ],
            "freeResponses": [],
            "nbPlayClick": 1,
            "expression": "NEUTRE",
            "csv_id": 11208,
            "video_name": "DIVERS_PARL_AD_04_0002"
        },
        {
            "name": "2079",
            "score": "0.914",
            "index": 56,
            "selectedWords": [
                "\u00e9tonn\u00e9e",
                "autre",
                "\u00e9berlu\u00e9e",
                "h\u00e9b\u00e9t\u00e9e"
            ],
            "freeResponses": [],
            "nbPlayClick": 1,
            "expression": "ETONNE",
            "csv_id": 2079,
            "video_name": "DIVERS_BOOK_ETONNE_AD_01_0002"
        },
        {
            "name": "9752",
            "score": "0.991",
            "index": 57,
            "selectedWords": [
                "en col\u00e8re",
                "en rogne",
                "m\u00e9contente",
                "indign\u00e9e"
            ],
            "freeResponses": [],
            "nbPlayClick": 1,
            "expression": "COLERE",
            "csv_id": 9786,
            "video_name": "DIVERS_PARL_COLERE_AD_02_0002"
        },
        {
            "name": "7575",
            "score": "0.982",
            "index": 58,
            "selectedWords": [
                "neutre",
                "s\u00fbre",
                "r\u00e9fl\u00e9chie"
            ],
            "freeResponses": [],
            "nbPlayClick": 1,
            "expression": "NEUTRE",
            "csv_id": 7609,
            "video_name": "DIVERS_BOOK_AD_01_0002"
        },
        {
            "name": "6072",
            "score": "0.974",
            "index": 59,
            "selectedWords": [
                "incr\u00e9dule",
                "m\u00e9fiante",
                "sceptique",
                "opini\u00e2tre"
            ],
            "freeResponses": [],
            "nbPlayClick": 1,
            "expression": "INCREDULE",
            "csv_id": 6106,
            "video_name": "DIVERS_PARL_INCREDULE_AD_02_0003"
        }
    ],
    "training": [
        {
            "name": "77",
            "score": "0.639",
            "index": 0,
            "selectedWords": [
                "neutre",
                "certaine",
                "nette",
                "ferme",
                "autre",
                "autre",
                "autre"
            ],
            "freeResponses": [],
            "nbPlayClick": 1,
            "expression": "NEUTRE"
        }
    ],
    "filenameDate": "2023-12-04_15-21"
}