{
    "user": {
        "isProlific": true,
        "id": "655621193f6d8628057fbf2d",
        "session": "65750a94684c3a5d37ed4475",
        "study": "64ef977375f88e4e1174dce0"
    },
    "userAgent": "Mozilla/5.0 (Windows NT 10.0; Win64; x64) AppleWebKit/537.36 (KHTML, like Gecko) Chrome/120.0.0.0 Safari/537.36",
    "landingDate": "2023-12-10T00:47:38.179Z",
    "startDate": "2023-12-10T00:48:40.863Z",
    "endDate": "2023-12-10T01:22:17.121Z",
    "reviews": [
        {
            "name": "5863",
            "score": "0.973",
            "index": 0,
            "selectedWords": [
                "autre",
                "fac\u00e9tieuse",
                "narquoise"
            ],
            "freeResponses": [],
            "nbPlayClick": 1,
            "expression": "NEUTRE",
            "csv_id": 5897,
            "video_name": "DIVERS_BOOK_AD_03_0002"
        },
        {
            "name": "9390",
            "score": "0.990",
            "index": 1,
            "selectedWords": [
                "autre",
                "autre",
                "autre",
                "in\u00e9branlable",
                "indubitable"
            ],
            "freeResponses": [],
            "nbPlayClick": 2,
            "expression": "NEUTRE",
            "csv_id": 9424,
            "video_name": "DIVERS_BOOK_AD_04_0001"
        },
        {
            "name": "6339",
            "score": "0.976",
            "index": 2,
            "selectedWords": [
                "suppliante",
                "mendiante"
            ],
            "freeResponses": [],
            "nbPlayClick": 2,
            "expression": "SUPPLIANT",
            "csv_id": 6373,
            "video_name": "DIVERS_PARL_SUPPLIANT_AD_02_0001"
        },
        {
            "name": "4206",
            "score": "0.957",
            "index": 3,
            "selectedWords": [
                "d\u00e9sol\u00e9e",
                "autre",
                "autre",
                "autre",
                "autre",
                "autre",
                "autre",
                "autre",
                "interloqu\u00e9e"
            ],
            "freeResponses": [],
            "nbPlayClick": 2,
            "expression": "RECONFORTANT",
            "csv_id": 4206,
            "video_name": "DIVERS_PARL_RECONFORTANT_AD_02_0001"
        },
        {
            "name": "12036",
            "score": "0.997",
            "index": 4,
            "selectedWords": [
                "autre",
                "autre",
                "autre",
                "malicieuse",
                "finaude"
            ],
            "freeResponses": [],
            "nbPlayClick": 1,
            "expression": "NEUTRE",
            "csv_id": 12073,
            "video_name": "DIVERS_PARL_AD_01_0006"
        },
        {
            "name": "2207",
            "score": "0.918",
            "index": 5,
            "selectedWords": [
                "\u00e9vidente",
                "irr\u00e9cusable"
            ],
            "freeResponses": [],
            "nbPlayClick": 1,
            "expression": "NEUTRE",
            "csv_id": 2207,
            "video_name": "DIVERS_PARL_AD_04_0002"
        },
        {
            "name": "9367",
            "score": "0.990",
            "index": 6,
            "selectedWords": [
                "espi\u00e8gle",
                "autre",
                "autre",
                "autre",
                "autre",
                "autre",
                "autre",
                "autre",
                "convaincue"
            ],
            "freeResponses": [],
            "nbPlayClick": 2,
            "expression": "ESPIEGLE",
            "csv_id": 9401,
            "video_name": "DIVERS_BOOK_ESPIEGLE_AD_03_0001"
        },
        {
            "name": "8006",
            "score": "0.984",
            "index": 7,
            "selectedWords": [
                "neutre",
                "ennuy\u00e9e"
            ],
            "freeResponses": [],
            "nbPlayClick": 1,
            "response": "ennu",
            "expression": "NEUTRE",
            "csv_id": 8040,
            "video_name": "DIVERS_PARL_AD_01_0002"
        },
        {
            "name": "8824",
            "score": "0.988",
            "index": 8,
            "selectedWords": [
                "autre",
                "autre",
                "autre",
                "autre",
                "autre",
                "opini\u00e2tre",
                "\u00e9nerv\u00e9e"
            ],
            "freeResponses": [],
            "nbPlayClick": 2,
            "response": "\u00e9ner",
            "expression": "EVIDENCE",
            "csv_id": 8858,
            "video_name": "DIVERS_PARL_EVIDENCE_AD_02_0002"
        },
        {
            "name": "10173",
            "score": "0.992",
            "index": 9,
            "selectedWords": [
                "neutre",
                "autre",
                "autre",
                "autre",
                "autre",
                "fac\u00e9tieuse"
            ],
            "freeResponses": [],
            "nbPlayClick": 2,
            "response": "fac",
            "expression": "NEUTRE",
            "csv_id": 10207,
            "video_name": "DIVERS_BOOK_AD_03_0001"
        },
        {
            "name": "10704",
            "score": "0.994",
            "index": 10,
            "selectedWords": [
                "neutre",
                "limpide"
            ],
            "freeResponses": [],
            "nbPlayClick": 2,
            "response": "d\u00e9sol\u00e9e",
            "expression": "NEUTRE",
            "csv_id": 10738,
            "video_name": "DIVERS_BOOK_AD_01_0001"
        },
        {
            "name": "11288",
            "score": "0.995",
            "index": 11,
            "selectedWords": [
                "songeuse",
                "r\u00e9fl\u00e9chie"
            ],
            "freeResponses": [],
            "nbPlayClick": 1,
            "response": "son",
            "expression": "PENSIF",
            "csv_id": 11322,
            "video_name": "DIVERS_PARL_PENSIF_AD_01_0002"
        },
        {
            "name": "7837",
            "score": "0.984",
            "index": 12,
            "selectedWords": [
                "convaincue",
                "infaillible"
            ],
            "freeResponses": [],
            "nbPlayClick": 2,
            "response": "conv",
            "expression": "DETERMINE",
            "csv_id": 7871,
            "video_name": "DIVERS_PARL_DETERMINE_AD_01_0004"
        },
        {
            "name": "5931",
            "score": "0.973",
            "index": 13,
            "selectedWords": [
                "neutre",
                "s\u00fbre"
            ],
            "freeResponses": [],
            "nbPlayClick": 1,
            "response": "neu",
            "expression": "DETERMINE",
            "csv_id": 5965,
            "video_name": "DIVERS_PARL_DETERMINE_AD_01_0002"
        },
        {
            "name": "11073",
            "score": "0.995",
            "index": 14,
            "selectedWords": [
                "neutre",
                "\u00e9tonn\u00e9e"
            ],
            "freeResponses": [],
            "nbPlayClick": 2,
            "response": "\u00e9t",
            "expression": "NEUTRE",
            "csv_id": 11107,
            "video_name": "DIVERS_BOOK_AD_01_0002"
        },
        {
            "name": "11067",
            "score": "0.994",
            "index": 15,
            "selectedWords": [
                "enthousiaste",
                "euphorique"
            ],
            "freeResponses": [],
            "nbPlayClick": 2,
            "response": "",
            "expression": "ENTHOUSIASTE",
            "csv_id": 11101,
            "video_name": "DIVERS_PARL_ENTHOUSIASTE_AD_01_0003"
        },
        {
            "name": "7761",
            "score": "0.983",
            "index": 16,
            "selectedWords": [
                "coquine",
                "fac\u00e9tieuse"
            ],
            "freeResponses": [],
            "nbPlayClick": 1,
            "response": "fac\u00e9ti",
            "expression": "ESPIEGLE",
            "csv_id": 7795,
            "video_name": "DIVERS_PARL_ESPIEGLE_AD_01_0001"
        },
        {
            "name": "848",
            "score": "0.847",
            "index": 17,
            "selectedWords": [
                "neutre",
                "certaine"
            ],
            "freeResponses": [],
            "nbPlayClick": 1,
            "response": "",
            "expression": "NEUTRE",
            "csv_id": 848,
            "video_name": "DIVERS_PARL_AD_04_0002"
        },
        {
            "name": "5832",
            "score": "0.973",
            "index": 18,
            "selectedWords": [
                "d\u00e9termin\u00e9e",
                "r\u00e9fl\u00e9chie"
            ],
            "freeResponses": [],
            "nbPlayClick": 1,
            "expression": "DESOLE",
            "csv_id": 5866,
            "video_name": "DIVERS_PARL_DESOLE_AD_02_0002"
        },
        {
            "name": "8459",
            "score": "0.986",
            "index": 19,
            "selectedWords": [
                "neutre",
                "s\u00fbre"
            ],
            "freeResponses": [],
            "nbPlayClick": 1,
            "response": "neutre",
            "expression": "NEUTRE",
            "csv_id": 8493,
            "video_name": "DIVERS_PARL_AD_05_0001"
        },
        {
            "name": "11538",
            "score": "0.996",
            "index": 20,
            "selectedWords": [
                "larmoyante",
                "prostern\u00e9e"
            ],
            "freeResponses": [],
            "nbPlayClick": 1,
            "response": "larm",
            "expression": "SUPPLIANT",
            "csv_id": 11575,
            "video_name": "DIVERS_BOOK_SUPPLIANT_AD_01_0004"
        },
        {
            "name": "7399",
            "score": "0.981",
            "index": 21,
            "selectedWords": [
                "abasourdie",
                "\u00e9bahie"
            ],
            "freeResponses": [],
            "nbPlayClick": 2,
            "response": "",
            "expression": "NEUTRE",
            "csv_id": 7433,
            "video_name": "DIVERS_PARL_AD_01_0005"
        },
        {
            "name": "2050",
            "score": "0.913",
            "index": 22,
            "selectedWords": [
                "d\u00e9termin\u00e9e",
                "r\u00e9solue"
            ],
            "freeResponses": [],
            "nbPlayClick": 1,
            "response": "s\u00fbr",
            "expression": "NEUTRE",
            "csv_id": 2050,
            "video_name": "DIVERS_PARL_AD_01_0001"
        },
        {
            "name": "8698",
            "score": "0.987",
            "index": 23,
            "selectedWords": [
                "effar\u00e9e",
                "s\u00fbre"
            ],
            "freeResponses": [],
            "nbPlayClick": 2,
            "response": "s\u00fbre",
            "expression": "EVIDENCE",
            "csv_id": 8732,
            "video_name": "DIVERS_BOOK_EVIDENCE_AD_01_0002"
        },
        {
            "name": "11835",
            "score": "0.997",
            "index": 24,
            "selectedWords": [
                "r\u00e9confortante",
                "autre",
                "implorante"
            ],
            "freeResponses": [],
            "nbPlayClick": 3,
            "response": "",
            "expression": "ETONNE",
            "csv_id": 11872,
            "video_name": "DIVERS_BOOK_ETONNE_AD_03_0001"
        },
        {
            "name": "7397",
            "score": "0.981",
            "index": 25,
            "selectedWords": [
                "neutre",
                "certaine"
            ],
            "freeResponses": [],
            "nbPlayClick": 1,
            "response": "neutre",
            "expression": "NEUTRE",
            "csv_id": 7431,
            "video_name": "DIVERS_PARL_AD_02_0001"
        },
        {
            "name": "3887",
            "score": "0.953",
            "index": 26,
            "selectedWords": [
                "suppliante",
                "finaude"
            ],
            "freeResponses": [],
            "nbPlayClick": 1,
            "response": "finau",
            "expression": "RECONFORTANT",
            "csv_id": 3887,
            "video_name": "DIVERS_PARL_RECONFORTANT_AD_02_0001"
        },
        {
            "name": "3572",
            "score": "0.948",
            "index": 27,
            "selectedWords": [
                "neutre",
                "opini\u00e2tre"
            ],
            "freeResponses": [],
            "nbPlayClick": 2,
            "response": "opi",
            "expression": "INCREDULE",
            "csv_id": 3572,
            "video_name": "DIVERS_PARL_INCREDULE_AD_02_0003"
        },
        {
            "name": "4370",
            "score": "0.959",
            "index": 28,
            "selectedWords": [
                "autre",
                "autre",
                "autre",
                "autre",
                "autre",
                "songeuse",
                "pensante"
            ],
            "freeResponses": [],
            "nbPlayClick": 2,
            "response": "",
            "expression": "NEUTRE",
            "csv_id": 4370,
            "video_name": "DIVERS_PARL_AD_05_0002"
        },
        {
            "name": "4015",
            "score": "0.954",
            "index": 29,
            "selectedWords": [
                "courrouc\u00e9e",
                "indign\u00e9e"
            ],
            "freeResponses": [],
            "nbPlayClick": 1,
            "response": "ind",
            "expression": "COLERE",
            "csv_id": 4015,
            "video_name": "DIVERS_PARL_COLERE_AD_01_0003"
        },
        {
            "name": "1922",
            "score": "0.909",
            "index": 30,
            "selectedWords": [
                "\u00e9vidente",
                "indubitable"
            ],
            "freeResponses": [],
            "nbPlayClick": 1,
            "expression": "INCREDULE",
            "csv_id": 1922,
            "video_name": "DIVERS_PARL_INCREDULE_AD_01_0001"
        },
        {
            "name": "4394",
            "score": "0.959",
            "index": 31,
            "selectedWords": [
                "m\u00e9ditative",
                "passionn\u00e9e"
            ],
            "freeResponses": [],
            "nbPlayClick": 1,
            "response": "m\u00e9di",
            "expression": "RECONFORTANT",
            "csv_id": 4394,
            "video_name": "DIVERS_PARL_RECONFORTANT_AD_02_0001"
        },
        {
            "name": "1343",
            "score": "0.883",
            "index": 32,
            "selectedWords": [
                "courrouc\u00e9e",
                "irrit\u00e9e"
            ],
            "freeResponses": [],
            "nbPlayClick": 1,
            "response": "courro",
            "expression": "NEUTRE",
            "csv_id": 1343,
            "video_name": "DIVERS_PARL_AD_06_0002"
        },
        {
            "name": "5075",
            "score": "0.966",
            "index": 33,
            "selectedWords": [
                "autre",
                "autre",
                "autre",
                "autre",
                "autre",
                "autre",
                "larmoyante",
                "autre",
                "narquoise"
            ],
            "freeResponses": [],
            "nbPlayClick": 1,
            "expression": "EVIDENCE",
            "csv_id": 5109,
            "video_name": "DIVERS_PARL_EVIDENCE_AD_01_0001"
        },
        {
            "name": "11271",
            "score": "0.995",
            "index": 34,
            "selectedWords": [
                "incr\u00e9dule",
                "dubitative"
            ],
            "freeResponses": [],
            "nbPlayClick": 1,
            "response": "inc",
            "expression": "DESOLE",
            "csv_id": 11305,
            "video_name": "DIVERS_BOOK_DESOLE_AD_03_0002"
        },
        {
            "name": "10097",
            "score": "0.992",
            "index": 35,
            "selectedWords": [
                "enthousiaste",
                "autre",
                "autre",
                "\u00e9bahie"
            ],
            "freeResponses": [],
            "nbPlayClick": 2,
            "response": "",
            "expression": "NEUTRE",
            "csv_id": 10131,
            "video_name": "DIVERS_PARL_AD_01_0004"
        },
        {
            "name": "6020",
            "score": "0.974",
            "index": 36,
            "selectedWords": [
                "neutre",
                "consolante"
            ],
            "freeResponses": [],
            "nbPlayClick": 1,
            "response": "con",
            "expression": "NEUTRE",
            "csv_id": 6054,
            "video_name": "DIVERS_PARL_AD_06_0002"
        },
        {
            "name": "8689",
            "score": "0.987",
            "index": 37,
            "selectedWords": [
                "autre",
                "autre",
                "autre",
                "attrist\u00e9e",
                "navr\u00e9e"
            ],
            "freeResponses": [],
            "nbPlayClick": 1,
            "expression": "NEUTRE",
            "csv_id": 8723,
            "video_name": "DIVERS_BOOK_AD_01_0001"
        },
        {
            "name": "3527",
            "score": "0.947",
            "index": 38,
            "selectedWords": [
                "neutre",
                "certaine"
            ],
            "freeResponses": [],
            "nbPlayClick": 1,
            "response": "neut",
            "expression": "NEUTRE",
            "csv_id": 3527,
            "video_name": "DIVERS_PARL_AD_04_0001"
        },
        {
            "name": "8326",
            "score": "0.986",
            "index": 39,
            "selectedWords": [
                "mendiante",
                "larmoyante"
            ],
            "freeResponses": [],
            "nbPlayClick": 1,
            "response": "mend",
            "expression": "SUPPLIANT",
            "csv_id": 8360,
            "video_name": "DIVERS_PARL_SUPPLIANT_AD_02_0001"
        },
        {
            "name": "8026",
            "score": "0.984",
            "index": 40,
            "selectedWords": [
                "officielle",
                "autre",
                "autre",
                "autre",
                "autre",
                "opini\u00e2tre"
            ],
            "freeResponses": [],
            "nbPlayClick": 2,
            "response": "fi",
            "expression": "NEUTRE",
            "csv_id": 8060,
            "video_name": "DIVERS_PARL_AD_02_0001"
        },
        {
            "name": "5864",
            "score": "0.973",
            "index": 41,
            "selectedWords": [
                "convaincue",
                "infaillible"
            ],
            "freeResponses": [],
            "nbPlayClick": 1,
            "response": "conva",
            "expression": "NEUTRE",
            "csv_id": 5898,
            "video_name": "DIVERS_PARL_AD_06_0004"
        },
        {
            "name": "7414",
            "score": "0.982",
            "index": 42,
            "selectedWords": [
                "espi\u00e8gle",
                "taquine"
            ],
            "freeResponses": [],
            "nbPlayClick": 1,
            "expression": "NEUTRE",
            "csv_id": 7448,
            "video_name": "DIVERS_PARL_AD_02_0003"
        },
        {
            "name": "5099",
            "score": "0.967",
            "index": 43,
            "selectedWords": [
                "finaude",
                "narquoise"
            ],
            "freeResponses": [],
            "nbPlayClick": 1,
            "response": "nar",
            "expression": "ENTHOUSIASTE",
            "csv_id": 5133,
            "video_name": "DIVERS_PARL_ENTHOUSIASTE_AD_02_0001"
        },
        {
            "name": "8410",
            "score": "0.986",
            "index": 44,
            "selectedWords": [
                "neutre",
                "limpide"
            ],
            "freeResponses": [],
            "nbPlayClick": 1,
            "response": "neutre",
            "expression": "NEUTRE",
            "csv_id": 8444,
            "video_name": "DIVERS_BOOK_AD_01_0002"
        },
        {
            "name": "296",
            "score": "0.761",
            "index": 45,
            "selectedWords": [
                "apaisante",
                "consolante"
            ],
            "freeResponses": [],
            "nbPlayClick": 1,
            "response": "ap",
            "expression": "DESOLE",
            "csv_id": 296,
            "video_name": "ESTYLE_DESOLE_AD_02_0001"
        },
        {
            "name": "9182",
            "score": "0.989",
            "index": 46,
            "selectedWords": [
                "autre",
                "autre",
                "autre",
                "autre",
                "encourageante",
                "triomphale"
            ],
            "freeResponses": [],
            "nbPlayClick": 1,
            "response": "",
            "expression": "NEUTRE",
            "csv_id": 9216,
            "video_name": "DIVERS_PARL_AD_01_0004"
        },
        {
            "name": "7692",
            "score": "0.983",
            "index": 47,
            "selectedWords": [
                "neutre",
                "irrit\u00e9e"
            ],
            "freeResponses": [],
            "nbPlayClick": 1,
            "response": "irri",
            "expression": "NEUTRE",
            "csv_id": 7726,
            "video_name": "DIVERS_PARL_AD_01_0002"
        },
        {
            "name": "6659",
            "score": "0.978",
            "index": 48,
            "selectedWords": [
                "neutre",
                "officielle"
            ],
            "freeResponses": [],
            "nbPlayClick": 2,
            "response": "off",
            "expression": "NEUTRE",
            "csv_id": 6693,
            "video_name": "DIVERS_PARL_AD_03_0003"
        },
        {
            "name": "934",
            "score": "0.855",
            "index": 49,
            "selectedWords": [
                "espi\u00e8gle",
                "ardente"
            ],
            "freeResponses": [],
            "nbPlayClick": 1,
            "expression": "INCREDULE",
            "csv_id": 934,
            "video_name": "DIVERS_PARL_INCREDULE_AD_01_0001"
        },
        {
            "name": "358",
            "score": "0.779",
            "index": 50,
            "selectedWords": [
                "autre",
                "fac\u00e9tieuse",
                "narquoise"
            ],
            "freeResponses": [],
            "nbPlayClick": 1,
            "response": "",
            "expression": "NEUTRE",
            "csv_id": 358,
            "video_name": "DIVERS_PARL_AD_06_0004"
        },
        {
            "name": "12187",
            "score": "0.998",
            "index": 51,
            "selectedWords": [
                "neutre",
                "certaine"
            ],
            "freeResponses": [],
            "nbPlayClick": 1,
            "response": "neutr",
            "expression": "NEUTRE",
            "csv_id": 12224,
            "video_name": "DIVERS_BOOK_AD_03_0002"
        },
        {
            "name": "6215",
            "score": "0.975",
            "index": 52,
            "selectedWords": [
                "finaude",
                "accabl\u00e9e"
            ],
            "freeResponses": [],
            "nbPlayClick": 2,
            "response": "acc",
            "expression": "NEUTRE",
            "csv_id": 6249,
            "video_name": "DIVERS_PARL_AD_01_0004"
        },
        {
            "name": "8559",
            "score": "0.987",
            "index": 53,
            "selectedWords": [
                "suppliante",
                "implorante"
            ],
            "freeResponses": [],
            "nbPlayClick": 1,
            "expression": "SUPPLIANT",
            "csv_id": 8593,
            "video_name": "DIVERS_PARL_SUPPLIANT_AD_02_0002"
        },
        {
            "name": "2275",
            "score": "0.920",
            "index": 54,
            "selectedWords": [
                "convaincue",
                "indiscutable"
            ],
            "freeResponses": [],
            "nbPlayClick": 1,
            "response": "conv",
            "expression": "DESOLE",
            "csv_id": 2275,
            "video_name": "DIVERS_PARL_DESOLE_AD_02_0002"
        },
        {
            "name": "4953",
            "score": "0.965",
            "index": 55,
            "selectedWords": [
                "en col\u00e8re",
                "courrouc\u00e9e"
            ],
            "freeResponses": [],
            "nbPlayClick": 1,
            "expression": "COLERE",
            "csv_id": 4987,
            "video_name": "DIVERS_PARL_COLERE_AD_01_0003"
        },
        {
            "name": "7398",
            "score": "0.981",
            "index": 56,
            "selectedWords": [
                "narquoise",
                "autre",
                "in\u00e9branlable"
            ],
            "freeResponses": [],
            "nbPlayClick": 1,
            "response": "nar",
            "expression": "NEUTRE",
            "csv_id": 7432,
            "video_name": "DIVERS_PARL_AD_05_0003"
        },
        {
            "name": "10536",
            "score": "0.993",
            "index": 57,
            "selectedWords": [
                "neutre",
                "convaincue"
            ],
            "freeResponses": [],
            "nbPlayClick": 1,
            "response": "conv",
            "expression": "NEUTRE",
            "csv_id": 10570,
            "video_name": "DIVERS_PARL_AD_03_0004"
        },
        {
            "name": "5371",
            "score": "0.969",
            "index": 58,
            "selectedWords": [
                "incr\u00e9dule",
                "abasourdie"
            ],
            "freeResponses": [],
            "nbPlayClick": 1,
            "expression": "ETONNE",
            "csv_id": 5405,
            "video_name": "DIVERS_BOOK_ETONNE_AD_01_0004"
        },
        {
            "name": "6909",
            "score": "0.979",
            "index": 59,
            "selectedWords": [
                "neutre",
                "certaine"
            ],
            "freeResponses": [],
            "nbPlayClick": 1,
            "response": "neutr",
            "expression": "NEUTRE",
            "csv_id": 6943,
            "video_name": "DIVERS_PARL_AD_06_0003"
        }
    ],
    "training": [
        {
            "name": "77",
            "score": "0.639",
            "index": 0,
            "selectedWords": [
                "neutre",
                "certaine"
            ],
            "freeResponses": [],
            "nbPlayClick": 1,
            "expression": "NEUTRE"
        }
    ],
    "filenameDate": "2023-12-10_20-22"
}