{
    "user": {
        "isProlific": true,
        "id": "658049c9fbe1ec9c5a0d8d61",
        "session": "659f8b615339f753c1b66b13",
        "study": "64ef977375f88e4e1174dce0"
    },
    "userAgent": "Mozilla/5.0 (Windows NT 10.0; Win64; x64; rv:121.0) Gecko/20100101 Firefox/121.0",
    "landingDate": "2024-01-11T06:32:30.940Z",
    "startDate": "2024-01-11T06:34:45.593Z",
    "endDate": "2024-01-11T06:56:00.547Z",
    "reviews": [
        {
            "name": "3037",
            "score": "0.939",
            "index": 0,
            "selectedWords": [
                "espi\u00e8gle",
                "taquine"
            ],
            "freeResponses": [],
            "nbPlayClick": 1,
            "expression": "ESPIEGLE",
            "csv_id": 3037,
            "video_name": "DIVERS_PARL_ESPIEGLE_AD_01_0001"
        },
        {
            "name": "585",
            "score": "0.818",
            "index": 1,
            "selectedWords": [
                "neutre",
                "autre",
                "autre",
                "inexpressive"
            ],
            "freeResponses": [],
            "nbPlayClick": 2,
            "expression": "NEUTRE",
            "csv_id": 585,
            "video_name": "DIVERS_PARL_AD_01_0004"
        },
        {
            "name": "7055",
            "score": "0.980",
            "index": 2,
            "selectedWords": [
                "neutre",
                "autre",
                "autre",
                "inexpressive"
            ],
            "freeResponses": [],
            "nbPlayClick": 1,
            "expression": "NEUTRE",
            "csv_id": 7089,
            "video_name": "DIVERS_PARL_AD_05_0001"
        },
        {
            "name": "12064",
            "score": "0.997",
            "index": 3,
            "selectedWords": [
                "pensive",
                "r\u00e9fl\u00e9chissante"
            ],
            "freeResponses": [],
            "nbPlayClick": 1,
            "expression": "PENSIF",
            "csv_id": 12101,
            "video_name": "DIVERS_PARL_PENSIF_AD_01_0002"
        },
        {
            "name": "5680",
            "score": "0.971",
            "index": 4,
            "selectedWords": [
                "enthousiaste",
                "\u00e9loquente"
            ],
            "freeResponses": [],
            "nbPlayClick": 2,
            "expression": "ENTHOUSIASTE",
            "csv_id": 5714,
            "video_name": "DIVERS_PARL_ENTHOUSIASTE_AD_01_0003"
        },
        {
            "name": "6288",
            "score": "0.976",
            "index": 5,
            "selectedWords": [
                "en col\u00e8re",
                "irrit\u00e9e"
            ],
            "freeResponses": [],
            "nbPlayClick": 1,
            "expression": "COLERE",
            "csv_id": 6322,
            "video_name": "DIVERS_PARL_COLERE_AD_01_0003"
        },
        {
            "name": "11243",
            "score": "0.995",
            "index": 6,
            "selectedWords": [
                "d\u00e9termin\u00e9e",
                "r\u00e9solue"
            ],
            "freeResponses": [],
            "nbPlayClick": 1,
            "expression": "NEUTRE",
            "csv_id": 11277,
            "video_name": "DIVERS_PARL_AD_02_0004"
        },
        {
            "name": "7119",
            "score": "0.980",
            "index": 7,
            "selectedWords": [
                "d\u00e9termin\u00e9e",
                "r\u00e9solue"
            ],
            "freeResponses": [],
            "nbPlayClick": 1,
            "expression": "NEUTRE",
            "csv_id": 7153,
            "video_name": "DIVERS_PARL_AD_01_0002"
        },
        {
            "name": "579",
            "score": "0.817",
            "index": 8,
            "selectedWords": [
                "\u00e9vidente",
                "indubitable"
            ],
            "freeResponses": [],
            "nbPlayClick": 1,
            "expression": "EVIDENCE",
            "csv_id": 579,
            "video_name": "DIVERS_PARL_EVIDENCE_AD_01_0001"
        },
        {
            "name": "6436",
            "score": "0.976",
            "index": 9,
            "selectedWords": [
                "neutre",
                "autre",
                "autre",
                "inexpressive"
            ],
            "freeResponses": [],
            "nbPlayClick": 1,
            "expression": "DESOLE",
            "csv_id": 6470,
            "video_name": "DIVERS_PARL_DESOLE_AD_01_0004"
        },
        {
            "name": "11083",
            "score": "0.995",
            "index": 10,
            "selectedWords": [
                "pensive",
                "autre",
                "autre",
                "autre",
                "autre",
                "autre",
                "ennuy\u00e9e"
            ],
            "freeResponses": [],
            "nbPlayClick": 1,
            "expression": "PENSIF",
            "csv_id": 11117,
            "video_name": "DIVERS_PARL_PENSIF_AD_01_0002"
        },
        {
            "name": "6701",
            "score": "0.978",
            "index": 11,
            "selectedWords": [
                "d\u00e9termin\u00e9e",
                "r\u00e9solue"
            ],
            "freeResponses": [],
            "nbPlayClick": 1,
            "expression": "NEUTRE",
            "csv_id": 6735,
            "video_name": "DIVERS_PARL_AD_05_0003"
        },
        {
            "name": "1459",
            "score": "0.889",
            "index": 12,
            "selectedWords": [
                "enthousiaste",
                "euphorique"
            ],
            "freeResponses": [],
            "nbPlayClick": 1,
            "expression": "ENTHOUSIASTE",
            "csv_id": 1459,
            "video_name": "DIVERS_BOOK_ENTHOUSIASTE_AD_01_0004"
        },
        {
            "name": "5928",
            "score": "0.973",
            "index": 13,
            "selectedWords": [
                "d\u00e9termin\u00e9e",
                "r\u00e9solue"
            ],
            "freeResponses": [],
            "nbPlayClick": 1,
            "expression": "NEUTRE",
            "csv_id": 5962,
            "video_name": "DIVERS_PARL_AD_04_0002"
        },
        {
            "name": "5661",
            "score": "0.971",
            "index": 14,
            "selectedWords": [
                "d\u00e9termin\u00e9e",
                "r\u00e9solue"
            ],
            "freeResponses": [],
            "nbPlayClick": 1,
            "expression": "NEUTRE",
            "csv_id": 5695,
            "video_name": "DIVERS_PARL_AD_01_0004"
        },
        {
            "name": "5598",
            "score": "0.971",
            "index": 15,
            "selectedWords": [
                "neutre",
                "s\u00fbre"
            ],
            "freeResponses": [],
            "nbPlayClick": 1,
            "expression": "NEUTRE",
            "csv_id": 5632,
            "video_name": "DIVERS_BOOK_AD_03_0002"
        },
        {
            "name": "1587",
            "score": "0.895",
            "index": 16,
            "selectedWords": [
                "\u00e9tonn\u00e9e",
                "sinc\u00e8re"
            ],
            "freeResponses": [],
            "nbPlayClick": 1,
            "expression": "NEUTRE",
            "csv_id": 1587,
            "video_name": "DIVERS_PARL_AD_03_0001"
        },
        {
            "name": "3640",
            "score": "0.949",
            "index": 17,
            "selectedWords": [
                "pensive",
                "r\u00e9fl\u00e9chissante",
                "pensante"
            ],
            "freeResponses": [],
            "nbPlayClick": 1,
            "expression": "PENSIF",
            "csv_id": 3640,
            "video_name": "DIVERS_PARL_PENSIF_AD_01_0002"
        },
        {
            "name": "1178",
            "score": "0.873",
            "index": 18,
            "selectedWords": [
                "en col\u00e8re",
                "irrit\u00e9e",
                "m\u00e9contente"
            ],
            "freeResponses": [],
            "nbPlayClick": 1,
            "expression": "COLERE",
            "csv_id": 1178,
            "video_name": "DIVERS_PARL_COLERE_AD_01_0003"
        },
        {
            "name": "10317",
            "score": "0.993",
            "index": 19,
            "selectedWords": [
                "suppliante",
                "implorante"
            ],
            "freeResponses": [],
            "nbPlayClick": 1,
            "expression": "SUPPLIANT",
            "csv_id": 10351,
            "video_name": "DIVERS_BOOK_SUPPLIANT_AD_01_0004"
        },
        {
            "name": "8222",
            "score": "0.985",
            "index": 20,
            "selectedWords": [
                "\u00e9vidente",
                "incontestable",
                "certaine",
                "s\u00fbre"
            ],
            "freeResponses": [],
            "nbPlayClick": 1,
            "expression": "NEUTRE",
            "csv_id": 8256,
            "video_name": "DIVERS_PARL_AD_01_0005"
        },
        {
            "name": "10533",
            "score": "0.993",
            "index": 21,
            "selectedWords": [
                "neutre",
                "s\u00fbre"
            ],
            "freeResponses": [],
            "nbPlayClick": 1,
            "expression": "NEUTRE",
            "csv_id": 10567,
            "video_name": "DIVERS_PARL_AD_06_0001"
        },
        {
            "name": "3674",
            "score": "0.949",
            "index": 22,
            "selectedWords": [
                "pensive",
                "r\u00e9fl\u00e9chissante"
            ],
            "freeResponses": [],
            "nbPlayClick": 1,
            "expression": "NEUTRE",
            "csv_id": 3674,
            "video_name": "DIVERS_PARL_AD_04_0002"
        },
        {
            "name": "11962",
            "score": "0.997",
            "index": 23,
            "selectedWords": [
                "pensive",
                "songeuse"
            ],
            "freeResponses": [],
            "nbPlayClick": 1,
            "expression": "PENSIF",
            "csv_id": 11999,
            "video_name": "DIVERS_PARL_PENSIF_AD_01_0002"
        },
        {
            "name": "6848",
            "score": "0.979",
            "index": 24,
            "selectedWords": [
                "neutre",
                "d\u00e9termin\u00e9e"
            ],
            "freeResponses": [],
            "nbPlayClick": 1,
            "expression": "NEUTRE",
            "csv_id": 6882,
            "video_name": "DIVERS_PARL_AD_03_0004"
        },
        {
            "name": "2039",
            "score": "0.913",
            "index": 25,
            "selectedWords": [
                "r\u00e9confortante",
                "consolatrice"
            ],
            "freeResponses": [],
            "nbPlayClick": 1,
            "expression": "DETERMINE",
            "csv_id": 2039,
            "video_name": "DIVERS_PARL_DETERMINE_AD_01_0002"
        },
        {
            "name": "3045",
            "score": "0.939",
            "index": 26,
            "selectedWords": [
                "espi\u00e8gle",
                "taquine"
            ],
            "freeResponses": [],
            "nbPlayClick": 1,
            "expression": "ESPIEGLE",
            "csv_id": 3045,
            "video_name": "DIVERS_PARL_ESPIEGLE_AD_01_0001"
        },
        {
            "name": "4015",
            "score": "0.954",
            "index": 27,
            "selectedWords": [
                "en col\u00e8re",
                "en rage",
                "f\u00e2ch\u00e9e",
                "indign\u00e9e"
            ],
            "freeResponses": [],
            "nbPlayClick": 2,
            "expression": "COLERE",
            "csv_id": 4015,
            "video_name": "DIVERS_PARL_COLERE_AD_01_0003"
        },
        {
            "name": "9172",
            "score": "0.989",
            "index": 28,
            "selectedWords": [
                "neutre",
                "s\u00fbre"
            ],
            "freeResponses": [],
            "nbPlayClick": 1,
            "expression": "NEUTRE",
            "csv_id": 9206,
            "video_name": "DIVERS_BOOK_AD_04_0001"
        },
        {
            "name": "3873",
            "score": "0.952",
            "index": 29,
            "selectedWords": [
                "rus\u00e9e",
                "malicieuse"
            ],
            "freeResponses": [],
            "nbPlayClick": 1,
            "expression": "RECONFORTANT",
            "csv_id": 3873,
            "video_name": "DIVERS_BOOK_RECONFORTANT_AD_01_0002"
        },
        {
            "name": "11468",
            "score": "0.996",
            "index": 30,
            "selectedWords": [
                "neutre",
                "tonique"
            ],
            "freeResponses": [],
            "nbPlayClick": 1,
            "expression": "NEUTRE",
            "csv_id": 11505,
            "video_name": "DIVERS_PARL_AD_04_0002"
        },
        {
            "name": "2449",
            "score": "0.925",
            "index": 31,
            "selectedWords": [
                "\u00e9vidente",
                "incontestable"
            ],
            "freeResponses": [],
            "nbPlayClick": 1,
            "expression": "EVIDENCE",
            "csv_id": 2449,
            "video_name": "DIVERS_PARL_EVIDENCE_AD_01_0001"
        },
        {
            "name": "11979",
            "score": "0.997",
            "index": 32,
            "selectedWords": [
                "\u00e9vidente",
                "incontestable"
            ],
            "freeResponses": [],
            "nbPlayClick": 1,
            "expression": "NEUTRE",
            "csv_id": 12016,
            "video_name": "DIVERS_PARL_AD_03_0002"
        },
        {
            "name": "2058",
            "score": "0.914",
            "index": 33,
            "selectedWords": [
                "d\u00e9termin\u00e9e",
                "r\u00e9solue"
            ],
            "freeResponses": [],
            "nbPlayClick": 1,
            "expression": "NEUTRE",
            "csv_id": 2058,
            "video_name": "DIVERS_PARL_AD_06_0002"
        },
        {
            "name": "9065",
            "score": "0.988",
            "index": 34,
            "selectedWords": [
                "d\u00e9sol\u00e9e",
                "autre",
                "autre",
                "autre",
                "autre",
                "attrist\u00e9e"
            ],
            "freeResponses": [],
            "nbPlayClick": 1,
            "expression": "DESOLE",
            "csv_id": 9099,
            "video_name": "DIVERS_PARL_DESOLE_AD_01_0004"
        },
        {
            "name": "2960",
            "score": "0.938",
            "index": 35,
            "selectedWords": [
                "incr\u00e9dule",
                "dubitative",
                "m\u00e9fiante"
            ],
            "freeResponses": [],
            "nbPlayClick": 1,
            "response": "m",
            "expression": "INCREDULE",
            "csv_id": 2960,
            "video_name": "DIVERS_BOOK_INCREDULE_AD_01_0001"
        },
        {
            "name": "9304",
            "score": "0.989",
            "index": 36,
            "selectedWords": [
                "neutre",
                "s\u00fbre"
            ],
            "freeResponses": [],
            "nbPlayClick": 1,
            "expression": "NEUTRE",
            "csv_id": 9338,
            "video_name": "DIVERS_PARL_AD_01_0001"
        },
        {
            "name": "3719",
            "score": "0.950",
            "index": 37,
            "selectedWords": [
                "\u00e9vidente",
                "incontestable",
                "certaine",
                "nette"
            ],
            "freeResponses": [],
            "nbPlayClick": 1,
            "expression": "NEUTRE",
            "csv_id": 3719,
            "video_name": "DIVERS_PARL_AD_05_0002"
        },
        {
            "name": "8610",
            "score": "0.987",
            "index": 38,
            "selectedWords": [
                "neutre",
                "notoire",
                "ferme"
            ],
            "freeResponses": [],
            "nbPlayClick": 1,
            "expression": "NEUTRE",
            "csv_id": 8644,
            "video_name": "DIVERS_PARL_AD_04_0004"
        },
        {
            "name": "1261",
            "score": "0.879",
            "index": 39,
            "selectedWords": [
                "d\u00e9sol\u00e9e",
                "autre",
                "autre",
                "autre",
                "autre",
                "attrist\u00e9e",
                "accabl\u00e9e",
                "d\u00e9courag\u00e9e",
                "d\u00e9concert\u00e9e"
            ],
            "freeResponses": [],
            "nbPlayClick": 1,
            "expression": "DESOLE",
            "csv_id": 1261,
            "video_name": "DIVERS_PARL_DESOLE_AD_02_0002"
        },
        {
            "name": "10432",
            "score": "0.993",
            "index": 40,
            "selectedWords": [
                "neutre",
                "s\u00fbre"
            ],
            "freeResponses": [],
            "nbPlayClick": 1,
            "expression": "NEUTRE",
            "csv_id": 10466,
            "video_name": "DIVERS_PARL_AD_03_0004"
        },
        {
            "name": "6993",
            "score": "0.980",
            "index": 41,
            "selectedWords": [
                "d\u00e9termin\u00e9e",
                "r\u00e9solue",
                "d\u00e9cid\u00e9e"
            ],
            "freeResponses": [],
            "nbPlayClick": 1,
            "expression": "NEUTRE",
            "csv_id": 7027,
            "video_name": "DIVERS_PARL_AD_06_0002"
        },
        {
            "name": "7946",
            "score": "0.984",
            "index": 42,
            "selectedWords": [
                "en col\u00e8re",
                "irrit\u00e9e",
                "f\u00e2ch\u00e9e",
                "indign\u00e9e"
            ],
            "freeResponses": [],
            "nbPlayClick": 1,
            "expression": "COLERE",
            "csv_id": 7980,
            "video_name": "DIVERS_PARL_COLERE_AD_01_0003"
        },
        {
            "name": "8478",
            "score": "0.986",
            "index": 43,
            "selectedWords": [
                "suppliante",
                "implorante"
            ],
            "freeResponses": [],
            "nbPlayClick": 1,
            "expression": "SUPPLIANT",
            "csv_id": 8512,
            "video_name": "DIVERS_PARL_SUPPLIANT_AD_02_0002"
        },
        {
            "name": "9616",
            "score": "0.990",
            "index": 44,
            "selectedWords": [
                "neutre",
                "tonique",
                "froide"
            ],
            "freeResponses": [],
            "nbPlayClick": 1,
            "expression": "NEUTRE",
            "csv_id": 9650,
            "video_name": "DIVERS_PARL_AD_03_0004"
        },
        {
            "name": "10886",
            "score": "0.994",
            "index": 45,
            "selectedWords": [
                "suppliante",
                "autre",
                "autre",
                "autre",
                "sceptique"
            ],
            "freeResponses": [],
            "nbPlayClick": 2,
            "expression": "ETONNE",
            "csv_id": 10920,
            "video_name": "DIVERS_PARL_ETONNE_AD_01_0001"
        },
        {
            "name": "3296",
            "score": "0.943",
            "index": 46,
            "selectedWords": [
                "r\u00e9confortante",
                "encourageante"
            ],
            "freeResponses": [],
            "nbPlayClick": 1,
            "expression": "RECONFORTANT",
            "csv_id": 3296,
            "video_name": "DIVERS_BOOK_RECONFORTANT_AD_03_0002"
        },
        {
            "name": "11648",
            "score": "0.996",
            "index": 47,
            "selectedWords": [
                "pensive",
                "r\u00e9fl\u00e9chissante"
            ],
            "freeResponses": [],
            "nbPlayClick": 1,
            "expression": "NEUTRE",
            "csv_id": 11685,
            "video_name": "DIVERS_PARL_AD_01_0006"
        },
        {
            "name": "12050",
            "score": "0.997",
            "index": 48,
            "selectedWords": [
                "neutre",
                "tonique"
            ],
            "freeResponses": [],
            "nbPlayClick": 1,
            "expression": "NEUTRE",
            "csv_id": 12087,
            "video_name": "DIVERS_BOOK_AD_04_0002"
        },
        {
            "name": "11108",
            "score": "0.995",
            "index": 49,
            "selectedWords": [
                "neutre",
                "notoire"
            ],
            "freeResponses": [],
            "nbPlayClick": 1,
            "expression": "NEUTRE",
            "csv_id": 11142,
            "video_name": "DIVERS_PARL_AD_06_0003"
        },
        {
            "name": "1559",
            "score": "0.894",
            "index": 50,
            "selectedWords": [
                "ennuy\u00e9e",
                "autre",
                "autre",
                "d\u00e9lur\u00e9e"
            ],
            "freeResponses": [],
            "nbPlayClick": 1,
            "response": "ennu",
            "expression": "INCREDULE",
            "csv_id": 1559,
            "video_name": "DIVERS_PARL_INCREDULE_AD_02_0003"
        },
        {
            "name": "7847",
            "score": "0.984",
            "index": 51,
            "selectedWords": [
                "pensive",
                "songeuse"
            ],
            "freeResponses": [
                "incertaine"
            ],
            "nbPlayClick": 1,
            "response": "incertaine",
            "expression": "PENSIF",
            "csv_id": 7881,
            "video_name": "DIVERS_BOOK_PENSIF_AD_03_0002"
        },
        {
            "name": "11917",
            "score": "0.997",
            "index": 52,
            "selectedWords": [
                "irrit\u00e9e",
                "autre",
                "autre",
                "autre",
                "in\u00e9branlable"
            ],
            "freeResponses": [],
            "nbPlayClick": 1,
            "response": "irri",
            "expression": "NEUTRE",
            "csv_id": 11954,
            "video_name": "DIVERS_PARL_AD_02_0003"
        },
        {
            "name": "5410",
            "score": "0.969",
            "index": 53,
            "selectedWords": [
                "enthousiaste",
                "triomphale",
                "enflamm\u00e9e",
                "ardente"
            ],
            "freeResponses": [],
            "nbPlayClick": 1,
            "expression": "ENTHOUSIASTE",
            "csv_id": 5444,
            "video_name": "DIVERS_PARL_ENTHOUSIASTE_AD_01_0003"
        },
        {
            "name": "4291",
            "score": "0.958",
            "index": 54,
            "selectedWords": [
                "enthousiaste",
                "autre",
                "autre",
                "autre"
            ],
            "freeResponses": [
                "joyeuse"
            ],
            "nbPlayClick": 1,
            "response": "joyeuse",
            "expression": "RECONFORTANT",
            "csv_id": 4291,
            "video_name": "DIVERS_BOOK_RECONFORTANT_AD_03_0002"
        },
        {
            "name": "1829",
            "score": "0.906",
            "index": 55,
            "selectedWords": [
                "incr\u00e9dule",
                "dubitative"
            ],
            "freeResponses": [],
            "nbPlayClick": 1,
            "expression": "NEUTRE",
            "csv_id": 1829,
            "video_name": "DIVERS_BOOK_AD_03_0001"
        },
        {
            "name": "3977",
            "score": "0.954",
            "index": 56,
            "selectedWords": [
                "neutre",
                "certaine"
            ],
            "freeResponses": [],
            "nbPlayClick": 1,
            "expression": "NEUTRE",
            "csv_id": 3977,
            "video_name": "DIVERS_BOOK_AD_01_0002"
        },
        {
            "name": "7802",
            "score": "0.983",
            "index": 57,
            "selectedWords": [
                "neutre",
                "autre",
                "autre",
                "inexpressive"
            ],
            "freeResponses": [],
            "nbPlayClick": 1,
            "expression": "NEUTRE",
            "csv_id": 7836,
            "video_name": "DIVERS_BOOK_AD_01_0001"
        },
        {
            "name": "8684",
            "score": "0.987",
            "index": 58,
            "selectedWords": [
                "d\u00e9termin\u00e9e",
                "r\u00e9solue",
                "d\u00e9cid\u00e9e"
            ],
            "freeResponses": [],
            "nbPlayClick": 1,
            "expression": "EVIDENCE",
            "csv_id": 8718,
            "video_name": "DIVERS_PARL_EVIDENCE_AD_02_0002"
        },
        {
            "name": "4137",
            "score": "0.956",
            "index": 59,
            "selectedWords": [
                "neutre",
                "d\u00e9courag\u00e9e"
            ],
            "freeResponses": [],
            "nbPlayClick": 1,
            "expression": "NEUTRE",
            "csv_id": 4137,
            "video_name": "DIVERS_PARL_AD_04_0001"
        }
    ],
    "training": [
        {
            "name": "77",
            "score": "0.639",
            "index": 0,
            "selectedWords": [
                "neutre",
                "autre",
                "autre",
                "inexpressive"
            ],
            "freeResponses": [],
            "nbPlayClick": 3,
            "expression": "NEUTRE"
        }
    ],
    "filenameDate": "2024-01-11_7-56"
}