{
    "user": {
        "isProlific": true,
        "id": "6591aac27e17c353b85578f0",
        "session": "65a07bbeb11a9bdf06776230",
        "study": "64ef977375f88e4e1174dce0"
    },
    "userAgent": "Mozilla/5.0 (Windows NT 10.0; Win64; x64) AppleWebKit/537.36 (KHTML, like Gecko) Chrome/120.0.0.0 Safari/537.36",
    "landingDate": "2024-01-11T23:40:21.133Z",
    "startDate": "2024-01-11T23:42:01.194Z",
    "endDate": "2024-01-12T00:12:24.132Z",
    "reviews": [
        {
            "name": "7635",
            "score": "0.983",
            "index": 0,
            "selectedWords": [
                "neutre",
                "tonique"
            ],
            "freeResponses": [],
            "nbPlayClick": 1,
            "expression": "COLERE",
            "csv_id": 7669,
            "video_name": "DIVERS_PARL_COLERE_AD_01_0004"
        },
        {
            "name": "4991",
            "score": "0.966",
            "index": 1,
            "selectedWords": [
                "en col\u00e8re",
                "en rage"
            ],
            "freeResponses": [],
            "nbPlayClick": 1,
            "expression": "COLERE",
            "csv_id": 5025,
            "video_name": "DIVERS_PARL_COLERE_AD_02_0002"
        },
        {
            "name": "10435",
            "score": "0.993",
            "index": 2,
            "selectedWords": [
                "enthousiaste",
                "triomphale"
            ],
            "freeResponses": [],
            "nbPlayClick": 1,
            "expression": "ENTHOUSIASTE",
            "csv_id": 10469,
            "video_name": "DIVERS_BOOK_ENTHOUSIASTE_AD_01_0001"
        },
        {
            "name": "8400",
            "score": "0.986",
            "index": 3,
            "selectedWords": [
                "d\u00e9sol\u00e9e",
                "transport\u00e9e"
            ],
            "freeResponses": [],
            "nbPlayClick": 1,
            "expression": "SUPPLIANT",
            "csv_id": 8434,
            "video_name": "DIVERS_PARL_SUPPLIANT_AD_02_0001"
        },
        {
            "name": "12090",
            "score": "0.997",
            "index": 4,
            "selectedWords": [
                "neutre",
                "autre",
                "imp\u00e9n\u00e9trable"
            ],
            "freeResponses": [],
            "nbPlayClick": 1,
            "expression": "NEUTRE",
            "csv_id": 12127,
            "video_name": "DIVERS_BOOK_AD_04_0001"
        },
        {
            "name": "9761",
            "score": "0.991",
            "index": 5,
            "selectedWords": [
                "neutre",
                "autre",
                "attrist\u00e9e"
            ],
            "freeResponses": [],
            "nbPlayClick": 1,
            "expression": "NEUTRE",
            "csv_id": 9795,
            "video_name": "DIVERS_BOOK_AD_04_0002"
        },
        {
            "name": "9427",
            "score": "0.990",
            "index": 6,
            "selectedWords": [
                "incr\u00e9dule",
                "m\u00e9fiante",
                "sceptique"
            ],
            "freeResponses": [],
            "nbPlayClick": 1,
            "expression": "ETONNE",
            "csv_id": 9461,
            "video_name": "DIVERS_PARL_ETONNE_AD_01_0001"
        },
        {
            "name": "8095",
            "score": "0.985",
            "index": 7,
            "selectedWords": [
                "autre",
                "imp\u00e9n\u00e9trable",
                "fade"
            ],
            "freeResponses": [],
            "nbPlayClick": 1,
            "expression": "EVIDENCE",
            "csv_id": 8129,
            "video_name": "DIVERS_BOOK_EVIDENCE_AD_01_0002"
        },
        {
            "name": "3178",
            "score": "0.941",
            "index": 8,
            "selectedWords": [
                "pensive",
                "r\u00e9fl\u00e9chie"
            ],
            "freeResponses": [],
            "nbPlayClick": 1,
            "expression": "PENSIF",
            "csv_id": 3178,
            "video_name": "DIVERS_BOOK_PENSIF_AD_03_0002"
        },
        {
            "name": "2306",
            "score": "0.921",
            "index": 9,
            "selectedWords": [
                "espi\u00e8gle",
                "d\u00e9lur\u00e9e"
            ],
            "freeResponses": [],
            "nbPlayClick": 1,
            "expression": "EVIDENCE",
            "csv_id": 2306,
            "video_name": "DIVERS_PARL_EVIDENCE_AD_01_0001"
        },
        {
            "name": "5420",
            "score": "0.969",
            "index": 10,
            "selectedWords": [
                "\u00e9vidente",
                "prouv\u00e9e"
            ],
            "freeResponses": [],
            "nbPlayClick": 1,
            "expression": "NEUTRE",
            "csv_id": 5454,
            "video_name": "DIVERS_PARL_AD_02_0001"
        },
        {
            "name": "12282",
            "score": "0.998",
            "index": 11,
            "selectedWords": [
                "neutre",
                "autre",
                "imp\u00e9n\u00e9trable",
                "froide"
            ],
            "freeResponses": [],
            "nbPlayClick": 1,
            "expression": "NEUTRE",
            "csv_id": 12319,
            "video_name": "DIVERS_BOOK_AD_01_0001"
        },
        {
            "name": "10813",
            "score": "0.994",
            "index": 12,
            "selectedWords": [
                "en col\u00e8re",
                "en rage",
                "m\u00e9contente"
            ],
            "freeResponses": [],
            "nbPlayClick": 1,
            "expression": "COLERE",
            "csv_id": 10847,
            "video_name": "DIVERS_PARL_COLERE_AD_02_0002"
        },
        {
            "name": "12156",
            "score": "0.998",
            "index": 13,
            "selectedWords": [
                "\u00e9tonn\u00e9e",
                "sinc\u00e8re",
                "perplexe"
            ],
            "freeResponses": [],
            "nbPlayClick": 1,
            "expression": "ETONNE",
            "csv_id": 12193,
            "video_name": "DIVERS_BOOK_ETONNE_AD_01_0004"
        },
        {
            "name": "5928",
            "score": "0.973",
            "index": 14,
            "selectedWords": [
                "neutre",
                "autre",
                "implorante"
            ],
            "freeResponses": [],
            "nbPlayClick": 1,
            "expression": "NEUTRE",
            "csv_id": 5962,
            "video_name": "DIVERS_PARL_AD_04_0002"
        },
        {
            "name": "8677",
            "score": "0.987",
            "index": 15,
            "selectedWords": [
                "incr\u00e9dule",
                "m\u00e9fiante",
                "sceptique"
            ],
            "freeResponses": [],
            "nbPlayClick": 1,
            "expression": "NEUTRE",
            "csv_id": 8711,
            "video_name": "DIVERS_PARL_AD_06_0003"
        },
        {
            "name": "10891",
            "score": "0.994",
            "index": 16,
            "selectedWords": [
                "\u00e9vidente",
                "manifeste",
                "r\u00e9fl\u00e9chie"
            ],
            "freeResponses": [],
            "nbPlayClick": 1,
            "expression": "NEUTRE",
            "csv_id": 10925,
            "video_name": "DIVERS_PARL_AD_06_0003"
        },
        {
            "name": "9782",
            "score": "0.991",
            "index": 17,
            "selectedWords": [
                "r\u00e9confortante",
                "encourageante"
            ],
            "freeResponses": [],
            "nbPlayClick": 1,
            "expression": "NEUTRE",
            "csv_id": 9816,
            "video_name": "DIVERS_PARL_AD_02_0003"
        },
        {
            "name": "3426",
            "score": "0.945",
            "index": 18,
            "selectedWords": [
                "pensive",
                "autre",
                "autre",
                "in\u00e9branlable",
                "certaine"
            ],
            "freeResponses": [],
            "nbPlayClick": 1,
            "expression": "NEUTRE",
            "csv_id": 3426,
            "video_name": "DIVERS_PARL_AD_05_0003"
        },
        {
            "name": "8179",
            "score": "0.985",
            "index": 19,
            "selectedWords": [
                "\u00e9vidente",
                "manifeste",
                "convaincue"
            ],
            "freeResponses": [],
            "nbPlayClick": 1,
            "expression": "NEUTRE",
            "csv_id": 8213,
            "video_name": "DIVERS_PARL_AD_02_0001"
        },
        {
            "name": "10747",
            "score": "0.994",
            "index": 20,
            "selectedWords": [
                "neutre",
                "autre",
                "imp\u00e9n\u00e9trable",
                "fade"
            ],
            "freeResponses": [],
            "nbPlayClick": 1,
            "expression": "NEUTRE",
            "csv_id": 10781,
            "video_name": "DIVERS_BOOK_AD_04_0002"
        },
        {
            "name": "6737",
            "score": "0.978",
            "index": 21,
            "selectedWords": [
                "pensive",
                "r\u00eaveuse"
            ],
            "freeResponses": [],
            "nbPlayClick": 1,
            "expression": "NEUTRE",
            "csv_id": 6771,
            "video_name": "DIVERS_BOOK_AD_04_0001"
        },
        {
            "name": "10880",
            "score": "0.994",
            "index": 22,
            "selectedWords": [
                "\u00e9vidente",
                "incontestable"
            ],
            "freeResponses": [],
            "nbPlayClick": 1,
            "expression": "NEUTRE",
            "csv_id": 10914,
            "video_name": "DIVERS_PARL_AD_02_0002"
        },
        {
            "name": "5896",
            "score": "0.973",
            "index": 23,
            "selectedWords": [
                "\u00e9vidente",
                "incontestable",
                "certaine"
            ],
            "freeResponses": [],
            "nbPlayClick": 1,
            "expression": "NEUTRE",
            "csv_id": 5930,
            "video_name": "DIVERS_PARL_AD_06_0001"
        },
        {
            "name": "4871",
            "score": "0.964",
            "index": 24,
            "selectedWords": [
                "incr\u00e9dule",
                "dubitative"
            ],
            "freeResponses": [],
            "nbPlayClick": 1,
            "expression": "PENSIF",
            "csv_id": 4905,
            "video_name": "DIVERS_PARL_PENSIF_AD_01_0002"
        },
        {
            "name": "11509",
            "score": "0.996",
            "index": 25,
            "selectedWords": [
                "\u00e9vidente",
                "manifeste",
                "infaillible"
            ],
            "freeResponses": [],
            "nbPlayClick": 1,
            "expression": "NEUTRE",
            "csv_id": 11546,
            "video_name": "DIVERS_PARL_AD_02_0002"
        },
        {
            "name": "11667",
            "score": "0.996",
            "index": 26,
            "selectedWords": [
                "d\u00e9sol\u00e9e",
                "nette"
            ],
            "freeResponses": [],
            "nbPlayClick": 1,
            "expression": "NEUTRE",
            "csv_id": 11704,
            "video_name": "DIVERS_PARL_AD_02_0002"
        },
        {
            "name": "1039",
            "score": "0.864",
            "index": 27,
            "selectedWords": [
                "\u00e9vidente",
                "prouv\u00e9e"
            ],
            "freeResponses": [],
            "nbPlayClick": 1,
            "expression": "NEUTRE",
            "csv_id": 1039,
            "video_name": "DIVERS_PARL_AD_06_0004"
        },
        {
            "name": "5161",
            "score": "0.967",
            "index": 28,
            "selectedWords": [
                "espi\u00e8gle",
                "malicieuse"
            ],
            "freeResponses": [],
            "nbPlayClick": 1,
            "expression": "ESPIEGLE",
            "csv_id": 5195,
            "video_name": "DIVERS_PARL_ESPIEGLE_AD_01_0001"
        },
        {
            "name": "7999",
            "score": "0.984",
            "index": 29,
            "selectedWords": [
                "incr\u00e9dule",
                "m\u00e9fiante"
            ],
            "freeResponses": [],
            "nbPlayClick": 1,
            "expression": "INCREDULE",
            "csv_id": 8033,
            "video_name": "DIVERS_PARL_INCREDULE_AD_02_0003"
        },
        {
            "name": "1360",
            "score": "0.884",
            "index": 30,
            "selectedWords": [
                "suppliante",
                "implorante"
            ],
            "freeResponses": [],
            "nbPlayClick": 1,
            "expression": "EVIDENCE",
            "csv_id": 1360,
            "video_name": "DIVERS_PARL_EVIDENCE_AD_01_0001"
        },
        {
            "name": "6019",
            "score": "0.974",
            "index": 31,
            "selectedWords": [
                "\u00e9tonn\u00e9e",
                "autre",
                "\u00e9berlu\u00e9e"
            ],
            "freeResponses": [],
            "nbPlayClick": 1,
            "expression": "NEUTRE",
            "csv_id": 6053,
            "video_name": "DIVERS_BOOK_AD_01_0002"
        },
        {
            "name": "2061",
            "score": "0.914",
            "index": 32,
            "selectedWords": [
                "\u00e9vidente",
                "prouv\u00e9e",
                "in\u00e9branlable"
            ],
            "freeResponses": [],
            "nbPlayClick": 1,
            "expression": "NEUTRE",
            "csv_id": 2061,
            "video_name": "DIVERS_PARL_AD_06_0004"
        },
        {
            "name": "7244",
            "score": "0.981",
            "index": 33,
            "selectedWords": [
                "en col\u00e8re",
                "\u00e9nerv\u00e9e",
                "m\u00e9contente"
            ],
            "freeResponses": [],
            "nbPlayClick": 1,
            "expression": "COLERE",
            "csv_id": 7278,
            "video_name": "DIVERS_PARL_COLERE_AD_02_0002"
        },
        {
            "name": "3863",
            "score": "0.952",
            "index": 34,
            "selectedWords": [
                "autre",
                "inexpressive",
                "froide"
            ],
            "freeResponses": [],
            "nbPlayClick": 1,
            "expression": "NEUTRE",
            "csv_id": 3863,
            "video_name": "DIVERS_PARL_AD_06_0002"
        },
        {
            "name": "10145",
            "score": "0.992",
            "index": 35,
            "selectedWords": [
                "autre",
                "inexpressive",
                "atone"
            ],
            "freeResponses": [],
            "nbPlayClick": 1,
            "expression": "NEUTRE",
            "csv_id": 10179,
            "video_name": "DIVERS_PARL_AD_04_0003"
        },
        {
            "name": "7080",
            "score": "0.980",
            "index": 36,
            "selectedWords": [
                "autre",
                "autre",
                "\u00e9bahie",
                "stup\u00e9faite"
            ],
            "freeResponses": [],
            "nbPlayClick": 1,
            "expression": "NEUTRE",
            "csv_id": 7114,
            "video_name": "DIVERS_PARL_AD_04_0004"
        },
        {
            "name": "8398",
            "score": "0.986",
            "index": 37,
            "selectedWords": [
                "autre",
                "implorante",
                "autre",
                "autre",
                "opini\u00e2tre"
            ],
            "freeResponses": [],
            "nbPlayClick": 1,
            "expression": "EVIDENCE",
            "csv_id": 8432,
            "video_name": "DIVERS_PARL_EVIDENCE_AD_02_0002"
        },
        {
            "name": "4135",
            "score": "0.956",
            "index": 38,
            "selectedWords": [
                "incr\u00e9dule",
                "convaincue",
                "sceptique"
            ],
            "freeResponses": [],
            "nbPlayClick": 1,
            "expression": "ETONNE",
            "csv_id": 4135,
            "video_name": "DIVERS_PARL_ETONNE_AD_01_0001"
        },
        {
            "name": "6572",
            "score": "0.977",
            "index": 39,
            "selectedWords": [
                "\u00e9vidente",
                "prouv\u00e9e"
            ],
            "freeResponses": [],
            "nbPlayClick": 1,
            "expression": "SUPPLIANT",
            "csv_id": 6606,
            "video_name": "DIVERS_PARL_SUPPLIANT_AD_02_0002"
        },
        {
            "name": "6346",
            "score": "0.976",
            "index": 40,
            "selectedWords": [
                "d\u00e9termin\u00e9e",
                "manifeste",
                "convaincue"
            ],
            "freeResponses": [],
            "nbPlayClick": 1,
            "expression": "COLERE",
            "csv_id": 6380,
            "video_name": "DIVERS_PARL_COLERE_AD_01_0003"
        },
        {
            "name": "6893",
            "score": "0.979",
            "index": 41,
            "selectedWords": [
                "autre",
                "autre",
                "autre",
                "autre",
                "ennuy\u00e9e",
                "autre",
                "songeuse"
            ],
            "freeResponses": [],
            "nbPlayClick": 1,
            "expression": "PENSIF",
            "csv_id": 6927,
            "video_name": "DIVERS_PARL_PENSIF_AD_01_0002"
        },
        {
            "name": "11511",
            "score": "0.996",
            "index": 42,
            "selectedWords": [
                "\u00e9vidente",
                "autre",
                "autre",
                "autre",
                "autre",
                "autre",
                "autre",
                "autre",
                "autre",
                "autre",
                "autre",
                "passionn\u00e9e"
            ],
            "freeResponses": [],
            "nbPlayClick": 1,
            "expression": "NEUTRE",
            "csv_id": 11548,
            "video_name": "DIVERS_BOOK_AD_03_0002"
        },
        {
            "name": "4255",
            "score": "0.957",
            "index": 43,
            "selectedWords": [
                "\u00e9tonn\u00e9e",
                "autre",
                "autre",
                "autre",
                "autre",
                "stimulante"
            ],
            "freeResponses": [],
            "nbPlayClick": 1,
            "expression": "ENTHOUSIASTE",
            "csv_id": 4255,
            "video_name": "DIVERS_BOOK_ENTHOUSIASTE_AD_01_0001"
        },
        {
            "name": "10671",
            "score": "0.994",
            "index": 44,
            "selectedWords": [
                "neutre",
                "notoire",
                "terne"
            ],
            "freeResponses": [],
            "nbPlayClick": 1,
            "expression": "NEUTRE",
            "csv_id": 10705,
            "video_name": "DIVERS_BOOK_AD_01_0001"
        },
        {
            "name": "8637",
            "score": "0.987",
            "index": 45,
            "selectedWords": [
                "d\u00e9termin\u00e9e",
                "r\u00e9fl\u00e9chie",
                "s\u00fbre"
            ],
            "freeResponses": [],
            "nbPlayClick": 1,
            "expression": "NEUTRE",
            "csv_id": 8671,
            "video_name": "DIVERS_PARL_AD_02_0001"
        },
        {
            "name": "4007",
            "score": "0.954",
            "index": 46,
            "selectedWords": [
                "\u00e9tonn\u00e9e",
                "r\u00e9fl\u00e9chie"
            ],
            "freeResponses": [],
            "nbPlayClick": 1,
            "expression": "NEUTRE",
            "csv_id": 4007,
            "video_name": "DIVERS_PARL_AD_03_0001"
        },
        {
            "name": "4016",
            "score": "0.954",
            "index": 47,
            "selectedWords": [
                "autre",
                "autre",
                "autre",
                "vivifiante",
                "stimulante",
                "autre",
                "autre"
            ],
            "freeResponses": [],
            "nbPlayClick": 1,
            "expression": "ENTHOUSIASTE",
            "csv_id": 4016,
            "video_name": "DIVERS_BOOK_ENTHOUSIASTE_AD_01_0001"
        },
        {
            "name": "1835",
            "score": "0.906",
            "index": 48,
            "selectedWords": [
                "d\u00e9sol\u00e9e",
                "autre",
                "imp\u00e9n\u00e9trable",
                "terne"
            ],
            "freeResponses": [],
            "nbPlayClick": 1,
            "expression": "NEUTRE",
            "csv_id": 1835,
            "video_name": "DIVERS_PARL_AD_04_0001"
        },
        {
            "name": "7642",
            "score": "0.983",
            "index": 49,
            "selectedWords": [
                "\u00e9tonn\u00e9e",
                "nette"
            ],
            "freeResponses": [],
            "nbPlayClick": 1,
            "expression": "NEUTRE",
            "csv_id": 7676,
            "video_name": "DIVERS_PARL_AD_05_0003"
        },
        {
            "name": "12067",
            "score": "0.997",
            "index": 50,
            "selectedWords": [
                "neutre",
                "autre",
                "autre",
                "ennuy\u00e9e"
            ],
            "freeResponses": [],
            "nbPlayClick": 1,
            "expression": "NEUTRE",
            "csv_id": 12104,
            "video_name": "DIVERS_PARL_AD_02_0001"
        },
        {
            "name": "5723",
            "score": "0.972",
            "index": 51,
            "selectedWords": [
                "d\u00e9sol\u00e9e",
                "absente"
            ],
            "freeResponses": [],
            "nbPlayClick": 1,
            "expression": "DESOLE",
            "csv_id": 5757,
            "video_name": "DIVERS_PARL_DESOLE_AD_02_0002"
        },
        {
            "name": "6571",
            "score": "0.977",
            "index": 52,
            "selectedWords": [
                "d\u00e9sol\u00e9e",
                "autre",
                "autre",
                "autre",
                "consolatrice",
                "pensante"
            ],
            "freeResponses": [],
            "nbPlayClick": 1,
            "expression": "DESOLE",
            "csv_id": 6605,
            "video_name": "DIVERS_PARL_DESOLE_AD_02_0002"
        },
        {
            "name": "4512",
            "score": "0.961",
            "index": 53,
            "selectedWords": [
                "\u00e9vidente",
                "prouv\u00e9e",
                "in\u00e9branlable"
            ],
            "freeResponses": [],
            "nbPlayClick": 1,
            "expression": "NEUTRE",
            "csv_id": 4546,
            "video_name": "DIVERS_BOOK_AD_03_0002"
        },
        {
            "name": "10587",
            "score": "0.993",
            "index": 54,
            "selectedWords": [
                "neutre",
                "certaine"
            ],
            "freeResponses": [],
            "nbPlayClick": 1,
            "expression": "NEUTRE",
            "csv_id": 10621,
            "video_name": "DIVERS_PARL_AD_05_0004"
        },
        {
            "name": "7594",
            "score": "0.982",
            "index": 55,
            "selectedWords": [
                "en col\u00e8re",
                "irrit\u00e9e",
                "m\u00e9contente"
            ],
            "freeResponses": [],
            "nbPlayClick": 1,
            "expression": "COLERE",
            "csv_id": 7628,
            "video_name": "DIVERS_PARL_COLERE_AD_02_0002"
        },
        {
            "name": "3822",
            "score": "0.951",
            "index": 56,
            "selectedWords": [
                "en col\u00e8re",
                "\u00e9nerv\u00e9e",
                "m\u00e9contente"
            ],
            "freeResponses": [],
            "nbPlayClick": 1,
            "expression": "COLERE",
            "csv_id": 3822,
            "video_name": "DIVERS_PARL_COLERE_AD_01_0003"
        },
        {
            "name": "6212",
            "score": "0.975",
            "index": 57,
            "selectedWords": [
                "incr\u00e9dule",
                "m\u00e9fiante",
                "sceptique"
            ],
            "freeResponses": [],
            "nbPlayClick": 1,
            "expression": "INCREDULE",
            "csv_id": 6246,
            "video_name": "DIVERS_BOOK_INCREDULE_AD_01_0001"
        },
        {
            "name": "12405",
            "score": "0.999",
            "index": 58,
            "selectedWords": [
                "neutre",
                "limpide"
            ],
            "freeResponses": [],
            "nbPlayClick": 1,
            "expression": "NEUTRE",
            "csv_id": 12442,
            "video_name": "DIVERS_BOOK_AD_03_0002"
        },
        {
            "name": "7011",
            "score": "0.980",
            "index": 59,
            "selectedWords": [
                "autre",
                "autre",
                "apaisante",
                "consolatrice"
            ],
            "freeResponses": [],
            "nbPlayClick": 1,
            "expression": "RECONFORTANT",
            "csv_id": 7045,
            "video_name": "DIVERS_BOOK_RECONFORTANT_AD_01_0004"
        }
    ],
    "training": [
        {
            "name": "77",
            "score": "0.639",
            "index": 0,
            "selectedWords": [
                "\u00e9vidente",
                "prouv\u00e9e",
                "s\u00fbre"
            ],
            "freeResponses": [],
            "nbPlayClick": 1,
            "expression": "NEUTRE"
        }
    ],
    "filenameDate": "2024-01-12_20-12"
}