{
    "user": {
        "isProlific": true,
        "id": "65f3289ea294dc6b5b157304",
        "session": "65f3a8a3086f1b295d343576",
        "study": "64ef977375f88e4e1174dce0"
    },
    "userAgent": "Mozilla/5.0 (Windows NT 10.0; Win64; x64) AppleWebKit/537.36 (KHTML, like Gecko) Chrome/122.0.0.0 Safari/537.36 Edg/122.0.0.0",
    "landingDate": "2024-03-15T01:47:24.050Z",
    "startDate": "2024-03-15T01:48:35.066Z",
    "endDate": "2024-03-15T02:01:27.700Z",
    "reviews": [
        {
            "name": "9895",
            "score": "0.991",
            "index": 0,
            "selectedWords": [
                "autre",
                "autre",
                "atone",
                "sinc\u00e8re"
            ],
            "freeResponses": [],
            "nbPlayClick": 1,
            "expression": "NEUTRE",
            "csv_id": 9929,
            "video_name": "DIVERS_PARL_AD_03_0002"
        },
        {
            "name": "9216",
            "score": "0.989",
            "index": 1,
            "selectedWords": [
                "enthousiaste",
                "\u00e9loquente",
                "emball\u00e9e"
            ],
            "freeResponses": [],
            "nbPlayClick": 1,
            "expression": "ENTHOUSIASTE",
            "csv_id": 9250,
            "video_name": "DIVERS_PARL_ENTHOUSIASTE_AD_02_0001"
        },
        {
            "name": "11702",
            "score": "0.996",
            "index": 2,
            "selectedWords": [
                "espi\u00e8gle",
                "mutine"
            ],
            "freeResponses": [],
            "nbPlayClick": 2,
            "expression": "PENSIF",
            "csv_id": 11739,
            "video_name": "DIVERS_BOOK_PENSIF_AD_03_0002"
        },
        {
            "name": "3345",
            "score": "0.944",
            "index": 3,
            "selectedWords": [
                "d\u00e9sol\u00e9e",
                "autre",
                "autre",
                "d\u00e9lur\u00e9e"
            ],
            "freeResponses": [],
            "nbPlayClick": 1,
            "expression": "RECONFORTANT",
            "csv_id": 3345,
            "video_name": "DIVERS_PARL_RECONFORTANT_AD_02_0001"
        },
        {
            "name": "11965",
            "score": "0.997",
            "index": 4,
            "selectedWords": [
                "enthousiaste",
                "tonique",
                "transport\u00e9e"
            ],
            "freeResponses": [],
            "nbPlayClick": 2,
            "expression": "ENTHOUSIASTE",
            "csv_id": 12002,
            "video_name": "DIVERS_PARL_ENTHOUSIASTE_AD_02_0001"
        },
        {
            "name": "9118",
            "score": "0.989",
            "index": 5,
            "selectedWords": [
                "d\u00e9sol\u00e9e",
                "nette"
            ],
            "freeResponses": [],
            "nbPlayClick": 1,
            "expression": "COLERE",
            "csv_id": 9152,
            "video_name": "DIVERS_PARL_COLERE_AD_02_0002"
        },
        {
            "name": "8810",
            "score": "0.988",
            "index": 6,
            "selectedWords": [
                "d\u00e9termin\u00e9e",
                "autre",
                "autre",
                "malicieuse",
                "taquine"
            ],
            "freeResponses": [],
            "nbPlayClick": 1,
            "expression": "SUPPLIANT",
            "csv_id": 8844,
            "video_name": "DIVERS_PARL_SUPPLIANT_AD_02_0001"
        },
        {
            "name": "6256",
            "score": "0.975",
            "index": 7,
            "selectedWords": [
                "d\u00e9termin\u00e9e",
                "transport\u00e9e",
                "autre",
                "autre",
                "autre",
                "inexpressive"
            ],
            "freeResponses": [],
            "nbPlayClick": 1,
            "expression": "NEUTRE",
            "csv_id": 6290,
            "video_name": "DIVERS_PARL_AD_04_0002"
        },
        {
            "name": "5456",
            "score": "0.969",
            "index": 8,
            "selectedWords": [
                "autre",
                "imp\u00e9n\u00e9trable",
                "autre",
                "consolante",
                "stimulante"
            ],
            "freeResponses": [],
            "nbPlayClick": 1,
            "expression": "NEUTRE",
            "csv_id": 5490,
            "video_name": "DIVERS_BOOK_AD_04_0002"
        },
        {
            "name": "9291",
            "score": "0.989",
            "index": 9,
            "selectedWords": [
                "d\u00e9termin\u00e9e",
                "r\u00e9fl\u00e9chie",
                "autre",
                "autre",
                "en peine"
            ],
            "freeResponses": [],
            "nbPlayClick": 1,
            "expression": "NEUTRE",
            "csv_id": 9325,
            "video_name": "DIVERS_PARL_AD_03_0004"
        },
        {
            "name": "2740",
            "score": "0.933",
            "index": 10,
            "selectedWords": [
                "emball\u00e9e",
                "\u00e9loquente",
                "exalt\u00e9e"
            ],
            "freeResponses": [],
            "nbPlayClick": 1,
            "response": "m",
            "expression": "NEUTRE",
            "csv_id": 2740,
            "video_name": "DIVERS_PARL_AD_03_0003"
        },
        {
            "name": "664",
            "score": "0.828",
            "index": 11,
            "selectedWords": [
                "pensive",
                "m\u00e9ditative",
                "pensante"
            ],
            "freeResponses": [],
            "nbPlayClick": 1,
            "expression": "INCREDULE",
            "csv_id": 664,
            "video_name": "DIVERS_PARL_INCREDULE_AD_01_0001"
        },
        {
            "name": "5927",
            "score": "0.973",
            "index": 12,
            "selectedWords": [
                "en col\u00e8re",
                "consolante"
            ],
            "freeResponses": [],
            "nbPlayClick": 1,
            "expression": "EVIDENCE",
            "csv_id": 5961,
            "video_name": "DIVERS_PARL_EVIDENCE_AD_01_0001"
        },
        {
            "name": "5361",
            "score": "0.969",
            "index": 13,
            "selectedWords": [
                "enthousiaste",
                "euphorique",
                "exalt\u00e9e",
                "emball\u00e9e",
                "autre",
                "autre",
                "autre"
            ],
            "freeResponses": [],
            "nbPlayClick": 1,
            "expression": "ESPIEGLE",
            "csv_id": 5395,
            "video_name": "DIVERS_PARL_ESPIEGLE_AD_01_0001"
        },
        {
            "name": "4788",
            "score": "0.964",
            "index": 14,
            "selectedWords": [
                "espi\u00e8gle",
                "narquoise",
                "terne"
            ],
            "freeResponses": [],
            "nbPlayClick": 1,
            "expression": "NEUTRE",
            "csv_id": 4822,
            "video_name": "DIVERS_PARL_AD_03_0001"
        },
        {
            "name": "7346",
            "score": "0.981",
            "index": 15,
            "selectedWords": [
                "d\u00e9sol\u00e9e",
                "r\u00e9fl\u00e9chie",
                "ardente"
            ],
            "freeResponses": [],
            "nbPlayClick": 1,
            "expression": "DESOLE",
            "csv_id": 7380,
            "video_name": "DIVERS_PARL_DESOLE_AD_01_0004"
        },
        {
            "name": "2681",
            "score": "0.931",
            "index": 16,
            "selectedWords": [
                "r\u00e9confortante",
                "reconstituante"
            ],
            "freeResponses": [],
            "nbPlayClick": 1,
            "expression": "COLERE",
            "csv_id": 2681,
            "video_name": "DIVERS_PARL_COLERE_AD_01_0003"
        },
        {
            "name": "7179",
            "score": "0.980",
            "index": 17,
            "selectedWords": [
                "enthousiaste",
                "tonique"
            ],
            "freeResponses": [],
            "nbPlayClick": 1,
            "expression": "RECONFORTANT",
            "csv_id": 7213,
            "video_name": "DIVERS_BOOK_RECONFORTANT_AD_01_0004"
        },
        {
            "name": "8175",
            "score": "0.985",
            "index": 18,
            "selectedWords": [
                "incr\u00e9dule",
                "indiscutable"
            ],
            "freeResponses": [],
            "nbPlayClick": 2,
            "expression": "SUPPLIANT",
            "csv_id": 8209,
            "video_name": "DIVERS_BOOK_SUPPLIANT_AD_01_0004"
        },
        {
            "name": "12062",
            "score": "0.997",
            "index": 19,
            "selectedWords": [
                "en col\u00e8re",
                "irrit\u00e9e"
            ],
            "freeResponses": [],
            "nbPlayClick": 2,
            "expression": "NEUTRE",
            "csv_id": 12099,
            "video_name": "DIVERS_PARL_AD_02_0002"
        },
        {
            "name": "11269",
            "score": "0.995",
            "index": 20,
            "selectedWords": [
                "suppliante",
                "priante"
            ],
            "freeResponses": [],
            "nbPlayClick": 1,
            "expression": "COLERE",
            "csv_id": 11303,
            "video_name": "DIVERS_PARL_COLERE_AD_01_0004"
        },
        {
            "name": "3012",
            "score": "0.939",
            "index": 21,
            "selectedWords": [
                "enthousiaste",
                "coquine"
            ],
            "freeResponses": [],
            "nbPlayClick": 1,
            "expression": "NEUTRE",
            "csv_id": 3012,
            "video_name": "DIVERS_PARL_AD_06_0002"
        },
        {
            "name": "8951",
            "score": "0.988",
            "index": 22,
            "selectedWords": [
                "r\u00e9confortante",
                "reconstituante"
            ],
            "freeResponses": [],
            "nbPlayClick": 1,
            "expression": "ETONNE",
            "csv_id": 8985,
            "video_name": "DIVERS_BOOK_ETONNE_AD_03_0001"
        },
        {
            "name": "8879",
            "score": "0.988",
            "index": 23,
            "selectedWords": [
                "d\u00e9termin\u00e9e",
                "r\u00e9solue"
            ],
            "freeResponses": [],
            "nbPlayClick": 1,
            "expression": "NEUTRE",
            "csv_id": 8913,
            "video_name": "DIVERS_PARL_AD_03_0001"
        },
        {
            "name": "8639",
            "score": "0.987",
            "index": 24,
            "selectedWords": [
                "suppliante",
                "mendiante"
            ],
            "freeResponses": [],
            "nbPlayClick": 1,
            "expression": "NEUTRE",
            "csv_id": 8673,
            "video_name": "DIVERS_PARL_AD_04_0004"
        },
        {
            "name": "8621",
            "score": "0.987",
            "index": 25,
            "selectedWords": [
                "r\u00e9confortante",
                "encourageante"
            ],
            "freeResponses": [],
            "nbPlayClick": 2,
            "expression": "COLERE",
            "csv_id": 8655,
            "video_name": "DIVERS_PARL_COLERE_AD_01_0004"
        },
        {
            "name": "10354",
            "score": "0.993",
            "index": 26,
            "selectedWords": [
                "en col\u00e8re",
                "courrouc\u00e9e"
            ],
            "freeResponses": [],
            "nbPlayClick": 1,
            "expression": "SUPPLIANT",
            "csv_id": 10388,
            "video_name": "DIVERS_BOOK_SUPPLIANT_AD_01_0002"
        },
        {
            "name": "12265",
            "score": "0.998",
            "index": 27,
            "selectedWords": [
                "enthousiaste",
                "coquine"
            ],
            "freeResponses": [],
            "nbPlayClick": 1,
            "expression": "NEUTRE",
            "csv_id": 12302,
            "video_name": "DIVERS_BOOK_AD_01_0002"
        },
        {
            "name": "6051",
            "score": "0.974",
            "index": 28,
            "selectedWords": [
                "d\u00e9termin\u00e9e",
                "coquine",
                "sinc\u00e8re"
            ],
            "freeResponses": [],
            "nbPlayClick": 1,
            "expression": "NEUTRE",
            "csv_id": 6085,
            "video_name": "DIVERS_PARL_AD_04_0002"
        },
        {
            "name": "5069",
            "score": "0.966",
            "index": 29,
            "selectedWords": [
                "espi\u00e8gle",
                "malicieuse"
            ],
            "freeResponses": [],
            "nbPlayClick": 2,
            "expression": "ESPIEGLE",
            "csv_id": 5103,
            "video_name": "DIVERS_BOOK_ESPIEGLE_AD_03_0001"
        },
        {
            "name": "8404",
            "score": "0.986",
            "index": 30,
            "selectedWords": [
                "\u00e9vidente",
                "prouv\u00e9e"
            ],
            "freeResponses": [],
            "nbPlayClick": 1,
            "expression": "SUPPLIANT",
            "csv_id": 8438,
            "video_name": "DIVERS_BOOK_SUPPLIANT_AD_01_0004"
        },
        {
            "name": "5268",
            "score": "0.968",
            "index": 31,
            "selectedWords": [
                "\u00e9tonn\u00e9e",
                "sinc\u00e8re"
            ],
            "freeResponses": [],
            "nbPlayClick": 1,
            "expression": "NEUTRE",
            "csv_id": 5302,
            "video_name": "DIVERS_PARL_AD_06_0002"
        },
        {
            "name": "8398",
            "score": "0.986",
            "index": 32,
            "selectedWords": [
                "suppliante",
                "mendiante"
            ],
            "freeResponses": [],
            "nbPlayClick": 1,
            "expression": "EVIDENCE",
            "csv_id": 8432,
            "video_name": "DIVERS_PARL_EVIDENCE_AD_02_0002"
        },
        {
            "name": "6249",
            "score": "0.975",
            "index": 33,
            "selectedWords": [
                "en col\u00e8re",
                "irrit\u00e9e"
            ],
            "freeResponses": [],
            "nbPlayClick": 1,
            "expression": "NEUTRE",
            "csv_id": 6283,
            "video_name": "DIVERS_BOOK_AD_03_0001"
        },
        {
            "name": "11520",
            "score": "0.996",
            "index": 34,
            "selectedWords": [
                "d\u00e9sol\u00e9e",
                "manifeste"
            ],
            "freeResponses": [],
            "nbPlayClick": 1,
            "expression": "NEUTRE",
            "csv_id": 11557,
            "video_name": "DIVERS_PARL_AD_03_0002"
        },
        {
            "name": "11425",
            "score": "0.995",
            "index": 35,
            "selectedWords": [
                "r\u00e9confortante",
                "reconstituante"
            ],
            "freeResponses": [],
            "nbPlayClick": 1,
            "expression": "ETONNE",
            "csv_id": 11462,
            "video_name": "DIVERS_BOOK_ETONNE_AD_01_0004"
        },
        {
            "name": "1937",
            "score": "0.909",
            "index": 36,
            "selectedWords": [
                "en col\u00e8re",
                "irrit\u00e9e"
            ],
            "freeResponses": [],
            "nbPlayClick": 1,
            "expression": "EVIDENCE",
            "csv_id": 1937,
            "video_name": "DIVERS_PARL_EVIDENCE_AD_01_0001"
        },
        {
            "name": "8789",
            "score": "0.987",
            "index": 37,
            "selectedWords": [
                "suppliante",
                "mendiante"
            ],
            "freeResponses": [],
            "nbPlayClick": 1,
            "expression": "ETONNE",
            "csv_id": 8823,
            "video_name": "DIVERS_PARL_ETONNE_AD_01_0001"
        },
        {
            "name": "6246",
            "score": "0.975",
            "index": 38,
            "selectedWords": [
                "d\u00e9sol\u00e9e",
                "r\u00e9fl\u00e9chie"
            ],
            "freeResponses": [],
            "nbPlayClick": 1,
            "expression": "EVIDENCE",
            "csv_id": 6280,
            "video_name": "DIVERS_BOOK_EVIDENCE_AD_01_0002"
        },
        {
            "name": "3487",
            "score": "0.946",
            "index": 39,
            "selectedWords": [
                "incr\u00e9dule",
                "indiscutable"
            ],
            "freeResponses": [],
            "nbPlayClick": 1,
            "expression": "EVIDENCE",
            "csv_id": 3487,
            "video_name": "DIVERS_PARL_EVIDENCE_AD_01_0001"
        },
        {
            "name": "2206",
            "score": "0.918",
            "index": 40,
            "selectedWords": [
                "enthousiaste",
                "coquine"
            ],
            "freeResponses": [],
            "nbPlayClick": 1,
            "expression": "ENTHOUSIASTE",
            "csv_id": 2206,
            "video_name": "DIVERS_PARL_ENTHOUSIASTE_AD_02_0001"
        },
        {
            "name": "10480",
            "score": "0.993",
            "index": 41,
            "selectedWords": [
                "r\u00e9confortante",
                "encourageante"
            ],
            "freeResponses": [],
            "nbPlayClick": 1,
            "expression": "NEUTRE",
            "csv_id": 10514,
            "video_name": "DIVERS_PARL_AD_03_0004"
        },
        {
            "name": "12198",
            "score": "0.998",
            "index": 42,
            "selectedWords": [
                "enthousiaste",
                "coquine"
            ],
            "freeResponses": [],
            "nbPlayClick": 1,
            "expression": "NEUTRE",
            "csv_id": 12235,
            "video_name": "DIVERS_PARL_AD_02_0004"
        },
        {
            "name": "9747",
            "score": "0.991",
            "index": 43,
            "selectedWords": [
                "d\u00e9termin\u00e9e",
                "transport\u00e9e"
            ],
            "freeResponses": [],
            "nbPlayClick": 1,
            "expression": "NEUTRE",
            "csv_id": 9781,
            "video_name": "DIVERS_PARL_AD_03_0002"
        },
        {
            "name": "12217",
            "score": "0.998",
            "index": 44,
            "selectedWords": [
                "d\u00e9termin\u00e9e",
                "transport\u00e9e"
            ],
            "freeResponses": [],
            "nbPlayClick": 1,
            "expression": "DETERMINE",
            "csv_id": 12254,
            "video_name": "DIVERS_PARL_DETERMINE_AD_01_0004"
        },
        {
            "name": "7835",
            "score": "0.984",
            "index": 45,
            "selectedWords": [
                "r\u00e9confortante",
                "reconstituante"
            ],
            "freeResponses": [],
            "nbPlayClick": 1,
            "expression": "NEUTRE",
            "csv_id": 7869,
            "video_name": "DIVERS_PARL_AD_01_0000"
        },
        {
            "name": "7948",
            "score": "0.984",
            "index": 46,
            "selectedWords": [
                "en col\u00e8re",
                "hargneuse"
            ],
            "freeResponses": [],
            "nbPlayClick": 1,
            "expression": "RECONFORTANT",
            "csv_id": 7982,
            "video_name": "DIVERS_BOOK_RECONFORTANT_AD_01_0002"
        },
        {
            "name": "5957",
            "score": "0.974",
            "index": 47,
            "selectedWords": [
                "d\u00e9sol\u00e9e",
                "rageuse"
            ],
            "freeResponses": [],
            "nbPlayClick": 1,
            "expression": "SUPPLIANT",
            "csv_id": 5991,
            "video_name": "DIVERS_BOOK_SUPPLIANT_AD_01_0004"
        },
        {
            "name": "6955",
            "score": "0.979",
            "index": 48,
            "selectedWords": [
                "suppliante",
                "mendiante"
            ],
            "freeResponses": [],
            "nbPlayClick": 1,
            "expression": "ETONNE",
            "csv_id": 6989,
            "video_name": "DIVERS_PARL_ETONNE_AD_01_0001"
        },
        {
            "name": "5040",
            "score": "0.966",
            "index": 49,
            "selectedWords": [
                "\u00e9tonn\u00e9e",
                "r\u00e9fl\u00e9chie"
            ],
            "freeResponses": [],
            "nbPlayClick": 1,
            "expression": "INCREDULE",
            "csv_id": 5074,
            "video_name": "DIVERS_PARL_INCREDULE_AD_02_0003"
        },
        {
            "name": "10654",
            "score": "0.994",
            "index": 50,
            "selectedWords": [
                "incr\u00e9dule",
                "indiscutable"
            ],
            "freeResponses": [],
            "nbPlayClick": 1,
            "expression": "NEUTRE",
            "csv_id": 10688,
            "video_name": "DIVERS_PARL_AD_05_0003"
        },
        {
            "name": "11314",
            "score": "0.995",
            "index": 51,
            "selectedWords": [
                "r\u00e9confortante",
                "encourageante"
            ],
            "freeResponses": [],
            "nbPlayClick": 1,
            "expression": "NEUTRE",
            "csv_id": 11348,
            "video_name": "DIVERS_PARL_AD_01_0005"
        },
        {
            "name": "8787",
            "score": "0.987",
            "index": 52,
            "selectedWords": [
                "pensive",
                "r\u00e9fl\u00e9chissante"
            ],
            "freeResponses": [],
            "nbPlayClick": 1,
            "expression": "DESOLE",
            "csv_id": 8821,
            "video_name": "DIVERS_PARL_DESOLE_AD_02_0002"
        },
        {
            "name": "3607",
            "score": "0.948",
            "index": 53,
            "selectedWords": [
                "suppliante",
                "priante"
            ],
            "freeResponses": [],
            "nbPlayClick": 2,
            "expression": "ETONNE",
            "csv_id": 3607,
            "video_name": "DIVERS_BOOK_ETONNE_AD_03_0001"
        },
        {
            "name": "6260",
            "score": "0.975",
            "index": 54,
            "selectedWords": [
                "enthousiaste",
                "tonique"
            ],
            "freeResponses": [],
            "nbPlayClick": 1,
            "expression": "INCREDULE",
            "csv_id": 6294,
            "video_name": "DIVERS_PARL_INCREDULE_AD_02_0003"
        },
        {
            "name": "10626",
            "score": "0.993",
            "index": 55,
            "selectedWords": [
                "en col\u00e8re",
                "\u00e9nerv\u00e9e"
            ],
            "freeResponses": [],
            "nbPlayClick": 1,
            "expression": "NEUTRE",
            "csv_id": 10660,
            "video_name": "DIVERS_BOOK_AD_04_0002"
        },
        {
            "name": "11757",
            "score": "0.996",
            "index": 56,
            "selectedWords": [
                "d\u00e9termin\u00e9e",
                "r\u00e9solue"
            ],
            "freeResponses": [],
            "nbPlayClick": 2,
            "expression": "NEUTRE",
            "csv_id": 11794,
            "video_name": "DIVERS_PARL_AD_02_0002"
        },
        {
            "name": "895",
            "score": "0.851",
            "index": 57,
            "selectedWords": [
                "pensive",
                "r\u00eaveuse"
            ],
            "freeResponses": [],
            "nbPlayClick": 1,
            "expression": "INCREDULE",
            "csv_id": 895,
            "video_name": "DIVERS_PARL_INCREDULE_AD_02_0003"
        },
        {
            "name": "11653",
            "score": "0.996",
            "index": 58,
            "selectedWords": [
                "\u00e9vidente",
                "indubitable"
            ],
            "freeResponses": [],
            "nbPlayClick": 1,
            "expression": "NEUTRE",
            "csv_id": 11690,
            "video_name": "DIVERS_PARL_AD_01_0005"
        },
        {
            "name": "10843",
            "score": "0.994",
            "index": 59,
            "selectedWords": [
                "enthousiaste",
                "euphorique"
            ],
            "freeResponses": [],
            "nbPlayClick": 1,
            "expression": "ENTHOUSIASTE",
            "csv_id": 10877,
            "video_name": "DIVERS_BOOK_ENTHOUSIASTE_AD_01_0001"
        }
    ],
    "training": [
        {
            "name": "77",
            "score": "0.639",
            "index": 0,
            "selectedWords": [
                "d\u00e9termin\u00e9e",
                "r\u00e9solue"
            ],
            "freeResponses": [],
            "nbPlayClick": 3,
            "expression": "NEUTRE"
        }
    ],
    "filenameDate": "2024-03-15_22-1"
}