{
    "user": {
        "isProlific": true,
        "id": "6603fe7cc56884dba3e2f488",
        "session": "662f879e3005c9a1f16685fd",
        "study": "64ef977375f88e4e1174dce0"
    },
    "userAgent": "Mozilla/5.0 (Windows NT 10.0; Win64; x64) AppleWebKit/537.36 (KHTML, like Gecko) Chrome/123.0.0.0 Safari/537.36",
    "landingDate": "2024-04-29T11:42:49.720Z",
    "startDate": "2024-04-29T11:45:06.988Z",
    "endDate": "2024-04-29T12:21:26.371Z",
    "reviews": [
        {
            "name": "965",
            "score": "0.858",
            "index": 0,
            "selectedWords": [
                "autre",
                "fac\u00e9tieuse",
                "autre",
                "opini\u00e2tre"
            ],
            "freeResponses": [],
            "nbPlayClick": 1,
            "expression": "INCREDULE",
            "csv_id": 965,
            "video_name": "DIVERS_BOOK_INCREDULE_AD_01_0001"
        },
        {
            "name": "9416",
            "score": "0.990",
            "index": 1,
            "selectedWords": [
                "enthousiaste",
                "coquine"
            ],
            "freeResponses": [],
            "nbPlayClick": 1,
            "expression": "NEUTRE",
            "csv_id": 9450,
            "video_name": "DIVERS_PARL_AD_01_0004"
        },
        {
            "name": "3081",
            "score": "0.940",
            "index": 2,
            "selectedWords": [
                "autre",
                "autre",
                "autre",
                "vivifiante",
                "stimulante"
            ],
            "freeResponses": [],
            "nbPlayClick": 1,
            "expression": "NEUTRE",
            "csv_id": 3081,
            "video_name": "DIVERS_PARL_AD_05_0001"
        },
        {
            "name": "532",
            "score": "0.810",
            "index": 3,
            "selectedWords": [
                "autre",
                "autre",
                "apaisante",
                "reconstituante"
            ],
            "freeResponses": [],
            "nbPlayClick": 1,
            "expression": "INCREDULE",
            "csv_id": 532,
            "video_name": "DIVERS_PARL_INCREDULE_AD_01_0001"
        },
        {
            "name": "5416",
            "score": "0.969",
            "index": 4,
            "selectedWords": [
                "d\u00e9sol\u00e9e",
                "rageuse"
            ],
            "freeResponses": [],
            "nbPlayClick": 1,
            "expression": "EVIDENCE",
            "csv_id": 5450,
            "video_name": "DIVERS_PARL_EVIDENCE_AD_02_0002"
        },
        {
            "name": "6174",
            "score": "0.975",
            "index": 5,
            "selectedWords": [
                "d\u00e9termin\u00e9e",
                "manifeste"
            ],
            "freeResponses": [],
            "nbPlayClick": 1,
            "expression": "NEUTRE",
            "csv_id": 6208,
            "video_name": "DIVERS_PARL_AD_06_0004"
        },
        {
            "name": "6455",
            "score": "0.977",
            "index": 6,
            "selectedWords": [
                "enthousiaste",
                "triomphale"
            ],
            "freeResponses": [],
            "nbPlayClick": 1,
            "expression": "ESPIEGLE",
            "csv_id": 6489,
            "video_name": "DIVERS_PARL_ESPIEGLE_AD_01_0001"
        },
        {
            "name": "8376",
            "score": "0.986",
            "index": 7,
            "selectedWords": [
                "autre",
                "autre",
                "autre",
                "vivifiante",
                "pensante"
            ],
            "freeResponses": [],
            "nbPlayClick": 1,
            "expression": "NEUTRE",
            "csv_id": 8410,
            "video_name": "DIVERS_PARL_AD_04_0003"
        },
        {
            "name": "5323",
            "score": "0.968",
            "index": 8,
            "selectedWords": [
                "\u00e9vidente",
                "prouv\u00e9e"
            ],
            "freeResponses": [],
            "nbPlayClick": 1,
            "expression": "NEUTRE",
            "csv_id": 5357,
            "video_name": "DIVERS_PARL_AD_04_0001"
        },
        {
            "name": "8381",
            "score": "0.986",
            "index": 9,
            "selectedWords": [
                "en col\u00e8re",
                "irrit\u00e9e"
            ],
            "freeResponses": [],
            "nbPlayClick": 1,
            "expression": "DETERMINE",
            "csv_id": 8415,
            "video_name": "DIVERS_BOOK_DETERMINE_AD_03_0001"
        },
        {
            "name": "623",
            "score": "0.824",
            "index": 10,
            "selectedWords": [
                "suppliante",
                "implorante"
            ],
            "freeResponses": [],
            "nbPlayClick": 1,
            "expression": "EVIDENCE",
            "csv_id": 623,
            "video_name": "DIVERS_PARL_EVIDENCE_AD_02_0002"
        },
        {
            "name": "5541",
            "score": "0.970",
            "index": 11,
            "selectedWords": [
                "neutre",
                "s\u00fbre"
            ],
            "freeResponses": [],
            "nbPlayClick": 1,
            "expression": "RECONFORTANT",
            "csv_id": 5575,
            "video_name": "DIVERS_PARL_RECONFORTANT_AD_02_0001"
        },
        {
            "name": "8123",
            "score": "0.985",
            "index": 12,
            "selectedWords": [
                "\u00e9vidente",
                "incontestable"
            ],
            "freeResponses": [],
            "nbPlayClick": 1,
            "expression": "NEUTRE",
            "csv_id": 8157,
            "video_name": "DIVERS_PARL_AD_06_0003"
        },
        {
            "name": "6797",
            "score": "0.978",
            "index": 13,
            "selectedWords": [
                "\u00e9vidente",
                "incontestable"
            ],
            "freeResponses": [],
            "nbPlayClick": 1,
            "expression": "NEUTRE",
            "csv_id": 6831,
            "video_name": "DIVERS_PARL_AD_06_0001"
        },
        {
            "name": "9347",
            "score": "0.989",
            "index": 14,
            "selectedWords": [
                "autre",
                "autre",
                "autre",
                "autre",
                "encourageante",
                "mendiante"
            ],
            "freeResponses": [],
            "nbPlayClick": 2,
            "expression": "DETERMINE",
            "csv_id": 9381,
            "video_name": "DIVERS_PARL_DETERMINE_AD_01_0004"
        },
        {
            "name": "3956",
            "score": "0.953",
            "index": 15,
            "selectedWords": [
                "\u00e9vidente",
                "autre",
                "autre",
                "autre",
                "autre",
                "apaisante"
            ],
            "freeResponses": [],
            "nbPlayClick": 2,
            "expression": "RECONFORTANT",
            "csv_id": 3956,
            "video_name": "DIVERS_PARL_RECONFORTANT_AD_02_0001"
        },
        {
            "name": "1298",
            "score": "0.881",
            "index": 16,
            "selectedWords": [
                "\u00e9vidente",
                "autre",
                "autre",
                "autre",
                "vivifiante"
            ],
            "freeResponses": [],
            "nbPlayClick": 1,
            "expression": "EVIDENCE",
            "csv_id": 1298,
            "video_name": "DIVERS_PARL_EVIDENCE_AD_02_0002"
        },
        {
            "name": "9123",
            "score": "0.989",
            "index": 17,
            "selectedWords": [
                "autre",
                "autre",
                "apaisante",
                "pensante"
            ],
            "freeResponses": [],
            "nbPlayClick": 2,
            "expression": "DESOLE",
            "csv_id": 9157,
            "video_name": "DIVERS_PARL_DESOLE_AD_02_0002"
        },
        {
            "name": "345",
            "score": "0.775",
            "index": 18,
            "selectedWords": [
                "en col\u00e8re",
                "en rage"
            ],
            "freeResponses": [],
            "nbPlayClick": 2,
            "expression": "DETERMINE",
            "csv_id": 345,
            "video_name": "ESTYLE_DETERMINE_AD_02_0001"
        },
        {
            "name": "6782",
            "score": "0.978",
            "index": 19,
            "selectedWords": [
                "\u00e9vidente",
                "incontestable"
            ],
            "freeResponses": [],
            "nbPlayClick": 2,
            "expression": "NEUTRE",
            "csv_id": 6816,
            "video_name": "DIVERS_PARL_AD_02_0004"
        },
        {
            "name": "12320",
            "score": "0.998",
            "index": 20,
            "selectedWords": [
                "espi\u00e8gle",
                "taquine"
            ],
            "freeResponses": [],
            "nbPlayClick": 1,
            "expression": "PENSIF",
            "csv_id": 12357,
            "video_name": "DIVERS_BOOK_PENSIF_AD_01_0003"
        },
        {
            "name": "7148",
            "score": "0.980",
            "index": 21,
            "selectedWords": [
                "\u00e9tonn\u00e9e",
                "r\u00e9fl\u00e9chie"
            ],
            "freeResponses": [],
            "nbPlayClick": 1,
            "expression": "SUPPLIANT",
            "csv_id": 7182,
            "video_name": "DIVERS_PARL_SUPPLIANT_AD_02_0001"
        },
        {
            "name": "3438",
            "score": "0.946",
            "index": 22,
            "selectedWords": [
                "d\u00e9termin\u00e9e",
                "coquine"
            ],
            "freeResponses": [],
            "nbPlayClick": 1,
            "expression": "DESOLE",
            "csv_id": 3438,
            "video_name": "DIVERS_PARL_DESOLE_AD_01_0004"
        },
        {
            "name": "8481",
            "score": "0.986",
            "index": 23,
            "selectedWords": [
                "neutre",
                "certaine"
            ],
            "freeResponses": [],
            "nbPlayClick": 2,
            "expression": "NEUTRE",
            "csv_id": 8515,
            "video_name": "DIVERS_BOOK_AD_03_0002"
        },
        {
            "name": "4291",
            "score": "0.958",
            "index": 24,
            "selectedWords": [
                "enthousiaste",
                "triomphale"
            ],
            "freeResponses": [],
            "nbPlayClick": 1,
            "expression": "RECONFORTANT",
            "csv_id": 4291,
            "video_name": "DIVERS_BOOK_RECONFORTANT_AD_03_0002"
        },
        {
            "name": "6339",
            "score": "0.976",
            "index": 25,
            "selectedWords": [
                "pensive",
                "r\u00e9fl\u00e9chie"
            ],
            "freeResponses": [],
            "nbPlayClick": 1,
            "expression": "SUPPLIANT",
            "csv_id": 6373,
            "video_name": "DIVERS_PARL_SUPPLIANT_AD_02_0001"
        },
        {
            "name": "8515",
            "score": "0.986",
            "index": 26,
            "selectedWords": [
                "\u00e9vidente",
                "prouv\u00e9e"
            ],
            "freeResponses": [],
            "nbPlayClick": 1,
            "expression": "NEUTRE",
            "csv_id": 8549,
            "video_name": "DIVERS_PARL_AD_06_0003"
        },
        {
            "name": "9215",
            "score": "0.989",
            "index": 27,
            "selectedWords": [
                "neutre",
                "patente"
            ],
            "freeResponses": [],
            "nbPlayClick": 1,
            "expression": "NEUTRE",
            "csv_id": 9249,
            "video_name": "DIVERS_PARL_AD_06_0004"
        },
        {
            "name": "5864",
            "score": "0.973",
            "index": 28,
            "selectedWords": [
                "\u00e9vidente",
                "incontestable"
            ],
            "freeResponses": [],
            "nbPlayClick": 1,
            "expression": "NEUTRE",
            "csv_id": 5898,
            "video_name": "DIVERS_PARL_AD_06_0004"
        },
        {
            "name": "11066",
            "score": "0.994",
            "index": 29,
            "selectedWords": [
                "pensive",
                "r\u00e9fl\u00e9chissante"
            ],
            "freeResponses": [],
            "nbPlayClick": 1,
            "expression": "PENSIF",
            "csv_id": 11100,
            "video_name": "DIVERS_PARL_PENSIF_AD_01_0002"
        },
        {
            "name": "12102",
            "score": "0.997",
            "index": 30,
            "selectedWords": [
                "\u00e9vidente",
                "prouv\u00e9e"
            ],
            "freeResponses": [],
            "nbPlayClick": 1,
            "expression": "NEUTRE",
            "csv_id": 12139,
            "video_name": "DIVERS_PARL_AD_02_0002"
        },
        {
            "name": "9146",
            "score": "0.989",
            "index": 31,
            "selectedWords": [
                "r\u00e9confortante",
                "encourageante"
            ],
            "freeResponses": [],
            "nbPlayClick": 1,
            "expression": "NEUTRE",
            "csv_id": 9180,
            "video_name": "DIVERS_PARL_AD_02_0001"
        },
        {
            "name": "11643",
            "score": "0.996",
            "index": 32,
            "selectedWords": [
                "\u00e9vidente",
                "manifeste"
            ],
            "freeResponses": [],
            "nbPlayClick": 1,
            "expression": "NEUTRE",
            "csv_id": 11680,
            "video_name": "DIVERS_BOOK_AD_01_0002"
        },
        {
            "name": "10111",
            "score": "0.992",
            "index": 33,
            "selectedWords": [
                "enthousiaste",
                "\u00e9loquente"
            ],
            "freeResponses": [],
            "nbPlayClick": 1,
            "expression": "DETERMINE",
            "csv_id": 10145,
            "video_name": "DIVERS_BOOK_DETERMINE_AD_03_0001"
        },
        {
            "name": "9253",
            "score": "0.989",
            "index": 34,
            "selectedWords": [
                "autre",
                "implorante",
                "priante"
            ],
            "freeResponses": [],
            "nbPlayClick": 1,
            "expression": "NEUTRE",
            "csv_id": 9287,
            "video_name": "DIVERS_PARL_AD_01_0005"
        },
        {
            "name": "7670",
            "score": "0.983",
            "index": 35,
            "selectedWords": [
                "autre",
                "autre",
                "d\u00e9lur\u00e9e",
                "rus\u00e9e"
            ],
            "freeResponses": [],
            "nbPlayClick": 1,
            "expression": "PENSIF",
            "csv_id": 7704,
            "video_name": "DIVERS_BOOK_PENSIF_AD_01_0003"
        },
        {
            "name": "10646",
            "score": "0.993",
            "index": 36,
            "selectedWords": [
                "pensive",
                "r\u00e9fl\u00e9chie"
            ],
            "freeResponses": [],
            "nbPlayClick": 1,
            "expression": "NEUTRE",
            "csv_id": 10680,
            "video_name": "DIVERS_PARL_AD_03_0001"
        },
        {
            "name": "6203",
            "score": "0.975",
            "index": 37,
            "selectedWords": [
                "neutre",
                "certaine"
            ],
            "freeResponses": [],
            "nbPlayClick": 1,
            "expression": "NEUTRE",
            "csv_id": 6237,
            "video_name": "DIVERS_BOOK_AD_03_0001"
        },
        {
            "name": "2490",
            "score": "0.926",
            "index": 38,
            "selectedWords": [
                "neutre",
                "s\u00fbre"
            ],
            "freeResponses": [],
            "nbPlayClick": 1,
            "expression": "NEUTRE",
            "csv_id": 2490,
            "video_name": "DIVERS_PARL_AD_01_0002"
        },
        {
            "name": "7420",
            "score": "0.982",
            "index": 39,
            "selectedWords": [
                "enthousiaste",
                "triomphale"
            ],
            "freeResponses": [],
            "nbPlayClick": 2,
            "expression": "RECONFORTANT",
            "csv_id": 7454,
            "video_name": "DIVERS_BOOK_RECONFORTANT_AD_01_0004"
        },
        {
            "name": "11580",
            "score": "0.996",
            "index": 40,
            "selectedWords": [
                "neutre",
                "s\u00fbre"
            ],
            "freeResponses": [],
            "nbPlayClick": 1,
            "expression": "NEUTRE",
            "csv_id": 11617,
            "video_name": "DIVERS_PARL_AD_02_0002"
        },
        {
            "name": "8420",
            "score": "0.986",
            "index": 41,
            "selectedWords": [
                "\u00e9vidente",
                "incontestable"
            ],
            "freeResponses": [],
            "nbPlayClick": 1,
            "expression": "DETERMINE",
            "csv_id": 8454,
            "video_name": "DIVERS_PARL_DETERMINE_AD_01_0002"
        },
        {
            "name": "3405",
            "score": "0.945",
            "index": 42,
            "selectedWords": [
                "enthousiaste",
                "\u00e9loquente"
            ],
            "freeResponses": [],
            "nbPlayClick": 1,
            "expression": "RECONFORTANT",
            "csv_id": 3405,
            "video_name": "DIVERS_BOOK_RECONFORTANT_AD_01_0004"
        },
        {
            "name": "4860",
            "score": "0.964",
            "index": 43,
            "selectedWords": [
                "autre",
                "fac\u00e9tieuse",
                "d\u00e9lur\u00e9e"
            ],
            "freeResponses": [],
            "nbPlayClick": 1,
            "expression": "INCREDULE",
            "csv_id": 4894,
            "video_name": "DIVERS_PARL_INCREDULE_AD_02_0003"
        },
        {
            "name": "5959",
            "score": "0.974",
            "index": 44,
            "selectedWords": [
                "\u00e9tonn\u00e9e",
                "nette"
            ],
            "freeResponses": [],
            "nbPlayClick": 3,
            "expression": "EVIDENCE",
            "csv_id": 5993,
            "video_name": "DIVERS_BOOK_EVIDENCE_AD_01_0002"
        },
        {
            "name": "11329",
            "score": "0.995",
            "index": 45,
            "selectedWords": [
                "autre",
                "autre",
                "autre",
                "vivifiante",
                "autre",
                "indign\u00e9e"
            ],
            "freeResponses": [],
            "nbPlayClick": 1,
            "expression": "NEUTRE",
            "csv_id": 11363,
            "video_name": "DIVERS_PARL_AD_03_0003"
        },
        {
            "name": "3938",
            "score": "0.953",
            "index": 46,
            "selectedWords": [
                "autre",
                "autre",
                "autre",
                "autre",
                "autre",
                "opini\u00e2tre",
                "passionn\u00e9e"
            ],
            "freeResponses": [],
            "nbPlayClick": 3,
            "expression": "ETONNE",
            "csv_id": 3938,
            "video_name": "DIVERS_BOOK_ETONNE_AD_01_0002"
        },
        {
            "name": "11332",
            "score": "0.995",
            "index": 47,
            "selectedWords": [
                "\u00e9vidente",
                "prouv\u00e9e"
            ],
            "freeResponses": [],
            "nbPlayClick": 1,
            "expression": "NEUTRE",
            "csv_id": 11366,
            "video_name": "DIVERS_PARL_AD_01_0006"
        },
        {
            "name": "11755",
            "score": "0.996",
            "index": 48,
            "selectedWords": [
                "enthousiaste",
                "triomphale"
            ],
            "freeResponses": [],
            "nbPlayClick": 1,
            "expression": "ENTHOUSIASTE",
            "csv_id": 11792,
            "video_name": "DIVERS_BOOK_ENTHOUSIASTE_AD_01_0001"
        },
        {
            "name": "7383",
            "score": "0.981",
            "index": 49,
            "selectedWords": [
                "pensive",
                "r\u00e9fl\u00e9chie"
            ],
            "freeResponses": [],
            "nbPlayClick": 1,
            "expression": "NEUTRE",
            "csv_id": 7417,
            "video_name": "DIVERS_PARL_AD_02_0002"
        },
        {
            "name": "12072",
            "score": "0.997",
            "index": 50,
            "selectedWords": [
                "\u00e9vidente",
                "incontestable"
            ],
            "freeResponses": [],
            "nbPlayClick": 1,
            "expression": "NEUTRE",
            "csv_id": 12109,
            "video_name": "DIVERS_BOOK_AD_04_0001"
        },
        {
            "name": "2194",
            "score": "0.918",
            "index": 51,
            "selectedWords": [
                "\u00e9vidente",
                "autre",
                "autre",
                "m\u00e9fiante"
            ],
            "freeResponses": [],
            "nbPlayClick": 1,
            "expression": "EVIDENCE",
            "csv_id": 2194,
            "video_name": "DIVERS_PARL_EVIDENCE_AD_02_0002"
        },
        {
            "name": "5156",
            "score": "0.967",
            "index": 52,
            "selectedWords": [
                "enthousiaste",
                "coquine"
            ],
            "freeResponses": [],
            "nbPlayClick": 1,
            "expression": "ENTHOUSIASTE",
            "csv_id": 5190,
            "video_name": "DIVERS_PARL_ENTHOUSIASTE_AD_01_0003"
        },
        {
            "name": "6608",
            "score": "0.977",
            "index": 53,
            "selectedWords": [
                "\u00e9vidente",
                "incontestable"
            ],
            "freeResponses": [],
            "nbPlayClick": 1,
            "expression": "NEUTRE",
            "csv_id": 6642,
            "video_name": "DIVERS_PARL_AD_06_0001"
        },
        {
            "name": "11219",
            "score": "0.995",
            "index": 54,
            "selectedWords": [
                "neutre",
                "certaine"
            ],
            "freeResponses": [],
            "nbPlayClick": 2,
            "expression": "NEUTRE",
            "csv_id": 11253,
            "video_name": "DIVERS_PARL_AD_05_0004"
        },
        {
            "name": "12148",
            "score": "0.997",
            "index": 55,
            "selectedWords": [
                "neutre",
                "s\u00fbre"
            ],
            "freeResponses": [],
            "nbPlayClick": 3,
            "expression": "NEUTRE",
            "csv_id": 12185,
            "video_name": "DIVERS_BOOK_AD_04_0002"
        },
        {
            "name": "8486",
            "score": "0.986",
            "index": 56,
            "selectedWords": [
                "r\u00e9confortante",
                "apaisante"
            ],
            "freeResponses": [],
            "nbPlayClick": 1,
            "expression": "NEUTRE",
            "csv_id": 8520,
            "video_name": "DIVERS_PARL_AD_05_0001"
        },
        {
            "name": "9019",
            "score": "0.988",
            "index": 57,
            "selectedWords": [
                "enthousiaste",
                "triomphale"
            ],
            "freeResponses": [],
            "nbPlayClick": 1,
            "expression": "ENTHOUSIASTE",
            "csv_id": 9053,
            "video_name": "DIVERS_BOOK_ENTHOUSIASTE_AD_01_0001"
        },
        {
            "name": "9622",
            "score": "0.990",
            "index": 58,
            "selectedWords": [
                "d\u00e9termin\u00e9e",
                "r\u00e9fl\u00e9chie"
            ],
            "freeResponses": [],
            "nbPlayClick": 1,
            "expression": "NEUTRE",
            "csv_id": 9656,
            "video_name": "DIVERS_PARL_AD_02_0003"
        },
        {
            "name": "9734",
            "score": "0.991",
            "index": 59,
            "selectedWords": [
                "pensive",
                "r\u00e9fl\u00e9chie"
            ],
            "freeResponses": [],
            "nbPlayClick": 1,
            "expression": "NEUTRE",
            "csv_id": 9768,
            "video_name": "DIVERS_BOOK_AD_04_0002"
        }
    ],
    "training": [
        {
            "name": "77",
            "score": "0.639",
            "index": 0,
            "selectedWords": [
                "\u00e9vidente",
                "manifeste"
            ],
            "freeResponses": [],
            "nbPlayClick": 2,
            "expression": "NEUTRE"
        }
    ],
    "filenameDate": "2024-04-29_6-21"
}