{
    "user": {
        "isProlific": true,
        "id": "6606c4556255426341f44b02",
        "session": "6606e39b6f3484d31897efb9",
        "study": "64ef977375f88e4e1174dce0"
    },
    "userAgent": "Mozilla/5.0 (Macintosh; Intel Mac OS X 10_15_7) AppleWebKit/537.36 (KHTML, like Gecko) Chrome/123.0.0.0 Safari/537.36",
    "landingDate": "2024-03-29T15:52:06.274Z",
    "startDate": "2024-03-29T15:53:47.157Z",
    "endDate": "2024-03-29T16:25:16.963Z",
    "reviews": [
        {
            "name": "9854",
            "score": "0.991",
            "index": 0,
            "selectedWords": [
                "indign\u00e9e",
                "d\u00e9courag\u00e9e"
            ],
            "freeResponses": [],
            "nbPlayClick": 3,
            "response": "",
            "expression": "NEUTRE",
            "csv_id": 9888,
            "video_name": "DIVERS_PARL_AD_06_0001"
        },
        {
            "name": "6369",
            "score": "0.976",
            "index": 1,
            "selectedWords": [
                "neutre",
                "absente"
            ],
            "freeResponses": [],
            "nbPlayClick": 2,
            "expression": "NEUTRE",
            "csv_id": 6403,
            "video_name": "DIVERS_PARL_AD_06_0002"
        },
        {
            "name": "9805",
            "score": "0.991",
            "index": 2,
            "selectedWords": [
                "contrari\u00e9e",
                "emb\u00eat\u00e9e"
            ],
            "freeResponses": [],
            "nbPlayClick": 1,
            "expression": "PENSIF",
            "csv_id": 9839,
            "video_name": "DIVERS_BOOK_PENSIF_AD_03_0002"
        },
        {
            "name": "7697",
            "score": "0.983",
            "index": 3,
            "selectedWords": [
                "d\u00e9concert\u00e9e",
                "h\u00e9b\u00e9t\u00e9e"
            ],
            "freeResponses": [],
            "nbPlayClick": 1,
            "expression": "NEUTRE",
            "csv_id": 7731,
            "video_name": "DIVERS_PARL_AD_03_0004"
        },
        {
            "name": "1441",
            "score": "0.888",
            "index": 4,
            "selectedWords": [
                "suppliante",
                "prostern\u00e9e"
            ],
            "freeResponses": [],
            "nbPlayClick": 1,
            "expression": "PENSIF",
            "csv_id": 1441,
            "video_name": "ESTYLE_PENSIF_AD_02_0001"
        },
        {
            "name": "4240",
            "score": "0.957",
            "index": 5,
            "selectedWords": [
                "pensive",
                "r\u00e9fl\u00e9chissante"
            ],
            "freeResponses": [],
            "nbPlayClick": 1,
            "expression": "PENSIF",
            "csv_id": 4240,
            "video_name": "DIVERS_PARL_PENSIF_AD_01_0002"
        },
        {
            "name": "1890",
            "score": "0.908",
            "index": 6,
            "selectedWords": [
                "enthousiaste",
                "autre",
                "autre",
                "\u00e9bahie"
            ],
            "freeResponses": [],
            "nbPlayClick": 2,
            "expression": "ENTHOUSIASTE",
            "csv_id": 1890,
            "video_name": "DIVERS_PARL_ENTHOUSIASTE_AD_01_0003"
        },
        {
            "name": "11714",
            "score": "0.996",
            "index": 7,
            "selectedWords": [
                "neutre",
                "autre",
                "imp\u00e9n\u00e9trable"
            ],
            "freeResponses": [],
            "nbPlayClick": 1,
            "expression": "NEUTRE",
            "csv_id": 11751,
            "video_name": "DIVERS_BOOK_AD_04_0002"
        },
        {
            "name": "1607",
            "score": "0.896",
            "index": 8,
            "selectedWords": [
                "\u00e9vidente",
                "autre",
                "autre",
                "neutre"
            ],
            "freeResponses": [],
            "nbPlayClick": 1,
            "response": "neut",
            "expression": "NEUTRE",
            "csv_id": 1607,
            "video_name": "DIVERS_PARL_AD_04_0004"
        },
        {
            "name": "5323",
            "score": "0.968",
            "index": 9,
            "selectedWords": [
                "neutre",
                "notoire"
            ],
            "freeResponses": [],
            "nbPlayClick": 2,
            "expression": "NEUTRE",
            "csv_id": 5357,
            "video_name": "DIVERS_PARL_AD_04_0001"
        },
        {
            "name": "7476",
            "score": "0.982",
            "index": 10,
            "selectedWords": [
                "d\u00e9termin\u00e9e",
                "r\u00e9solue"
            ],
            "freeResponses": [],
            "nbPlayClick": 1,
            "expression": "NEUTRE",
            "csv_id": 7510,
            "video_name": "DIVERS_PARL_AD_03_0003"
        },
        {
            "name": "4131",
            "score": "0.956",
            "index": 11,
            "selectedWords": [
                "neutre",
                "autre",
                "attrist\u00e9e"
            ],
            "freeResponses": [],
            "nbPlayClick": 2,
            "expression": "DESOLE",
            "csv_id": 4131,
            "video_name": "DIVERS_BOOK_DESOLE_AD_03_0002"
        },
        {
            "name": "6947",
            "score": "0.979",
            "index": 12,
            "selectedWords": [
                "neutre",
                "s\u00fbre"
            ],
            "freeResponses": [],
            "nbPlayClick": 1,
            "expression": "NEUTRE",
            "csv_id": 6981,
            "video_name": "DIVERS_BOOK_AD_03_0001"
        },
        {
            "name": "4680",
            "score": "0.963",
            "index": 13,
            "selectedWords": [
                "d\u00e9termin\u00e9e",
                "r\u00e9solue"
            ],
            "freeResponses": [],
            "nbPlayClick": 3,
            "expression": "NEUTRE",
            "csv_id": 4714,
            "video_name": "DIVERS_PARL_AD_01_0002"
        },
        {
            "name": "6535",
            "score": "0.977",
            "index": 14,
            "selectedWords": [
                "espi\u00e8gle",
                "narquoise"
            ],
            "freeResponses": [],
            "nbPlayClick": 4,
            "expression": "RECONFORTANT",
            "csv_id": 6569,
            "video_name": "DIVERS_BOOK_RECONFORTANT_AD_03_0002"
        },
        {
            "name": "8522",
            "score": "0.986",
            "index": 15,
            "selectedWords": [
                "pensive",
                "m\u00e9ditative"
            ],
            "freeResponses": [],
            "nbPlayClick": 1,
            "expression": "PENSIF",
            "csv_id": 8556,
            "video_name": "DIVERS_PARL_PENSIF_AD_01_0002"
        },
        {
            "name": "5427",
            "score": "0.969",
            "index": 16,
            "selectedWords": [
                "d\u00e9termin\u00e9e",
                "r\u00e9solue"
            ],
            "freeResponses": [],
            "nbPlayClick": 1,
            "expression": "NEUTRE",
            "csv_id": 5461,
            "video_name": "DIVERS_PARL_AD_03_0003"
        },
        {
            "name": "3505",
            "score": "0.947",
            "index": 17,
            "selectedWords": [
                "\u00e9vidente",
                "indubitable"
            ],
            "freeResponses": [],
            "nbPlayClick": 2,
            "expression": "NEUTRE",
            "csv_id": 3505,
            "video_name": "DIVERS_BOOK_AD_04_0001"
        },
        {
            "name": "7366",
            "score": "0.981",
            "index": 18,
            "selectedWords": [
                "\u00e9vidente",
                "irr\u00e9cusable",
                "certaine"
            ],
            "freeResponses": [],
            "nbPlayClick": 1,
            "expression": "DESOLE",
            "csv_id": 7400,
            "video_name": "DIVERS_PARL_DESOLE_AD_01_0004"
        },
        {
            "name": "11391",
            "score": "0.995",
            "index": 19,
            "selectedWords": [
                "\u00e9tonn\u00e9e",
                "autre",
                "\u00e9berlu\u00e9e"
            ],
            "freeResponses": [],
            "nbPlayClick": 1,
            "expression": "ETONNE",
            "csv_id": 11425,
            "video_name": "DIVERS_BOOK_ETONNE_AD_01_0002"
        },
        {
            "name": "10400",
            "score": "0.993",
            "index": 20,
            "selectedWords": [
                "\u00e9vidente",
                "incontestable"
            ],
            "freeResponses": [],
            "nbPlayClick": 2,
            "expression": "NEUTRE",
            "csv_id": 10434,
            "video_name": "DIVERS_PARL_AD_01_0006"
        },
        {
            "name": "1947",
            "score": "0.910",
            "index": 21,
            "selectedWords": [
                "neutre",
                "limpide"
            ],
            "freeResponses": [],
            "nbPlayClick": 2,
            "expression": "NEUTRE",
            "csv_id": 1947,
            "video_name": "DIVERS_PARL_AD_01_0004"
        },
        {
            "name": "9746",
            "score": "0.991",
            "index": 22,
            "selectedWords": [
                "\u00e9tonn\u00e9e",
                "sinc\u00e8re"
            ],
            "freeResponses": [],
            "nbPlayClick": 1,
            "expression": "NEUTRE",
            "csv_id": 9780,
            "video_name": "DIVERS_BOOK_AD_03_0001"
        },
        {
            "name": "8087",
            "score": "0.985",
            "index": 23,
            "selectedWords": [
                "\u00e9vidente",
                "manifeste"
            ],
            "freeResponses": [],
            "nbPlayClick": 3,
            "expression": "NEUTRE",
            "csv_id": 8121,
            "video_name": "DIVERS_PARL_AD_06_0001"
        },
        {
            "name": "769",
            "score": "0.839",
            "index": 24,
            "selectedWords": [
                "incr\u00e9dule",
                "sinc\u00e8re"
            ],
            "freeResponses": [],
            "nbPlayClick": 2,
            "expression": "EVIDENCE",
            "csv_id": 769,
            "video_name": "DIVERS_BOOK_EVIDENCE_AD_01_0002"
        },
        {
            "name": "11446",
            "score": "0.996",
            "index": 25,
            "selectedWords": [
                "suppliante",
                "larmoyante"
            ],
            "freeResponses": [],
            "nbPlayClick": 1,
            "expression": "SUPPLIANT",
            "csv_id": 11483,
            "video_name": "DIVERS_BOOK_SUPPLIANT_AD_01_0002"
        },
        {
            "name": "12231",
            "score": "0.998",
            "index": 26,
            "selectedWords": [
                "neutre",
                "incr\u00e9dule"
            ],
            "freeResponses": [],
            "nbPlayClick": 2,
            "response": "incr",
            "expression": "NEUTRE",
            "csv_id": 12268,
            "video_name": "DIVERS_BOOK_AD_03_0002"
        },
        {
            "name": "11395",
            "score": "0.995",
            "index": 27,
            "selectedWords": [
                "pensive",
                "songeuse",
                "autre",
                "fac\u00e9tieuse"
            ],
            "freeResponses": [],
            "nbPlayClick": 2,
            "response": "",
            "expression": "PENSIF",
            "csv_id": 11429,
            "video_name": "DIVERS_BOOK_PENSIF_AD_01_0003"
        },
        {
            "name": "11340",
            "score": "0.995",
            "index": 28,
            "selectedWords": [
                "neutre",
                "patente"
            ],
            "freeResponses": [],
            "nbPlayClick": 1,
            "expression": "NEUTRE",
            "csv_id": 11374,
            "video_name": "DIVERS_PARL_AD_05_0004"
        },
        {
            "name": "3184",
            "score": "0.942",
            "index": 29,
            "selectedWords": [
                "neutre",
                "notoire"
            ],
            "freeResponses": [],
            "nbPlayClick": 1,
            "expression": "NEUTRE",
            "csv_id": 3184,
            "video_name": "DIVERS_PARL_AD_06_0004"
        },
        {
            "name": "2023",
            "score": "0.912",
            "index": 30,
            "selectedWords": [
                "enthousiaste",
                "euphorique"
            ],
            "freeResponses": [],
            "nbPlayClick": 1,
            "expression": "ENTHOUSIASTE",
            "csv_id": 2023,
            "video_name": "DIVERS_BOOK_ENTHOUSIASTE_AD_01_0004"
        },
        {
            "name": "10572",
            "score": "0.993",
            "index": 31,
            "selectedWords": [
                "neutre",
                "limpide",
                "froide"
            ],
            "freeResponses": [],
            "nbPlayClick": 1,
            "expression": "NEUTRE",
            "csv_id": 10606,
            "video_name": "DIVERS_BOOK_AD_04_0001"
        },
        {
            "name": "11205",
            "score": "0.995",
            "index": 32,
            "selectedWords": [
                "espi\u00e8gle",
                "narquoise"
            ],
            "freeResponses": [],
            "nbPlayClick": 1,
            "expression": "NEUTRE",
            "csv_id": 11239,
            "video_name": "DIVERS_BOOK_AD_01_0001"
        },
        {
            "name": "9275",
            "score": "0.989",
            "index": 33,
            "selectedWords": [
                "autre",
                "\u00e9berlu\u00e9e",
                "h\u00e9b\u00e9t\u00e9e"
            ],
            "freeResponses": [],
            "nbPlayClick": 2,
            "response": "",
            "expression": "NEUTRE",
            "csv_id": 9309,
            "video_name": "DIVERS_BOOK_AD_01_0001"
        },
        {
            "name": "2760",
            "score": "0.933",
            "index": 34,
            "selectedWords": [
                "d\u00e9termin\u00e9e",
                "r\u00e9solue"
            ],
            "freeResponses": [],
            "nbPlayClick": 1,
            "expression": "NEUTRE",
            "csv_id": 2760,
            "video_name": "DIVERS_PARL_AD_01_0005"
        },
        {
            "name": "3757",
            "score": "0.951",
            "index": 35,
            "selectedWords": [
                "d\u00e9termin\u00e9e",
                "coquine"
            ],
            "freeResponses": [],
            "nbPlayClick": 1,
            "response": "",
            "expression": "ENTHOUSIASTE",
            "csv_id": 3757,
            "video_name": "DIVERS_PARL_ENTHOUSIASTE_AD_01_0003"
        },
        {
            "name": "6492",
            "score": "0.977",
            "index": 36,
            "selectedWords": [
                "incr\u00e9dule",
                "convaincue"
            ],
            "freeResponses": [],
            "nbPlayClick": 1,
            "expression": "NEUTRE",
            "csv_id": 6526,
            "video_name": "DIVERS_PARL_AD_05_0002"
        },
        {
            "name": "8656",
            "score": "0.987",
            "index": 37,
            "selectedWords": [
                "neutre",
                "certaine",
                "nette"
            ],
            "freeResponses": [],
            "nbPlayClick": 1,
            "expression": "NEUTRE",
            "csv_id": 8690,
            "video_name": "DIVERS_PARL_AD_06_0003"
        },
        {
            "name": "4061",
            "score": "0.955",
            "index": 38,
            "selectedWords": [
                "en col\u00e8re",
                "irrit\u00e9e"
            ],
            "freeResponses": [],
            "nbPlayClick": 1,
            "expression": "COLERE",
            "csv_id": 4061,
            "video_name": "DIVERS_PARL_COLERE_AD_01_0003"
        },
        {
            "name": "8030",
            "score": "0.984",
            "index": 39,
            "selectedWords": [
                "irrit\u00e9e",
                "\u00e9nerv\u00e9e"
            ],
            "freeResponses": [],
            "nbPlayClick": 2,
            "response": "irri",
            "expression": "INCREDULE",
            "csv_id": 8064,
            "video_name": "DIVERS_PARL_INCREDULE_AD_02_0003"
        },
        {
            "name": "12246",
            "score": "0.998",
            "index": 40,
            "selectedWords": [
                "neutre",
                "certaine"
            ],
            "freeResponses": [],
            "nbPlayClick": 1,
            "expression": "NEUTRE",
            "csv_id": 12283,
            "video_name": "DIVERS_PARL_AD_01_0005"
        },
        {
            "name": "8206",
            "score": "0.985",
            "index": 41,
            "selectedWords": [
                "\u00e9vidente",
                "incontestable"
            ],
            "freeResponses": [],
            "nbPlayClick": 1,
            "expression": "NEUTRE",
            "csv_id": 8240,
            "video_name": "DIVERS_PARL_AD_06_0001"
        },
        {
            "name": "7325",
            "score": "0.981",
            "index": 42,
            "selectedWords": [
                "suppliante",
                "implorante"
            ],
            "freeResponses": [],
            "nbPlayClick": 1,
            "expression": "EVIDENCE",
            "csv_id": 7359,
            "video_name": "DIVERS_PARL_EVIDENCE_AD_02_0002"
        },
        {
            "name": "6096",
            "score": "0.974",
            "index": 43,
            "selectedWords": [
                "r\u00e9confortante",
                "apaisante"
            ],
            "freeResponses": [],
            "nbPlayClick": 1,
            "expression": "RECONFORTANT",
            "csv_id": 6130,
            "video_name": "DIVERS_BOOK_RECONFORTANT_AD_01_0004"
        },
        {
            "name": "8599",
            "score": "0.987",
            "index": 44,
            "selectedWords": [
                "d\u00e9sol\u00e9e",
                "absente"
            ],
            "freeResponses": [],
            "nbPlayClick": 1,
            "expression": "DESOLE",
            "csv_id": 8633,
            "video_name": "DIVERS_BOOK_DESOLE_AD_03_0002"
        },
        {
            "name": "8482",
            "score": "0.986",
            "index": 45,
            "selectedWords": [
                "\u00e9vidente",
                "incontestable"
            ],
            "freeResponses": [],
            "nbPlayClick": 1,
            "expression": "EVIDENCE",
            "csv_id": 8516,
            "video_name": "DIVERS_PARL_EVIDENCE_AD_02_0002"
        },
        {
            "name": "7832",
            "score": "0.984",
            "index": 46,
            "selectedWords": [
                "\u00e9vidente",
                "indubitable"
            ],
            "freeResponses": [],
            "nbPlayClick": 1,
            "expression": "NEUTRE",
            "csv_id": 7866,
            "video_name": "DIVERS_PARL_AD_03_0003"
        },
        {
            "name": "11918",
            "score": "0.997",
            "index": 47,
            "selectedWords": [
                "neutre",
                "autre",
                "autre",
                "ennuy\u00e9e"
            ],
            "freeResponses": [],
            "nbPlayClick": 1,
            "expression": "NEUTRE",
            "csv_id": 11955,
            "video_name": "DIVERS_BOOK_AD_01_0001"
        },
        {
            "name": "3041",
            "score": "0.939",
            "index": 48,
            "selectedWords": [
                "neutre",
                "notoire"
            ],
            "freeResponses": [],
            "nbPlayClick": 2,
            "expression": "NEUTRE",
            "csv_id": 3041,
            "video_name": "DIVERS_PARL_AD_04_0003"
        },
        {
            "name": "2844",
            "score": "0.935",
            "index": 49,
            "selectedWords": [
                "\u00e9vidente",
                "incontestable"
            ],
            "freeResponses": [],
            "nbPlayClick": 1,
            "expression": "NEUTRE",
            "csv_id": 2844,
            "video_name": "DIVERS_PARL_AD_04_0004"
        },
        {
            "name": "7952",
            "score": "0.984",
            "index": 50,
            "selectedWords": [
                "\u00e9vidente",
                "autre",
                "autre",
                "ennuy\u00e9e"
            ],
            "freeResponses": [],
            "nbPlayClick": 1,
            "expression": "INCREDULE",
            "csv_id": 7986,
            "video_name": "DIVERS_PARL_INCREDULE_AD_02_0003"
        },
        {
            "name": "8435",
            "score": "0.986",
            "index": 51,
            "selectedWords": [
                "neutre",
                "certaine"
            ],
            "freeResponses": [],
            "nbPlayClick": 1,
            "expression": "NEUTRE",
            "csv_id": 8469,
            "video_name": "DIVERS_PARL_AD_01_0001"
        },
        {
            "name": "5180",
            "score": "0.967",
            "index": 52,
            "selectedWords": [
                "neutre",
                "s\u00fbre"
            ],
            "freeResponses": [],
            "nbPlayClick": 1,
            "expression": "NEUTRE",
            "csv_id": 5214,
            "video_name": "DIVERS_PARL_AD_05_0003"
        },
        {
            "name": "2206",
            "score": "0.918",
            "index": 53,
            "selectedWords": [
                "enthousiaste",
                "triomphale"
            ],
            "freeResponses": [],
            "nbPlayClick": 1,
            "expression": "ENTHOUSIASTE",
            "csv_id": 2206,
            "video_name": "DIVERS_PARL_ENTHOUSIASTE_AD_02_0001"
        },
        {
            "name": "5657",
            "score": "0.971",
            "index": 54,
            "selectedWords": [
                "suppliante",
                "implorante"
            ],
            "freeResponses": [],
            "nbPlayClick": 2,
            "expression": "RECONFORTANT",
            "csv_id": 5691,
            "video_name": "DIVERS_PARL_RECONFORTANT_AD_02_0001"
        },
        {
            "name": "4685",
            "score": "0.963",
            "index": 55,
            "selectedWords": [
                "suppliante",
                "mendiante"
            ],
            "freeResponses": [],
            "nbPlayClick": 1,
            "expression": "SUPPLIANT",
            "csv_id": 4719,
            "video_name": "DIVERS_PARL_SUPPLIANT_AD_02_0001"
        },
        {
            "name": "8279",
            "score": "0.985",
            "index": 56,
            "selectedWords": [
                "neutre",
                "\u00e9tonn\u00e9e"
            ],
            "freeResponses": [],
            "nbPlayClick": 1,
            "response": "\u00e9to",
            "expression": "ETONNE",
            "csv_id": 8313,
            "video_name": "DIVERS_BOOK_ETONNE_AD_03_0001"
        },
        {
            "name": "10857",
            "score": "0.994",
            "index": 57,
            "selectedWords": [
                "\u00e9vidente",
                "incontestable"
            ],
            "freeResponses": [],
            "nbPlayClick": 1,
            "expression": "NEUTRE",
            "csv_id": 10891,
            "video_name": "DIVERS_PARL_AD_04_0004"
        },
        {
            "name": "12225",
            "score": "0.998",
            "index": 58,
            "selectedWords": [
                "neutre",
                "certaine"
            ],
            "freeResponses": [],
            "nbPlayClick": 1,
            "expression": "NEUTRE",
            "csv_id": 12262,
            "video_name": "DIVERS_BOOK_AD_04_0001"
        },
        {
            "name": "6112",
            "score": "0.975",
            "index": 59,
            "selectedWords": [
                "\u00e9vidente",
                "indubitable"
            ],
            "freeResponses": [],
            "nbPlayClick": 1,
            "expression": "DETERMINE",
            "csv_id": 6146,
            "video_name": "DIVERS_PARL_DETERMINE_AD_01_0002"
        }
    ],
    "training": [
        {
            "name": "77",
            "score": "0.639",
            "index": 0,
            "selectedWords": [
                "autre",
                "en col\u00e8re",
                "irrit\u00e9e"
            ],
            "freeResponses": [],
            "nbPlayClick": 1,
            "expression": "NEUTRE"
        }
    ],
    "filenameDate": "2024-03-29_12-25"
}