{
    "user": {
        "isProlific": true,
        "id": "66106acd8d5a2e82e645f23b",
        "session": "661a3e135557c476bca7af67",
        "study": "64ef977375f88e4e1174dce0"
    },
    "userAgent": "Mozilla/5.0 (Macintosh; Intel Mac OS X 10.15; rv:124.0) Gecko/20100101 Firefox/124.0",
    "landingDate": "2024-04-13T08:11:30.371Z",
    "startDate": "2024-04-13T08:13:36.060Z",
    "endDate": "2024-04-13T08:58:21.515Z",
    "reviews": [
        {
            "name": "1939",
            "score": "0.910",
            "index": 0,
            "selectedWords": [
                "\u00e9tonn\u00e9e",
                "autre",
                "\u00e9berlu\u00e9e",
                "abasourdie",
                "stup\u00e9faite",
                "confuse"
            ],
            "freeResponses": [],
            "nbPlayClick": 8,
            "expression": "INCREDULE",
            "csv_id": 1939,
            "video_name": "DIVERS_PARL_INCREDULE_AD_02_0003"
        },
        {
            "name": "8649",
            "score": "0.987",
            "index": 1,
            "selectedWords": [
                "d\u00e9sol\u00e9e",
                "autre",
                "implorante",
                "m\u00e9ditative",
                "autre",
                "apaisante"
            ],
            "freeResponses": [],
            "nbPlayClick": 3,
            "expression": "NEUTRE",
            "csv_id": 8683,
            "video_name": "DIVERS_PARL_AD_03_0001"
        },
        {
            "name": "10886",
            "score": "0.994",
            "index": 2,
            "selectedWords": [
                "\u00e9tonn\u00e9e",
                "sinc\u00e8re",
                "perplexe",
                "d\u00e9concert\u00e9e"
            ],
            "freeResponses": [],
            "nbPlayClick": 5,
            "expression": "ETONNE",
            "csv_id": 10920,
            "video_name": "DIVERS_PARL_ETONNE_AD_01_0001"
        },
        {
            "name": "4142",
            "score": "0.956",
            "index": 3,
            "selectedWords": [
                "autre",
                "inexpressive",
                "fade",
                "absente"
            ],
            "freeResponses": [],
            "nbPlayClick": 2,
            "expression": "NEUTRE",
            "csv_id": 4142,
            "video_name": "DIVERS_PARL_AD_03_0004"
        },
        {
            "name": "6224",
            "score": "0.975",
            "index": 4,
            "selectedWords": [
                "\u00e9vidente",
                "manifeste",
                "convaincue",
                "indiscutable"
            ],
            "freeResponses": [],
            "nbPlayClick": 8,
            "expression": "INCREDULE",
            "csv_id": 6258,
            "video_name": "DIVERS_PARL_INCREDULE_AD_02_0003"
        },
        {
            "name": "11941",
            "score": "0.997",
            "index": 5,
            "selectedWords": [
                "autre",
                "autre",
                "autre",
                "attrist\u00e9e",
                "d\u00e9pit\u00e9e",
                "d\u00e9courag\u00e9e",
                "pr\u00e9occup\u00e9e"
            ],
            "freeResponses": [],
            "nbPlayClick": 2,
            "expression": "SUPPLIANT",
            "csv_id": 11978,
            "video_name": "DIVERS_PARL_SUPPLIANT_AD_02_0002"
        },
        {
            "name": "3112",
            "score": "0.941",
            "index": 6,
            "selectedWords": [
                "transport\u00e9e",
                "passionn\u00e9e",
                "emball\u00e9e",
                "exalt\u00e9e",
                "autre",
                "autre"
            ],
            "freeResponses": [],
            "nbPlayClick": 2,
            "expression": "ENTHOUSIASTE",
            "csv_id": 3112,
            "video_name": "DIVERS_BOOK_ENTHOUSIASTE_AD_01_0004"
        },
        {
            "name": "9298",
            "score": "0.989",
            "index": 7,
            "selectedWords": [
                "neutre",
                "autre",
                "autre",
                "inexpressive",
                "terne",
                "nette"
            ],
            "freeResponses": [],
            "nbPlayClick": 1,
            "expression": "NEUTRE",
            "csv_id": 9332,
            "video_name": "DIVERS_PARL_AD_01_0002"
        },
        {
            "name": "5960",
            "score": "0.974",
            "index": 8,
            "selectedWords": [
                "d\u00e9termin\u00e9e",
                "r\u00e9solue",
                "convaincue",
                "s\u00fbre",
                "certaine"
            ],
            "freeResponses": [],
            "nbPlayClick": 1,
            "expression": "COLERE",
            "csv_id": 5994,
            "video_name": "DIVERS_PARL_COLERE_AD_01_0003"
        },
        {
            "name": "1073",
            "score": "0.867",
            "index": 9,
            "selectedWords": [
                "suppliante",
                "implorante",
                "m\u00e9ditative",
                "autre"
            ],
            "freeResponses": [],
            "nbPlayClick": 2,
            "expression": "EVIDENCE",
            "csv_id": 1073,
            "video_name": "DIVERS_PARL_EVIDENCE_AD_02_0002"
        },
        {
            "name": "7013",
            "score": "0.980",
            "index": 10,
            "selectedWords": [
                "r\u00e9confortante",
                "encourageante",
                "autre",
                "autre",
                "autre",
                "autre",
                "autre",
                "autre",
                "autre",
                "convaincue",
                "ferme"
            ],
            "freeResponses": [],
            "nbPlayClick": 1,
            "expression": "NEUTRE",
            "csv_id": 7047,
            "video_name": "DIVERS_PARL_AD_01_0005"
        },
        {
            "name": "9631",
            "score": "0.990",
            "index": 11,
            "selectedWords": [
                "nette",
                "r\u00e9fl\u00e9chie",
                "manifeste",
                "certaine",
                "officielle"
            ],
            "freeResponses": [],
            "nbPlayClick": 2,
            "expression": "NEUTRE",
            "csv_id": 9665,
            "video_name": "DIVERS_PARL_AD_05_0003"
        },
        {
            "name": "9314",
            "score": "0.989",
            "index": 12,
            "selectedWords": [
                "neutre",
                "autre",
                "autre",
                "inexpressive",
                "atone",
                "absente"
            ],
            "freeResponses": [],
            "nbPlayClick": 3,
            "expression": "NEUTRE",
            "csv_id": 9348,
            "video_name": "DIVERS_BOOK_AD_04_0002"
        },
        {
            "name": "3432",
            "score": "0.946",
            "index": 13,
            "selectedWords": [
                "en col\u00e8re",
                "irrit\u00e9e",
                "m\u00e9contente",
                "contrari\u00e9e"
            ],
            "freeResponses": [],
            "nbPlayClick": 1,
            "expression": "COLERE",
            "csv_id": 3432,
            "video_name": "DIVERS_PARL_COLERE_AD_01_0003"
        },
        {
            "name": "8539",
            "score": "0.987",
            "index": 14,
            "selectedWords": [
                "autre",
                "inexpressive",
                "terne",
                "autre",
                "autre",
                "officielle",
                "implorante"
            ],
            "freeResponses": [],
            "nbPlayClick": 2,
            "response": "off",
            "expression": "NEUTRE",
            "csv_id": 8573,
            "video_name": "DIVERS_PARL_AD_03_0002"
        },
        {
            "name": "10959",
            "score": "0.994",
            "index": 15,
            "selectedWords": [
                "autre",
                "inexpressive",
                "terne",
                "nette",
                "patente"
            ],
            "freeResponses": [],
            "nbPlayClick": 1,
            "expression": "NEUTRE",
            "csv_id": 10993,
            "video_name": "DIVERS_PARL_AD_01_0006"
        },
        {
            "name": "10849",
            "score": "0.994",
            "index": 16,
            "selectedWords": [
                "\u00e9vidente",
                "manifeste",
                "convaincue",
                "indiscutable",
                "sinc\u00e8re"
            ],
            "freeResponses": [],
            "nbPlayClick": 1,
            "expression": "NEUTRE",
            "csv_id": 10883,
            "video_name": "DIVERS_PARL_AD_01_0005"
        },
        {
            "name": "4597",
            "score": "0.962",
            "index": 17,
            "selectedWords": [
                "autre",
                "autre",
                "autre",
                "apaisante",
                "entreprenante",
                "sinc\u00e8re"
            ],
            "freeResponses": [],
            "nbPlayClick": 2,
            "expression": "INCREDULE",
            "csv_id": 4631,
            "video_name": "DIVERS_PARL_INCREDULE_AD_01_0001"
        },
        {
            "name": "11722",
            "score": "0.996",
            "index": 18,
            "selectedWords": [
                "autre",
                "afflig\u00e9e",
                "d\u00e9pit\u00e9e",
                "d\u00e9courag\u00e9e",
                "pr\u00e9occup\u00e9e"
            ],
            "freeResponses": [],
            "nbPlayClick": 2,
            "expression": "SUPPLIANT",
            "csv_id": 11759,
            "video_name": "DIVERS_BOOK_SUPPLIANT_AD_01_0002"
        },
        {
            "name": "7088",
            "score": "0.980",
            "index": 19,
            "selectedWords": [
                "autre",
                "dubitative",
                "m\u00e9fiante",
                "sceptique",
                "froide"
            ],
            "freeResponses": [],
            "nbPlayClick": 2,
            "response": "sc",
            "expression": "NEUTRE",
            "csv_id": 7122,
            "video_name": "DIVERS_PARL_AD_02_0004"
        },
        {
            "name": "8591",
            "score": "0.987",
            "index": 20,
            "selectedWords": [
                "\u00e9vidente",
                "autre",
                "apaisante",
                "certaine",
                "consolante"
            ],
            "freeResponses": [],
            "nbPlayClick": 2,
            "expression": "DESOLE",
            "csv_id": 8625,
            "video_name": "DIVERS_PARL_DESOLE_AD_01_0004"
        },
        {
            "name": "2570",
            "score": "0.928",
            "index": 21,
            "selectedWords": [
                "enthousiaste",
                "tonique",
                "autre",
                "autre",
                "certaine"
            ],
            "freeResponses": [],
            "nbPlayClick": 4,
            "expression": "NEUTRE",
            "csv_id": 2570,
            "video_name": "DIVERS_PARL_AD_03_0001"
        },
        {
            "name": "6222",
            "score": "0.975",
            "index": 22,
            "selectedWords": [
                "autre",
                "coquine",
                "entreprenante",
                "espi\u00e8gle"
            ],
            "freeResponses": [],
            "nbPlayClick": 2,
            "expression": "ENTHOUSIASTE",
            "csv_id": 6256,
            "video_name": "DIVERS_PARL_ENTHOUSIASTE_AD_02_0001"
        },
        {
            "name": "7149",
            "score": "0.980",
            "index": 23,
            "selectedWords": [
                "autre",
                "inexpressive",
                "fade",
                "d\u00e9pit\u00e9e",
                "contrari\u00e9e",
                "pein\u00e9e"
            ],
            "freeResponses": [],
            "nbPlayClick": 2,
            "expression": "DESOLE",
            "csv_id": 7183,
            "video_name": "DIVERS_PARL_DESOLE_AD_01_0004"
        },
        {
            "name": "8813",
            "score": "0.988",
            "index": 24,
            "selectedWords": [
                "ferme",
                "autre",
                "imp\u00e9n\u00e9trable",
                "agressive",
                "autre",
                "ennuy\u00e9e"
            ],
            "freeResponses": [],
            "nbPlayClick": 1,
            "expression": "COLERE",
            "csv_id": 8847,
            "video_name": "DIVERS_PARL_COLERE_AD_01_0004"
        },
        {
            "name": "5446",
            "score": "0.969",
            "index": 25,
            "selectedWords": [
                "contrari\u00e9e",
                "en peine",
                "ennuy\u00e9e",
                "agressive",
                "en rogne"
            ],
            "freeResponses": [],
            "nbPlayClick": 1,
            "expression": "COLERE",
            "csv_id": 5480,
            "video_name": "DIVERS_PARL_COLERE_AD_01_0003"
        },
        {
            "name": "11724",
            "score": "0.996",
            "index": 26,
            "selectedWords": [
                "confuse",
                "incr\u00e9dule",
                "sceptique"
            ],
            "freeResponses": [],
            "nbPlayClick": 1,
            "expression": "ETONNE",
            "csv_id": 11761,
            "video_name": "DIVERS_BOOK_ETONNE_AD_01_0002"
        },
        {
            "name": "6509",
            "score": "0.977",
            "index": 27,
            "selectedWords": [
                "opini\u00e2tre",
                "r\u00e9solue",
                "convaincue",
                "indiscutable"
            ],
            "freeResponses": [],
            "nbPlayClick": 1,
            "expression": "NEUTRE",
            "csv_id": 6543,
            "video_name": "DIVERS_PARL_AD_05_0003"
        },
        {
            "name": "10913",
            "score": "0.994",
            "index": 28,
            "selectedWords": [
                "indubitable",
                "ind\u00e9niable",
                "certaine",
                "r\u00e9fl\u00e9chie"
            ],
            "freeResponses": [],
            "nbPlayClick": 1,
            "expression": "NEUTRE",
            "csv_id": 10947,
            "video_name": "DIVERS_PARL_AD_03_0003"
        },
        {
            "name": "3493",
            "score": "0.947",
            "index": 29,
            "selectedWords": [
                "neutre",
                "s\u00fbre",
                "manifeste"
            ],
            "freeResponses": [],
            "nbPlayClick": 2,
            "expression": "NEUTRE",
            "csv_id": 3493,
            "video_name": "DIVERS_PARL_AD_03_0002"
        },
        {
            "name": "6379",
            "score": "0.976",
            "index": 30,
            "selectedWords": [
                "convaincue",
                "manifeste",
                "s\u00fbre",
                "certaine",
                "ferme"
            ],
            "freeResponses": [],
            "nbPlayClick": 1,
            "expression": "DETERMINE",
            "csv_id": 6413,
            "video_name": "DIVERS_PARL_DETERMINE_AD_01_0004"
        },
        {
            "name": "3152",
            "score": "0.941",
            "index": 31,
            "selectedWords": [
                "\u00e9vidente",
                "agressive",
                "ennuy\u00e9e",
                "froide"
            ],
            "freeResponses": [],
            "nbPlayClick": 1,
            "expression": "INCREDULE",
            "csv_id": 3152,
            "video_name": "DIVERS_PARL_INCREDULE_AD_01_0001"
        },
        {
            "name": "12184",
            "score": "0.998",
            "index": 32,
            "selectedWords": [
                "autre",
                "inexpressive",
                "atone",
                "autre",
                "autre",
                "autre",
                "fade"
            ],
            "freeResponses": [],
            "nbPlayClick": 2,
            "expression": "NEUTRE",
            "csv_id": 12221,
            "video_name": "DIVERS_BOOK_AD_04_0002"
        },
        {
            "name": "7306",
            "score": "0.981",
            "index": 33,
            "selectedWords": [
                "contrari\u00e9e",
                "autre",
                "in\u00e9branlable",
                "irr\u00e9cusable",
                "incontestable"
            ],
            "freeResponses": [],
            "nbPlayClick": 1,
            "expression": "NEUTRE",
            "csv_id": 7340,
            "video_name": "DIVERS_PARL_AD_02_0001"
        },
        {
            "name": "9520",
            "score": "0.990",
            "index": 34,
            "selectedWords": [
                "incr\u00e9dule",
                "dubitative",
                "sceptique",
                "froide",
                "agressive"
            ],
            "freeResponses": [],
            "nbPlayClick": 2,
            "expression": "INCREDULE",
            "csv_id": 9554,
            "video_name": "DIVERS_BOOK_INCREDULE_AD_01_0001"
        },
        {
            "name": "5180",
            "score": "0.967",
            "index": 35,
            "selectedWords": [
                "ferme",
                "nette",
                "certaine",
                "officielle"
            ],
            "freeResponses": [],
            "nbPlayClick": 1,
            "expression": "NEUTRE",
            "csv_id": 5214,
            "video_name": "DIVERS_PARL_AD_05_0003"
        },
        {
            "name": "1938",
            "score": "0.910",
            "index": 36,
            "selectedWords": [
                "\u00e9nergique",
                "s\u00fbre",
                "coquine",
                "tonique"
            ],
            "freeResponses": [],
            "nbPlayClick": 1,
            "expression": "ENTHOUSIASTE",
            "csv_id": 1938,
            "video_name": "DIVERS_PARL_ENTHOUSIASTE_AD_01_0003"
        },
        {
            "name": "11008",
            "score": "0.994",
            "index": 37,
            "selectedWords": [
                "\u00e9vidente",
                "manifeste",
                "convaincue",
                "r\u00e9solue"
            ],
            "freeResponses": [],
            "nbPlayClick": 1,
            "expression": "NEUTRE",
            "csv_id": 11042,
            "video_name": "DIVERS_PARL_AD_01_0006"
        },
        {
            "name": "7670",
            "score": "0.983",
            "index": 38,
            "selectedWords": [
                "occup\u00e9e",
                "r\u00e9fl\u00e9chie",
                "nette"
            ],
            "freeResponses": [],
            "nbPlayClick": 2,
            "expression": "PENSIF",
            "csv_id": 7704,
            "video_name": "DIVERS_BOOK_PENSIF_AD_01_0003"
        },
        {
            "name": "8212",
            "score": "0.985",
            "index": 39,
            "selectedWords": [
                "r\u00e9confortante",
                "apaisante",
                "consolante",
                "entreprenante"
            ],
            "freeResponses": [],
            "nbPlayClick": 1,
            "expression": "EVIDENCE",
            "csv_id": 8246,
            "video_name": "DIVERS_PARL_EVIDENCE_AD_02_0002"
        },
        {
            "name": "12020",
            "score": "0.997",
            "index": 40,
            "selectedWords": [
                "r\u00e9solue",
                "manifeste",
                "infaillible",
                "ind\u00e9niable"
            ],
            "freeResponses": [],
            "nbPlayClick": 1,
            "expression": "NEUTRE",
            "csv_id": 12057,
            "video_name": "DIVERS_BOOK_AD_03_0002"
        },
        {
            "name": "2439",
            "score": "0.925",
            "index": 41,
            "selectedWords": [
                "s\u00fbre",
                "certaine",
                "manifeste",
                "convaincue",
                "r\u00e9solue"
            ],
            "freeResponses": [],
            "nbPlayClick": 1,
            "expression": "EVIDENCE",
            "csv_id": 2439,
            "video_name": "DIVERS_PARL_EVIDENCE_AD_01_0001"
        },
        {
            "name": "5022",
            "score": "0.966",
            "index": 42,
            "selectedWords": [
                "d\u00e9cid\u00e9e",
                "r\u00e9solue",
                "convaincue",
                "indiscutable",
                "indubitable",
                "certaine"
            ],
            "freeResponses": [],
            "nbPlayClick": 1,
            "expression": "NEUTRE",
            "csv_id": 5056,
            "video_name": "DIVERS_PARL_AD_01_0004"
        },
        {
            "name": "7613",
            "score": "0.983",
            "index": 43,
            "selectedWords": [
                "\u00e9vidente",
                "incontestable",
                "officielle",
                "ind\u00e9niable",
                "ferme"
            ],
            "freeResponses": [],
            "nbPlayClick": 1,
            "expression": "NEUTRE",
            "csv_id": 7647,
            "video_name": "DIVERS_PARL_AD_01_0001"
        },
        {
            "name": "8008",
            "score": "0.984",
            "index": 44,
            "selectedWords": [
                "malheureuse",
                "contrari\u00e9e",
                "emb\u00eat\u00e9e",
                "ennuy\u00e9e"
            ],
            "freeResponses": [],
            "nbPlayClick": 2,
            "expression": "NEUTRE",
            "csv_id": 8042,
            "video_name": "DIVERS_PARL_AD_01_0006"
        },
        {
            "name": "11689",
            "score": "0.996",
            "index": 45,
            "selectedWords": [
                "nette",
                "s\u00fbre",
                "limpide",
                "\u00e9loquente"
            ],
            "freeResponses": [],
            "nbPlayClick": 1,
            "expression": "NEUTRE",
            "csv_id": 11726,
            "video_name": "DIVERS_BOOK_AD_04_0002"
        },
        {
            "name": "9491",
            "score": "0.990",
            "index": 46,
            "selectedWords": [
                "autre",
                "inexpressive",
                "fade",
                "pr\u00e9occup\u00e9e",
                "contrari\u00e9e"
            ],
            "freeResponses": [],
            "nbPlayClick": 4,
            "expression": "NEUTRE",
            "csv_id": 9525,
            "video_name": "DIVERS_PARL_AD_02_0001"
        },
        {
            "name": "6286",
            "score": "0.976",
            "index": 47,
            "selectedWords": [
                "emb\u00eat\u00e9e",
                "contrari\u00e9e",
                "ennuy\u00e9e",
                "ferme",
                "nette"
            ],
            "freeResponses": [],
            "nbPlayClick": 2,
            "expression": "NEUTRE",
            "csv_id": 6320,
            "video_name": "DIVERS_PARL_AD_04_0002"
        },
        {
            "name": "8614",
            "score": "0.987",
            "index": 48,
            "selectedWords": [
                "\u00e9vidente",
                "manifeste",
                "infaillible"
            ],
            "freeResponses": [],
            "nbPlayClick": 1,
            "expression": "NEUTRE",
            "csv_id": 8648,
            "video_name": "DIVERS_BOOK_AD_04_0001"
        },
        {
            "name": "1142",
            "score": "0.871",
            "index": 49,
            "selectedWords": [
                "\u00e9loquente",
                "triomphale",
                "emball\u00e9e",
                "transport\u00e9e"
            ],
            "freeResponses": [],
            "nbPlayClick": 2,
            "expression": "RECONFORTANT",
            "csv_id": 1142,
            "video_name": "DIVERS_BOOK_RECONFORTANT_AD_03_0002"
        },
        {
            "name": "1653",
            "score": "0.899",
            "index": 50,
            "selectedWords": [
                "r\u00e9fl\u00e9chie",
                "manifeste",
                "certaine",
                "incontestable",
                "ind\u00e9niable"
            ],
            "freeResponses": [],
            "nbPlayClick": 1,
            "expression": "EVIDENCE",
            "csv_id": 1653,
            "video_name": "DIVERS_PARL_EVIDENCE_AD_01_0001"
        },
        {
            "name": "10754",
            "score": "0.994",
            "index": 51,
            "selectedWords": [
                "sinc\u00e8re",
                "tonique",
                "limpide",
                "s\u00fbre",
                "certaine"
            ],
            "freeResponses": [],
            "nbPlayClick": 2,
            "expression": "ENTHOUSIASTE",
            "csv_id": 10788,
            "video_name": "DIVERS_PARL_ENTHOUSIASTE_AD_01_0003"
        },
        {
            "name": "11551",
            "score": "0.996",
            "index": 52,
            "selectedWords": [
                "d\u00e9termin\u00e9e",
                "r\u00e9fl\u00e9chie",
                "infaillible"
            ],
            "freeResponses": [],
            "nbPlayClick": 1,
            "expression": "NEUTRE",
            "csv_id": 11588,
            "video_name": "DIVERS_PARL_AD_03_0002"
        },
        {
            "name": "10066",
            "score": "0.992",
            "index": 53,
            "selectedWords": [
                "convaincue",
                "agit\u00e9e",
                "f\u00e2ch\u00e9e",
                "irrit\u00e9e",
                "contrari\u00e9e"
            ],
            "freeResponses": [],
            "nbPlayClick": 2,
            "expression": "NEUTRE",
            "csv_id": 10100,
            "video_name": "DIVERS_PARL_AD_06_0001"
        },
        {
            "name": "3844",
            "score": "0.952",
            "index": 54,
            "selectedWords": [
                "afflig\u00e9e",
                "attrist\u00e9e",
                "d\u00e9courag\u00e9e",
                "pr\u00e9occup\u00e9e"
            ],
            "freeResponses": [],
            "nbPlayClick": 2,
            "expression": "EVIDENCE",
            "csv_id": 3844,
            "video_name": "DIVERS_PARL_EVIDENCE_AD_01_0001"
        },
        {
            "name": "7953",
            "score": "0.984",
            "index": 55,
            "selectedWords": [
                "transport\u00e9e",
                "passionn\u00e9e",
                "emball\u00e9e",
                "z\u00e9l\u00e9e"
            ],
            "freeResponses": [],
            "nbPlayClick": 1,
            "expression": "SUPPLIANT",
            "csv_id": 7987,
            "video_name": "DIVERS_PARL_SUPPLIANT_AD_02_0001"
        },
        {
            "name": "5384",
            "score": "0.969",
            "index": 56,
            "selectedWords": [
                "autre",
                "implorante",
                "priante",
                "sinc\u00e8re",
                "r\u00e9fl\u00e9chie"
            ],
            "freeResponses": [],
            "nbPlayClick": 1,
            "expression": "DESOLE",
            "csv_id": 5418,
            "video_name": "DIVERS_PARL_DESOLE_AD_02_0002"
        },
        {
            "name": "6917",
            "score": "0.979",
            "index": 57,
            "selectedWords": [
                "espi\u00e8gle",
                "malicieuse",
                "rus\u00e9e",
                "froide",
                "agressive"
            ],
            "freeResponses": [],
            "nbPlayClick": 1,
            "expression": "NEUTRE",
            "csv_id": 6951,
            "video_name": "DIVERS_PARL_AD_04_0002"
        },
        {
            "name": "77",
            "score": "0.639",
            "index": 58,
            "selectedWords": [
                "sinc\u00e8re",
                "tonique",
                "notoire",
                "certaine"
            ],
            "freeResponses": [],
            "nbPlayClick": 2,
            "expression": "NEUTRE",
            "csv_id": 77,
            "video_name": "ESTYLE_NEUTRE_AD_02_0001"
        },
        {
            "name": "9717",
            "score": "0.991",
            "index": 59,
            "selectedWords": [
                "s\u00fbre",
                "certaine",
                "indubitable"
            ],
            "freeResponses": [],
            "nbPlayClick": 2,
            "expression": "ETONNE",
            "csv_id": 9751,
            "video_name": "DIVERS_BOOK_ETONNE_AD_03_0001"
        }
    ],
    "training": [
        {
            "name": "77",
            "score": "0.639",
            "index": 0,
            "selectedWords": [
                "\u00e9vidente",
                "incontestable",
                "certaine",
                "s\u00fbre"
            ],
            "freeResponses": [],
            "nbPlayClick": 3,
            "expression": "NEUTRE"
        }
    ],
    "filenameDate": "2024-04-13_20-58"
}