{
    "user": {
        "isProlific": true,
        "id": "66103b2746096a30a511f7bb",
        "session": "66455ff26834083a3fb9bc4d",
        "study": "64ef977375f88e4e1174dce0"
    },
    "userAgent": "Mozilla/5.0 (Windows NT 10.0; Win64; x64) AppleWebKit/537.36 (KHTML, like Gecko) Chrome/124.0.0.0 Safari/537.36 Edg/124.0.0.0",
    "landingDate": "2024-05-16T01:23:33.074Z",
    "startDate": "2024-05-16T01:25:33.646Z",
    "endDate": "2024-05-16T02:02:24.761Z",
    "reviews": [
        {
            "name": "6871",
            "score": "0.979",
            "index": 0,
            "selectedWords": [
                "incr\u00e9dule",
                "dubitative"
            ],
            "freeResponses": [],
            "nbPlayClick": 1,
            "expression": "SUPPLIANT",
            "csv_id": 6905,
            "video_name": "DIVERS_PARL_SUPPLIANT_AD_02_0002"
        },
        {
            "name": "1245",
            "score": "0.878",
            "index": 1,
            "selectedWords": [
                "d\u00e9termin\u00e9e",
                "r\u00e9solue"
            ],
            "freeResponses": [],
            "nbPlayClick": 3,
            "expression": "NEUTRE",
            "csv_id": 1245,
            "video_name": "DIVERS_PARL_AD_05_0003"
        },
        {
            "name": "4415",
            "score": "0.959",
            "index": 2,
            "selectedWords": [
                "autre",
                "autre",
                "d\u00e9pit\u00e9e",
                "contrari\u00e9e"
            ],
            "freeResponses": [],
            "nbPlayClick": 1,
            "expression": "EVIDENCE",
            "csv_id": 4415,
            "video_name": "DIVERS_BOOK_EVIDENCE_AD_01_0002"
        },
        {
            "name": "7705",
            "score": "0.983",
            "index": 3,
            "selectedWords": [
                "neutre",
                "s\u00fbre"
            ],
            "freeResponses": [],
            "nbPlayClick": 1,
            "expression": "NEUTRE",
            "csv_id": 7739,
            "video_name": "DIVERS_PARL_AD_05_0001"
        },
        {
            "name": "9272",
            "score": "0.989",
            "index": 4,
            "selectedWords": [
                "\u00e9vidente",
                "autre",
                "autre",
                "d\u00e9termin\u00e9e"
            ],
            "freeResponses": [],
            "nbPlayClick": 1,
            "expression": "NEUTRE",
            "csv_id": 9306,
            "video_name": "DIVERS_PARL_AD_04_0002"
        },
        {
            "name": "5128",
            "score": "0.967",
            "index": 5,
            "selectedWords": [
                "d\u00e9termin\u00e9e",
                "r\u00e9fl\u00e9chie"
            ],
            "freeResponses": [],
            "nbPlayClick": 1,
            "expression": "NEUTRE",
            "csv_id": 5162,
            "video_name": "DIVERS_BOOK_AD_04_0001"
        },
        {
            "name": "6317",
            "score": "0.976",
            "index": 6,
            "selectedWords": [
                "d\u00e9termin\u00e9e",
                "r\u00e9solue"
            ],
            "freeResponses": [],
            "nbPlayClick": 1,
            "expression": "COLERE",
            "csv_id": 6351,
            "video_name": "DIVERS_PARL_COLERE_AD_01_0003"
        },
        {
            "name": "7115",
            "score": "0.980",
            "index": 7,
            "selectedWords": [
                "suppliante",
                "implorante"
            ],
            "freeResponses": [],
            "nbPlayClick": 1,
            "expression": "SUPPLIANT",
            "csv_id": 7149,
            "video_name": "DIVERS_PARL_SUPPLIANT_AD_02_0001"
        },
        {
            "name": "6539",
            "score": "0.977",
            "index": 8,
            "selectedWords": [
                "malheureuse",
                "navr\u00e9e"
            ],
            "freeResponses": [],
            "nbPlayClick": 2,
            "expression": "DESOLE",
            "csv_id": 6573,
            "video_name": "DIVERS_PARL_DESOLE_AD_02_0002"
        },
        {
            "name": "10918",
            "score": "0.994",
            "index": 9,
            "selectedWords": [
                "afflig\u00e9e",
                "afflig\u00e9e"
            ],
            "freeResponses": [],
            "nbPlayClick": 2,
            "expression": "SUPPLIANT",
            "csv_id": 10952,
            "video_name": "DIVERS_BOOK_SUPPLIANT_AD_01_0002"
        },
        {
            "name": "3143",
            "score": "0.941",
            "index": 10,
            "selectedWords": [
                "enthousiaste",
                "tonique"
            ],
            "freeResponses": [],
            "nbPlayClick": 1,
            "expression": "ENTHOUSIASTE",
            "csv_id": 3143,
            "video_name": "DIVERS_PARL_ENTHOUSIASTE_AD_02_0001"
        },
        {
            "name": "10224",
            "score": "0.992",
            "index": 11,
            "selectedWords": [
                "s\u00fbre",
                "certaine"
            ],
            "freeResponses": [],
            "nbPlayClick": 1,
            "expression": "NEUTRE",
            "csv_id": 10258,
            "video_name": "DIVERS_PARL_AD_06_0004"
        },
        {
            "name": "3960",
            "score": "0.954",
            "index": 12,
            "selectedWords": [
                "neutre",
                "patente"
            ],
            "freeResponses": [],
            "nbPlayClick": 1,
            "expression": "NEUTRE",
            "csv_id": 3960,
            "video_name": "DIVERS_PARL_AD_03_0003"
        },
        {
            "name": "9964",
            "score": "0.992",
            "index": 13,
            "selectedWords": [
                "\u00e9vidente",
                "prouv\u00e9e"
            ],
            "freeResponses": [],
            "nbPlayClick": 1,
            "expression": "NEUTRE",
            "csv_id": 9998,
            "video_name": "DIVERS_PARL_AD_04_0002"
        },
        {
            "name": "7976",
            "score": "0.984",
            "index": 14,
            "selectedWords": [
                "\u00e9vidente",
                "manifeste"
            ],
            "freeResponses": [],
            "nbPlayClick": 1,
            "expression": "NEUTRE",
            "csv_id": 8010,
            "video_name": "DIVERS_PARL_AD_05_0004"
        },
        {
            "name": "8388",
            "score": "0.986",
            "index": 15,
            "selectedWords": [
                "neutre",
                "certaine"
            ],
            "freeResponses": [],
            "nbPlayClick": 1,
            "expression": "NEUTRE",
            "csv_id": 8422,
            "video_name": "DIVERS_PARL_AD_02_0004"
        },
        {
            "name": "7075",
            "score": "0.980",
            "index": 16,
            "selectedWords": [
                "incr\u00e9dule",
                "dubitative"
            ],
            "freeResponses": [],
            "nbPlayClick": 1,
            "expression": "DESOLE",
            "csv_id": 7109,
            "video_name": "DIVERS_PARL_DESOLE_AD_01_0004"
        },
        {
            "name": "7069",
            "score": "0.980",
            "index": 17,
            "selectedWords": [
                "espi\u00e8gle",
                "narquoise"
            ],
            "freeResponses": [],
            "nbPlayClick": 1,
            "expression": "NEUTRE",
            "csv_id": 7103,
            "video_name": "DIVERS_PARL_AD_06_0003"
        },
        {
            "name": "7926",
            "score": "0.984",
            "index": 18,
            "selectedWords": [
                "r\u00e9confortante",
                "consolatrice"
            ],
            "freeResponses": [],
            "nbPlayClick": 1,
            "expression": "SUPPLIANT",
            "csv_id": 7960,
            "video_name": "DIVERS_PARL_SUPPLIANT_AD_02_0002"
        },
        {
            "name": "2341",
            "score": "0.922",
            "index": 19,
            "selectedWords": [
                "d\u00e9termin\u00e9e",
                "r\u00e9solue"
            ],
            "freeResponses": [],
            "nbPlayClick": 1,
            "expression": "RECONFORTANT",
            "csv_id": 2341,
            "video_name": "DIVERS_PARL_RECONFORTANT_AD_02_0001"
        },
        {
            "name": "10351",
            "score": "0.993",
            "index": 20,
            "selectedWords": [
                "\u00e9tonn\u00e9e",
                "confuse"
            ],
            "freeResponses": [],
            "nbPlayClick": 1,
            "expression": "ETONNE",
            "csv_id": 10385,
            "video_name": "DIVERS_BOOK_ETONNE_AD_01_0002"
        },
        {
            "name": "11203",
            "score": "0.995",
            "index": 21,
            "selectedWords": [
                "\u00e9tonn\u00e9e",
                "autre",
                "autre",
                "autre",
                "m\u00e9fiante"
            ],
            "freeResponses": [],
            "nbPlayClick": 1,
            "expression": "NEUTRE",
            "csv_id": 11237,
            "video_name": "DIVERS_BOOK_AD_03_0002"
        },
        {
            "name": "7536",
            "score": "0.982",
            "index": 22,
            "selectedWords": [
                "\u00e9vidente",
                "prouv\u00e9e"
            ],
            "freeResponses": [],
            "nbPlayClick": 1,
            "expression": "NEUTRE",
            "csv_id": 7570,
            "video_name": "DIVERS_PARL_AD_05_0003"
        },
        {
            "name": "9106",
            "score": "0.989",
            "index": 23,
            "selectedWords": [
                "d\u00e9termin\u00e9e",
                "r\u00e9fl\u00e9chie"
            ],
            "freeResponses": [],
            "nbPlayClick": 1,
            "expression": "NEUTRE",
            "csv_id": 9140,
            "video_name": "DIVERS_PARL_AD_06_0002"
        },
        {
            "name": "10333",
            "score": "0.993",
            "index": 24,
            "selectedWords": [
                "\u00e9vidente",
                "incontestable"
            ],
            "freeResponses": [],
            "nbPlayClick": 2,
            "expression": "NEUTRE",
            "csv_id": 10367,
            "video_name": "DIVERS_PARL_AD_03_0002"
        },
        {
            "name": "10450",
            "score": "0.993",
            "index": 25,
            "selectedWords": [
                "neutre",
                "certaine"
            ],
            "freeResponses": [],
            "nbPlayClick": 1,
            "expression": "NEUTRE",
            "csv_id": 10484,
            "video_name": "DIVERS_BOOK_AD_03_0002"
        },
        {
            "name": "3842",
            "score": "0.952",
            "index": 26,
            "selectedWords": [
                "autre",
                "inexpressive",
                "froide"
            ],
            "freeResponses": [],
            "nbPlayClick": 2,
            "expression": "INCREDULE",
            "csv_id": 3842,
            "video_name": "DIVERS_PARL_INCREDULE_AD_02_0003"
        },
        {
            "name": "10045",
            "score": "0.992",
            "index": 27,
            "selectedWords": [
                "\u00e9vidente",
                "irr\u00e9cusable"
            ],
            "freeResponses": [],
            "nbPlayClick": 1,
            "expression": "NEUTRE",
            "csv_id": 10079,
            "video_name": "DIVERS_PARL_AD_02_0003"
        },
        {
            "name": "9557",
            "score": "0.990",
            "index": 28,
            "selectedWords": [
                "d\u00e9termin\u00e9e",
                "r\u00e9fl\u00e9chie"
            ],
            "freeResponses": [],
            "nbPlayClick": 1,
            "expression": "NEUTRE",
            "csv_id": 9591,
            "video_name": "DIVERS_PARL_AD_06_0003"
        },
        {
            "name": "11709",
            "score": "0.996",
            "index": 29,
            "selectedWords": [
                "neutre",
                "certaine"
            ],
            "freeResponses": [],
            "nbPlayClick": 1,
            "expression": "NEUTRE",
            "csv_id": 11746,
            "video_name": "DIVERS_PARL_AD_04_0002"
        },
        {
            "name": "9459",
            "score": "0.990",
            "index": 30,
            "selectedWords": [
                "d\u00e9termin\u00e9e",
                "r\u00e9solue"
            ],
            "freeResponses": [],
            "nbPlayClick": 1,
            "expression": "NEUTRE",
            "csv_id": 9493,
            "video_name": "DIVERS_PARL_AD_01_0005"
        },
        {
            "name": "9923",
            "score": "0.991",
            "index": 31,
            "selectedWords": [
                "neutre",
                "certaine"
            ],
            "freeResponses": [],
            "nbPlayClick": 3,
            "expression": "NEUTRE",
            "csv_id": 9957,
            "video_name": "DIVERS_PARL_AD_02_0002"
        },
        {
            "name": "6310",
            "score": "0.976",
            "index": 32,
            "selectedWords": [
                "enthousiaste",
                "tonique"
            ],
            "freeResponses": [],
            "nbPlayClick": 1,
            "expression": "RECONFORTANT",
            "csv_id": 6344,
            "video_name": "DIVERS_PARL_RECONFORTANT_AD_02_0001"
        },
        {
            "name": "11473",
            "score": "0.996",
            "index": 33,
            "selectedWords": [],
            "freeResponses": [
                "r\u00e9sign\u00e9e",
                "fataliste"
            ],
            "nbPlayClick": 1,
            "response": "fataliste",
            "expression": "NEUTRE",
            "csv_id": 11510,
            "video_name": "DIVERS_PARL_AD_01_0005"
        },
        {
            "name": "7500",
            "score": "0.982",
            "index": 34,
            "selectedWords": [
                "enthousiaste",
                "tonique"
            ],
            "freeResponses": [],
            "nbPlayClick": 2,
            "expression": "ENTHOUSIASTE",
            "csv_id": 7534,
            "video_name": "DIVERS_BOOK_ENTHOUSIASTE_AD_01_0004"
        },
        {
            "name": "6210",
            "score": "0.975",
            "index": 35,
            "selectedWords": [
                "en col\u00e8re",
                "hargneuse"
            ],
            "freeResponses": [],
            "nbPlayClick": 1,
            "expression": "COLERE",
            "csv_id": 6244,
            "video_name": "DIVERS_PARL_COLERE_AD_02_0002"
        },
        {
            "name": "10195",
            "score": "0.992",
            "index": 36,
            "selectedWords": [
                "neutre",
                "s\u00fbre"
            ],
            "freeResponses": [],
            "nbPlayClick": 1,
            "expression": "NEUTRE",
            "csv_id": 10229,
            "video_name": "DIVERS_BOOK_AD_01_0001"
        },
        {
            "name": "4247",
            "score": "0.957",
            "index": 37,
            "selectedWords": [
                "s\u00fbre",
                "certaine"
            ],
            "freeResponses": [],
            "nbPlayClick": 1,
            "expression": "DESOLE",
            "csv_id": 4247,
            "video_name": "DIVERS_PARL_DESOLE_AD_02_0002"
        },
        {
            "name": "6558",
            "score": "0.977",
            "index": 38,
            "selectedWords": [
                "incr\u00e9dule",
                "dubitative"
            ],
            "freeResponses": [],
            "nbPlayClick": 1,
            "expression": "INCREDULE",
            "csv_id": 6592,
            "video_name": "DIVERS_BOOK_INCREDULE_AD_01_0001"
        },
        {
            "name": "9020",
            "score": "0.988",
            "index": 39,
            "selectedWords": [
                "autre",
                "imp\u00e9n\u00e9trable",
                "froide"
            ],
            "freeResponses": [],
            "nbPlayClick": 2,
            "expression": "NEUTRE",
            "csv_id": 9054,
            "video_name": "DIVERS_PARL_AD_04_0002"
        },
        {
            "name": "4969",
            "score": "0.965",
            "index": 40,
            "selectedWords": [
                "d\u00e9termin\u00e9e",
                "r\u00e9fl\u00e9chie"
            ],
            "freeResponses": [],
            "nbPlayClick": 1,
            "expression": "NEUTRE",
            "csv_id": 5003,
            "video_name": "DIVERS_PARL_AD_04_0004"
        },
        {
            "name": "12154",
            "score": "0.998",
            "index": 41,
            "selectedWords": [
                "neutre",
                "limpide"
            ],
            "freeResponses": [],
            "nbPlayClick": 1,
            "expression": "NEUTRE",
            "csv_id": 12191,
            "video_name": "DIVERS_BOOK_AD_03_0002"
        },
        {
            "name": "7564",
            "score": "0.982",
            "index": 42,
            "selectedWords": [
                "\u00e9vidente",
                "prouv\u00e9e"
            ],
            "freeResponses": [],
            "nbPlayClick": 1,
            "expression": "NEUTRE",
            "csv_id": 7598,
            "video_name": "DIVERS_BOOK_AD_01_0001"
        },
        {
            "name": "8844",
            "score": "0.988",
            "index": 43,
            "selectedWords": [
                "espi\u00e8gle",
                "narquoise"
            ],
            "freeResponses": [],
            "nbPlayClick": 1,
            "expression": "ENTHOUSIASTE",
            "csv_id": 8878,
            "video_name": "DIVERS_PARL_ENTHOUSIASTE_AD_02_0001"
        },
        {
            "name": "3255",
            "score": "0.943",
            "index": 44,
            "selectedWords": [
                "coquine",
                "autre",
                "fac\u00e9tieuse"
            ],
            "freeResponses": [],
            "nbPlayClick": 2,
            "expression": "RECONFORTANT",
            "csv_id": 3255,
            "video_name": "DIVERS_PARL_RECONFORTANT_AD_02_0001"
        },
        {
            "name": "11162",
            "score": "0.995",
            "index": 45,
            "selectedWords": [
                "en col\u00e8re",
                "courrouc\u00e9e"
            ],
            "freeResponses": [],
            "nbPlayClick": 1,
            "expression": "SUPPLIANT",
            "csv_id": 11196,
            "video_name": "DIVERS_PARL_SUPPLIANT_AD_02_0001"
        },
        {
            "name": "6284",
            "score": "0.976",
            "index": 46,
            "selectedWords": [
                "en col\u00e8re",
                "en rogne"
            ],
            "freeResponses": [],
            "nbPlayClick": 1,
            "expression": "COLERE",
            "csv_id": 6318,
            "video_name": "DIVERS_PARL_COLERE_AD_02_0002"
        },
        {
            "name": "388",
            "score": "0.786",
            "index": 47,
            "selectedWords": [
                "\u00e9vidente",
                "manifeste"
            ],
            "freeResponses": [],
            "nbPlayClick": 1,
            "expression": "NEUTRE",
            "csv_id": 388,
            "video_name": "ESTYLE_NEUTRE_AD_02_0001"
        },
        {
            "name": "5851",
            "score": "0.973",
            "index": 48,
            "selectedWords": [
                "\u00e9vidente",
                "incontestable"
            ],
            "freeResponses": [],
            "nbPlayClick": 1,
            "expression": "NEUTRE",
            "csv_id": 5885,
            "video_name": "DIVERS_BOOK_AD_04_0002"
        },
        {
            "name": "1891",
            "score": "0.908",
            "index": 49,
            "selectedWords": [
                "dubitative"
            ],
            "freeResponses": [
                "interrogative"
            ],
            "nbPlayClick": 1,
            "response": "interrogative",
            "expression": "INCREDULE",
            "csv_id": 1891,
            "video_name": "DIVERS_PARL_INCREDULE_AD_01_0001"
        },
        {
            "name": "4967",
            "score": "0.965",
            "index": 50,
            "selectedWords": [
                "autre",
                "autre",
                "autre",
                "in\u00e9branlable",
                "certaine"
            ],
            "freeResponses": [],
            "nbPlayClick": 1,
            "expression": "NEUTRE",
            "csv_id": 5001,
            "video_name": "DIVERS_PARL_AD_06_0002"
        },
        {
            "name": "9601",
            "score": "0.990",
            "index": 51,
            "selectedWords": [
                "convaincue",
                "infaillible"
            ],
            "freeResponses": [],
            "nbPlayClick": 1,
            "expression": "COLERE",
            "csv_id": 9635,
            "video_name": "DIVERS_PARL_COLERE_AD_02_0002"
        },
        {
            "name": "7498",
            "score": "0.982",
            "index": 52,
            "selectedWords": [
                "autre",
                "d\u00e9cid\u00e9e",
                "opini\u00e2tre"
            ],
            "freeResponses": [],
            "nbPlayClick": 1,
            "expression": "NEUTRE",
            "csv_id": 7532,
            "video_name": "DIVERS_PARL_AD_04_0002"
        },
        {
            "name": "6784",
            "score": "0.978",
            "index": 53,
            "selectedWords": [
                "neutre",
                "certaine"
            ],
            "freeResponses": [],
            "nbPlayClick": 1,
            "expression": "NEUTRE",
            "csv_id": 6818,
            "video_name": "DIVERS_PARL_AD_04_0003"
        },
        {
            "name": "11842",
            "score": "0.997",
            "index": 54,
            "selectedWords": [
                "sceptique",
                "coquine"
            ],
            "freeResponses": [],
            "nbPlayClick": 2,
            "expression": "ETONNE",
            "csv_id": 11879,
            "video_name": "DIVERS_BOOK_ETONNE_AD_01_0004"
        },
        {
            "name": "8739",
            "score": "0.987",
            "index": 55,
            "selectedWords": [
                "ferme",
                "nette"
            ],
            "freeResponses": [],
            "nbPlayClick": 1,
            "expression": "NEUTRE",
            "csv_id": 8773,
            "video_name": "DIVERS_PARL_AD_02_0004"
        },
        {
            "name": "9832",
            "score": "0.991",
            "index": 56,
            "selectedWords": [
                "nette",
                "r\u00e9fl\u00e9chie"
            ],
            "freeResponses": [],
            "nbPlayClick": 1,
            "expression": "NEUTRE",
            "csv_id": 9866,
            "video_name": "DIVERS_PARL_AD_04_0001"
        },
        {
            "name": "9603",
            "score": "0.990",
            "index": 57,
            "selectedWords": [
                "neutre",
                "absente"
            ],
            "freeResponses": [],
            "nbPlayClick": 1,
            "expression": "NEUTRE",
            "csv_id": 9637,
            "video_name": "DIVERS_PARL_AD_02_0003"
        },
        {
            "name": "9502",
            "score": "0.990",
            "index": 58,
            "selectedWords": [
                "agressive",
                "d\u00e9cid\u00e9e"
            ],
            "freeResponses": [],
            "nbPlayClick": 1,
            "expression": "NEUTRE",
            "csv_id": 9536,
            "video_name": "DIVERS_PARL_AD_01_0006"
        },
        {
            "name": "6058",
            "score": "0.974",
            "index": 59,
            "selectedWords": [
                "r\u00e9confortante",
                "apaisante"
            ],
            "freeResponses": [],
            "nbPlayClick": 1,
            "expression": "RECONFORTANT",
            "csv_id": 6092,
            "video_name": "DIVERS_PARL_RECONFORTANT_AD_02_0001"
        }
    ],
    "training": [
        {
            "name": "77",
            "score": "0.639",
            "index": 0,
            "selectedWords": [
                "neutre",
                "s\u00fbre"
            ],
            "freeResponses": [],
            "nbPlayClick": 1,
            "expression": "NEUTRE"
        }
    ],
    "filenameDate": "2024-05-16_21-2"
}