{
    "user": {
        "isProlific": true,
        "id": "6637e772d9e7118bfaca9fc4",
        "session": "663e827ea3c3ed460cff0714",
        "study": "64ef977375f88e4e1174dce0"
    },
    "userAgent": "Mozilla/5.0 (Windows NT 10.0; Win64; x64) AppleWebKit/537.36 (KHTML, like Gecko) Chrome/124.0.0.0 Safari/537.36",
    "landingDate": "2024-05-10T20:24:50.851Z",
    "startDate": "2024-05-10T20:29:04.845Z",
    "endDate": "2024-05-10T21:19:02.866Z",
    "reviews": [
        {
            "name": "11546",
            "score": "0.996",
            "index": 0,
            "selectedWords": [
                "en col\u00e8re",
                "hargneuse"
            ],
            "freeResponses": [],
            "nbPlayClick": 1,
            "expression": "COLERE",
            "csv_id": 11583,
            "video_name": "DIVERS_PARL_COLERE_AD_02_0002"
        },
        {
            "name": "9339",
            "score": "0.989",
            "index": 1,
            "selectedWords": [
                "pensive",
                "autre",
                "autre",
                "autre",
                "ennuy\u00e9e"
            ],
            "freeResponses": [],
            "nbPlayClick": 2,
            "expression": "NEUTRE",
            "csv_id": 9373,
            "video_name": "DIVERS_BOOK_AD_04_0002"
        },
        {
            "name": "5867",
            "score": "0.973",
            "index": 2,
            "selectedWords": [
                "neutre",
                "limpide"
            ],
            "freeResponses": [],
            "nbPlayClick": 2,
            "expression": "NEUTRE",
            "csv_id": 5901,
            "video_name": "DIVERS_PARL_AD_04_0001"
        },
        {
            "name": "11978",
            "score": "0.997",
            "index": 3,
            "selectedWords": [
                "\u00e9vidente",
                "prouv\u00e9e",
                "autre"
            ],
            "freeResponses": [],
            "nbPlayClick": 2,
            "expression": "NEUTRE",
            "csv_id": 12015,
            "video_name": "DIVERS_PARL_AD_02_0003"
        },
        {
            "name": "7569",
            "score": "0.982",
            "index": 4,
            "selectedWords": [
                "r\u00e9confortante",
                "autre",
                "autre",
                "enthousiaste"
            ],
            "freeResponses": [],
            "nbPlayClick": 2,
            "response": "enthousias",
            "expression": "RECONFORTANT",
            "csv_id": 7603,
            "video_name": "DIVERS_BOOK_RECONFORTANT_AD_03_0002"
        },
        {
            "name": "10780",
            "score": "0.994",
            "index": 5,
            "selectedWords": [
                "incr\u00e9dule",
                "dubitative",
                "sceptique"
            ],
            "freeResponses": [],
            "nbPlayClick": 1,
            "expression": "NEUTRE",
            "csv_id": 10814,
            "video_name": "DIVERS_PARL_AD_04_0003"
        },
        {
            "name": "6482",
            "score": "0.977",
            "index": 6,
            "selectedWords": [
                "ennuy\u00e9e",
                "autre",
                "autre",
                "atone"
            ],
            "freeResponses": [],
            "nbPlayClick": 2,
            "expression": "NEUTRE",
            "csv_id": 6516,
            "video_name": "DIVERS_PARL_AD_03_0003"
        },
        {
            "name": "11409",
            "score": "0.995",
            "index": 7,
            "selectedWords": [
                "enthousiaste",
                "euphorique",
                "autre",
                "autre",
                "autre",
                "autre",
                "stimulante"
            ],
            "freeResponses": [],
            "nbPlayClick": 1,
            "expression": "ENTHOUSIASTE",
            "csv_id": 11446,
            "video_name": "DIVERS_PARL_ENTHOUSIASTE_AD_02_0001"
        },
        {
            "name": "2827",
            "score": "0.934",
            "index": 8,
            "selectedWords": [
                "indign\u00e9e"
            ],
            "freeResponses": [
                "agac\u00e9e"
            ],
            "nbPlayClick": 2,
            "response": "agac\u00e9e",
            "expression": "NEUTRE",
            "csv_id": 2827,
            "video_name": "DIVERS_PARL_AD_05_0002"
        },
        {
            "name": "1210",
            "score": "0.876",
            "index": 9,
            "selectedWords": [
                "neutre",
                "notoire"
            ],
            "freeResponses": [],
            "nbPlayClick": 1,
            "expression": "NEUTRE",
            "csv_id": 1210,
            "video_name": "DIVERS_PARL_AD_04_0002"
        },
        {
            "name": "1668",
            "score": "0.899",
            "index": 10,
            "selectedWords": [
                "ferme",
                "autre",
                "autre",
                "autre",
                "autre",
                "autre",
                "autre",
                "autre",
                "autre",
                "autre",
                "autre",
                "m\u00e9contente"
            ],
            "freeResponses": [],
            "nbPlayClick": 1,
            "response": "ferme",
            "expression": "NEUTRE",
            "csv_id": 1668,
            "video_name": "DIVERS_PARL_AD_06_0004"
        },
        {
            "name": "3630",
            "score": "0.949",
            "index": 11,
            "selectedWords": [
                "enthousiaste",
                "euphorique",
                "tonique"
            ],
            "freeResponses": [
                "heureuse"
            ],
            "nbPlayClick": 1,
            "response": "heureuse",
            "expression": "ESPIEGLE",
            "csv_id": 3630,
            "video_name": "ESTYLE_ESPIEGLE_AD_02_0001"
        },
        {
            "name": "4311",
            "score": "0.958",
            "index": 12,
            "selectedWords": [
                "m\u00e9contente",
                "\u00e9nerv\u00e9e",
                "irrit\u00e9e",
                "indign\u00e9e"
            ],
            "freeResponses": [],
            "nbPlayClick": 2,
            "response": "m\u00e9c",
            "expression": "NEUTRE",
            "csv_id": 4311,
            "video_name": "DIVERS_PARL_AD_02_0003"
        },
        {
            "name": "6536",
            "score": "0.977",
            "index": 13,
            "selectedWords": [
                "limpide",
                "autre",
                "autre",
                "autre",
                "autre",
                "autre",
                "autre",
                "autre",
                "dubitative"
            ],
            "freeResponses": [
                "calme"
            ],
            "nbPlayClick": 2,
            "response": "dubi",
            "expression": "DESOLE",
            "csv_id": 6570,
            "video_name": "DIVERS_PARL_DESOLE_AD_02_0002"
        },
        {
            "name": "2770",
            "score": "0.933",
            "index": 14,
            "selectedWords": [
                "\u00e9vidente",
                "irr\u00e9cusable",
                "in\u00e9branlable"
            ],
            "freeResponses": [],
            "nbPlayClick": 2,
            "expression": "NEUTRE",
            "csv_id": 2770,
            "video_name": "DIVERS_BOOK_AD_01_0002"
        },
        {
            "name": "1424",
            "score": "0.887",
            "index": 15,
            "selectedWords": [
                "neutre",
                "autre",
                "autre",
                "inexpressive"
            ],
            "freeResponses": [],
            "nbPlayClick": 3,
            "expression": "NEUTRE",
            "csv_id": 1424,
            "video_name": "DIVERS_PARL_AD_06_0003"
        },
        {
            "name": "8076",
            "score": "0.985",
            "index": 16,
            "selectedWords": [
                "\u00e9vidente",
                "incontestable",
                "notoire"
            ],
            "freeResponses": [],
            "nbPlayClick": 2,
            "expression": "NEUTRE",
            "csv_id": 8110,
            "video_name": "DIVERS_PARL_AD_05_0003"
        },
        {
            "name": "9141",
            "score": "0.989",
            "index": 17,
            "selectedWords": [
                "enthousiaste",
                "tonique",
                "autre",
                "coquine"
            ],
            "freeResponses": [],
            "nbPlayClick": 1,
            "response": "coquine",
            "expression": "ESPIEGLE",
            "csv_id": 9175,
            "video_name": "DIVERS_PARL_ESPIEGLE_AD_01_0001"
        },
        {
            "name": "8984",
            "score": "0.988",
            "index": 18,
            "selectedWords": [
                "neutre",
                "certaine"
            ],
            "freeResponses": [],
            "nbPlayClick": 1,
            "expression": "NEUTRE",
            "csv_id": 9018,
            "video_name": "DIVERS_PARL_AD_02_0001"
        },
        {
            "name": "9010",
            "score": "0.988",
            "index": 19,
            "selectedWords": [
                "d\u00e9sol\u00e9e",
                "nette"
            ],
            "freeResponses": [],
            "nbPlayClick": 1,
            "expression": "NEUTRE",
            "csv_id": 9044,
            "video_name": "DIVERS_PARL_AD_02_0001"
        },
        {
            "name": "8431",
            "score": "0.986",
            "index": 20,
            "selectedWords": [
                "m\u00e9contente",
                "\u00e9nerv\u00e9e",
                "autre"
            ],
            "freeResponses": [],
            "nbPlayClick": 1,
            "response": "m\u00e9",
            "expression": "INCREDULE",
            "csv_id": 8465,
            "video_name": "DIVERS_PARL_INCREDULE_AD_02_0003"
        },
        {
            "name": "182",
            "score": "0.717",
            "index": 21,
            "selectedWords": [
                "priante",
                "consolante"
            ],
            "freeResponses": [],
            "nbPlayClick": 1,
            "response": "pri",
            "expression": "EVIDENCE",
            "csv_id": 182,
            "video_name": "DIVERS_PARL_EVIDENCE_AD_01_0001"
        },
        {
            "name": "6208",
            "score": "0.975",
            "index": 22,
            "selectedWords": [
                "d\u00e9termin\u00e9e",
                "manifeste",
                "notoire"
            ],
            "freeResponses": [],
            "nbPlayClick": 1,
            "expression": "DETERMINE",
            "csv_id": 6242,
            "video_name": "DIVERS_PARL_DETERMINE_AD_01_0004"
        },
        {
            "name": "2477",
            "score": "0.926",
            "index": 23,
            "selectedWords": [
                "espi\u00e8gle",
                "taquine",
                "tonique"
            ],
            "freeResponses": [],
            "nbPlayClick": 1,
            "expression": "ESPIEGLE",
            "csv_id": 2477,
            "video_name": "DIVERS_PARL_ESPIEGLE_AD_01_0001"
        },
        {
            "name": "6715",
            "score": "0.978",
            "index": 24,
            "selectedWords": [
                "m\u00e9contente",
                "en rogne"
            ],
            "freeResponses": [],
            "nbPlayClick": 1,
            "response": "m\u00e9c",
            "expression": "COLERE",
            "csv_id": 6749,
            "video_name": "DIVERS_PARL_COLERE_AD_02_0002"
        },
        {
            "name": "5597",
            "score": "0.971",
            "index": 25,
            "selectedWords": [
                "enthousiaste",
                "excit\u00e9e"
            ],
            "freeResponses": [],
            "nbPlayClick": 2,
            "response": "excit",
            "expression": "ENTHOUSIASTE",
            "csv_id": 5631,
            "video_name": "DIVERS_BOOK_ENTHOUSIASTE_AD_01_0001"
        },
        {
            "name": "4695",
            "score": "0.963",
            "index": 26,
            "selectedWords": [
                "\u00e9vidente",
                "manifeste"
            ],
            "freeResponses": [],
            "nbPlayClick": 2,
            "expression": "NEUTRE",
            "csv_id": 4729,
            "video_name": "DIVERS_PARL_AD_05_0003"
        },
        {
            "name": "4057",
            "score": "0.955",
            "index": 27,
            "selectedWords": [
                "\u00e9vidente"
            ],
            "freeResponses": [
                "informative"
            ],
            "nbPlayClick": 1,
            "response": "informative",
            "expression": "NEUTRE",
            "csv_id": 4057,
            "video_name": "DIVERS_PARL_AD_06_0004"
        },
        {
            "name": "7195",
            "score": "0.981",
            "index": 28,
            "selectedWords": [
                "enthousiaste",
                "tonique"
            ],
            "freeResponses": [],
            "nbPlayClick": 1,
            "expression": "ENTHOUSIASTE",
            "csv_id": 7229,
            "video_name": "DIVERS_PARL_ENTHOUSIASTE_AD_01_0003"
        },
        {
            "name": "5183",
            "score": "0.967",
            "index": 29,
            "selectedWords": [
                "priante",
                "consolante"
            ],
            "freeResponses": [],
            "nbPlayClick": 1,
            "response": "pri",
            "expression": "SUPPLIANT",
            "csv_id": 5217,
            "video_name": "DIVERS_PARL_SUPPLIANT_AD_02_0002"
        },
        {
            "name": "9359",
            "score": "0.989",
            "index": 30,
            "selectedWords": [
                "neutre",
                "autre",
                "imp\u00e9n\u00e9trable"
            ],
            "freeResponses": [],
            "nbPlayClick": 3,
            "expression": "DESOLE",
            "csv_id": 9393,
            "video_name": "DIVERS_BOOK_DESOLE_AD_03_0002"
        },
        {
            "name": "9712",
            "score": "0.991",
            "index": 31,
            "selectedWords": [
                "\u00e9vidente",
                "prouv\u00e9e"
            ],
            "freeResponses": [],
            "nbPlayClick": 1,
            "expression": "NEUTRE",
            "csv_id": 9746,
            "video_name": "DIVERS_PARL_AD_04_0001"
        },
        {
            "name": "7849",
            "score": "0.984",
            "index": 32,
            "selectedWords": [
                "d\u00e9termin\u00e9e",
                "r\u00e9solue",
                "entreprenante"
            ],
            "freeResponses": [],
            "nbPlayClick": 1,
            "expression": "NEUTRE",
            "csv_id": 7883,
            "video_name": "DIVERS_PARL_AD_05_0002"
        },
        {
            "name": "4229",
            "score": "0.957",
            "index": 33,
            "selectedWords": [
                "\u00e9vidente",
                "prouv\u00e9e",
                "certaine"
            ],
            "freeResponses": [],
            "nbPlayClick": 1,
            "expression": "NEUTRE",
            "csv_id": 4229,
            "video_name": "DIVERS_PARL_AD_03_0004"
        },
        {
            "name": "6845",
            "score": "0.979",
            "index": 34,
            "selectedWords": [
                "neutre",
                "notoire"
            ],
            "freeResponses": [],
            "nbPlayClick": 1,
            "expression": "NEUTRE",
            "csv_id": 6879,
            "video_name": "DIVERS_PARL_AD_03_0003"
        },
        {
            "name": "1056",
            "score": "0.865",
            "index": 35,
            "selectedWords": [
                "irrit\u00e9e"
            ],
            "freeResponses": [
                "accusatrice"
            ],
            "nbPlayClick": 1,
            "response": "irrit\u00e9e",
            "expression": "DETERMINE",
            "csv_id": 1056,
            "video_name": "DIVERS_PARL_DETERMINE_AD_01_0004"
        },
        {
            "name": "7742",
            "score": "0.983",
            "index": 36,
            "selectedWords": [
                "atone",
                "fade"
            ],
            "freeResponses": [],
            "nbPlayClick": 1,
            "expression": "DESOLE",
            "csv_id": 7776,
            "video_name": "DIVERS_PARL_DESOLE_AD_01_0004"
        },
        {
            "name": "9981",
            "score": "0.992",
            "index": 37,
            "selectedWords": [
                "\u00e9vidente",
                "manifeste"
            ],
            "freeResponses": [],
            "nbPlayClick": 1,
            "expression": "NEUTRE",
            "csv_id": 10015,
            "video_name": "DIVERS_BOOK_AD_01_0002"
        },
        {
            "name": "9028",
            "score": "0.988",
            "index": 38,
            "selectedWords": [
                "fade",
                "autre",
                "autre",
                "inexpressive"
            ],
            "freeResponses": [],
            "nbPlayClick": 1,
            "response": "fade",
            "expression": "NEUTRE",
            "csv_id": 9062,
            "video_name": "DIVERS_BOOK_AD_03_0001"
        },
        {
            "name": "10419",
            "score": "0.993",
            "index": 39,
            "selectedWords": [
                "pensive",
                "r\u00e9fl\u00e9chissante"
            ],
            "freeResponses": [],
            "nbPlayClick": 1,
            "expression": "PENSIF",
            "csv_id": 10453,
            "video_name": "DIVERS_PARL_PENSIF_AD_01_0002"
        },
        {
            "name": "8465",
            "score": "0.986",
            "index": 40,
            "selectedWords": [
                "enthousiaste",
                "autre",
                "autre",
                "autre",
                "autre",
                "autre",
                "autre",
                "autre",
                "autre",
                "autre",
                "autre",
                "autre",
                "autre",
                "prouv\u00e9e",
                "manifeste"
            ],
            "freeResponses": [],
            "nbPlayClick": 1,
            "expression": "NEUTRE",
            "csv_id": 8499,
            "video_name": "DIVERS_BOOK_AD_04_0002"
        },
        {
            "name": "2110",
            "score": "0.915",
            "index": 41,
            "selectedWords": [
                "sinc\u00e8re"
            ],
            "freeResponses": [
                "douce"
            ],
            "nbPlayClick": 2,
            "response": "douce",
            "expression": "RECONFORTANT",
            "csv_id": 2110,
            "video_name": "DIVERS_PARL_RECONFORTANT_AD_02_0001"
        },
        {
            "name": "2393",
            "score": "0.924",
            "index": 42,
            "selectedWords": [
                "\u00e9tonn\u00e9e",
                "autre",
                "\u00e9berlu\u00e9e"
            ],
            "freeResponses": [],
            "nbPlayClick": 2,
            "expression": "ETONNE",
            "csv_id": 2393,
            "video_name": "DIVERS_BOOK_ETONNE_AD_01_0002"
        },
        {
            "name": "3164",
            "score": "0.941",
            "index": 43,
            "selectedWords": [
                "ardente",
                "d\u00e9termin\u00e9e"
            ],
            "freeResponses": [],
            "nbPlayClick": 1,
            "response": "d\u00e9ter",
            "expression": "DETERMINE",
            "csv_id": 3164,
            "video_name": "DIVERS_BOOK_DETERMINE_AD_03_0001"
        },
        {
            "name": "8510",
            "score": "0.986",
            "index": 44,
            "selectedWords": [
                "m\u00e9fiante",
                "dubitative"
            ],
            "freeResponses": [],
            "nbPlayClick": 1,
            "response": "m\u00e9fi",
            "expression": "COLERE",
            "csv_id": 8544,
            "video_name": "DIVERS_PARL_COLERE_AD_01_0003"
        },
        {
            "name": "8350",
            "score": "0.986",
            "index": 45,
            "selectedWords": [
                "songeuse",
                "r\u00e9fl\u00e9chissante"
            ],
            "freeResponses": [],
            "nbPlayClick": 1,
            "expression": "PENSIF",
            "csv_id": 8384,
            "video_name": "DIVERS_PARL_PENSIF_AD_01_0002"
        },
        {
            "name": "5211",
            "score": "0.968",
            "index": 46,
            "selectedWords": [
                "\u00e9vidente",
                "autre",
                "manifeste"
            ],
            "freeResponses": [],
            "nbPlayClick": 1,
            "expression": "NEUTRE",
            "csv_id": 5245,
            "video_name": "DIVERS_BOOK_AD_03_0002"
        },
        {
            "name": "5417",
            "score": "0.969",
            "index": 47,
            "selectedWords": [
                "sinc\u00e8re",
                "autre",
                "in\u00e9branlable"
            ],
            "freeResponses": [],
            "nbPlayClick": 1,
            "response": "sinc",
            "expression": "NEUTRE",
            "csv_id": 5451,
            "video_name": "DIVERS_PARL_AD_01_0004"
        },
        {
            "name": "7020",
            "score": "0.980",
            "index": 48,
            "selectedWords": [
                "\u00e9vidente"
            ],
            "freeResponses": [
                "d\u00e9fensive"
            ],
            "nbPlayClick": 2,
            "response": "d\u00e9fensive",
            "expression": "EVIDENCE",
            "csv_id": 7054,
            "video_name": "DIVERS_PARL_EVIDENCE_AD_01_0001"
        },
        {
            "name": "8886",
            "score": "0.988",
            "index": 49,
            "selectedWords": [
                "neutre",
                "inexpressive"
            ],
            "freeResponses": [],
            "nbPlayClick": 1,
            "response": "inex",
            "expression": "NEUTRE",
            "csv_id": 8920,
            "video_name": "DIVERS_BOOK_AD_03_0001"
        },
        {
            "name": "3904",
            "score": "0.953",
            "index": 50,
            "selectedWords": [
                "r\u00e9fl\u00e9chie",
                "nette"
            ],
            "freeResponses": [],
            "nbPlayClick": 1,
            "expression": "NEUTRE",
            "csv_id": 3904,
            "video_name": "DIVERS_PARL_AD_05_0003"
        },
        {
            "name": "8864",
            "score": "0.988",
            "index": 51,
            "selectedWords": [
                "inexpressive",
                "atone"
            ],
            "freeResponses": [],
            "nbPlayClick": 1,
            "response": "inex",
            "expression": "DESOLE",
            "csv_id": 8898,
            "video_name": "DIVERS_PARL_DESOLE_AD_01_0004"
        },
        {
            "name": "11170",
            "score": "0.995",
            "index": 52,
            "selectedWords": [
                "officielle",
                "limpide"
            ],
            "freeResponses": [],
            "nbPlayClick": 1,
            "response": "offi",
            "expression": "NEUTRE",
            "csv_id": 11204,
            "video_name": "DIVERS_PARL_AD_02_0002"
        },
        {
            "name": "4434",
            "score": "0.960",
            "index": 53,
            "selectedWords": [
                "vivifiante",
                "encourageante"
            ],
            "freeResponses": [],
            "nbPlayClick": 1,
            "response": "viv",
            "expression": "RECONFORTANT",
            "csv_id": 4468,
            "video_name": "DIVERS_BOOK_RECONFORTANT_AD_03_0002"
        },
        {
            "name": "7115",
            "score": "0.980",
            "index": 54,
            "selectedWords": [
                "implorante",
                "priante"
            ],
            "freeResponses": [],
            "nbPlayClick": 1,
            "response": "implo",
            "expression": "SUPPLIANT",
            "csv_id": 7149,
            "video_name": "DIVERS_PARL_SUPPLIANT_AD_02_0001"
        },
        {
            "name": "4871",
            "score": "0.964",
            "index": 55,
            "selectedWords": [
                "pensive",
                "songeuse",
                "pr\u00e9occup\u00e9e"
            ],
            "freeResponses": [],
            "nbPlayClick": 1,
            "response": "pen",
            "expression": "PENSIF",
            "csv_id": 4905,
            "video_name": "DIVERS_PARL_PENSIF_AD_01_0002"
        },
        {
            "name": "4286",
            "score": "0.958",
            "index": 56,
            "selectedWords": [
                "hargneuse",
                "irrit\u00e9e"
            ],
            "freeResponses": [],
            "nbPlayClick": 1,
            "response": "har",
            "expression": "COLERE",
            "csv_id": 4286,
            "video_name": "DIVERS_PARL_COLERE_AD_01_0003"
        },
        {
            "name": "3842",
            "score": "0.952",
            "index": 57,
            "selectedWords": [
                "manifeste",
                "fade"
            ],
            "freeResponses": [],
            "nbPlayClick": 2,
            "expression": "INCREDULE",
            "csv_id": 3842,
            "video_name": "DIVERS_PARL_INCREDULE_AD_02_0003"
        },
        {
            "name": "4179",
            "score": "0.956",
            "index": 58,
            "selectedWords": [
                "implorante",
                "priante"
            ],
            "freeResponses": [],
            "nbPlayClick": 1,
            "response": "imploran",
            "expression": "SUPPLIANT",
            "csv_id": 4179,
            "video_name": "DIVERS_BOOK_SUPPLIANT_AD_01_0002"
        },
        {
            "name": "10720",
            "score": "0.994",
            "index": 59,
            "selectedWords": [
                "accabl\u00e9e",
                "afflig\u00e9e",
                "navr\u00e9e"
            ],
            "freeResponses": [],
            "nbPlayClick": 1,
            "expression": "SUPPLIANT",
            "csv_id": 10754,
            "video_name": "DIVERS_BOOK_SUPPLIANT_AD_01_0004"
        }
    ],
    "training": [
        {
            "name": "77",
            "score": "0.639",
            "index": 0,
            "selectedWords": [
                "neutre",
                "s\u00fbre"
            ],
            "freeResponses": [],
            "nbPlayClick": 3,
            "expression": "NEUTRE"
        }
    ],
    "filenameDate": "2024-05-10_17-19"
}