{
    "user": {
        "isProlific": true,
        "id": "664635f76cf9f370dfa6e358",
        "session": "66477e2b91151b5dce07c8bd",
        "study": "64ef977375f88e4e1174dce0"
    },
    "userAgent": "Mozilla/5.0 (Windows NT 10.0; Win64; x64) AppleWebKit/537.36 (KHTML, like Gecko) Chrome/124.0.0.0 Safari/537.36",
    "landingDate": "2024-05-17T16:01:52.817Z",
    "startDate": "2024-05-17T16:04:10.348Z",
    "endDate": "2024-05-17T17:09:53.127Z",
    "reviews": [
        {
            "name": "4264",
            "score": "0.957",
            "index": 0,
            "selectedWords": [
                "neutre",
                "limpide",
                "officielle"
            ],
            "freeResponses": [],
            "nbPlayClick": 3,
            "expression": "NEUTRE",
            "csv_id": 4264,
            "video_name": "DIVERS_PARL_AD_06_0001"
        },
        {
            "name": "6803",
            "score": "0.979",
            "index": 1,
            "selectedWords": [
                "d\u00e9termin\u00e9e",
                "r\u00e9solue",
                "convaincue",
                "s\u00fbre",
                "certaine"
            ],
            "freeResponses": [],
            "nbPlayClick": 1,
            "expression": "NEUTRE",
            "csv_id": 6837,
            "video_name": "DIVERS_PARL_AD_01_0006"
        },
        {
            "name": "5980",
            "score": "0.974",
            "index": 2,
            "selectedWords": [
                "pensive",
                "r\u00e9fl\u00e9chissante",
                "pensante"
            ],
            "freeResponses": [],
            "nbPlayClick": 3,
            "expression": "RECONFORTANT",
            "csv_id": 6014,
            "video_name": "DIVERS_BOOK_RECONFORTANT_AD_01_0002"
        },
        {
            "name": "1343",
            "score": "0.883",
            "index": 3,
            "selectedWords": [
                "d\u00e9termin\u00e9e",
                "r\u00e9solue",
                "convaincue",
                "s\u00fbre",
                "certaine"
            ],
            "freeResponses": [],
            "nbPlayClick": 2,
            "expression": "NEUTRE",
            "csv_id": 1343,
            "video_name": "DIVERS_PARL_AD_06_0002"
        },
        {
            "name": "5411",
            "score": "0.969",
            "index": 4,
            "selectedWords": [
                "autre",
                "autre",
                "autre",
                "attrist\u00e9e",
                "navr\u00e9e",
                "pein\u00e9e"
            ],
            "freeResponses": [],
            "nbPlayClick": 4,
            "expression": "SUPPLIANT",
            "csv_id": 5445,
            "video_name": "DIVERS_PARL_SUPPLIANT_AD_02_0001"
        },
        {
            "name": "11798",
            "score": "0.996",
            "index": 5,
            "selectedWords": [
                "\u00e9vidente",
                "incontestable",
                "notoire"
            ],
            "freeResponses": [],
            "nbPlayClick": 2,
            "expression": "NEUTRE",
            "csv_id": 11835,
            "video_name": "DIVERS_PARL_AD_01_0005"
        },
        {
            "name": "3979",
            "score": "0.954",
            "index": 6,
            "selectedWords": [
                "d\u00e9termin\u00e9e",
                "r\u00e9solue",
                "convaincue",
                "indiscutable"
            ],
            "freeResponses": [],
            "nbPlayClick": 3,
            "expression": "NEUTRE",
            "csv_id": 3979,
            "video_name": "DIVERS_PARL_AD_01_0006"
        },
        {
            "name": "4479",
            "score": "0.960",
            "index": 7,
            "selectedWords": [
                "espi\u00e8gle",
                "narquoise"
            ],
            "freeResponses": [],
            "nbPlayClick": 3,
            "expression": "INCREDULE",
            "csv_id": 4513,
            "video_name": "DIVERS_PARL_INCREDULE_AD_02_0003"
        },
        {
            "name": "6747",
            "score": "0.978",
            "index": 8,
            "selectedWords": [
                "neutre",
                "autre",
                "autre",
                "inexpressive"
            ],
            "freeResponses": [],
            "nbPlayClick": 6,
            "expression": "DESOLE",
            "csv_id": 6781,
            "video_name": "DIVERS_BOOK_DESOLE_AD_03_0002"
        },
        {
            "name": "11992",
            "score": "0.997",
            "index": 9,
            "selectedWords": [
                "pensive",
                "r\u00e9fl\u00e9chissante",
                "autre",
                "autre"
            ],
            "freeResponses": [],
            "nbPlayClick": 2,
            "expression": "PENSIF",
            "csv_id": 12029,
            "video_name": "DIVERS_BOOK_PENSIF_AD_01_0003"
        },
        {
            "name": "11772",
            "score": "0.996",
            "index": 10,
            "selectedWords": [
                "sceptique",
                "autre",
                "dubitative"
            ],
            "freeResponses": [],
            "nbPlayClick": 4,
            "expression": "PENSIF",
            "csv_id": 11809,
            "video_name": "DIVERS_BOOK_PENSIF_AD_01_0003"
        },
        {
            "name": "2817",
            "score": "0.934",
            "index": 11,
            "selectedWords": [
                "autre",
                "autre",
                "autre",
                "autre",
                "encourageante",
                "autre",
                "autre",
                "autre",
                "autre",
                "autre",
                "z\u00e9l\u00e9e"
            ],
            "freeResponses": [],
            "nbPlayClick": 3,
            "expression": "NEUTRE",
            "csv_id": 2817,
            "video_name": "DIVERS_PARL_AD_06_0004"
        },
        {
            "name": "2596",
            "score": "0.929",
            "index": 12,
            "selectedWords": [
                "neutre",
                "autre",
                "autre",
                "autre",
                "autre",
                "autre",
                "autre",
                "autre",
                "autre",
                "autre",
                "autre",
                "autre",
                "autre",
                "autre",
                "autre",
                "autre",
                "autre",
                "autre",
                "officielle",
                "froide"
            ],
            "freeResponses": [],
            "nbPlayClick": 3,
            "expression": "NEUTRE",
            "csv_id": 2596,
            "video_name": "DIVERS_PARL_AD_01_0002"
        },
        {
            "name": "5184",
            "score": "0.967",
            "index": 13,
            "selectedWords": [
                "autre",
                "implorante",
                "autre",
                "autre",
                "autre",
                "autre",
                "autre",
                "autre",
                "autre",
                "autre",
                "navr\u00e9e"
            ],
            "freeResponses": [],
            "nbPlayClick": 3,
            "expression": "EVIDENCE",
            "csv_id": 5218,
            "video_name": "DIVERS_PARL_EVIDENCE_AD_02_0002"
        },
        {
            "name": "2138",
            "score": "0.916",
            "index": 14,
            "selectedWords": [
                "autre",
                "imp\u00e9n\u00e9trable",
                "atone",
                "autre",
                "m\u00e9fiante",
                "indiscutable"
            ],
            "freeResponses": [],
            "nbPlayClick": 3,
            "expression": "SUPPLIANT",
            "csv_id": 2138,
            "video_name": "DIVERS_PARL_SUPPLIANT_AD_02_0002"
        },
        {
            "name": "6225",
            "score": "0.975",
            "index": 15,
            "selectedWords": [
                "neutre",
                "limpide",
                "officielle"
            ],
            "freeResponses": [],
            "nbPlayClick": 2,
            "expression": "NEUTRE",
            "csv_id": 6259,
            "video_name": "DIVERS_PARL_AD_02_0001"
        },
        {
            "name": "2193",
            "score": "0.918",
            "index": 16,
            "selectedWords": [
                "autre",
                "autre",
                "autre",
                "autre",
                "autre",
                "autre",
                "autre",
                "autre",
                "pensante",
                "autre",
                "autre",
                "autre",
                "autre",
                "autre",
                "fade",
                "autre"
            ],
            "freeResponses": [],
            "nbPlayClick": 5,
            "expression": "EVIDENCE",
            "csv_id": 2193,
            "video_name": "DIVERS_BOOK_EVIDENCE_AD_01_0002"
        },
        {
            "name": "8428",
            "score": "0.986",
            "index": 17,
            "selectedWords": [
                "\u00e9vidente",
                "incontestable",
                "certaine"
            ],
            "freeResponses": [],
            "nbPlayClick": 1,
            "expression": "NEUTRE",
            "csv_id": 8462,
            "video_name": "DIVERS_PARL_AD_01_0005"
        },
        {
            "name": "4008",
            "score": "0.954",
            "index": 18,
            "selectedWords": [
                "neutre",
                "limpide",
                "officielle"
            ],
            "freeResponses": [],
            "nbPlayClick": 1,
            "expression": "NEUTRE",
            "csv_id": 4008,
            "video_name": "DIVERS_PARL_AD_06_0004"
        },
        {
            "name": "5291",
            "score": "0.968",
            "index": 19,
            "selectedWords": [
                "autre",
                "autre",
                "autre",
                "attrist\u00e9e",
                "navr\u00e9e"
            ],
            "freeResponses": [],
            "nbPlayClick": 4,
            "expression": "DESOLE",
            "csv_id": 5325,
            "video_name": "DIVERS_PARL_DESOLE_AD_02_0002"
        },
        {
            "name": "8027",
            "score": "0.984",
            "index": 20,
            "selectedWords": [
                "neutre",
                "limpide",
                "officielle"
            ],
            "freeResponses": [],
            "nbPlayClick": 3,
            "expression": "NEUTRE",
            "csv_id": 8061,
            "video_name": "DIVERS_PARL_AD_02_0002"
        },
        {
            "name": "8001",
            "score": "0.984",
            "index": 21,
            "selectedWords": [
                "enthousiaste",
                "tonique",
                "transport\u00e9e"
            ],
            "freeResponses": [],
            "nbPlayClick": 2,
            "expression": "ENTHOUSIASTE",
            "csv_id": 8035,
            "video_name": "DIVERS_BOOK_ENTHOUSIASTE_AD_01_0004"
        },
        {
            "name": "3129",
            "score": "0.941",
            "index": 22,
            "selectedWords": [
                "incr\u00e9dule",
                "dubitative",
                "perplexe"
            ],
            "freeResponses": [],
            "nbPlayClick": 2,
            "expression": "INCREDULE",
            "csv_id": 3129,
            "video_name": "DIVERS_BOOK_INCREDULE_AD_01_0001"
        },
        {
            "name": "9311",
            "score": "0.989",
            "index": 23,
            "selectedWords": [
                "neutre",
                "autre",
                "autre",
                "inexpressive"
            ],
            "freeResponses": [],
            "nbPlayClick": 2,
            "expression": "NEUTRE",
            "csv_id": 9345,
            "video_name": "DIVERS_BOOK_AD_03_0001"
        },
        {
            "name": "11304",
            "score": "0.995",
            "index": 24,
            "selectedWords": [
                "pensive",
                "r\u00e9fl\u00e9chie",
                "autre"
            ],
            "freeResponses": [],
            "nbPlayClick": 2,
            "expression": "PENSIF",
            "csv_id": 11338,
            "video_name": "DIVERS_PARL_PENSIF_AD_01_0002"
        },
        {
            "name": "7584",
            "score": "0.982",
            "index": 25,
            "selectedWords": [
                "neutre",
                "certaine"
            ],
            "freeResponses": [],
            "nbPlayClick": 4,
            "expression": "NEUTRE",
            "csv_id": 7618,
            "video_name": "DIVERS_BOOK_AD_01_0001"
        },
        {
            "name": "9104",
            "score": "0.989",
            "index": 26,
            "selectedWords": [
                "d\u00e9sol\u00e9e",
                "autre",
                "autre",
                "autre",
                "autre",
                "autre",
                "reconstituante",
                "pr\u00e9occup\u00e9e"
            ],
            "freeResponses": [],
            "nbPlayClick": 4,
            "expression": "EVIDENCE",
            "csv_id": 9138,
            "video_name": "DIVERS_PARL_EVIDENCE_AD_01_0001"
        },
        {
            "name": "11806",
            "score": "0.996",
            "index": 27,
            "selectedWords": [
                "\u00e9tonn\u00e9e",
                "autre",
                "\u00e9berlu\u00e9e",
                "h\u00e9b\u00e9t\u00e9e"
            ],
            "freeResponses": [],
            "nbPlayClick": 2,
            "expression": "ETONNE",
            "csv_id": 11843,
            "video_name": "DIVERS_BOOK_ETONNE_AD_03_0001"
        },
        {
            "name": "8052",
            "score": "0.984",
            "index": 28,
            "selectedWords": [
                "autre",
                "inexpressive",
                "froide",
                "autre",
                "autre",
                "autre"
            ],
            "freeResponses": [],
            "nbPlayClick": 3,
            "expression": "NEUTRE",
            "csv_id": 8086,
            "video_name": "DIVERS_PARL_AD_04_0002"
        },
        {
            "name": "10105",
            "score": "0.992",
            "index": 29,
            "selectedWords": [
                "pensive",
                "r\u00e9fl\u00e9chissante",
                "pensante"
            ],
            "freeResponses": [],
            "nbPlayClick": 2,
            "expression": "PENSIF",
            "csv_id": 10139,
            "video_name": "DIVERS_BOOK_PENSIF_AD_03_0002"
        },
        {
            "name": "3591",
            "score": "0.948",
            "index": 30,
            "selectedWords": [
                "\u00e9vidente",
                "manifeste"
            ],
            "freeResponses": [],
            "nbPlayClick": 1,
            "expression": "NEUTRE",
            "csv_id": 3591,
            "video_name": "DIVERS_PARL_AD_03_0002"
        },
        {
            "name": "11732",
            "score": "0.996",
            "index": 31,
            "selectedWords": [
                "neutre",
                "limpide",
                "\u00e9loquente"
            ],
            "freeResponses": [],
            "nbPlayClick": 1,
            "expression": "NEUTRE",
            "csv_id": 11769,
            "video_name": "DIVERS_PARL_AD_02_0001"
        },
        {
            "name": "6203",
            "score": "0.975",
            "index": 32,
            "selectedWords": [
                "neutre",
                "limpide",
                "autre",
                "autre"
            ],
            "freeResponses": [],
            "nbPlayClick": 2,
            "expression": "NEUTRE",
            "csv_id": 6237,
            "video_name": "DIVERS_BOOK_AD_03_0001"
        },
        {
            "name": "9429",
            "score": "0.990",
            "index": 33,
            "selectedWords": [
                "incr\u00e9dule",
                "dubitative",
                "sceptique"
            ],
            "freeResponses": [],
            "nbPlayClick": 2,
            "expression": "PENSIF",
            "csv_id": 9463,
            "video_name": "DIVERS_PARL_PENSIF_AD_01_0002"
        },
        {
            "name": "8147",
            "score": "0.985",
            "index": 34,
            "selectedWords": [
                "d\u00e9termin\u00e9e",
                "r\u00e9solue"
            ],
            "freeResponses": [],
            "nbPlayClick": 1,
            "expression": "NEUTRE",
            "csv_id": 8181,
            "video_name": "DIVERS_PARL_AD_01_0006"
        },
        {
            "name": "7537",
            "score": "0.982",
            "index": 35,
            "selectedWords": [
                "neutre",
                "autre",
                "autre",
                "inexpressive"
            ],
            "freeResponses": [],
            "nbPlayClick": 2,
            "expression": "NEUTRE",
            "csv_id": 7571,
            "video_name": "DIVERS_BOOK_AD_04_0002"
        },
        {
            "name": "1772",
            "score": "0.904",
            "index": 36,
            "selectedWords": [
                "autre",
                "autre",
                "atone",
                "sinc\u00e8re",
                "autre"
            ],
            "freeResponses": [],
            "nbPlayClick": 3,
            "expression": "RECONFORTANT",
            "csv_id": 1772,
            "video_name": "DIVERS_PARL_RECONFORTANT_AD_02_0001"
        },
        {
            "name": "7645",
            "score": "0.983",
            "index": 37,
            "selectedWords": [
                "neutre",
                "limpide",
                "\u00e9loquente"
            ],
            "freeResponses": [],
            "nbPlayClick": 1,
            "expression": "NEUTRE",
            "csv_id": 7679,
            "video_name": "DIVERS_BOOK_AD_01_0001"
        },
        {
            "name": "12393",
            "score": "0.999",
            "index": 38,
            "selectedWords": [
                "\u00e9vidente",
                "autre",
                "autre",
                "inexpressive",
                "terne"
            ],
            "freeResponses": [],
            "nbPlayClick": 2,
            "expression": "NEUTRE",
            "csv_id": 12430,
            "video_name": "DIVERS_BOOK_AD_04_0002"
        },
        {
            "name": "1184",
            "score": "0.874",
            "index": 39,
            "selectedWords": [
                "espi\u00e8gle",
                "d\u00e9lur\u00e9e"
            ],
            "freeResponses": [],
            "nbPlayClick": 5,
            "expression": "ENTHOUSIASTE",
            "csv_id": 1184,
            "video_name": "DIVERS_PARL_ENTHOUSIASTE_AD_01_0003"
        },
        {
            "name": "8598",
            "score": "0.987",
            "index": 40,
            "selectedWords": [
                "autre",
                "fac\u00e9tieuse",
                "finaude",
                "taquine"
            ],
            "freeResponses": [],
            "nbPlayClick": 5,
            "expression": "PENSIF",
            "csv_id": 8632,
            "video_name": "DIVERS_PARL_PENSIF_AD_01_0002"
        },
        {
            "name": "10570",
            "score": "0.993",
            "index": 41,
            "selectedWords": [
                "d\u00e9termin\u00e9e",
                "autre",
                "autre",
                "autre",
                "m\u00e9fiante"
            ],
            "freeResponses": [],
            "nbPlayClick": 2,
            "expression": "NEUTRE",
            "csv_id": 10604,
            "video_name": "DIVERS_PARL_AD_02_0001"
        },
        {
            "name": "6183",
            "score": "0.975",
            "index": 42,
            "selectedWords": [
                "d\u00e9termin\u00e9e",
                "manifeste",
                "convaincue"
            ],
            "freeResponses": [],
            "nbPlayClick": 4,
            "expression": "NEUTRE",
            "csv_id": 6217,
            "video_name": "DIVERS_PARL_AD_06_0001"
        },
        {
            "name": "8312",
            "score": "0.986",
            "index": 43,
            "selectedWords": [
                "\u00e9vidente",
                "incontestable"
            ],
            "freeResponses": [],
            "nbPlayClick": 3,
            "expression": "NEUTRE",
            "csv_id": 8346,
            "video_name": "DIVERS_PARL_AD_05_0002"
        },
        {
            "name": "7741",
            "score": "0.983",
            "index": 44,
            "selectedWords": [
                "\u00e9vidente",
                "prouv\u00e9e",
                "s\u00fbre"
            ],
            "freeResponses": [],
            "nbPlayClick": 4,
            "expression": "NEUTRE",
            "csv_id": 7775,
            "video_name": "DIVERS_PARL_AD_04_0001"
        },
        {
            "name": "12365",
            "score": "0.999",
            "index": 45,
            "selectedWords": [
                "autre",
                "autre",
                "autre",
                "autre",
                "autre",
                "autre",
                "reconstituante",
                "autre",
                "autre",
                "autre",
                "autre",
                "autre",
                "indubitable"
            ],
            "freeResponses": [],
            "nbPlayClick": 2,
            "expression": "NEUTRE",
            "csv_id": 12402,
            "video_name": "DIVERS_BOOK_AD_04_0002"
        },
        {
            "name": "9253",
            "score": "0.989",
            "index": 46,
            "selectedWords": [
                "neutre",
                "limpide",
                "officielle"
            ],
            "freeResponses": [],
            "nbPlayClick": 1,
            "expression": "NEUTRE",
            "csv_id": 9287,
            "video_name": "DIVERS_PARL_AD_01_0005"
        },
        {
            "name": "8119",
            "score": "0.985",
            "index": 47,
            "selectedWords": [
                "neutre",
                "limpide"
            ],
            "freeResponses": [],
            "nbPlayClick": 4,
            "expression": "NEUTRE",
            "csv_id": 8153,
            "video_name": "DIVERS_PARL_AD_04_0003"
        },
        {
            "name": "6792",
            "score": "0.978",
            "index": 48,
            "selectedWords": [
                "\u00e9vidente",
                "incontestable"
            ],
            "freeResponses": [],
            "nbPlayClick": 1,
            "expression": "NEUTRE",
            "csv_id": 6826,
            "video_name": "DIVERS_PARL_AD_06_0002"
        },
        {
            "name": "8109",
            "score": "0.985",
            "index": 49,
            "selectedWords": [
                "\u00e9vidente",
                "incontestable"
            ],
            "freeResponses": [],
            "nbPlayClick": 3,
            "expression": "NEUTRE",
            "csv_id": 8143,
            "video_name": "DIVERS_PARL_AD_06_0001"
        },
        {
            "name": "5200",
            "score": "0.968",
            "index": 50,
            "selectedWords": [
                "autre",
                "autre",
                "autre",
                "autre",
                "autre",
                "interloqu\u00e9e",
                "effar\u00e9e"
            ],
            "freeResponses": [],
            "nbPlayClick": 2,
            "expression": "INCREDULE",
            "csv_id": 5234,
            "video_name": "DIVERS_BOOK_INCREDULE_AD_01_0001"
        },
        {
            "name": "6471",
            "score": "0.977",
            "index": 51,
            "selectedWords": [
                "d\u00e9termin\u00e9e",
                "r\u00e9solue"
            ],
            "freeResponses": [],
            "nbPlayClick": 3,
            "expression": "RECONFORTANT",
            "csv_id": 6505,
            "video_name": "DIVERS_BOOK_RECONFORTANT_AD_03_0002"
        },
        {
            "name": "10280",
            "score": "0.992",
            "index": 52,
            "selectedWords": [
                "\u00e9vidente",
                "prouv\u00e9e",
                "s\u00fbre"
            ],
            "freeResponses": [],
            "nbPlayClick": 1,
            "expression": "NEUTRE",
            "csv_id": 10314,
            "video_name": "DIVERS_PARL_AD_04_0003"
        },
        {
            "name": "8698",
            "score": "0.987",
            "index": 53,
            "selectedWords": [
                "autre",
                "autre",
                "autre",
                "autre",
                "ennuy\u00e9e",
                "autre",
                "autre",
                "autre",
                "autre",
                "autre",
                "autre",
                "autre",
                "m\u00e9contente"
            ],
            "freeResponses": [],
            "nbPlayClick": 1,
            "expression": "EVIDENCE",
            "csv_id": 8732,
            "video_name": "DIVERS_BOOK_EVIDENCE_AD_01_0002"
        },
        {
            "name": "1210",
            "score": "0.876",
            "index": 54,
            "selectedWords": [
                "neutre",
                "limpide"
            ],
            "freeResponses": [],
            "nbPlayClick": 1,
            "expression": "NEUTRE",
            "csv_id": 1210,
            "video_name": "DIVERS_PARL_AD_04_0002"
        },
        {
            "name": "8171",
            "score": "0.985",
            "index": 55,
            "selectedWords": [
                "espi\u00e8gle",
                "taquine",
                "maligne"
            ],
            "freeResponses": [],
            "nbPlayClick": 2,
            "expression": "ENTHOUSIASTE",
            "csv_id": 8205,
            "video_name": "DIVERS_PARL_ENTHOUSIASTE_AD_02_0001"
        },
        {
            "name": "9926",
            "score": "0.991",
            "index": 56,
            "selectedWords": [
                "autre",
                "autre",
                "autre",
                "autre",
                "autre",
                "autre",
                "autre",
                "autre",
                "autre",
                "autre",
                "autre",
                "r\u00e9solue",
                "autre",
                "autre",
                "autre",
                "autre",
                "autre",
                "autre",
                "s\u00fbre"
            ],
            "freeResponses": [],
            "nbPlayClick": 1,
            "expression": "NEUTRE",
            "csv_id": 9960,
            "video_name": "DIVERS_PARL_AD_02_0001"
        },
        {
            "name": "6044",
            "score": "0.974",
            "index": 57,
            "selectedWords": [
                "autre",
                "autre",
                "autre",
                "autre",
                "autre",
                "autre",
                "autre",
                "autre",
                "autre",
                "mutine",
                "autre",
                "autre",
                "autre",
                "autre",
                "autre",
                "autre",
                "autre",
                "triomphale"
            ],
            "freeResponses": [],
            "nbPlayClick": 3,
            "expression": "EVIDENCE",
            "csv_id": 6078,
            "video_name": "DIVERS_PARL_EVIDENCE_AD_02_0002"
        },
        {
            "name": "6363",
            "score": "0.976",
            "index": 58,
            "selectedWords": [
                "neutre",
                "limpide",
                "officielle"
            ],
            "freeResponses": [],
            "nbPlayClick": 2,
            "expression": "NEUTRE",
            "csv_id": 6397,
            "video_name": "DIVERS_PARL_AD_03_0003"
        },
        {
            "name": "6480",
            "score": "0.977",
            "index": 59,
            "selectedWords": [
                "neutre",
                "autre",
                "autre",
                "autre",
                "autre",
                "autre",
                "autre",
                "autre",
                "reconstituante"
            ],
            "freeResponses": [],
            "nbPlayClick": 1,
            "expression": "NEUTRE",
            "csv_id": 6514,
            "video_name": "DIVERS_BOOK_AD_01_0001"
        }
    ],
    "training": [
        {
            "name": "77",
            "score": "0.639",
            "index": 0,
            "selectedWords": [
                "neutre",
                "limpide"
            ],
            "freeResponses": [],
            "nbPlayClick": 4,
            "expression": "NEUTRE"
        }
    ],
    "filenameDate": "2024-05-17_13-9"
}